{
    "textures": {
        "0": "gci:items/common/mpz",
        "particle": "gci:items/common/mpz"
    },
    "elements": [
        {
            "name": "element",
            "from": [
                7.172,
                1.7884,
                10.5614
            ],
            "to": [
                7.8367,
                4.7044,
                12.7484
            ],
            "rotation": {
                "angle": 45,
                "axis": "x",
                "origin": [
                    7.5043,
                    4.33988,
                    11.83717
                ]
            },
            "faces": {
                "north": {
                    "uv": [
                        8,
                        0,
                        10.5,
                        2.5
                    ],
                    "texture": "#0"
                },
                "east": {
                    "uv": [
                        8,
                        0,
                        10.5,
                        2.5
                    ],
                    "texture": "#0"
                },
                "south": {
                    "uv": [
                        8,
                        0,
                        10.5,
                        2.5
                    ],
                    "texture": "#0"
                },
                "west": {
                    "uv": [
                        8,
                        0,
                        10.5,
                        2.5
                    ],
                    "texture": "#0"
                },
                "up": {
                    "uv": [
                        8,
                        0,
                        10.5,
                        2.5
                    ],
                    "texture": "#0"
                },
                "down": {
                    "uv": [
                        8,
                        0,
                        10.5,
                        2.5
                    ],
                    "texture": "#0"
                }
            }
        },
        {
            "name": "element",
            "from": [
                7.172,
                4.1082,
                11.5985
            ],
            "to": [
                7.8367,
                7.0242,
                13.7855
            ],
            "rotation": {
                "angle": 22.5,
                "axis": "x",
                "origin": [
                    7.5043,
                    6.65972,
                    12.87424
                ]
            },
            "faces": {
                "north": {
                    "uv": [
                        0,
                        0,
                        2.5,
                        2.5
                    ],
                    "texture": "#0"
                },
                "east": {
                    "uv": [
                        0,
                        0,
                        2.5,
                        2.5
                    ],
                    "texture": "#0"
                },
                "south": {
                    "uv": [
                        0,
                        0,
                        2.5,
                        2.5
                    ],
                    "texture": "#0"
                },
                "west": {
                    "uv": [
                        0,
                        0,
                        2.5,
                        2.5
                    ],
                    "texture": "#0"
                },
                "up": {
                    "uv": [
                        0,
                        0,
                        2.5,
                        2.5
                    ],
                    "texture": "#0"
                },
                "down": {
                    "uv": [
                        0,
                        0,
                        2.5,
                        2.5
                    ],
                    "texture": "#0"
                }
            }
        },
        {
            "name": "element",
            "from": [
                7.1384,
                4.4046,
                11.6829
            ],
            "to": [
                7.86957,
                6.68637,
                12.2661
            ],
            "rotation": {
                "angle": 22.5,
                "axis": "x",
                "origin": [
                    7.47075,
                    6.95612,
                    12.95868
                ]
            },
            "faces": {
                "north": {
                    "uv": [
                        13.5,
                        15.5,
                        14.3,
                        16
                    ],
                    "texture": "#0"
                },
                "east": {
                    "uv": [
                        13.5,
                        15.5,
                        14.3,
                        16
                    ],
                    "texture": "#0"
                },
                "south": {
                    "uv": [
                        13.5,
                        15.5,
                        14.3,
                        16
                    ],
                    "texture": "#0"
                },
                "west": {
                    "uv": [
                        13.5,
                        15.5,
                        14.3,
                        16
                    ],
                    "texture": "#0"
                },
                "up": {
                    "uv": [
                        13.5,
                        15.5,
                        14.3,
                        16
                    ],
                    "texture": "#0"
                },
                "down": {
                    "uv": [
                        13.5,
                        15.5,
                        14.3,
                        16
                    ],
                    "texture": "#0"
                }
            }
        },
        {
            "name": "element",
            "from": [
                7.109,
                3.4941,
                13.0804
            ],
            "to": [
                7.84017,
                6.4101,
                13.6636
            ],
            "rotation": {
                "angle": 22.5,
                "axis": "x",
                "origin": [
                    7.44134,
                    6.04564,
                    14.35621
                ]
            },
            "faces": {
                "north": {
                    "uv": [
                        13.5,
                        15.5,
                        14.3,
                        16
                    ],
                    "texture": "#0"
                },
                "east": {
                    "uv": [
                        13.5,
                        15.5,
                        14.3,
                        16
                    ],
                    "texture": "#0"
                },
                "south": {
                    "uv": [
                        13.5,
                        15.5,
                        14.3,
                        16
                    ],
                    "texture": "#0"
                },
                "west": {
                    "uv": [
                        13.5,
                        15.5,
                        14.3,
                        16
                    ],
                    "texture": "#0"
                },
                "up": {
                    "uv": [
                        13.5,
                        15.5,
                        14.3,
                        16
                    ],
                    "texture": "#0"
                },
                "down": {
                    "uv": [
                        13.5,
                        15.5,
                        14.3,
                        16
                    ],
                    "texture": "#0"
                }
            }
        },
        {
            "name": "element",
            "from": [
                7.109,
                3.9387,
                12.3154
            ],
            "to": [
                7.84017,
                6.5631,
                12.8986
            ],
            "rotation": {
                "angle": 22.5,
                "axis": "x",
                "origin": [
                    7.44134,
                    6.49021,
                    13.59114
                ]
            },
            "faces": {
                "north": {
                    "uv": [
                        13.5,
                        15.5,
                        14.3,
                        16
                    ],
                    "texture": "#0"
                },
                "east": {
                    "uv": [
                        13.5,
                        15.5,
                        14.3,
                        16
                    ],
                    "texture": "#0"
                },
                "south": {
                    "uv": [
                        13.5,
                        15.5,
                        14.3,
                        16
                    ],
                    "texture": "#0"
                },
                "west": {
                    "uv": [
                        13.5,
                        15.5,
                        14.3,
                        16
                    ],
                    "texture": "#0"
                },
                "up": {
                    "uv": [
                        13.5,
                        15.5,
                        14.3,
                        16
                    ],
                    "texture": "#0"
                },
                "down": {
                    "uv": [
                        13.5,
                        15.5,
                        14.3,
                        16
                    ],
                    "texture": "#0"
                }
            }
        },
        {
            "name": "element",
            "from": [
                7.1383,
                1.81,
                10.5254
            ],
            "to": [
                7.86947,
                4.38701,
                11.1086
            ],
            "rotation": {
                "angle": 45,
                "axis": "x",
                "origin": [
                    7.47069,
                    4.3433,
                    11.80121
                ]
            },
            "faces": {
                "north": {
                    "uv": [
                        11.16667,
                        1.16667,
                        11.96667,
                        1.66667
                    ],
                    "texture": "#0"
                },
                "east": {
                    "uv": [
                        11.16667,
                        1.16667,
                        11.96667,
                        1.66667
                    ],
                    "texture": "#0"
                },
                "south": {
                    "uv": [
                        11.16667,
                        1.16667,
                        11.96667,
                        1.66667
                    ],
                    "texture": "#0"
                },
                "west": {
                    "uv": [
                        11.16667,
                        1.16667,
                        11.96667,
                        1.66667
                    ],
                    "texture": "#0"
                },
                "up": {
                    "uv": [
                        11.16667,
                        1.16667,
                        11.96667,
                        1.66667
                    ],
                    "texture": "#0"
                },
                "down": {
                    "uv": [
                        11.16667,
                        1.16667,
                        11.96667,
                        1.66667
                    ],
                    "texture": "#0"
                }
            }
        },
        {
            "name": "element",
            "from": [
                7.109,
                0.6469,
                11.6703
            ],
            "to": [
                7.84017,
                3.58113,
                12.2535
            ],
            "rotation": {
                "angle": 45,
                "axis": "x",
                "origin": [
                    7.44134,
                    3.1802,
                    12.9461
                ]
            },
            "faces": {
                "north": {
                    "uv": [
                        11.16667,
                        1.16667,
                        11.96667,
                        1.66667
                    ],
                    "texture": "#0"
                },
                "east": {
                    "uv": [
                        11.16667,
                        1.16667,
                        11.96667,
                        1.66667
                    ],
                    "texture": "#0"
                },
                "south": {
                    "uv": [
                        11.16667,
                        1.16667,
                        11.96667,
                        1.66667
                    ],
                    "texture": "#0"
                },
                "west": {
                    "uv": [
                        11.16667,
                        1.16667,
                        11.96667,
                        1.66667
                    ],
                    "texture": "#0"
                },
                "up": {
                    "uv": [
                        11.16667,
                        1.16667,
                        11.96667,
                        1.66667
                    ],
                    "texture": "#0"
                },
                "down": {
                    "uv": [
                        11.16667,
                        1.16667,
                        11.96667,
                        1.66667
                    ],
                    "texture": "#0"
                }
            }
        },
        {
            "name": "element",
            "from": [
                7.109,
                1.2355,
                11.0857
            ],
            "to": [
                7.84017,
                3.95103,
                11.6689
            ],
            "rotation": {
                "angle": 45,
                "axis": "x",
                "origin": [
                    7.44134,
                    3.80524,
                    12.36141
                ]
            },
            "faces": {
                "north": {
                    "uv": [
                        11.16667,
                        1.16667,
                        11.96667,
                        1.66667
                    ],
                    "texture": "#0"
                },
                "east": {
                    "uv": [
                        11.16667,
                        1.16667,
                        11.96667,
                        1.66667
                    ],
                    "texture": "#0"
                },
                "south": {
                    "uv": [
                        11.16667,
                        1.16667,
                        11.96667,
                        1.66667
                    ],
                    "texture": "#0"
                },
                "west": {
                    "uv": [
                        11.16667,
                        1.16667,
                        11.96667,
                        1.66667
                    ],
                    "texture": "#0"
                },
                "up": {
                    "uv": [
                        11.16667,
                        1.16667,
                        11.96667,
                        1.66667
                    ],
                    "texture": "#0"
                },
                "down": {
                    "uv": [
                        11.16667,
                        1.16667,
                        11.96667,
                        1.66667
                    ],
                    "texture": "#0"
                }
            }
        }
    ],
    "display": {
        "thirdperson_righthand": {
            "translation": [
                0.75,
                1.5,
                -6
            ],
            "scale": [
                1,
                1,
                0.75
            ]
        },
        "thirdperson_lefthand": {
            "translation": [
                0.75,
                1.5,
                -6
            ],
            "scale": [
                1,
                1,
                0.75
            ]
        },
        "firstperson_righthand": {
            "translation": [
                0,
                3.25,
                -6
            ],
            "scale": [
                1,
                1,
                0.75
            ]
        },
        "firstperson_lefthand": {
            "translation": [
                0,
                3.25,
                -6
            ],
            "scale": [
                1,
                1,
                0.75
            ]
        },
        "ground": {
            "translation": [
                7,
                5.5,
                3.5
            ],
            "scale": [
                1.2,
                1.2,
                1.2
            ]
        },
        "gui": {
            "rotation": [
                54,
                -44,
                63
            ],
            "translation": [
                -2,
                3,
                0
            ]
        },
        "head": {
            "translation": [
                6.25,
                11.5,
                0
            ]
        },
        "fixed": {
            "rotation": [
                90,
                45,
                -90
            ],
            "translation": [
                0.25,
                2,
                -1.75
            ],
            "scale": [
                1,
                1,
                0.75
            ]
        }
    }
}