{
    "textures": {
        "0": "gci:items/common/mpz",
        "1": "gci:items/common/all_in_one",
        "particle": "gci:items/common/mpz"
    },
    "elements": [
        {
            "from": [
                7.66592,
                7.18125,
                7.64397
            ],
            "to": [
                8.34592,
                7.31725,
                8.05197
            ],
            "rotation": {
                "angle": 0,
                "axis": "y",
                "origin": [
                    8.00678,
                    7.25361,
                    7.91
                ]
            },
            "faces": {
                "north": {
                    "uv": [
                        9,
                        0.33333,
                        10.33333,
                        2.33333
                    ],
                    "texture": "#0"
                },
                "east": {
                    "uv": [
                        9,
                        0.33333,
                        10.33333,
                        2.33333
                    ],
                    "texture": "#0"
                },
                "south": {
                    "uv": [
                        9,
                        0.33333,
                        10.33333,
                        2.33333
                    ],
                    "texture": "#0"
                },
                "west": {
                    "uv": [
                        9,
                        0.33333,
                        10.33333,
                        2.33333
                    ],
                    "texture": "#0"
                },
                "up": {
                    "uv": [
                        9,
                        0.33333,
                        10.33333,
                        2.33333
                    ],
                    "texture": "#0"
                },
                "down": {
                    "uv": [
                        9,
                        0.33333,
                        10.33333,
                        2.33333
                    ],
                    "texture": "#0"
                }
            }
        },
        {
            "from": [
                7.98201,
                7.04525,
                7.57597
            ],
            "to": [
                8.05001,
                7.11325,
                7.71197
            ],
            "rotation": {
                "angle": -45,
                "axis": "z",
                "origin": [
                    8.01601,
                    7.07925,
                    7.64397
                ]
            },
            "faces": {
                "north": {
                    "uv": [
                        5.66667,
                        3,
                        7,
                        5
                    ],
                    "rotation": 90,
                    "texture": "#0"
                },
                "east": {
                    "uv": [
                        5.66667,
                        3,
                        7,
                        5
                    ],
                    "rotation": 90,
                    "texture": "#0"
                },
                "south": {
                    "uv": [
                        5.66667,
                        3,
                        7,
                        5
                    ],
                    "rotation": 90,
                    "texture": "#0"
                },
                "west": {
                    "uv": [
                        5.66667,
                        3,
                        7,
                        5
                    ],
                    "rotation": 90,
                    "texture": "#0"
                },
                "up": {
                    "uv": [
                        5.66667,
                        3,
                        7,
                        5
                    ],
                    "rotation": 90,
                    "texture": "#0"
                },
                "down": {
                    "uv": [
                        5.66667,
                        3,
                        7,
                        5
                    ],
                    "rotation": 90,
                    "texture": "#0"
                }
            }
        },
        {
            "from": [
                8.20992,
                7.24925,
                7.71197
            ],
            "to": [
                8.27792,
                7.52125,
                7.91597
            ],
            "rotation": {
                "angle": 0,
                "axis": "y",
                "origin": [
                    8.00678,
                    7.25361,
                    7.91
                ]
            },
            "faces": {
                "north": {
                    "uv": [
                        9,
                        0.33333,
                        10.33333,
                        2.33333
                    ],
                    "texture": "#0"
                },
                "east": {
                    "uv": [
                        9,
                        0.33333,
                        10.33333,
                        2.33333
                    ],
                    "texture": "#0"
                },
                "south": {
                    "uv": [
                        9,
                        0.33333,
                        10.33333,
                        2.33333
                    ],
                    "texture": "#0"
                },
                "west": {
                    "uv": [
                        9,
                        0.33333,
                        10.33333,
                        2.33333
                    ],
                    "texture": "#0"
                },
                "up": {
                    "uv": [
                        9,
                        0.33333,
                        10.33333,
                        2.33333
                    ],
                    "texture": "#0"
                },
                "down": {
                    "uv": [
                        9,
                        0.33333,
                        10.33333,
                        2.33333
                    ],
                    "texture": "#0"
                }
            }
        },
        {
            "from": [
                7.73392,
                7.24925,
                7.71197
            ],
            "to": [
                7.80192,
                7.52125,
                7.91597
            ],
            "rotation": {
                "angle": 0,
                "axis": "y",
                "origin": [
                    8.00678,
                    7.25361,
                    7.91
                ]
            },
            "faces": {
                "north": {
                    "uv": [
                        9,
                        0.33333,
                        10.33333,
                        2.33333
                    ],
                    "texture": "#0"
                },
                "east": {
                    "uv": [
                        9,
                        0.33333,
                        10.33333,
                        2.33333
                    ],
                    "texture": "#0"
                },
                "south": {
                    "uv": [
                        9,
                        0.33333,
                        10.33333,
                        2.33333
                    ],
                    "texture": "#0"
                },
                "west": {
                    "uv": [
                        9,
                        0.33333,
                        10.33333,
                        2.33333
                    ],
                    "texture": "#0"
                },
                "up": {
                    "uv": [
                        9,
                        0.33333,
                        10.33333,
                        2.33333
                    ],
                    "texture": "#0"
                },
                "down": {
                    "uv": [
                        9,
                        0.33333,
                        10.33333,
                        2.33333
                    ],
                    "texture": "#0"
                }
            }
        },
        {
            "from": [
                7.59792,
                6.77325,
                8.18797
            ],
            "to": [
                7.66592,
                7.18125,
                8.39197
            ],
            "rotation": {
                "angle": 0,
                "axis": "y",
                "origin": [
                    8.00678,
                    7.25361,
                    7.91
                ]
            },
            "faces": {
                "north": {
                    "uv": [
                        9,
                        0.33333,
                        10.33333,
                        2.33333
                    ],
                    "texture": "#0"
                },
                "east": {
                    "uv": [
                        9,
                        0.33333,
                        10.33333,
                        2.33333
                    ],
                    "texture": "#0"
                },
                "south": {
                    "uv": [
                        9,
                        0.33333,
                        10.33333,
                        2.33333
                    ],
                    "texture": "#0"
                },
                "west": {
                    "uv": [
                        9,
                        0.33333,
                        10.33333,
                        2.33333
                    ],
                    "texture": "#0"
                },
                "up": {
                    "uv": [
                        9,
                        0.33333,
                        10.33333,
                        2.33333
                    ],
                    "texture": "#0"
                },
                "down": {
                    "uv": [
                        9,
                        0.33333,
                        10.33333,
                        2.33333
                    ],
                    "texture": "#0"
                }
            }
        },
        {
            "from": [
                7.59792,
                6.77325,
                7.67117
            ],
            "to": [
                7.66592,
                7.18125,
                7.87517
            ],
            "rotation": {
                "angle": 0,
                "axis": "y",
                "origin": [
                    8.00678,
                    7.25361,
                    7.91
                ]
            },
            "faces": {
                "north": {
                    "uv": [
                        9,
                        0.33333,
                        10.33333,
                        2.33333
                    ],
                    "texture": "#0"
                },
                "east": {
                    "uv": [
                        9,
                        0.33333,
                        10.33333,
                        2.33333
                    ],
                    "texture": "#0"
                },
                "south": {
                    "uv": [
                        9,
                        0.33333,
                        10.33333,
                        2.33333
                    ],
                    "texture": "#0"
                },
                "west": {
                    "uv": [
                        9,
                        0.33333,
                        10.33333,
                        2.33333
                    ],
                    "texture": "#0"
                },
                "up": {
                    "uv": [
                        9,
                        0.33333,
                        10.33333,
                        2.33333
                    ],
                    "texture": "#0"
                },
                "down": {
                    "uv": [
                        9,
                        0.33333,
                        10.33333,
                        2.33333
                    ],
                    "texture": "#0"
                }
            }
        },
        {
            "from": [
                8.34592,
                6.77325,
                7.67117
            ],
            "to": [
                8.41392,
                7.18125,
                7.87517
            ],
            "rotation": {
                "angle": 0,
                "axis": "y",
                "origin": [
                    8.00678,
                    7.25361,
                    7.91
                ]
            },
            "faces": {
                "north": {
                    "uv": [
                        9,
                        0.33333,
                        10.33333,
                        2.33333
                    ],
                    "texture": "#0"
                },
                "east": {
                    "uv": [
                        9,
                        0.33333,
                        10.33333,
                        2.33333
                    ],
                    "texture": "#0"
                },
                "south": {
                    "uv": [
                        9,
                        0.33333,
                        10.33333,
                        2.33333
                    ],
                    "texture": "#0"
                },
                "west": {
                    "uv": [
                        9,
                        0.33333,
                        10.33333,
                        2.33333
                    ],
                    "texture": "#0"
                },
                "up": {
                    "uv": [
                        9,
                        0.33333,
                        10.33333,
                        2.33333
                    ],
                    "texture": "#0"
                },
                "down": {
                    "uv": [
                        9,
                        0.33333,
                        10.33333,
                        2.33333
                    ],
                    "texture": "#0"
                }
            }
        },
        {
            "from": [
                8.34592,
                6.77325,
                8.18797
            ],
            "to": [
                8.41392,
                7.18125,
                8.39197
            ],
            "rotation": {
                "angle": 0,
                "axis": "y",
                "origin": [
                    8.00678,
                    7.25361,
                    7.91
                ]
            },
            "faces": {
                "north": {
                    "uv": [
                        9,
                        0.33333,
                        10.33333,
                        2.33333
                    ],
                    "texture": "#0"
                },
                "east": {
                    "uv": [
                        9,
                        0.33333,
                        10.33333,
                        2.33333
                    ],
                    "texture": "#0"
                },
                "south": {
                    "uv": [
                        9,
                        0.33333,
                        10.33333,
                        2.33333
                    ],
                    "texture": "#0"
                },
                "west": {
                    "uv": [
                        9,
                        0.33333,
                        10.33333,
                        2.33333
                    ],
                    "texture": "#0"
                },
                "up": {
                    "uv": [
                        9,
                        0.33333,
                        10.33333,
                        2.33333
                    ],
                    "texture": "#0"
                },
                "down": {
                    "uv": [
                        9,
                        0.33333,
                        10.33333,
                        2.33333
                    ],
                    "texture": "#0"
                }
            }
        },
        {
            "from": [
                7.62459,
                7.24992,
                7.71197
            ],
            "to": [
                7.69259,
                7.45392,
                7.91597
            ],
            "rotation": {
                "angle": -45,
                "axis": "z",
                "origin": [
                    8.00678,
                    7.25361,
                    7.91
                ]
            },
            "faces": {
                "north": {
                    "uv": [
                        9,
                        0.33333,
                        10.33333,
                        2.33333
                    ],
                    "texture": "#0"
                },
                "east": {
                    "uv": [
                        9,
                        0.33333,
                        10.33333,
                        2.33333
                    ],
                    "texture": "#0"
                },
                "south": {
                    "uv": [
                        9,
                        0.33333,
                        10.33333,
                        2.33333
                    ],
                    "texture": "#0"
                },
                "west": {
                    "uv": [
                        9,
                        0.33333,
                        10.33333,
                        2.33333
                    ],
                    "texture": "#0"
                },
                "up": {
                    "uv": [
                        9,
                        0.33333,
                        10.33333,
                        2.33333
                    ],
                    "texture": "#0"
                },
                "down": {
                    "uv": [
                        9,
                        0.33333,
                        10.33333,
                        2.33333
                    ],
                    "texture": "#0"
                }
            }
        },
        {
            "from": [
                8.31975,
                7.25115,
                7.71197
            ],
            "to": [
                8.38775,
                7.45515,
                7.91597
            ],
            "rotation": {
                "angle": 45,
                "axis": "z",
                "origin": [
                    8.00678,
                    7.25361,
                    7.91
                ]
            },
            "faces": {
                "north": {
                    "uv": [
                        9,
                        0.33333,
                        10.33333,
                        2.33333
                    ],
                    "texture": "#0"
                },
                "east": {
                    "uv": [
                        9,
                        0.33333,
                        10.33333,
                        2.33333
                    ],
                    "texture": "#0"
                },
                "south": {
                    "uv": [
                        9,
                        0.33333,
                        10.33333,
                        2.33333
                    ],
                    "texture": "#0"
                },
                "west": {
                    "uv": [
                        9,
                        0.33333,
                        10.33333,
                        2.33333
                    ],
                    "texture": "#0"
                },
                "up": {
                    "uv": [
                        9,
                        0.33333,
                        10.33333,
                        2.33333
                    ],
                    "texture": "#0"
                },
                "down": {
                    "uv": [
                        9,
                        0.33333,
                        10.33333,
                        2.33333
                    ],
                    "texture": "#0"
                }
            }
        },
        {
            "from": [
                7.87527,
                7.59751,
                7.71197
            ],
            "to": [
                8.13367,
                7.66551,
                7.91597
            ],
            "rotation": {
                "angle": 0,
                "axis": "y",
                "origin": [
                    8.00678,
                    7.25361,
                    7.91
                ]
            },
            "faces": {
                "north": {
                    "uv": [
                        9,
                        0.33333,
                        10.33333,
                        2.33333
                    ],
                    "rotation": 270,
                    "texture": "#0"
                },
                "east": {
                    "uv": [
                        9,
                        0.33333,
                        10.33333,
                        2.33333
                    ],
                    "rotation": 270,
                    "texture": "#0"
                },
                "south": {
                    "uv": [
                        9,
                        0.33333,
                        10.33333,
                        2.33333
                    ],
                    "rotation": 270,
                    "texture": "#0"
                },
                "west": {
                    "uv": [
                        9,
                        0.33333,
                        10.33333,
                        2.33333
                    ],
                    "rotation": 270,
                    "texture": "#0"
                },
                "up": {
                    "uv": [
                        9,
                        0.33333,
                        10.33333,
                        2.33333
                    ],
                    "rotation": 270,
                    "texture": "#0"
                },
                "down": {
                    "uv": [
                        9,
                        0.33333,
                        10.33333,
                        2.33333
                    ],
                    "rotation": 270,
                    "texture": "#0"
                }
            }
        },
        {
            "from": [
                7.98281,
                7.40551,
                7.85197
            ],
            "to": [
                8.04921,
                7.47351,
                7.85197
            ],
            "rotation": {
                "angle": 0,
                "axis": "y",
                "origin": [
                    8.01601,
                    7.43951,
                    7.85197
                ]
            },
            "faces": {
                "north": {
                    "uv": [
                        5.66667,
                        14,
                        7,
                        16
                    ],
                    "rotation": 270,
                    "texture": "#0"
                },
                "east": {
                    "uv": [
                        5.66667,
                        14,
                        7,
                        16
                    ],
                    "rotation": 270,
                    "texture": "#0"
                },
                "south": {
                    "uv": [
                        5.66667,
                        14,
                        7,
                        16
                    ],
                    "rotation": 270,
                    "texture": "#0"
                },
                "west": {
                    "uv": [
                        5.66667,
                        14,
                        7,
                        16
                    ],
                    "rotation": 270,
                    "texture": "#0"
                },
                "up": {
                    "uv": [
                        5.66667,
                        14,
                        7,
                        16
                    ],
                    "rotation": 270,
                    "texture": "#0"
                },
                "down": {
                    "uv": [
                        5.66667,
                        14,
                        7,
                        16
                    ],
                    "rotation": 270,
                    "texture": "#0"
                }
            }
        },
        {
            "from": [
                7.66592,
                6.97725,
                7.64397
            ],
            "to": [
                8.34592,
                7.18125,
                8.93597
            ],
            "rotation": {
                "angle": 0,
                "axis": "y",
                "origin": [
                    8.00678,
                    7.25361,
                    7.91
                ]
            },
            "faces": {
                "north": {
                    "uv": [
                        9,
                        0.33333,
                        10.33333,
                        2.33333
                    ],
                    "texture": "#0"
                },
                "east": {
                    "uv": [
                        9,
                        0.33333,
                        10.33333,
                        2.33333
                    ],
                    "texture": "#0"
                },
                "south": {
                    "uv": [
                        9,
                        0.33333,
                        10.33333,
                        2.33333
                    ],
                    "texture": "#0"
                },
                "west": {
                    "uv": [
                        9,
                        0.33333,
                        10.33333,
                        2.33333
                    ],
                    "texture": "#0"
                },
                "up": {
                    "uv": [
                        9,
                        0.33333,
                        10.33333,
                        2.33333
                    ],
                    "texture": "#0"
                },
                "down": {
                    "uv": [
                        9,
                        0.33333,
                        10.33333,
                        2.33333
                    ],
                    "texture": "#0"
                }
            }
        },
        {
            "from": [
                7.66592,
                7.18125,
                7.64397
            ],
            "to": [
                8.34592,
                7.31725,
                8.05197
            ],
            "rotation": {
                "angle": 0,
                "axis": "y",
                "origin": [
                    8.00678,
                    7.25361,
                    7.91
                ]
            },
            "faces": {
                "north": {
                    "uv": [
                        9,
                        0.33333,
                        10.33333,
                        2.33333
                    ],
                    "texture": "#0"
                },
                "east": {
                    "uv": [
                        9,
                        0.33333,
                        10.33333,
                        2.33333
                    ],
                    "texture": "#0"
                },
                "south": {
                    "uv": [
                        9,
                        0.33333,
                        10.33333,
                        2.33333
                    ],
                    "texture": "#0"
                },
                "west": {
                    "uv": [
                        9,
                        0.33333,
                        10.33333,
                        2.33333
                    ],
                    "texture": "#0"
                },
                "up": {
                    "uv": [
                        9,
                        0.33333,
                        10.33333,
                        2.33333
                    ],
                    "texture": "#0"
                },
                "down": {
                    "uv": [
                        9,
                        0.33333,
                        10.33333,
                        2.33333
                    ],
                    "texture": "#0"
                }
            }
        },
        {
            "from": [
                7.98201,
                7.04525,
                7.57597
            ],
            "to": [
                8.05001,
                7.11325,
                7.71197
            ],
            "rotation": {
                "angle": -45,
                "axis": "z",
                "origin": [
                    8.01601,
                    7.07925,
                    7.64397
                ]
            },
            "faces": {
                "north": {
                    "uv": [
                        5.66667,
                        3,
                        7,
                        5
                    ],
                    "rotation": 90,
                    "texture": "#0"
                },
                "east": {
                    "uv": [
                        5.66667,
                        3,
                        7,
                        5
                    ],
                    "rotation": 90,
                    "texture": "#0"
                },
                "south": {
                    "uv": [
                        5.66667,
                        3,
                        7,
                        5
                    ],
                    "rotation": 90,
                    "texture": "#0"
                },
                "west": {
                    "uv": [
                        5.66667,
                        3,
                        7,
                        5
                    ],
                    "rotation": 90,
                    "texture": "#0"
                },
                "up": {
                    "uv": [
                        5.66667,
                        3,
                        7,
                        5
                    ],
                    "rotation": 90,
                    "texture": "#0"
                },
                "down": {
                    "uv": [
                        5.66667,
                        3,
                        7,
                        5
                    ],
                    "rotation": 90,
                    "texture": "#0"
                }
            }
        },
        {
            "from": [
                8.20992,
                7.24925,
                7.71197
            ],
            "to": [
                8.27792,
                7.52125,
                7.91597
            ],
            "rotation": {
                "angle": 0,
                "axis": "y",
                "origin": [
                    8.00678,
                    7.25361,
                    7.91
                ]
            },
            "faces": {
                "north": {
                    "uv": [
                        9,
                        0.33333,
                        10.33333,
                        2.33333
                    ],
                    "texture": "#0"
                },
                "east": {
                    "uv": [
                        9,
                        0.33333,
                        10.33333,
                        2.33333
                    ],
                    "texture": "#0"
                },
                "south": {
                    "uv": [
                        9,
                        0.33333,
                        10.33333,
                        2.33333
                    ],
                    "texture": "#0"
                },
                "west": {
                    "uv": [
                        9,
                        0.33333,
                        10.33333,
                        2.33333
                    ],
                    "texture": "#0"
                },
                "up": {
                    "uv": [
                        9,
                        0.33333,
                        10.33333,
                        2.33333
                    ],
                    "texture": "#0"
                },
                "down": {
                    "uv": [
                        9,
                        0.33333,
                        10.33333,
                        2.33333
                    ],
                    "texture": "#0"
                }
            }
        },
        {
            "from": [
                7.73392,
                7.24925,
                7.71197
            ],
            "to": [
                7.80192,
                7.52125,
                7.91597
            ],
            "rotation": {
                "angle": 0,
                "axis": "y",
                "origin": [
                    8.00678,
                    7.25361,
                    7.91
                ]
            },
            "faces": {
                "north": {
                    "uv": [
                        9,
                        0.33333,
                        10.33333,
                        2.33333
                    ],
                    "texture": "#0"
                },
                "east": {
                    "uv": [
                        9,
                        0.33333,
                        10.33333,
                        2.33333
                    ],
                    "texture": "#0"
                },
                "south": {
                    "uv": [
                        9,
                        0.33333,
                        10.33333,
                        2.33333
                    ],
                    "texture": "#0"
                },
                "west": {
                    "uv": [
                        9,
                        0.33333,
                        10.33333,
                        2.33333
                    ],
                    "texture": "#0"
                },
                "up": {
                    "uv": [
                        9,
                        0.33333,
                        10.33333,
                        2.33333
                    ],
                    "texture": "#0"
                },
                "down": {
                    "uv": [
                        9,
                        0.33333,
                        10.33333,
                        2.33333
                    ],
                    "texture": "#0"
                }
            }
        },
        {
            "from": [
                7.59792,
                6.77325,
                8.18797
            ],
            "to": [
                7.66592,
                7.18125,
                8.39197
            ],
            "rotation": {
                "angle": 0,
                "axis": "y",
                "origin": [
                    8.00678,
                    7.25361,
                    7.91
                ]
            },
            "faces": {
                "north": {
                    "uv": [
                        9,
                        0.33333,
                        10.33333,
                        2.33333
                    ],
                    "texture": "#0"
                },
                "east": {
                    "uv": [
                        9,
                        0.33333,
                        10.33333,
                        2.33333
                    ],
                    "texture": "#0"
                },
                "south": {
                    "uv": [
                        9,
                        0.33333,
                        10.33333,
                        2.33333
                    ],
                    "texture": "#0"
                },
                "west": {
                    "uv": [
                        9,
                        0.33333,
                        10.33333,
                        2.33333
                    ],
                    "texture": "#0"
                },
                "up": {
                    "uv": [
                        9,
                        0.33333,
                        10.33333,
                        2.33333
                    ],
                    "texture": "#0"
                },
                "down": {
                    "uv": [
                        9,
                        0.33333,
                        10.33333,
                        2.33333
                    ],
                    "texture": "#0"
                }
            }
        },
        {
            "from": [
                7.59792,
                6.77325,
                7.67117
            ],
            "to": [
                7.66592,
                7.18125,
                7.87517
            ],
            "rotation": {
                "angle": 0,
                "axis": "y",
                "origin": [
                    8.00678,
                    7.25361,
                    7.91
                ]
            },
            "faces": {
                "north": {
                    "uv": [
                        9,
                        0.33333,
                        10.33333,
                        2.33333
                    ],
                    "texture": "#0"
                },
                "east": {
                    "uv": [
                        9,
                        0.33333,
                        10.33333,
                        2.33333
                    ],
                    "texture": "#0"
                },
                "south": {
                    "uv": [
                        9,
                        0.33333,
                        10.33333,
                        2.33333
                    ],
                    "texture": "#0"
                },
                "west": {
                    "uv": [
                        9,
                        0.33333,
                        10.33333,
                        2.33333
                    ],
                    "texture": "#0"
                },
                "up": {
                    "uv": [
                        9,
                        0.33333,
                        10.33333,
                        2.33333
                    ],
                    "texture": "#0"
                },
                "down": {
                    "uv": [
                        9,
                        0.33333,
                        10.33333,
                        2.33333
                    ],
                    "texture": "#0"
                }
            }
        },
        {
            "from": [
                8.34592,
                6.77325,
                7.67117
            ],
            "to": [
                8.41392,
                7.18125,
                7.87517
            ],
            "rotation": {
                "angle": 0,
                "axis": "y",
                "origin": [
                    8.00678,
                    7.25361,
                    7.91
                ]
            },
            "faces": {
                "north": {
                    "uv": [
                        9,
                        0.33333,
                        10.33333,
                        2.33333
                    ],
                    "texture": "#0"
                },
                "east": {
                    "uv": [
                        9,
                        0.33333,
                        10.33333,
                        2.33333
                    ],
                    "texture": "#0"
                },
                "south": {
                    "uv": [
                        9,
                        0.33333,
                        10.33333,
                        2.33333
                    ],
                    "texture": "#0"
                },
                "west": {
                    "uv": [
                        9,
                        0.33333,
                        10.33333,
                        2.33333
                    ],
                    "texture": "#0"
                },
                "up": {
                    "uv": [
                        9,
                        0.33333,
                        10.33333,
                        2.33333
                    ],
                    "texture": "#0"
                },
                "down": {
                    "uv": [
                        9,
                        0.33333,
                        10.33333,
                        2.33333
                    ],
                    "texture": "#0"
                }
            }
        },
        {
            "from": [
                8.34592,
                6.77325,
                8.18797
            ],
            "to": [
                8.41392,
                7.18125,
                8.39197
            ],
            "rotation": {
                "angle": 0,
                "axis": "y",
                "origin": [
                    8.00678,
                    7.25361,
                    7.91
                ]
            },
            "faces": {
                "north": {
                    "uv": [
                        9,
                        0.33333,
                        10.33333,
                        2.33333
                    ],
                    "texture": "#0"
                },
                "east": {
                    "uv": [
                        9,
                        0.33333,
                        10.33333,
                        2.33333
                    ],
                    "texture": "#0"
                },
                "south": {
                    "uv": [
                        9,
                        0.33333,
                        10.33333,
                        2.33333
                    ],
                    "texture": "#0"
                },
                "west": {
                    "uv": [
                        9,
                        0.33333,
                        10.33333,
                        2.33333
                    ],
                    "texture": "#0"
                },
                "up": {
                    "uv": [
                        9,
                        0.33333,
                        10.33333,
                        2.33333
                    ],
                    "texture": "#0"
                },
                "down": {
                    "uv": [
                        9,
                        0.33333,
                        10.33333,
                        2.33333
                    ],
                    "texture": "#0"
                }
            }
        },
        {
            "from": [
                7.62459,
                7.24992,
                7.71197
            ],
            "to": [
                7.69259,
                7.45392,
                7.91597
            ],
            "rotation": {
                "angle": -45,
                "axis": "z",
                "origin": [
                    8.00678,
                    7.25361,
                    7.91
                ]
            },
            "faces": {
                "north": {
                    "uv": [
                        9,
                        0.33333,
                        10.33333,
                        2.33333
                    ],
                    "texture": "#0"
                },
                "east": {
                    "uv": [
                        9,
                        0.33333,
                        10.33333,
                        2.33333
                    ],
                    "texture": "#0"
                },
                "south": {
                    "uv": [
                        9,
                        0.33333,
                        10.33333,
                        2.33333
                    ],
                    "texture": "#0"
                },
                "west": {
                    "uv": [
                        9,
                        0.33333,
                        10.33333,
                        2.33333
                    ],
                    "texture": "#0"
                },
                "up": {
                    "uv": [
                        9,
                        0.33333,
                        10.33333,
                        2.33333
                    ],
                    "texture": "#0"
                },
                "down": {
                    "uv": [
                        9,
                        0.33333,
                        10.33333,
                        2.33333
                    ],
                    "texture": "#0"
                }
            }
        },
        {
            "from": [
                8.31975,
                7.25115,
                7.71197
            ],
            "to": [
                8.38775,
                7.45515,
                7.91597
            ],
            "rotation": {
                "angle": 45,
                "axis": "z",
                "origin": [
                    8.00678,
                    7.25361,
                    7.91
                ]
            },
            "faces": {
                "north": {
                    "uv": [
                        9,
                        0.33333,
                        10.33333,
                        2.33333
                    ],
                    "texture": "#0"
                },
                "east": {
                    "uv": [
                        9,
                        0.33333,
                        10.33333,
                        2.33333
                    ],
                    "texture": "#0"
                },
                "south": {
                    "uv": [
                        9,
                        0.33333,
                        10.33333,
                        2.33333
                    ],
                    "texture": "#0"
                },
                "west": {
                    "uv": [
                        9,
                        0.33333,
                        10.33333,
                        2.33333
                    ],
                    "texture": "#0"
                },
                "up": {
                    "uv": [
                        9,
                        0.33333,
                        10.33333,
                        2.33333
                    ],
                    "texture": "#0"
                },
                "down": {
                    "uv": [
                        9,
                        0.33333,
                        10.33333,
                        2.33333
                    ],
                    "texture": "#0"
                }
            }
        },
        {
            "from": [
                7.87527,
                7.59751,
                7.71197
            ],
            "to": [
                8.13367,
                7.66551,
                7.91597
            ],
            "rotation": {
                "angle": 0,
                "axis": "y",
                "origin": [
                    8.00678,
                    7.25361,
                    7.91
                ]
            },
            "faces": {
                "north": {
                    "uv": [
                        9,
                        0.33333,
                        10.33333,
                        2.33333
                    ],
                    "rotation": 270,
                    "texture": "#0"
                },
                "east": {
                    "uv": [
                        9,
                        0.33333,
                        10.33333,
                        2.33333
                    ],
                    "rotation": 270,
                    "texture": "#0"
                },
                "south": {
                    "uv": [
                        9,
                        0.33333,
                        10.33333,
                        2.33333
                    ],
                    "rotation": 270,
                    "texture": "#0"
                },
                "west": {
                    "uv": [
                        9,
                        0.33333,
                        10.33333,
                        2.33333
                    ],
                    "rotation": 270,
                    "texture": "#0"
                },
                "up": {
                    "uv": [
                        9,
                        0.33333,
                        10.33333,
                        2.33333
                    ],
                    "rotation": 270,
                    "texture": "#0"
                },
                "down": {
                    "uv": [
                        9,
                        0.33333,
                        10.33333,
                        2.33333
                    ],
                    "rotation": 270,
                    "texture": "#0"
                }
            }
        },
        {
            "from": [
                7.98281,
                7.40551,
                7.85197
            ],
            "to": [
                8.04921,
                7.47351,
                7.85197
            ],
            "rotation": {
                "angle": 0,
                "axis": "y",
                "origin": [
                    8.01601,
                    7.43951,
                    7.85197
                ]
            },
            "faces": {
                "north": {
                    "uv": [
                        5.66667,
                        14,
                        7,
                        16
                    ],
                    "rotation": 270,
                    "texture": "#0"
                },
                "east": {
                    "uv": [
                        5.66667,
                        14,
                        7,
                        16
                    ],
                    "rotation": 270,
                    "texture": "#0"
                },
                "south": {
                    "uv": [
                        5.66667,
                        14,
                        7,
                        16
                    ],
                    "rotation": 270,
                    "texture": "#0"
                },
                "west": {
                    "uv": [
                        5.66667,
                        14,
                        7,
                        16
                    ],
                    "rotation": 270,
                    "texture": "#0"
                },
                "up": {
                    "uv": [
                        5.66667,
                        14,
                        7,
                        16
                    ],
                    "rotation": 270,
                    "texture": "#0"
                },
                "down": {
                    "uv": [
                        5.66667,
                        14,
                        7,
                        16
                    ],
                    "rotation": 270,
                    "texture": "#0"
                }
            }
        }
    ],
    "display": {
        "thirdperson_righthand": {
            "translation": [
                -0.5,
                3,
                0.25
            ],
            "scale": [
                1.5,
                1.5,
                1.5
            ]
        },
        "thirdperson_lefthand": {
            "translation": [
                -1,
                2.5,
                0.25
            ],
            "scale": [
                1.5,
                1.5,
                1.5
            ]
        },
        "firstperson_righthand": {
            "translation": [
                -1.5,
                8.25,
                1
            ],
            "scale": [
                1.5,
                1.5,
                1.5
            ]
        },
        "firstperson_lefthand": {
            "translation": [
                -3,
                8.25,
                1
            ],
            "scale": [
                1.5,
                1.5,
                1.5
            ]
        },
        "ground": {
            "translation": [
                0.5,
                3.25,
                -1.75
            ],
            "scale": [
                1.25,
                1.25,
                1.25
            ]
        },
        "gui": {
            "rotation": [
                28,
                39,
                -29
            ],
            "translation": [
                1.5,
                5,
                0
            ],
            "scale": [
                1.67,
                1.67,
                1.68
            ]
        },
        "head": {
            "rotation": [
                0,
                42,
                90
            ],
            "translation": [
                -2.5,
                7.25,
                2.5
            ],
            "scale": [
                2.17,
                2.2,
                2.18
            ]
        },
        "fixed": {
            "rotation": [
                90,
                45,
                -90
            ],
            "translation": [
                5.25,
                2.75,
                -1.75
            ],
            "scale": [
                2,
                2,
                2
            ]
        }
    }
}