{
    "textures": {
        "0": "gci:items/common/all_in_one", 
        "2": "gci:items/common/mpz", 
        "particle": "gci:items/common/all_in_one"
    }, 
    "elements": [
        {
            "to": [
                8.06476, 
                8.0038, 
                4.79132
            ], 
            "rotation": {
                "origin": [
                    7.92877, 
                    7.9753, 
                    4.69164
                ], 
                "angle": 0, 
                "axis": "y"
            }, 
            "from": [
                7.89376, 
                7.9468, 
                3.99332
            ], 
            "faces": {
                "north": {
                    "rotation": 180, 
                    "uv": [
                        9.5, 
                        5, 
                        11.547, 
                        7.047
                    ], 
                    "texture": "#2"
                }, 
                "west": {
                    "rotation": 180, 
                    "uv": [
                        9.5, 
                        5, 
                        11.547, 
                        7.047
                    ], 
                    "texture": "#2"
                }, 
                "up": {
                    "rotation": 90, 
                    "uv": [
                        9.5, 
                        5, 
                        11.547, 
                        7.047
                    ], 
                    "texture": "#2"
                }, 
                "down": {
                    "rotation": 270, 
                    "uv": [
                        9.5, 
                        5, 
                        11.547, 
                        7.047
                    ], 
                    "texture": "#2"
                }, 
                "east": {
                    "rotation": 180, 
                    "uv": [
                        9.5, 
                        5, 
                        11.547, 
                        7.047
                    ], 
                    "texture": "#2"
                }, 
                "south": {
                    "rotation": 180, 
                    "uv": [
                        9.5, 
                        5, 
                        11.547, 
                        7.047
                    ], 
                    "texture": "#2"
                }
            }
        }, 
        {
            "to": [
                8.08756, 
                8.06078, 
                4.44932
            ], 
            "rotation": {
                "origin": [
                    7.92877, 
                    7.9753, 
                    4.46364
                ], 
                "angle": 0, 
                "axis": "y"
            }, 
            "from": [
                7.87096, 
                8.00378, 
                4.33532
            ], 
            "faces": {
                "north": {
                    "rotation": 180, 
                    "uv": [
                        9.5, 
                        5, 
                        11.547, 
                        7.047
                    ], 
                    "texture": "#2"
                }, 
                "west": {
                    "rotation": 180, 
                    "uv": [
                        9.5, 
                        5, 
                        11.547, 
                        7.047
                    ], 
                    "texture": "#2"
                }, 
                "up": {
                    "rotation": 90, 
                    "uv": [
                        9.5, 
                        5, 
                        11.547, 
                        7.047
                    ], 
                    "texture": "#2"
                }, 
                "down": {
                    "rotation": 270, 
                    "uv": [
                        9.5, 
                        5, 
                        11.547, 
                        7.047
                    ], 
                    "texture": "#2"
                }, 
                "east": {
                    "rotation": 180, 
                    "uv": [
                        9.5, 
                        5, 
                        11.547, 
                        7.047
                    ], 
                    "texture": "#2"
                }, 
                "south": {
                    "rotation": 180, 
                    "uv": [
                        9.5, 
                        5, 
                        11.547, 
                        7.047
                    ], 
                    "texture": "#2"
                }
            }
        }, 
        {
            "to": [
                8.08756, 
                7.59486, 
                4.44932
            ], 
            "rotation": {
                "origin": [
                    7.92877, 
                    7.50938, 
                    4.46364
                ], 
                "angle": 0, 
                "axis": "y"
            }, 
            "from": [
                7.87096, 
                7.53786, 
                4.33532
            ], 
            "faces": {
                "north": {
                    "rotation": 180, 
                    "uv": [
                        9.5, 
                        5, 
                        11.547, 
                        7.047
                    ], 
                    "texture": "#2"
                }, 
                "west": {
                    "rotation": 180, 
                    "uv": [
                        9.5, 
                        5, 
                        11.547, 
                        7.047
                    ], 
                    "texture": "#2"
                }, 
                "up": {
                    "rotation": 90, 
                    "uv": [
                        9.5, 
                        5, 
                        11.547, 
                        7.047
                    ], 
                    "texture": "#2"
                }, 
                "down": {
                    "rotation": 270, 
                    "uv": [
                        9.5, 
                        5, 
                        11.547, 
                        7.047
                    ], 
                    "texture": "#2"
                }, 
                "east": {
                    "rotation": 180, 
                    "uv": [
                        9.5, 
                        5, 
                        11.547, 
                        7.047
                    ], 
                    "texture": "#2"
                }, 
                "south": {
                    "rotation": 180, 
                    "uv": [
                        9.5, 
                        5, 
                        11.547, 
                        7.047
                    ], 
                    "texture": "#2"
                }
            }
        }, 
        {
            "to": [
                8.24072, 
                7.90762, 
                4.44932
            ], 
            "rotation": {
                "origin": [
                    8.2692, 
                    7.74313, 
                    4.46364
                ], 
                "angle": 0, 
                "axis": "y"
            }, 
            "from": [
                8.18372, 
                7.69102, 
                4.33532
            ], 
            "faces": {
                "north": {
                    "rotation": 270, 
                    "uv": [
                        9.5, 
                        5, 
                        11.547, 
                        7.047
                    ], 
                    "texture": "#2"
                }, 
                "west": {
                    "rotation": 270, 
                    "uv": [
                        9.5, 
                        5, 
                        11.547, 
                        7.047
                    ], 
                    "texture": "#2"
                }, 
                "up": {
                    "rotation": 180, 
                    "uv": [
                        9.5, 
                        5, 
                        11.547, 
                        7.047
                    ], 
                    "texture": "#2"
                }, 
                "down": {
                    "uv": [
                        9.5, 
                        5, 
                        11.547, 
                        7.047
                    ], 
                    "texture": "#2"
                }, 
                "east": {
                    "rotation": 270, 
                    "uv": [
                        9.5, 
                        5, 
                        11.547, 
                        7.047
                    ], 
                    "texture": "#2"
                }, 
                "south": {
                    "rotation": 270, 
                    "uv": [
                        9.5, 
                        5, 
                        11.547, 
                        7.047
                    ], 
                    "texture": "#2"
                }
            }
        }, 
        {
            "to": [
                7.7748, 
                7.90762, 
                4.44932
            ], 
            "rotation": {
                "origin": [
                    7.80328, 
                    7.74313, 
                    4.46364
                ], 
                "angle": 0, 
                "axis": "y"
            }, 
            "from": [
                7.7178, 
                7.69102, 
                4.33532
            ], 
            "faces": {
                "north": {
                    "rotation": 270, 
                    "uv": [
                        9.5, 
                        5, 
                        11.547, 
                        7.047
                    ], 
                    "texture": "#2"
                }, 
                "west": {
                    "rotation": 270, 
                    "uv": [
                        9.5, 
                        5, 
                        11.547, 
                        7.047
                    ], 
                    "texture": "#2"
                }, 
                "up": {
                    "rotation": 180, 
                    "uv": [
                        9.5, 
                        5, 
                        11.547, 
                        7.047
                    ], 
                    "texture": "#2"
                }, 
                "down": {
                    "uv": [
                        9.5, 
                        5, 
                        11.547, 
                        7.047
                    ], 
                    "texture": "#2"
                }, 
                "east": {
                    "rotation": 270, 
                    "uv": [
                        9.5, 
                        5, 
                        11.547, 
                        7.047
                    ], 
                    "texture": "#2"
                }, 
                "south": {
                    "rotation": 270, 
                    "uv": [
                        9.5, 
                        5, 
                        11.547, 
                        7.047
                    ], 
                    "texture": "#2"
                }
            }
        }, 
        {
            "to": [
                7.97958, 
                7.9695, 
                4.44932
            ], 
            "rotation": {
                "origin": [
                    7.81509, 
                    7.88402, 
                    4.46364
                ], 
                "angle": 45, 
                "axis": "z"
            }, 
            "from": [
                7.76298, 
                7.9125, 
                4.33532
            ], 
            "faces": {
                "north": {
                    "rotation": 180, 
                    "uv": [
                        9.5, 
                        5, 
                        11.547, 
                        7.047
                    ], 
                    "texture": "#2"
                }, 
                "west": {
                    "rotation": 180, 
                    "uv": [
                        9.5, 
                        5, 
                        11.547, 
                        7.047
                    ], 
                    "texture": "#2"
                }, 
                "up": {
                    "rotation": 90, 
                    "uv": [
                        9.5, 
                        5, 
                        11.547, 
                        7.047
                    ], 
                    "texture": "#2"
                }, 
                "down": {
                    "rotation": 270, 
                    "uv": [
                        9.5, 
                        5, 
                        11.547, 
                        7.047
                    ], 
                    "texture": "#2"
                }, 
                "east": {
                    "rotation": 180, 
                    "uv": [
                        9.5, 
                        5, 
                        11.547, 
                        7.047
                    ], 
                    "texture": "#2"
                }, 
                "south": {
                    "rotation": 180, 
                    "uv": [
                        9.5, 
                        5, 
                        11.547, 
                        7.047
                    ], 
                    "texture": "#2"
                }
            }
        }, 
        {
            "to": [
                8.30903, 
                7.64005, 
                4.44932
            ], 
            "rotation": {
                "origin": [
                    8.14454, 
                    7.55457, 
                    4.46364
                ], 
                "angle": 45, 
                "axis": "z"
            }, 
            "from": [
                8.09243, 
                7.58305, 
                4.33532
            ], 
            "faces": {
                "north": {
                    "rotation": 180, 
                    "uv": [
                        9.5, 
                        5, 
                        11.547, 
                        7.047
                    ], 
                    "texture": "#2"
                }, 
                "west": {
                    "rotation": 180, 
                    "uv": [
                        9.5, 
                        5, 
                        11.547, 
                        7.047
                    ], 
                    "texture": "#2"
                }, 
                "up": {
                    "rotation": 90, 
                    "uv": [
                        9.5, 
                        5, 
                        11.547, 
                        7.047
                    ], 
                    "texture": "#2"
                }, 
                "down": {
                    "rotation": 270, 
                    "uv": [
                        9.5, 
                        5, 
                        11.547, 
                        7.047
                    ], 
                    "texture": "#2"
                }, 
                "east": {
                    "rotation": 180, 
                    "uv": [
                        9.5, 
                        5, 
                        11.547, 
                        7.047
                    ], 
                    "texture": "#2"
                }, 
                "south": {
                    "rotation": 180, 
                    "uv": [
                        9.5, 
                        5, 
                        11.547, 
                        7.047
                    ], 
                    "texture": "#2"
                }
            }
        }, 
        {
            "to": [
                8.22845, 
                8.04897, 
                4.44932
            ], 
            "rotation": {
                "origin": [
                    8.06396, 
                    7.96349, 
                    4.46364
                ], 
                "angle": -45, 
                "axis": "z"
            }, 
            "from": [
                8.01185, 
                7.99197, 
                4.33532
            ], 
            "faces": {
                "north": {
                    "rotation": 180, 
                    "uv": [
                        9.5, 
                        5, 
                        11.547, 
                        7.047
                    ], 
                    "texture": "#2"
                }, 
                "west": {
                    "rotation": 180, 
                    "uv": [
                        9.5, 
                        5, 
                        11.547, 
                        7.047
                    ], 
                    "texture": "#2"
                }, 
                "up": {
                    "rotation": 90, 
                    "uv": [
                        9.5, 
                        5, 
                        11.547, 
                        7.047
                    ], 
                    "texture": "#2"
                }, 
                "down": {
                    "rotation": 270, 
                    "uv": [
                        9.5, 
                        5, 
                        11.547, 
                        7.047
                    ], 
                    "texture": "#2"
                }, 
                "east": {
                    "rotation": 180, 
                    "uv": [
                        9.5, 
                        5, 
                        11.547, 
                        7.047
                    ], 
                    "texture": "#2"
                }, 
                "south": {
                    "rotation": 180, 
                    "uv": [
                        9.5, 
                        5, 
                        11.547, 
                        7.047
                    ], 
                    "texture": "#2"
                }
            }
        }, 
        {
            "to": [
                7.899, 
                7.71951, 
                4.44932
            ], 
            "rotation": {
                "origin": [
                    7.73451, 
                    7.63403, 
                    4.46364
                ], 
                "angle": -45, 
                "axis": "z"
            }, 
            "from": [
                7.6824, 
                7.66251, 
                4.33532
            ], 
            "faces": {
                "north": {
                    "rotation": 180, 
                    "uv": [
                        9.5, 
                        5, 
                        11.547, 
                        7.047
                    ], 
                    "texture": "#2"
                }, 
                "west": {
                    "rotation": 180, 
                    "uv": [
                        9.5, 
                        5, 
                        11.547, 
                        7.047
                    ], 
                    "texture": "#2"
                }, 
                "up": {
                    "rotation": 90, 
                    "uv": [
                        9.5, 
                        5, 
                        11.547, 
                        7.047
                    ], 
                    "texture": "#2"
                }, 
                "down": {
                    "rotation": 270, 
                    "uv": [
                        9.5, 
                        5, 
                        11.547, 
                        7.047
                    ], 
                    "texture": "#2"
                }, 
                "east": {
                    "rotation": 180, 
                    "uv": [
                        9.5, 
                        5, 
                        11.547, 
                        7.047
                    ], 
                    "texture": "#2"
                }, 
                "south": {
                    "rotation": 180, 
                    "uv": [
                        9.5, 
                        5, 
                        11.547, 
                        7.047
                    ], 
                    "texture": "#2"
                }
            }
        }, 
        {
            "to": [
                7.94731, 
                7.93154, 
                4.79132
            ], 
            "rotation": {
                "origin": [
                    7.83331, 
                    7.90304, 
                    4.73432
                ], 
                "angle": 45, 
                "axis": "z"
            }, 
            "from": [
                7.77631, 
                7.87454, 
                3.99332
            ], 
            "faces": {
                "north": {
                    "rotation": 180, 
                    "uv": [
                        9.5, 
                        5, 
                        11.547, 
                        7.047
                    ], 
                    "texture": "#2"
                }, 
                "west": {
                    "rotation": 180, 
                    "uv": [
                        9.5, 
                        5, 
                        11.547, 
                        7.047
                    ], 
                    "texture": "#2"
                }, 
                "up": {
                    "rotation": 90, 
                    "uv": [
                        9.5, 
                        5, 
                        11.547, 
                        7.047
                    ], 
                    "texture": "#2"
                }, 
                "down": {
                    "rotation": 270, 
                    "uv": [
                        9.5, 
                        5, 
                        11.547, 
                        7.047
                    ], 
                    "texture": "#2"
                }, 
                "east": {
                    "rotation": 180, 
                    "uv": [
                        9.5, 
                        5, 
                        11.547, 
                        7.047
                    ], 
                    "texture": "#2"
                }, 
                "south": {
                    "rotation": 180, 
                    "uv": [
                        9.5, 
                        5, 
                        11.547, 
                        7.047
                    ], 
                    "texture": "#2"
                }
            }
        }, 
        {
            "to": [
                7.82984, 
                7.88289, 
                4.79132
            ], 
            "rotation": {
                "origin": [
                    8.16044, 
                    8.14329, 
                    4.43792
                ], 
                "angle": 0, 
                "axis": "y"
            }, 
            "from": [
                7.77284, 
                7.71189, 
                3.99332
            ], 
            "faces": {
                "north": {
                    "uv": [
                        9.5, 
                        5, 
                        11.547, 
                        7.047
                    ], 
                    "texture": "#2"
                }, 
                "west": {
                    "uv": [
                        9.5, 
                        5, 
                        11.547, 
                        7.047
                    ], 
                    "texture": "#2"
                }, 
                "up": {
                    "rotation": 270, 
                    "uv": [
                        9.5, 
                        5, 
                        11.547, 
                        7.047
                    ], 
                    "texture": "#2"
                }, 
                "down": {
                    "rotation": 90, 
                    "uv": [
                        9.5, 
                        5, 
                        11.547, 
                        7.047
                    ], 
                    "texture": "#2"
                }, 
                "east": {
                    "uv": [
                        9.5, 
                        5, 
                        11.547, 
                        7.047
                    ], 
                    "texture": "#2"
                }, 
                "south": {
                    "uv": [
                        9.5, 
                        5, 
                        11.547, 
                        7.047
                    ], 
                    "texture": "#2"
                }
            }
        }, 
        {
            "to": [
                7.90211, 
                7.76543, 
                4.79132
            ], 
            "rotation": {
                "origin": [
                    7.87361, 
                    7.65143, 
                    4.73432
                ], 
                "angle": 45, 
                "axis": "z"
            }, 
            "from": [
                7.84511, 
                7.59443, 
                3.99332
            ], 
            "faces": {
                "north": {
                    "uv": [
                        9.5, 
                        5, 
                        11.547, 
                        7.047
                    ], 
                    "texture": "#2"
                }, 
                "west": {
                    "uv": [
                        9.5, 
                        5, 
                        11.547, 
                        7.047
                    ], 
                    "texture": "#2"
                }, 
                "up": {
                    "rotation": 270, 
                    "uv": [
                        9.5, 
                        5, 
                        11.547, 
                        7.047
                    ], 
                    "texture": "#2"
                }, 
                "down": {
                    "rotation": 90, 
                    "uv": [
                        9.5, 
                        5, 
                        11.547, 
                        7.047
                    ], 
                    "texture": "#2"
                }, 
                "east": {
                    "uv": [
                        9.5, 
                        5, 
                        11.547, 
                        7.047
                    ], 
                    "texture": "#2"
                }, 
                "south": {
                    "uv": [
                        9.5, 
                        5, 
                        11.547, 
                        7.047
                    ], 
                    "texture": "#2"
                }
            }
        }, 
        {
            "to": [
                8.15372, 
                8.01704, 
                4.79132
            ], 
            "rotation": {
                "origin": [
                    8.12522, 
                    7.90304, 
                    4.73432
                ], 
                "angle": 45, 
                "axis": "z"
            }, 
            "from": [
                8.09672, 
                7.84604, 
                3.99332
            ], 
            "faces": {
                "north": {
                    "uv": [
                        9.5, 
                        5, 
                        11.547, 
                        7.047
                    ], 
                    "texture": "#2"
                }, 
                "west": {
                    "uv": [
                        9.5, 
                        5, 
                        11.547, 
                        7.047
                    ], 
                    "texture": "#2"
                }, 
                "up": {
                    "rotation": 270, 
                    "uv": [
                        9.5, 
                        5, 
                        11.547, 
                        7.047
                    ], 
                    "texture": "#2"
                }, 
                "down": {
                    "rotation": 90, 
                    "uv": [
                        9.5, 
                        5, 
                        11.547, 
                        7.047
                    ], 
                    "texture": "#2"
                }, 
                "east": {
                    "uv": [
                        9.5, 
                        5, 
                        11.547, 
                        7.047
                    ], 
                    "texture": "#2"
                }, 
                "south": {
                    "uv": [
                        9.5, 
                        5, 
                        11.547, 
                        7.047
                    ], 
                    "texture": "#2"
                }
            }
        }, 
        {
            "to": [
                8.18568, 
                7.88289, 
                4.79132
            ], 
            "rotation": {
                "origin": [
                    8.44789, 
                    7.91529, 
                    4.43792
                ], 
                "angle": 0, 
                "axis": "y"
            }, 
            "from": [
                8.12868, 
                7.71189, 
                3.99332
            ], 
            "faces": {
                "north": {
                    "uv": [
                        9.5, 
                        5, 
                        11.547, 
                        7.047
                    ], 
                    "texture": "#2"
                }, 
                "west": {
                    "uv": [
                        9.5, 
                        5, 
                        11.547, 
                        7.047
                    ], 
                    "texture": "#2"
                }, 
                "up": {
                    "rotation": 270, 
                    "uv": [
                        9.5, 
                        5, 
                        11.547, 
                        7.047
                    ], 
                    "texture": "#2"
                }, 
                "down": {
                    "rotation": 90, 
                    "uv": [
                        9.5, 
                        5, 
                        11.547, 
                        7.047
                    ], 
                    "texture": "#2"
                }, 
                "east": {
                    "uv": [
                        9.5, 
                        5, 
                        11.547, 
                        7.047
                    ], 
                    "texture": "#2"
                }, 
                "south": {
                    "uv": [
                        9.5, 
                        5, 
                        11.547, 
                        7.047
                    ], 
                    "texture": "#2"
                }
            }
        }, 
        {
            "to": [
                8.19892, 
                7.67993, 
                4.79132
            ], 
            "rotation": {
                "origin": [
                    8.08492, 
                    7.65143, 
                    4.73432
                ], 
                "angle": 45, 
                "axis": "z"
            }, 
            "from": [
                8.02792, 
                7.62293, 
                3.99332
            ], 
            "faces": {
                "north": {
                    "rotation": 180, 
                    "uv": [
                        9.5, 
                        5, 
                        11.547, 
                        7.047
                    ], 
                    "texture": "#2"
                }, 
                "west": {
                    "rotation": 180, 
                    "uv": [
                        9.5, 
                        5, 
                        11.547, 
                        7.047
                    ], 
                    "texture": "#2"
                }, 
                "up": {
                    "rotation": 90, 
                    "uv": [
                        9.5, 
                        5, 
                        11.547, 
                        7.047
                    ], 
                    "texture": "#2"
                }, 
                "down": {
                    "rotation": 270, 
                    "uv": [
                        9.5, 
                        5, 
                        11.547, 
                        7.047
                    ], 
                    "texture": "#2"
                }, 
                "east": {
                    "rotation": 180, 
                    "uv": [
                        9.5, 
                        5, 
                        11.547, 
                        7.047
                    ], 
                    "texture": "#2"
                }, 
                "south": {
                    "rotation": 180, 
                    "uv": [
                        9.5, 
                        5, 
                        11.547, 
                        7.047
                    ], 
                    "texture": "#2"
                }
            }
        }, 
        {
            "to": [
                8.06476, 
                7.64797, 
                4.79132
            ], 
            "rotation": {
                "origin": [
                    7.95726, 
                    7.61947, 
                    4.69164
                ], 
                "angle": 0, 
                "axis": "y"
            }, 
            "from": [
                7.89376, 
                7.59097, 
                3.99332
            ], 
            "faces": {
                "north": {
                    "rotation": 180, 
                    "uv": [
                        9.5, 
                        5, 
                        11.547, 
                        7.047
                    ], 
                    "texture": "#2"
                }, 
                "west": {
                    "rotation": 180, 
                    "uv": [
                        9.5, 
                        5, 
                        11.547, 
                        7.047
                    ], 
                    "texture": "#2"
                }, 
                "up": {
                    "rotation": 90, 
                    "uv": [
                        9.5, 
                        5, 
                        11.547, 
                        7.047
                    ], 
                    "texture": "#2"
                }, 
                "down": {
                    "rotation": 270, 
                    "uv": [
                        9.5, 
                        5, 
                        11.547, 
                        7.047
                    ], 
                    "texture": "#2"
                }, 
                "east": {
                    "rotation": 180, 
                    "uv": [
                        9.5, 
                        5, 
                        11.547, 
                        7.047
                    ], 
                    "texture": "#2"
                }, 
                "south": {
                    "rotation": 180, 
                    "uv": [
                        9.5, 
                        5, 
                        11.547, 
                        7.047
                    ], 
                    "texture": "#2"
                }
            }
        }, 
        {
            "to": [
                8.32126, 
                7.64308, 
                7.43612
            ], 
            "rotation": {
                "origin": [
                    7.97926, 
                    8.36712, 
                    11.29732
                ], 
                "angle": 0, 
                "axis": "y"
            }, 
            "from": [
                7.63726, 
                7.41508, 
                4.81412
            ], 
            "faces": {
                "north": {
                    "uv": [
                        0, 
                        0, 
                        3.032, 
                        2.394
                    ], 
                    "texture": "#2"
                }, 
                "west": {
                    "uv": [
                        0, 
                        0, 
                        3.032, 
                        2.394
                    ], 
                    "texture": "#2"
                }, 
                "up": {
                    "rotation": 270, 
                    "uv": [
                        0, 
                        0, 
                        3.032, 
                        2.394
                    ], 
                    "texture": "#2"
                }, 
                "down": {
                    "rotation": 90, 
                    "uv": [
                        0, 
                        0, 
                        3.032, 
                        2.394
                    ], 
                    "texture": "#2"
                }, 
                "east": {
                    "uv": [
                        0, 
                        0, 
                        3.032, 
                        2.394
                    ], 
                    "texture": "#2"
                }, 
                "south": {
                    "uv": [
                        0, 
                        0, 
                        3.032, 
                        2.394
                    ], 
                    "texture": "#2"
                }
            }
        }, 
        {
            "to": [
                8.32126, 
                7.98508, 
                7.55012
            ], 
            "rotation": {
                "origin": [
                    8.09326, 
                    8.59512, 
                    11.29732
                ], 
                "angle": 0, 
                "axis": "y"
            }, 
            "from": [
                7.75126, 
                7.64308, 
                4.81412
            ], 
            "faces": {
                "north": {
                    "uv": [
                        0, 
                        0, 
                        3.032, 
                        2.394
                    ], 
                    "texture": "#2"
                }, 
                "west": {
                    "uv": [
                        0, 
                        0, 
                        3.032, 
                        2.394
                    ], 
                    "texture": "#2"
                }, 
                "up": {
                    "rotation": 270, 
                    "uv": [
                        0, 
                        0, 
                        3.032, 
                        2.394
                    ], 
                    "texture": "#2"
                }, 
                "down": {
                    "rotation": 90, 
                    "uv": [
                        0, 
                        0, 
                        3.032, 
                        2.394
                    ], 
                    "texture": "#2"
                }, 
                "east": {
                    "uv": [
                        0, 
                        0, 
                        3.032, 
                        2.394
                    ], 
                    "texture": "#2"
                }, 
                "south": {
                    "uv": [
                        0, 
                        0, 
                        3.032, 
                        2.394
                    ], 
                    "texture": "#2"
                }
            }
        }, 
        {
            "to": [
                7.75126, 
                7.98508, 
                5.04212
            ], 
            "rotation": {
                "origin": [
                    7.97926, 
                    8.59512, 
                    11.29732
                ], 
                "angle": 0, 
                "axis": "y"
            }, 
            "from": [
                7.63726, 
                7.64308, 
                4.81412
            ], 
            "faces": {
                "north": {
                    "uv": [
                        0, 
                        0, 
                        3.032, 
                        2.394
                    ], 
                    "texture": "#2"
                }, 
                "west": {
                    "uv": [
                        0, 
                        0, 
                        3.032, 
                        2.394
                    ], 
                    "texture": "#2"
                }, 
                "up": {
                    "rotation": 270, 
                    "uv": [
                        0, 
                        0, 
                        3.032, 
                        2.394
                    ], 
                    "texture": "#2"
                }, 
                "down": {
                    "rotation": 90, 
                    "uv": [
                        0, 
                        0, 
                        3.032, 
                        2.394
                    ], 
                    "texture": "#2"
                }, 
                "east": {
                    "uv": [
                        0, 
                        0, 
                        3.032, 
                        2.394
                    ], 
                    "texture": "#2"
                }, 
                "south": {
                    "uv": [
                        0, 
                        0, 
                        3.032, 
                        2.394
                    ], 
                    "texture": "#2"
                }
            }
        }, 
        {
            "to": [
                7.71926, 
                8.44508, 
                7.89212
            ], 
            "rotation": {
                "origin": [
                    7.97926, 
                    9.05112, 
                    14.14732
                ], 
                "angle": 0, 
                "axis": "y"
            }, 
            "from": [
                7.60306, 
                8.09908, 
                7.66412
            ], 
            "faces": {
                "north": {
                    "uv": [
                        0, 
                        0, 
                        3.032, 
                        2.394
                    ], 
                    "texture": "#2"
                }, 
                "west": {
                    "uv": [
                        0, 
                        0, 
                        3.032, 
                        2.394
                    ], 
                    "texture": "#2"
                }, 
                "up": {
                    "rotation": 270, 
                    "uv": [
                        0, 
                        0, 
                        3.032, 
                        2.394
                    ], 
                    "texture": "#2"
                }, 
                "down": {
                    "rotation": 90, 
                    "uv": [
                        0, 
                        0, 
                        3.032, 
                        2.394
                    ], 
                    "texture": "#2"
                }, 
                "east": {
                    "uv": [
                        0, 
                        0, 
                        3.032, 
                        2.394
                    ], 
                    "texture": "#2"
                }, 
                "south": {
                    "uv": [
                        0, 
                        0, 
                        3.032, 
                        2.394
                    ], 
                    "texture": "#2"
                }
            }
        }, 
        {
            "to": [
                7.71926, 
                8.44508, 
                5.49812
            ], 
            "rotation": {
                "origin": [
                    7.97926, 
                    9.05112, 
                    11.75332
                ], 
                "angle": 0, 
                "axis": "y"
            }, 
            "from": [
                7.60306, 
                8.09908, 
                5.27012
            ], 
            "faces": {
                "north": {
                    "uv": [
                        0, 
                        0, 
                        3.032, 
                        2.394
                    ], 
                    "texture": "#2"
                }, 
                "west": {
                    "uv": [
                        0, 
                        0, 
                        3.032, 
                        2.394
                    ], 
                    "texture": "#2"
                }, 
                "up": {
                    "rotation": 270, 
                    "uv": [
                        0, 
                        0, 
                        3.032, 
                        2.394
                    ], 
                    "texture": "#2"
                }, 
                "down": {
                    "rotation": 90, 
                    "uv": [
                        0, 
                        0, 
                        3.032, 
                        2.394
                    ], 
                    "texture": "#2"
                }, 
                "east": {
                    "uv": [
                        0, 
                        0, 
                        3.032, 
                        2.394
                    ], 
                    "texture": "#2"
                }, 
                "south": {
                    "uv": [
                        0, 
                        0, 
                        3.032, 
                        2.394
                    ], 
                    "texture": "#2"
                }
            }
        }, 
        {
            "to": [
                8.35546, 
                8.44508, 
                7.89212
            ], 
            "rotation": {
                "origin": [
                    8.54926, 
                    9.05112, 
                    14.14732
                ], 
                "angle": 0, 
                "axis": "y"
            }, 
            "from": [
                8.23926, 
                8.09908, 
                7.66412
            ], 
            "faces": {
                "north": {
                    "uv": [
                        0, 
                        0, 
                        3.032, 
                        2.394
                    ], 
                    "texture": "#2"
                }, 
                "west": {
                    "uv": [
                        0, 
                        0, 
                        3.032, 
                        2.394
                    ], 
                    "texture": "#2"
                }, 
                "up": {
                    "rotation": 270, 
                    "uv": [
                        0, 
                        0, 
                        3.032, 
                        2.394
                    ], 
                    "texture": "#2"
                }, 
                "down": {
                    "rotation": 90, 
                    "uv": [
                        0, 
                        0, 
                        3.032, 
                        2.394
                    ], 
                    "texture": "#2"
                }, 
                "east": {
                    "uv": [
                        0, 
                        0, 
                        3.032, 
                        2.394
                    ], 
                    "texture": "#2"
                }, 
                "south": {
                    "uv": [
                        0, 
                        0, 
                        3.032, 
                        2.394
                    ], 
                    "texture": "#2"
                }
            }
        }, 
        {
            "to": [
                8.35546, 
                8.44508, 
                5.49812
            ], 
            "rotation": {
                "origin": [
                    8.54926, 
                    9.05112, 
                    11.75332
                ], 
                "angle": 0, 
                "axis": "y"
            }, 
            "from": [
                8.23926, 
                8.09908, 
                5.27012
            ], 
            "faces": {
                "north": {
                    "uv": [
                        0, 
                        0, 
                        3.032, 
                        2.394
                    ], 
                    "texture": "#2"
                }, 
                "west": {
                    "uv": [
                        0, 
                        0, 
                        3.032, 
                        2.394
                    ], 
                    "texture": "#2"
                }, 
                "up": {
                    "rotation": 270, 
                    "uv": [
                        0, 
                        0, 
                        3.032, 
                        2.394
                    ], 
                    "texture": "#2"
                }, 
                "down": {
                    "rotation": 90, 
                    "uv": [
                        0, 
                        0, 
                        3.032, 
                        2.394
                    ], 
                    "texture": "#2"
                }, 
                "east": {
                    "uv": [
                        0, 
                        0, 
                        3.032, 
                        2.394
                    ], 
                    "texture": "#2"
                }, 
                "south": {
                    "uv": [
                        0, 
                        0, 
                        3.032, 
                        2.394
                    ], 
                    "texture": "#2"
                }
            }
        }, 
        {
            "to": [
                8.32126, 
                8.41428, 
                8.00612
            ], 
            "rotation": {
                "origin": [
                    7.97926, 
                    8.82312, 
                    11.29732
                ], 
                "angle": 0, 
                "axis": "y"
            }, 
            "from": [
                7.63726, 
                7.96228, 
                4.81412
            ], 
            "faces": {
                "north": {
                    "uv": [
                        0, 
                        0, 
                        3.032, 
                        2.394
                    ], 
                    "texture": "#2"
                }, 
                "west": {
                    "uv": [
                        0, 
                        0, 
                        3.032, 
                        2.394
                    ], 
                    "texture": "#2"
                }, 
                "up": {
                    "rotation": 270, 
                    "uv": [
                        0, 
                        0, 
                        3.032, 
                        2.394
                    ], 
                    "texture": "#2"
                }, 
                "down": {
                    "rotation": 90, 
                    "uv": [
                        0, 
                        0, 
                        3.032, 
                        2.394
                    ], 
                    "texture": "#2"
                }, 
                "east": {
                    "uv": [
                        0, 
                        0, 
                        3.032, 
                        2.394
                    ], 
                    "texture": "#2"
                }, 
                "south": {
                    "uv": [
                        0, 
                        0, 
                        3.032, 
                        2.394
                    ], 
                    "texture": "#2"
                }
            }
        }, 
        {
            "to": [
                8.32126, 
                7.67289, 
                6.75212
            ], 
            "rotation": {
                "origin": [
                    7.97926, 
                    7.33089, 
                    6.23912
                ], 
                "angle": -22.5, 
                "axis": "x"
            }, 
            "from": [
                7.63726, 
                6.98889, 
                5.95412
            ], 
            "faces": {
                "north": {
                    "uv": [
                        0, 
                        0, 
                        3.032, 
                        2.394
                    ], 
                    "texture": "#2"
                }, 
                "west": {
                    "uv": [
                        0, 
                        0, 
                        3.032, 
                        2.394
                    ], 
                    "texture": "#2"
                }, 
                "up": {
                    "rotation": 270, 
                    "uv": [
                        0, 
                        0, 
                        3.032, 
                        2.394
                    ], 
                    "texture": "#2"
                }, 
                "down": {
                    "rotation": 90, 
                    "uv": [
                        0, 
                        0, 
                        3.032, 
                        2.394
                    ], 
                    "texture": "#2"
                }, 
                "east": {
                    "uv": [
                        0, 
                        0, 
                        3.032, 
                        2.394
                    ], 
                    "texture": "#2"
                }, 
                "south": {
                    "uv": [
                        0, 
                        0, 
                        3.032, 
                        2.394
                    ], 
                    "texture": "#2"
                }
            }
        }, 
        {
            "to": [
                8.32126, 
                7.96228, 
                7.55012
            ], 
            "rotation": {
                "origin": [
                    7.97926, 
                    7.39228, 
                    6.92312
                ], 
                "angle": 0, 
                "axis": "y"
            }, 
            "from": [
                7.63726, 
                7.16428, 
                6.29612
            ], 
            "faces": {
                "north": {
                    "uv": [
                        0, 
                        0, 
                        3.032, 
                        2.394
                    ], 
                    "texture": "#2"
                }, 
                "west": {
                    "uv": [
                        0, 
                        0, 
                        3.032, 
                        2.394
                    ], 
                    "texture": "#2"
                }, 
                "up": {
                    "rotation": 270, 
                    "uv": [
                        0, 
                        0, 
                        3.032, 
                        2.394
                    ], 
                    "texture": "#2"
                }, 
                "down": {
                    "rotation": 90, 
                    "uv": [
                        0, 
                        0, 
                        3.032, 
                        2.394
                    ], 
                    "texture": "#2"
                }, 
                "east": {
                    "uv": [
                        0, 
                        0, 
                        3.032, 
                        2.394
                    ], 
                    "texture": "#2"
                }, 
                "south": {
                    "uv": [
                        0, 
                        0, 
                        3.032, 
                        2.394
                    ], 
                    "texture": "#2"
                }
            }
        }, 
        {
            "to": [
                8.32126, 
                8.10606, 
                7.85331
            ], 
            "rotation": {
                "origin": [
                    7.97926, 
                    7.65006, 
                    7.56831
                ], 
                "angle": 22.5, 
                "axis": "x"
            }, 
            "from": [
                7.63726, 
                7.08006, 
                7.28331
            ], 
            "faces": {
                "north": {
                    "uv": [
                        0, 
                        0, 
                        3.032, 
                        2.394
                    ], 
                    "texture": "#2"
                }, 
                "west": {
                    "uv": [
                        0, 
                        0, 
                        3.032, 
                        2.394
                    ], 
                    "texture": "#2"
                }, 
                "up": {
                    "rotation": 270, 
                    "uv": [
                        0, 
                        0, 
                        3.032, 
                        2.394
                    ], 
                    "texture": "#2"
                }, 
                "down": {
                    "rotation": 90, 
                    "uv": [
                        0, 
                        0, 
                        3.032, 
                        2.394
                    ], 
                    "texture": "#2"
                }, 
                "east": {
                    "uv": [
                        0, 
                        0, 
                        3.032, 
                        2.394
                    ], 
                    "texture": "#2"
                }, 
                "south": {
                    "uv": [
                        0, 
                        0, 
                        3.032, 
                        2.394
                    ], 
                    "texture": "#2"
                }
            }
        }, 
        {
            "to": [
                8.09326, 
                7.05501, 
                5.27803
            ], 
            "rotation": {
                "origin": [
                    7.97926, 
                    7.02651, 
                    4.99303
                ], 
                "angle": 45, 
                "axis": "x"
            }, 
            "from": [
                7.86526, 
                6.99801, 
                4.93603
            ], 
            "faces": {
                "north": {
                    "uv": [
                        9, 
                        4.5, 
                        11.3, 
                        6.594
                    ], 
                    "texture": "#2"
                }, 
                "west": {
                    "uv": [
                        9, 
                        4.5, 
                        11.3, 
                        6.594
                    ], 
                    "texture": "#2"
                }, 
                "up": {
                    "rotation": 270, 
                    "uv": [
                        9, 
                        4.5, 
                        11.3, 
                        6.594
                    ], 
                    "texture": "#2"
                }, 
                "down": {
                    "rotation": 90, 
                    "uv": [
                        9, 
                        4.5, 
                        11.3, 
                        6.594
                    ], 
                    "texture": "#2"
                }, 
                "east": {
                    "uv": [
                        9, 
                        4.5, 
                        11.3, 
                        6.594
                    ], 
                    "texture": "#2"
                }, 
                "south": {
                    "uv": [
                        9, 
                        4.5, 
                        11.3, 
                        6.594
                    ], 
                    "texture": "#2"
                }
            }
        }, 
        {
            "to": [
                8.09326, 
                7.27256, 
                4.92196
            ], 
            "rotation": {
                "origin": [
                    7.97926, 
                    7.21556, 
                    4.89346
                ], 
                "angle": -22.5, 
                "axis": "x"
            }, 
            "from": [
                7.86526, 
                7.04456, 
                4.86496
            ], 
            "faces": {
                "north": {
                    "rotation": 90, 
                    "uv": [
                        9, 
                        4.5, 
                        11.3, 
                        6.594
                    ], 
                    "texture": "#2"
                }, 
                "west": {
                    "rotation": 90, 
                    "uv": [
                        9, 
                        4.5, 
                        11.3, 
                        6.594
                    ], 
                    "texture": "#2"
                }, 
                "up": {
                    "uv": [
                        9, 
                        4.5, 
                        11.3, 
                        6.594
                    ], 
                    "texture": "#2"
                }, 
                "down": {
                    "rotation": 180, 
                    "uv": [
                        9, 
                        4.5, 
                        11.3, 
                        6.594
                    ], 
                    "texture": "#2"
                }, 
                "east": {
                    "rotation": 90, 
                    "uv": [
                        9, 
                        4.5, 
                        11.3, 
                        6.594
                    ], 
                    "texture": "#2"
                }, 
                "south": {
                    "rotation": 90, 
                    "uv": [
                        9, 
                        4.5, 
                        11.3, 
                        6.594
                    ], 
                    "texture": "#2"
                }
            }
        }, 
        {
            "to": [
                8.09326, 
                7.48532, 
                4.90232
            ], 
            "rotation": {
                "origin": [
                    7.97926, 
                    7.42832, 
                    4.87382
                ], 
                "angle": 0, 
                "axis": "y"
            }, 
            "from": [
                7.86526, 
                7.25732, 
                4.84532
            ], 
            "faces": {
                "north": {
                    "rotation": 90, 
                    "uv": [
                        9, 
                        4.5, 
                        11.3, 
                        6.594
                    ], 
                    "texture": "#2"
                }, 
                "west": {
                    "rotation": 90, 
                    "uv": [
                        9, 
                        4.5, 
                        11.3, 
                        6.594
                    ], 
                    "texture": "#2"
                }, 
                "up": {
                    "uv": [
                        9, 
                        4.5, 
                        11.3, 
                        6.594
                    ], 
                    "texture": "#2"
                }, 
                "down": {
                    "rotation": 180, 
                    "uv": [
                        9, 
                        4.5, 
                        11.3, 
                        6.594
                    ], 
                    "texture": "#2"
                }, 
                "east": {
                    "rotation": 90, 
                    "uv": [
                        9, 
                        4.5, 
                        11.3, 
                        6.594
                    ], 
                    "texture": "#2"
                }, 
                "south": {
                    "rotation": 90, 
                    "uv": [
                        9, 
                        4.5, 
                        11.3, 
                        6.594
                    ], 
                    "texture": "#2"
                }
            }
        }, 
        {
            "to": [
                8.09326, 
                6.86184, 
                5.74441
            ], 
            "rotation": {
                "origin": [
                    7.97926, 
                    6.83334, 
                    5.65891
                ], 
                "angle": 0, 
                "axis": "y"
            }, 
            "from": [
                7.86526, 
                6.80484, 
                5.17441
            ], 
            "faces": {
                "north": {
                    "uv": [
                        9, 
                        4.5, 
                        11.3, 
                        6.594
                    ], 
                    "texture": "#2"
                }, 
                "west": {
                    "uv": [
                        9, 
                        4.5, 
                        11.3, 
                        6.594
                    ], 
                    "texture": "#2"
                }, 
                "up": {
                    "rotation": 270, 
                    "uv": [
                        9, 
                        4.5, 
                        11.3, 
                        6.594
                    ], 
                    "texture": "#2"
                }, 
                "down": {
                    "rotation": 90, 
                    "uv": [
                        9, 
                        4.5, 
                        11.3, 
                        6.594
                    ], 
                    "texture": "#2"
                }, 
                "east": {
                    "uv": [
                        9, 
                        4.5, 
                        11.3, 
                        6.594
                    ], 
                    "texture": "#2"
                }, 
                "south": {
                    "uv": [
                        9, 
                        4.5, 
                        11.3, 
                        6.594
                    ], 
                    "texture": "#2"
                }
            }
        }, 
        {
            "to": [
                8.09326, 
                6.90113, 
                6.22691
            ], 
            "rotation": {
                "origin": [
                    7.97926, 
                    6.90113, 
                    5.82791
                ], 
                "angle": -22.5, 
                "axis": "x"
            }, 
            "from": [
                7.86526, 
                6.84413, 
                5.71391
            ], 
            "faces": {
                "north": {
                    "uv": [
                        9, 
                        4.5, 
                        11.3, 
                        6.594
                    ], 
                    "texture": "#2"
                }, 
                "west": {
                    "uv": [
                        9, 
                        4.5, 
                        11.3, 
                        6.594
                    ], 
                    "texture": "#2"
                }, 
                "up": {
                    "rotation": 270, 
                    "uv": [
                        9, 
                        4.5, 
                        11.3, 
                        6.594
                    ], 
                    "texture": "#2"
                }, 
                "down": {
                    "rotation": 90, 
                    "uv": [
                        9, 
                        4.5, 
                        11.3, 
                        6.594
                    ], 
                    "texture": "#2"
                }, 
                "east": {
                    "uv": [
                        9, 
                        4.5, 
                        11.3, 
                        6.594
                    ], 
                    "texture": "#2"
                }, 
                "south": {
                    "uv": [
                        9, 
                        4.5, 
                        11.3, 
                        6.594
                    ], 
                    "texture": "#2"
                }
            }
        }, 
        {
            "to": [
                8.03626, 
                7.23747, 
                5.81013
            ], 
            "rotation": {
                "origin": [
                    7.97926, 
                    7.29447, 
                    5.78163
                ], 
                "angle": 22.5, 
                "axis": "x"
            }, 
            "from": [
                7.92226, 
                7.12347, 
                5.75313
            ], 
            "faces": {
                "north": {
                    "rotation": 270, 
                    "uv": [
                        1, 
                        5, 
                        2.8, 
                        7.094
                    ], 
                    "texture": "#2"
                }, 
                "west": {
                    "rotation": 270, 
                    "uv": [
                        1, 
                        5, 
                        2.8, 
                        7.094
                    ], 
                    "texture": "#2"
                }, 
                "up": {
                    "rotation": 180, 
                    "uv": [
                        1, 
                        5, 
                        2.8, 
                        7.094
                    ], 
                    "texture": "#2"
                }, 
                "down": {
                    "uv": [
                        1, 
                        5, 
                        2.8, 
                        7.094
                    ], 
                    "texture": "#2"
                }, 
                "east": {
                    "rotation": 270, 
                    "uv": [
                        1, 
                        5, 
                        2.8, 
                        7.094
                    ], 
                    "texture": "#2"
                }, 
                "south": {
                    "rotation": 270, 
                    "uv": [
                        1, 
                        5, 
                        2.8, 
                        7.094
                    ], 
                    "texture": "#2"
                }
            }
        }, 
        {
            "to": [
                8.03626, 
                7.16244, 
                5.71056
            ], 
            "rotation": {
                "origin": [
                    7.97926, 
                    7.10544, 
                    5.68206
                ], 
                "angle": 45, 
                "axis": "x"
            }, 
            "from": [
                7.92226, 
                7.04844, 
                5.65356
            ], 
            "faces": {
                "north": {
                    "rotation": 270, 
                    "uv": [
                        1, 
                        5, 
                        2.8, 
                        7.094
                    ], 
                    "texture": "#2"
                }, 
                "west": {
                    "rotation": 270, 
                    "uv": [
                        1, 
                        5, 
                        2.8, 
                        7.094
                    ], 
                    "texture": "#2"
                }, 
                "up": {
                    "rotation": 180, 
                    "uv": [
                        1, 
                        5, 
                        2.8, 
                        7.094
                    ], 
                    "texture": "#2"
                }, 
                "down": {
                    "uv": [
                        1, 
                        5, 
                        2.8, 
                        7.094
                    ], 
                    "texture": "#2"
                }, 
                "east": {
                    "rotation": 270, 
                    "uv": [
                        1, 
                        5, 
                        2.8, 
                        7.094
                    ], 
                    "texture": "#2"
                }, 
                "south": {
                    "rotation": 270, 
                    "uv": [
                        1, 
                        5, 
                        2.8, 
                        7.094
                    ], 
                    "texture": "#2"
                }
            }
        }, 
        {
            "to": [
                8.03626, 
                7.5708, 
                5.85375
            ], 
            "rotation": {
                "origin": [
                    7.97926, 
                    7.3998, 
                    5.82525
                ], 
                "angle": 22.5, 
                "axis": "x"
            }, 
            "from": [
                7.92226, 
                7.2288, 
                5.79675
            ], 
            "faces": {
                "north": {
                    "rotation": 270, 
                    "uv": [
                        1, 
                        5, 
                        2.8, 
                        7.094
                    ], 
                    "texture": "#2"
                }, 
                "west": {
                    "rotation": 270, 
                    "uv": [
                        1, 
                        5, 
                        2.8, 
                        7.094
                    ], 
                    "texture": "#2"
                }, 
                "up": {
                    "rotation": 180, 
                    "uv": [
                        1, 
                        5, 
                        2.8, 
                        7.094
                    ], 
                    "texture": "#2"
                }, 
                "down": {
                    "uv": [
                        1, 
                        5, 
                        2.8, 
                        7.094
                    ], 
                    "texture": "#2"
                }, 
                "east": {
                    "rotation": 270, 
                    "uv": [
                        1, 
                        5, 
                        2.8, 
                        7.094
                    ], 
                    "texture": "#2"
                }, 
                "south": {
                    "rotation": 270, 
                    "uv": [
                        1, 
                        5, 
                        2.8, 
                        7.094
                    ], 
                    "texture": "#2"
                }
            }
        }, 
        {
            "to": [
                8.03626, 
                7.66299, 
                5.84941
            ], 
            "rotation": {
                "origin": [
                    7.97926, 
                    7.49199, 
                    5.82091
                ], 
                "angle": 22.5, 
                "axis": "x"
            }, 
            "from": [
                7.92226, 
                7.32099, 
                5.79241
            ], 
            "faces": {
                "north": {
                    "rotation": 270, 
                    "uv": [
                        2, 
                        6, 
                        3.3, 
                        7.094
                    ], 
                    "texture": "#2"
                }, 
                "west": {
                    "rotation": 270, 
                    "uv": [
                        2, 
                        6, 
                        3.3, 
                        7.094
                    ], 
                    "texture": "#2"
                }, 
                "up": {
                    "rotation": 270, 
                    "uv": [
                        2, 
                        6, 
                        3.3, 
                        7.094
                    ], 
                    "texture": "#2"
                }, 
                "down": {
                    "rotation": 270, 
                    "uv": [
                        2, 
                        6, 
                        3.3, 
                        7.094
                    ], 
                    "texture": "#2"
                }, 
                "east": {
                    "rotation": 270, 
                    "uv": [
                        2, 
                        6, 
                        3.3, 
                        7.094
                    ], 
                    "texture": "#2"
                }, 
                "south": {
                    "rotation": 270, 
                    "uv": [
                        2, 
                        6, 
                        3.3, 
                        7.094
                    ], 
                    "texture": "#2"
                }
            }
        }, 
        {
            "to": [
                8.03626, 
                7.6869, 
                5.78614
            ], 
            "rotation": {
                "origin": [
                    7.97926, 
                    7.5159, 
                    5.75764
                ], 
                "angle": 0, 
                "axis": "y"
            }, 
            "from": [
                7.92226, 
                7.3449, 
                5.72914
            ], 
            "faces": {
                "north": {
                    "rotation": 270, 
                    "uv": [
                        2, 
                        6, 
                        3.3, 
                        7.094
                    ], 
                    "texture": "#2"
                }, 
                "west": {
                    "rotation": 270, 
                    "uv": [
                        2, 
                        6, 
                        3.3, 
                        7.094
                    ], 
                    "texture": "#2"
                }, 
                "up": {
                    "rotation": 270, 
                    "uv": [
                        2, 
                        6, 
                        3.3, 
                        7.094
                    ], 
                    "texture": "#2"
                }, 
                "down": {
                    "rotation": 270, 
                    "uv": [
                        2, 
                        6, 
                        3.3, 
                        7.094
                    ], 
                    "texture": "#2"
                }, 
                "east": {
                    "rotation": 270, 
                    "uv": [
                        2, 
                        6, 
                        3.3, 
                        7.094
                    ], 
                    "texture": "#2"
                }, 
                "south": {
                    "rotation": 270, 
                    "uv": [
                        2, 
                        6, 
                        3.3, 
                        7.094
                    ], 
                    "texture": "#2"
                }
            }
        }, 
        {
            "to": [
                8.03626, 
                7.3449, 
                5.78614
            ], 
            "rotation": {
                "origin": [
                    7.97926, 
                    7.4019, 
                    5.75764
                ], 
                "angle": 0, 
                "axis": "y"
            }, 
            "from": [
                7.92226, 
                7.2309, 
                5.72914
            ], 
            "faces": {
                "north": {
                    "rotation": 270, 
                    "uv": [
                        1, 
                        5, 
                        2.8, 
                        7.094
                    ], 
                    "texture": "#2"
                }, 
                "west": {
                    "rotation": 270, 
                    "uv": [
                        1, 
                        5, 
                        2.8, 
                        7.094
                    ], 
                    "texture": "#2"
                }, 
                "up": {
                    "rotation": 180, 
                    "uv": [
                        1, 
                        5, 
                        2.8, 
                        7.094
                    ], 
                    "texture": "#2"
                }, 
                "down": {
                    "uv": [
                        1, 
                        5, 
                        2.8, 
                        7.094
                    ], 
                    "texture": "#2"
                }, 
                "east": {
                    "rotation": 270, 
                    "uv": [
                        1, 
                        5, 
                        2.8, 
                        7.094
                    ], 
                    "texture": "#2"
                }, 
                "south": {
                    "rotation": 270, 
                    "uv": [
                        1, 
                        5, 
                        2.8, 
                        7.094
                    ], 
                    "texture": "#2"
                }
            }
        }, 
        {
            "to": [
                7.77292, 
                7.98508, 
                6.41012
            ], 
            "rotation": {
                "origin": [
                    7.97926, 
                    8.59512, 
                    11.52532
                ], 
                "angle": 0, 
                "axis": "y"
            }, 
            "from": [
                7.65892, 
                7.64308, 
                5.04212
            ], 
            "faces": {
                "north": {
                    "uv": [
                        4.5, 
                        4.5, 
                        7.263, 
                        7.099
                    ], 
                    "texture": "#2"
                }, 
                "west": {
                    "uv": [
                        4.5, 
                        4.5, 
                        7.263, 
                        7.099
                    ], 
                    "texture": "#2"
                }, 
                "up": {
                    "rotation": 270, 
                    "uv": [
                        4.5, 
                        4.5, 
                        7.263, 
                        7.099
                    ], 
                    "texture": "#2"
                }, 
                "down": {
                    "rotation": 90, 
                    "uv": [
                        4.5, 
                        4.5, 
                        7.263, 
                        7.099
                    ], 
                    "texture": "#2"
                }, 
                "east": {
                    "uv": [
                        4.5, 
                        4.5, 
                        7.263, 
                        7.099
                    ], 
                    "texture": "#2"
                }, 
                "south": {
                    "uv": [
                        4.5, 
                        4.5, 
                        7.263, 
                        7.099
                    ], 
                    "texture": "#2"
                }
            }
        }, 
        {
            "to": [
                7.51301, 
                7.91224, 
                5.31034
            ], 
            "rotation": {
                "origin": [
                    7.41041, 
                    7.84384, 
                    5.25334
                ], 
                "angle": 45, 
                "axis": "y"
            }, 
            "from": [
                7.29641, 
                7.77544, 
                5.21914
            ], 
            "faces": {
                "north": {
                    "uv": [
                        4.5, 
                        4.5, 
                        7.263, 
                        7.099
                    ], 
                    "texture": "#2"
                }, 
                "west": {
                    "uv": [
                        4.5, 
                        4.5, 
                        7.263, 
                        7.099
                    ], 
                    "texture": "#2"
                }, 
                "up": {
                    "rotation": 270, 
                    "uv": [
                        4.5, 
                        4.5, 
                        7.263, 
                        7.099
                    ], 
                    "texture": "#2"
                }, 
                "down": {
                    "rotation": 90, 
                    "uv": [
                        4.5, 
                        4.5, 
                        7.263, 
                        7.099
                    ], 
                    "texture": "#2"
                }, 
                "east": {
                    "uv": [
                        4.5, 
                        4.5, 
                        7.263, 
                        7.099
                    ], 
                    "texture": "#2"
                }, 
                "south": {
                    "uv": [
                        4.5, 
                        4.5, 
                        7.263, 
                        7.099
                    ], 
                    "texture": "#2"
                }
            }
        }, 
        {
            "to": [
                7.46056, 
                7.91224, 
                5.375
            ], 
            "rotation": {
                "origin": [
                    7.41496, 
                    7.84384, 
                    5.2667
                ], 
                "angle": 0, 
                "axis": "y"
            }, 
            "from": [
                7.36936, 
                7.77544, 
                5.1584
            ], 
            "faces": {
                "north": {
                    "uv": [
                        4.5, 
                        4.5, 
                        6.763, 
                        6.099
                    ], 
                    "texture": "#2"
                }, 
                "west": {
                    "uv": [
                        4.5, 
                        4.5, 
                        6.763, 
                        6.099
                    ], 
                    "texture": "#2"
                }, 
                "up": {
                    "rotation": 270, 
                    "uv": [
                        4.5, 
                        4.5, 
                        6.763, 
                        6.099
                    ], 
                    "texture": "#2"
                }, 
                "down": {
                    "rotation": 90, 
                    "uv": [
                        4.5, 
                        4.5, 
                        6.763, 
                        6.099
                    ], 
                    "texture": "#2"
                }, 
                "east": {
                    "uv": [
                        4.5, 
                        4.5, 
                        6.763, 
                        6.099
                    ], 
                    "texture": "#2"
                }, 
                "south": {
                    "uv": [
                        4.5, 
                        4.5, 
                        6.763, 
                        6.099
                    ], 
                    "texture": "#2"
                }
            }
        }, 
        {
            "to": [
                7.52326, 
                7.91224, 
                5.3123
            ], 
            "rotation": {
                "origin": [
                    7.64866, 
                    8.70912, 
                    12.0953
                ], 
                "angle": 0, 
                "axis": "y"
            }, 
            "from": [
                7.30666, 
                7.77544, 
                5.2211
            ], 
            "faces": {
                "north": {
                    "uv": [
                        4.5, 
                        4.5, 
                        7.263, 
                        7.099
                    ], 
                    "texture": "#2"
                }, 
                "west": {
                    "uv": [
                        4.5, 
                        4.5, 
                        7.263, 
                        7.099
                    ], 
                    "texture": "#2"
                }, 
                "up": {
                    "rotation": 270, 
                    "uv": [
                        4.5, 
                        4.5, 
                        7.263, 
                        7.099
                    ], 
                    "texture": "#2"
                }, 
                "down": {
                    "rotation": 90, 
                    "uv": [
                        4.5, 
                        4.5, 
                        7.263, 
                        7.099
                    ], 
                    "texture": "#2"
                }, 
                "east": {
                    "uv": [
                        4.5, 
                        4.5, 
                        7.263, 
                        7.099
                    ], 
                    "texture": "#2"
                }, 
                "south": {
                    "uv": [
                        4.5, 
                        4.5, 
                        7.263, 
                        7.099
                    ], 
                    "texture": "#2"
                }
            }
        }, 
        {
            "to": [
                7.52326, 
                7.91224, 
                5.3123
            ], 
            "rotation": {
                "origin": [
                    7.41496, 
                    7.84384, 
                    5.2667
                ], 
                "angle": -45, 
                "axis": "y"
            }, 
            "from": [
                7.30666, 
                7.77544, 
                5.2211
            ], 
            "faces": {
                "north": {
                    "uv": [
                        4.5, 
                        4.5, 
                        7.263, 
                        7.099
                    ], 
                    "texture": "#2"
                }, 
                "west": {
                    "uv": [
                        4.5, 
                        4.5, 
                        7.263, 
                        7.099
                    ], 
                    "texture": "#2"
                }, 
                "up": {
                    "rotation": 270, 
                    "uv": [
                        4.5, 
                        4.5, 
                        7.263, 
                        7.099
                    ], 
                    "texture": "#2"
                }, 
                "down": {
                    "rotation": 90, 
                    "uv": [
                        4.5, 
                        4.5, 
                        7.263, 
                        7.099
                    ], 
                    "texture": "#2"
                }, 
                "east": {
                    "uv": [
                        4.5, 
                        4.5, 
                        7.263, 
                        7.099
                    ], 
                    "texture": "#2"
                }, 
                "south": {
                    "uv": [
                        4.5, 
                        4.5, 
                        7.263, 
                        7.099
                    ], 
                    "texture": "#2"
                }
            }
        }, 
        {
            "to": [
                8.03626, 
                7.88944, 
                5.3123
            ], 
            "rotation": {
                "origin": [
                    7.86526, 
                    8.70912, 
                    12.0953
                ], 
                "angle": 0, 
                "axis": "y"
            }, 
            "from": [
                7.52326, 
                7.79824, 
                5.2211
            ], 
            "faces": {
                "north": {
                    "uv": [
                        4.5, 
                        4.5, 
                        7.263, 
                        7.099
                    ], 
                    "texture": "#2"
                }, 
                "west": {
                    "uv": [
                        4.5, 
                        4.5, 
                        7.263, 
                        7.099
                    ], 
                    "texture": "#2"
                }, 
                "up": {
                    "rotation": 270, 
                    "uv": [
                        4.5, 
                        4.5, 
                        7.263, 
                        7.099
                    ], 
                    "texture": "#2"
                }, 
                "down": {
                    "rotation": 90, 
                    "uv": [
                        4.5, 
                        4.5, 
                        7.263, 
                        7.099
                    ], 
                    "texture": "#2"
                }, 
                "east": {
                    "uv": [
                        4.5, 
                        4.5, 
                        7.263, 
                        7.099
                    ], 
                    "texture": "#2"
                }, 
                "south": {
                    "uv": [
                        4.5, 
                        4.5, 
                        7.263, 
                        7.099
                    ], 
                    "texture": "#2"
                }
            }
        }
    ], 
    "display": {
        "thirdperson_righthand": {
            "rotation": [
                -6, 
                -1, 
                16
            ], 
            "scale": [
                0.93, 
                0.93, 
                0.93
            ], 
            "translation": [
                -1, 
                -1, 
                -3
            ]
        }, 
        "head": {
            "rotation": [
                0, 
                44, 
                90
            ], 
            "scale": [
                1.42, 
                1.53, 
                1.36
            ], 
            "translation": [
                -3.5, 
                7.25, 
                -5.75
            ]
        }, 
        "thirdperson_lefthand": {
            "rotation": [
                -6, 
                -1, 
                16
            ], 
            "scale": [
                0.93, 
                0.93, 
                0.93
            ], 
            "translation": [
                -1.75, 
                -0.5, 
                -4
            ]
        }, 
        "gui": {
            "rotation": [
                16, 
                24, 
                0
            ], 
            "scale": [
                1.5, 
                1.58, 
                1.22
            ], 
            "translation": [
                1.25, 
                -0.25, 
                1
            ]
        }, 
        "firstperson_righthand": {
            "translation": [
                -3.5, 
                4.25, 
                -1.5
            ], 
            "scale": [
                0.98, 
                1.17, 
                1.03
            ]
        }, 
        "firstperson_lefthand": {
            "translation": [
                -4.5, 
                4.25, 
                0
            ], 
            "scale": [
                0.98, 
                1.17, 
                1.03
            ]
        }, 
        "fixed": {
            "rotation": [
                0, 
                91, 
                0
            ], 
            "scale": [
                1.67, 
                1.53, 
                1.33
            ], 
            "translation": [
                0, 
                0, 
                -1.25
            ]
        }
    }
}