{
    "textures": {
        "0": "gci:items/common/all_in_one", 
        "2": "gci:items/common/mpz", 
        "particle": "gci:items/common/all_in_one"
    }, 
    "elements": [
        {
            "to": [
                7.90495, 
                8.53626, 
                3.60874
            ], 
            "rotation": {
                "origin": [
                    7.72095, 
                    7.54426, 
                    3.53074
                ], 
                "angle": -45, 
                "axis": "y"
            }, 
            "from": [
                7.53695, 
                7.99226, 
                3.45274
            ], 
            "faces": {
                "north": {
                    "rotation": 90, 
                    "uv": [
                        3, 
                        3, 
                        3, 
                        3
                    ], 
                    "texture": "#0"
                }, 
                "west": {
                    "rotation": 90, 
                    "uv": [
                        3, 
                        3, 
                        3, 
                        3
                    ], 
                    "texture": "#0"
                }, 
                "up": {
                    "rotation": 90, 
                    "uv": [
                        3, 
                        3, 
                        3, 
                        3
                    ], 
                    "texture": "#0"
                }, 
                "down": {
                    "rotation": 90, 
                    "uv": [
                        3, 
                        3, 
                        3, 
                        3
                    ], 
                    "texture": "#0"
                }, 
                "east": {
                    "rotation": 90, 
                    "uv": [
                        3, 
                        3, 
                        3, 
                        3
                    ], 
                    "texture": "#0"
                }, 
                "south": {
                    "rotation": 90, 
                    "uv": [
                        3, 
                        3, 
                        3, 
                        3
                    ], 
                    "texture": "#0"
                }
            }
        }, 
        {
            "to": [
                7.90495, 
                7.86426, 
                3.60874
            ], 
            "rotation": {
                "origin": [
                    7.72095, 
                    6.87226, 
                    3.53074
                ], 
                "angle": -45, 
                "axis": "y"
            }, 
            "from": [
                7.53695, 
                5.78426, 
                3.45274
            ], 
            "faces": {
                "north": {
                    "rotation": 90, 
                    "uv": [
                        3, 
                        3, 
                        3, 
                        3
                    ], 
                    "texture": "#0"
                }, 
                "west": {
                    "rotation": 90, 
                    "uv": [
                        3, 
                        3, 
                        3, 
                        3
                    ], 
                    "texture": "#0"
                }, 
                "up": {
                    "rotation": 90, 
                    "uv": [
                        3, 
                        3, 
                        3, 
                        3
                    ], 
                    "texture": "#0"
                }, 
                "down": {
                    "rotation": 90, 
                    "uv": [
                        3, 
                        3, 
                        3, 
                        3
                    ], 
                    "texture": "#0"
                }, 
                "east": {
                    "rotation": 90, 
                    "uv": [
                        3, 
                        3, 
                        3, 
                        3
                    ], 
                    "texture": "#0"
                }, 
                "south": {
                    "rotation": 90, 
                    "uv": [
                        3, 
                        3, 
                        3, 
                        3
                    ], 
                    "texture": "#0"
                }
            }
        }, 
        {
            "to": [
                8.42412, 
                8.53626, 
                3.27268
            ], 
            "rotation": {
                "origin": [
                    8.20093, 
                    7.54426, 
                    3.18023
                ], 
                "angle": 45, 
                "axis": "y"
            }, 
            "from": [
                8.26812, 
                7.99226, 
                2.90468
            ], 
            "faces": {
                "north": {
                    "rotation": 90, 
                    "uv": [
                        3, 
                        3, 
                        3, 
                        3
                    ], 
                    "texture": "#0"
                }, 
                "west": {
                    "rotation": 90, 
                    "uv": [
                        3, 
                        3, 
                        3, 
                        3
                    ], 
                    "texture": "#0"
                }, 
                "up": {
                    "uv": [
                        3, 
                        3, 
                        3, 
                        3
                    ], 
                    "texture": "#0"
                }, 
                "down": {
                    "rotation": 180, 
                    "uv": [
                        3, 
                        3, 
                        3, 
                        3
                    ], 
                    "texture": "#0"
                }, 
                "east": {
                    "rotation": 90, 
                    "uv": [
                        3, 
                        3, 
                        3, 
                        3
                    ], 
                    "texture": "#0"
                }, 
                "south": {
                    "rotation": 90, 
                    "uv": [
                        3, 
                        3, 
                        3, 
                        3
                    ], 
                    "texture": "#0"
                }
            }
        }, 
        {
            "to": [
                8.42412, 
                7.86426, 
                3.27268
            ], 
            "rotation": {
                "origin": [
                    8.20093, 
                    6.87226, 
                    3.18023
                ], 
                "angle": 45, 
                "axis": "y"
            }, 
            "from": [
                8.26812, 
                5.78426, 
                2.90468
            ], 
            "faces": {
                "north": {
                    "rotation": 90, 
                    "uv": [
                        3, 
                        3, 
                        3, 
                        3
                    ], 
                    "texture": "#0"
                }, 
                "west": {
                    "rotation": 90, 
                    "uv": [
                        3, 
                        3, 
                        3, 
                        3
                    ], 
                    "texture": "#0"
                }, 
                "up": {
                    "uv": [
                        3, 
                        3, 
                        3, 
                        3
                    ], 
                    "texture": "#0"
                }, 
                "down": {
                    "rotation": 180, 
                    "uv": [
                        3, 
                        3, 
                        3, 
                        3
                    ], 
                    "texture": "#0"
                }, 
                "east": {
                    "rotation": 90, 
                    "uv": [
                        3, 
                        3, 
                        3, 
                        3
                    ], 
                    "texture": "#0"
                }, 
                "south": {
                    "rotation": 90, 
                    "uv": [
                        3, 
                        3, 
                        3, 
                        3
                    ], 
                    "texture": "#0"
                }
            }
        }, 
        {
            "to": [
                7.79895, 
                8.53626, 
                3.19683
            ], 
            "rotation": {
                "origin": [
                    7.72095, 
                    7.54426, 
                    3.01283
                ], 
                "angle": -45, 
                "axis": "y"
            }, 
            "from": [
                7.64295, 
                7.99226, 
                2.82883
            ], 
            "faces": {
                "north": {
                    "rotation": 90, 
                    "uv": [
                        3, 
                        3, 
                        3, 
                        3
                    ], 
                    "texture": "#0"
                }, 
                "west": {
                    "rotation": 90, 
                    "uv": [
                        3, 
                        3, 
                        3, 
                        3
                    ], 
                    "texture": "#0"
                }, 
                "up": {
                    "uv": [
                        3, 
                        3, 
                        3, 
                        3
                    ], 
                    "texture": "#0"
                }, 
                "down": {
                    "rotation": 180, 
                    "uv": [
                        3, 
                        3, 
                        3, 
                        3
                    ], 
                    "texture": "#0"
                }, 
                "east": {
                    "rotation": 90, 
                    "uv": [
                        3, 
                        3, 
                        3, 
                        3
                    ], 
                    "texture": "#0"
                }, 
                "south": {
                    "rotation": 90, 
                    "uv": [
                        3, 
                        3, 
                        3, 
                        3
                    ], 
                    "texture": "#0"
                }
            }
        }, 
        {
            "to": [
                7.79895, 
                7.86426, 
                3.19683
            ], 
            "rotation": {
                "origin": [
                    7.72095, 
                    6.87226, 
                    3.01283
                ], 
                "angle": -45, 
                "axis": "y"
            }, 
            "from": [
                7.64295, 
                5.78426, 
                2.82883
            ], 
            "faces": {
                "north": {
                    "rotation": 90, 
                    "uv": [
                        3, 
                        3, 
                        3, 
                        3
                    ], 
                    "texture": "#0"
                }, 
                "west": {
                    "rotation": 90, 
                    "uv": [
                        3, 
                        3, 
                        3, 
                        3
                    ], 
                    "texture": "#0"
                }, 
                "up": {
                    "uv": [
                        3, 
                        3, 
                        3, 
                        3
                    ], 
                    "texture": "#0"
                }, 
                "down": {
                    "rotation": 180, 
                    "uv": [
                        3, 
                        3, 
                        3, 
                        3
                    ], 
                    "texture": "#0"
                }, 
                "east": {
                    "rotation": 90, 
                    "uv": [
                        3, 
                        3, 
                        3, 
                        3
                    ], 
                    "texture": "#0"
                }, 
                "south": {
                    "rotation": 90, 
                    "uv": [
                        3, 
                        3, 
                        3, 
                        3
                    ], 
                    "texture": "#0"
                }
            }
        }, 
        {
            "to": [
                8.1639, 
                8.53626, 
                3.53289
            ], 
            "rotation": {
                "origin": [
                    8.20093, 
                    7.54426, 
                    3.18023
                ], 
                "angle": 45, 
                "axis": "y"
            }, 
            "from": [
                7.7959, 
                7.99226, 
                3.37689
            ], 
            "faces": {
                "north": {
                    "rotation": 90, 
                    "uv": [
                        3, 
                        3, 
                        3, 
                        3
                    ], 
                    "texture": "#0"
                }, 
                "west": {
                    "rotation": 90, 
                    "uv": [
                        3, 
                        3, 
                        3, 
                        3
                    ], 
                    "texture": "#0"
                }, 
                "up": {
                    "rotation": 270, 
                    "uv": [
                        3, 
                        3, 
                        3, 
                        3
                    ], 
                    "texture": "#0"
                }, 
                "down": {
                    "rotation": 270, 
                    "uv": [
                        3, 
                        3, 
                        3, 
                        3
                    ], 
                    "texture": "#0"
                }, 
                "east": {
                    "rotation": 90, 
                    "uv": [
                        3, 
                        3, 
                        3, 
                        3
                    ], 
                    "texture": "#0"
                }, 
                "south": {
                    "rotation": 90, 
                    "uv": [
                        3, 
                        3, 
                        3, 
                        3
                    ], 
                    "texture": "#0"
                }
            }
        }, 
        {
            "to": [
                8.1639, 
                7.86426, 
                3.53289
            ], 
            "rotation": {
                "origin": [
                    8.20093, 
                    6.87226, 
                    3.18023
                ], 
                "angle": 45, 
                "axis": "y"
            }, 
            "from": [
                7.7959, 
                5.78426, 
                3.37689
            ], 
            "faces": {
                "north": {
                    "rotation": 90, 
                    "uv": [
                        3, 
                        3, 
                        3, 
                        3
                    ], 
                    "texture": "#0"
                }, 
                "west": {
                    "rotation": 90, 
                    "uv": [
                        3, 
                        3, 
                        3, 
                        3
                    ], 
                    "texture": "#0"
                }, 
                "up": {
                    "rotation": 270, 
                    "uv": [
                        3, 
                        3, 
                        3, 
                        3
                    ], 
                    "texture": "#0"
                }, 
                "down": {
                    "rotation": 270, 
                    "uv": [
                        3, 
                        3, 
                        3, 
                        3
                    ], 
                    "texture": "#0"
                }, 
                "east": {
                    "rotation": 90, 
                    "uv": [
                        3, 
                        3, 
                        3, 
                        3
                    ], 
                    "texture": "#0"
                }, 
                "south": {
                    "rotation": 90, 
                    "uv": [
                        3, 
                        3, 
                        3, 
                        3
                    ], 
                    "texture": "#0"
                }
            }
        }, 
        {
            "to": [
                7.69168, 
                8.98426, 
                3.45578
            ], 
            "rotation": {
                "origin": [
                    7.61368, 
                    7.54426, 
                    3.27178
                ], 
                "angle": 0, 
                "axis": "y"
            }, 
            "from": [
                7.53568, 
                7.99226, 
                3.08778
            ], 
            "faces": {
                "north": {
                    "rotation": 90, 
                    "uv": [
                        3, 
                        3, 
                        3, 
                        3
                    ], 
                    "texture": "#0"
                }, 
                "west": {
                    "rotation": 90, 
                    "uv": [
                        3, 
                        3, 
                        3, 
                        3
                    ], 
                    "texture": "#0"
                }, 
                "up": {
                    "rotation": 180, 
                    "uv": [
                        3, 
                        3, 
                        3, 
                        3
                    ], 
                    "texture": "#0"
                }, 
                "down": {
                    "uv": [
                        3, 
                        3, 
                        3, 
                        3
                    ], 
                    "texture": "#0"
                }, 
                "east": {
                    "rotation": 90, 
                    "uv": [
                        3, 
                        3, 
                        3, 
                        3
                    ], 
                    "texture": "#0"
                }, 
                "south": {
                    "rotation": 90, 
                    "uv": [
                        3, 
                        3, 
                        3, 
                        3
                    ], 
                    "texture": "#0"
                }
            }
        }, 
        {
            "to": [
                8.45968, 
                8.87226, 
                3.35978
            ], 
            "rotation": {
                "origin": [
                    7.59768, 
                    8.76826, 
                    3.25578
                ], 
                "angle": 45, 
                "axis": "x"
            }, 
            "from": [
                7.50368, 
                8.69626, 
                3.18378
            ], 
            "faces": {
                "north": {
                    "rotation": 90, 
                    "uv": [
                        4.375, 
                        3.375, 
                        4.375, 
                        3.375
                    ], 
                    "texture": "#0"
                }, 
                "west": {
                    "rotation": 90, 
                    "uv": [
                        4.375, 
                        3.375, 
                        4.375, 
                        3.375
                    ], 
                    "texture": "#0"
                }, 
                "up": {
                    "rotation": 90, 
                    "uv": [
                        4.375, 
                        3.375, 
                        4.375, 
                        3.375
                    ], 
                    "texture": "#0"
                }, 
                "down": {
                    "rotation": 90, 
                    "uv": [
                        4.375, 
                        3.375, 
                        4.375, 
                        3.375
                    ], 
                    "texture": "#0"
                }, 
                "east": {
                    "rotation": 90, 
                    "uv": [
                        4.375, 
                        3.375, 
                        4.375, 
                        3.375
                    ], 
                    "texture": "#0"
                }, 
                "south": {
                    "rotation": 90, 
                    "uv": [
                        4.375, 
                        3.375, 
                        4.375, 
                        3.375
                    ], 
                    "texture": "#0"
                }
            }
        }, 
        {
            "to": [
                7.69168, 
                7.86426, 
                3.45578
            ], 
            "rotation": {
                "origin": [
                    7.61368, 
                    6.87226, 
                    3.27178
                ], 
                "angle": 0, 
                "axis": "y"
            }, 
            "from": [
                7.53568, 
                5.78426, 
                3.08778
            ], 
            "faces": {
                "north": {
                    "rotation": 90, 
                    "uv": [
                        3, 
                        3, 
                        3, 
                        3
                    ], 
                    "texture": "#0"
                }, 
                "west": {
                    "rotation": 90, 
                    "uv": [
                        3, 
                        3, 
                        3, 
                        3
                    ], 
                    "texture": "#0"
                }, 
                "up": {
                    "rotation": 180, 
                    "uv": [
                        3, 
                        3, 
                        3, 
                        3
                    ], 
                    "texture": "#0"
                }, 
                "down": {
                    "uv": [
                        3, 
                        3, 
                        3, 
                        3
                    ], 
                    "texture": "#0"
                }, 
                "east": {
                    "rotation": 90, 
                    "uv": [
                        3, 
                        3, 
                        3, 
                        3
                    ], 
                    "texture": "#0"
                }, 
                "south": {
                    "rotation": 90, 
                    "uv": [
                        3, 
                        3, 
                        3, 
                        3
                    ], 
                    "texture": "#0"
                }
            }
        }, 
        {
            "to": [
                8.42412, 
                8.98426, 
                3.45578
            ], 
            "rotation": {
                "origin": [
                    8.20093, 
                    7.54426, 
                    3.18023
                ], 
                "angle": 0, 
                "axis": "y"
            }, 
            "from": [
                8.26812, 
                7.99226, 
                3.08778
            ], 
            "faces": {
                "north": {
                    "rotation": 90, 
                    "uv": [
                        3, 
                        3, 
                        3, 
                        3
                    ], 
                    "texture": "#0"
                }, 
                "west": {
                    "rotation": 90, 
                    "uv": [
                        3, 
                        3, 
                        3, 
                        3
                    ], 
                    "texture": "#0"
                }, 
                "up": {
                    "uv": [
                        3, 
                        3, 
                        3, 
                        3
                    ], 
                    "texture": "#0"
                }, 
                "down": {
                    "rotation": 180, 
                    "uv": [
                        3, 
                        3, 
                        3, 
                        3
                    ], 
                    "texture": "#0"
                }, 
                "east": {
                    "rotation": 90, 
                    "uv": [
                        3, 
                        3, 
                        3, 
                        3
                    ], 
                    "texture": "#0"
                }, 
                "south": {
                    "rotation": 90, 
                    "uv": [
                        3, 
                        3, 
                        3, 
                        3
                    ], 
                    "texture": "#0"
                }
            }
        }, 
        {
            "to": [
                8.42412, 
                7.86426, 
                3.45578
            ], 
            "rotation": {
                "origin": [
                    8.20093, 
                    6.87226, 
                    3.18023
                ], 
                "angle": 0, 
                "axis": "y"
            }, 
            "from": [
                8.26812, 
                5.78426, 
                3.08778
            ], 
            "faces": {
                "north": {
                    "rotation": 90, 
                    "uv": [
                        3, 
                        3, 
                        3, 
                        3
                    ], 
                    "texture": "#0"
                }, 
                "west": {
                    "rotation": 90, 
                    "uv": [
                        3, 
                        3, 
                        3, 
                        3
                    ], 
                    "texture": "#0"
                }, 
                "up": {
                    "uv": [
                        3, 
                        3, 
                        3, 
                        3
                    ], 
                    "texture": "#0"
                }, 
                "down": {
                    "rotation": 180, 
                    "uv": [
                        3, 
                        3, 
                        3, 
                        3
                    ], 
                    "texture": "#0"
                }, 
                "east": {
                    "rotation": 90, 
                    "uv": [
                        3, 
                        3, 
                        3, 
                        3
                    ], 
                    "texture": "#0"
                }, 
                "south": {
                    "rotation": 90, 
                    "uv": [
                        3, 
                        3, 
                        3, 
                        3
                    ], 
                    "texture": "#0"
                }
            }
        }, 
        {
            "to": [
                8.1639, 
                8.53626, 
                3.716
            ], 
            "rotation": {
                "origin": [
                    7.9799, 
                    7.54426, 
                    3.638
                ], 
                "angle": 0, 
                "axis": "y"
            }, 
            "from": [
                7.7959, 
                7.99226, 
                3.56
            ], 
            "faces": {
                "north": {
                    "rotation": 90, 
                    "uv": [
                        3, 
                        3, 
                        3, 
                        3
                    ], 
                    "texture": "#0"
                }, 
                "west": {
                    "rotation": 90, 
                    "uv": [
                        3, 
                        3, 
                        3, 
                        3
                    ], 
                    "texture": "#0"
                }, 
                "up": {
                    "rotation": 90, 
                    "uv": [
                        3, 
                        3, 
                        3, 
                        3
                    ], 
                    "texture": "#0"
                }, 
                "down": {
                    "rotation": 90, 
                    "uv": [
                        3, 
                        3, 
                        3, 
                        3
                    ], 
                    "texture": "#0"
                }, 
                "east": {
                    "rotation": 90, 
                    "uv": [
                        3, 
                        3, 
                        3, 
                        3
                    ], 
                    "texture": "#0"
                }, 
                "south": {
                    "rotation": 90, 
                    "uv": [
                        3, 
                        3, 
                        3, 
                        3
                    ], 
                    "texture": "#0"
                }
            }
        }, 
        {
            "to": [
                8.1639, 
                7.86426, 
                3.716
            ], 
            "rotation": {
                "origin": [
                    7.9799, 
                    6.87226, 
                    3.638
                ], 
                "angle": 0, 
                "axis": "y"
            }, 
            "from": [
                7.7959, 
                5.78426, 
                3.56
            ], 
            "faces": {
                "north": {
                    "rotation": 90, 
                    "uv": [
                        3, 
                        3, 
                        3, 
                        3
                    ], 
                    "texture": "#0"
                }, 
                "west": {
                    "rotation": 90, 
                    "uv": [
                        3, 
                        3, 
                        3, 
                        3
                    ], 
                    "texture": "#0"
                }, 
                "up": {
                    "rotation": 90, 
                    "uv": [
                        3, 
                        3, 
                        3, 
                        3
                    ], 
                    "texture": "#0"
                }, 
                "down": {
                    "rotation": 90, 
                    "uv": [
                        3, 
                        3, 
                        3, 
                        3
                    ], 
                    "texture": "#0"
                }, 
                "east": {
                    "rotation": 90, 
                    "uv": [
                        3, 
                        3, 
                        3, 
                        3
                    ], 
                    "texture": "#0"
                }, 
                "south": {
                    "rotation": 90, 
                    "uv": [
                        3, 
                        3, 
                        3, 
                        3
                    ], 
                    "texture": "#0"
                }
            }
        }, 
        {
            "to": [
                7.76894, 
                8.53626, 
                3.43704
            ], 
            "rotation": {
                "origin": [
                    7.69094, 
                    8.31226, 
                    3.28504
                ], 
                "angle": 0, 
                "axis": "y"
            }, 
            "from": [
                7.61294, 
                5.59226, 
                3.13304
            ], 
            "faces": {
                "north": {
                    "rotation": 90, 
                    "uv": [
                        7.625, 
                        11.875, 
                        7.625, 
                        11.875
                    ], 
                    "texture": "#0"
                }, 
                "west": {
                    "rotation": 90, 
                    "uv": [
                        7.625, 
                        11.875, 
                        7.625, 
                        11.875
                    ], 
                    "texture": "#0"
                }, 
                "up": {
                    "rotation": 90, 
                    "uv": [
                        7.625, 
                        11.875, 
                        7.625, 
                        11.875
                    ], 
                    "texture": "#0"
                }, 
                "down": {
                    "rotation": 90, 
                    "uv": [
                        7.625, 
                        11.875, 
                        7.625, 
                        11.875
                    ], 
                    "texture": "#0"
                }, 
                "east": {
                    "rotation": 90, 
                    "uv": [
                        7.625, 
                        11.875, 
                        7.625, 
                        11.875
                    ], 
                    "texture": "#0"
                }, 
                "south": {
                    "rotation": 90, 
                    "uv": [
                        7.625, 
                        11.875, 
                        7.625, 
                        11.875
                    ], 
                    "texture": "#0"
                }
            }
        }, 
        {
            "to": [
                8.34686, 
                8.53626, 
                3.43704
            ], 
            "rotation": {
                "origin": [
                    8.1543, 
                    8.31226, 
                    3.2128
                ], 
                "angle": 0, 
                "axis": "y"
            }, 
            "from": [
                7.74286, 
                5.59226, 
                3.13304
            ], 
            "faces": {
                "north": {
                    "rotation": 90, 
                    "uv": [
                        7.625, 
                        11.875, 
                        7.625, 
                        11.875
                    ], 
                    "texture": "#0"
                }, 
                "west": {
                    "rotation": 90, 
                    "uv": [
                        7.625, 
                        11.875, 
                        7.625, 
                        11.875
                    ], 
                    "texture": "#0"
                }, 
                "up": {
                    "rotation": 90, 
                    "uv": [
                        7.625, 
                        11.875, 
                        7.625, 
                        11.875
                    ], 
                    "texture": "#0"
                }, 
                "down": {
                    "rotation": 90, 
                    "uv": [
                        7.625, 
                        11.875, 
                        7.625, 
                        11.875
                    ], 
                    "texture": "#0"
                }, 
                "east": {
                    "rotation": 90, 
                    "uv": [
                        7.625, 
                        11.875, 
                        7.625, 
                        11.875
                    ], 
                    "texture": "#0"
                }, 
                "south": {
                    "rotation": 90, 
                    "uv": [
                        7.625, 
                        11.875, 
                        7.625, 
                        11.875
                    ], 
                    "texture": "#0"
                }
            }
        }, 
        {
            "to": [
                7.92757, 
                8.53626, 
                3.56737
            ], 
            "rotation": {
                "origin": [
                    7.77557, 
                    8.31226, 
                    3.48937
                ], 
                "angle": -45, 
                "axis": "y"
            }, 
            "from": [
                7.62357, 
                5.59226, 
                3.41137
            ], 
            "faces": {
                "north": {
                    "rotation": 90, 
                    "uv": [
                        7.625, 
                        11.875, 
                        7.625, 
                        11.875
                    ], 
                    "texture": "#0"
                }, 
                "west": {
                    "rotation": 90, 
                    "uv": [
                        7.625, 
                        11.875, 
                        7.625, 
                        11.875
                    ], 
                    "texture": "#0"
                }, 
                "up": {
                    "rotation": 90, 
                    "uv": [
                        7.625, 
                        11.875, 
                        7.625, 
                        11.875
                    ], 
                    "texture": "#0"
                }, 
                "down": {
                    "rotation": 90, 
                    "uv": [
                        7.625, 
                        11.875, 
                        7.625, 
                        11.875
                    ], 
                    "texture": "#0"
                }, 
                "east": {
                    "rotation": 90, 
                    "uv": [
                        7.625, 
                        11.875, 
                        7.625, 
                        11.875
                    ], 
                    "texture": "#0"
                }, 
                "south": {
                    "rotation": 90, 
                    "uv": [
                        7.625, 
                        11.875, 
                        7.625, 
                        11.875
                    ], 
                    "texture": "#0"
                }
            }
        }, 
        {
            "to": [
                8.23406, 
                8.53626, 
                3.17624
            ], 
            "rotation": {
                "origin": [
                    8.1543, 
                    8.31226, 
                    3.2128
                ], 
                "angle": -45, 
                "axis": "y"
            }, 
            "from": [
                7.93006, 
                5.59226, 
                3.02024
            ], 
            "faces": {
                "north": {
                    "rotation": 90, 
                    "uv": [
                        7.625, 
                        11.875, 
                        7.625, 
                        11.875
                    ], 
                    "texture": "#0"
                }, 
                "west": {
                    "rotation": 90, 
                    "uv": [
                        7.625, 
                        11.875, 
                        7.625, 
                        11.875
                    ], 
                    "texture": "#0"
                }, 
                "up": {
                    "rotation": 90, 
                    "uv": [
                        7.625, 
                        11.875, 
                        7.625, 
                        11.875
                    ], 
                    "texture": "#0"
                }, 
                "down": {
                    "rotation": 90, 
                    "uv": [
                        7.625, 
                        11.875, 
                        7.625, 
                        11.875
                    ], 
                    "texture": "#0"
                }, 
                "east": {
                    "rotation": 90, 
                    "uv": [
                        7.625, 
                        11.875, 
                        7.625, 
                        11.875
                    ], 
                    "texture": "#0"
                }, 
                "south": {
                    "rotation": 90, 
                    "uv": [
                        7.625, 
                        11.875, 
                        7.625, 
                        11.875
                    ], 
                    "texture": "#0"
                }
            }
        }, 
        {
            "to": [
                8.1319, 
                8.53626, 
                3.652
            ], 
            "rotation": {
                "origin": [
                    7.9799, 
                    8.31226, 
                    3.574
                ], 
                "angle": 0, 
                "axis": "y"
            }, 
            "from": [
                7.8279, 
                5.59226, 
                3.496
            ], 
            "faces": {
                "north": {
                    "rotation": 90, 
                    "uv": [
                        7.625, 
                        11.875, 
                        7.625, 
                        11.875
                    ], 
                    "texture": "#0"
                }, 
                "west": {
                    "rotation": 90, 
                    "uv": [
                        7.625, 
                        11.875, 
                        7.625, 
                        11.875
                    ], 
                    "texture": "#0"
                }, 
                "up": {
                    "rotation": 90, 
                    "uv": [
                        7.625, 
                        11.875, 
                        7.625, 
                        11.875
                    ], 
                    "texture": "#0"
                }, 
                "down": {
                    "rotation": 90, 
                    "uv": [
                        7.625, 
                        11.875, 
                        7.625, 
                        11.875
                    ], 
                    "texture": "#0"
                }, 
                "east": {
                    "rotation": 90, 
                    "uv": [
                        7.625, 
                        11.875, 
                        7.625, 
                        11.875
                    ], 
                    "texture": "#0"
                }, 
                "south": {
                    "rotation": 90, 
                    "uv": [
                        7.625, 
                        11.875, 
                        7.625, 
                        11.875
                    ], 
                    "texture": "#0"
                }
            }
        }, 
        {
            "to": [
                8.1319, 
                8.53626, 
                3.61808
            ], 
            "rotation": {
                "origin": [
                    8.1543, 
                    8.31226, 
                    3.2128
                ], 
                "angle": 0, 
                "axis": "y"
            }, 
            "from": [
                7.8279, 
                5.59226, 
                2.91808
            ], 
            "faces": {
                "north": {
                    "rotation": 90, 
                    "uv": [
                        7.625, 
                        11.875, 
                        7.625, 
                        11.875
                    ], 
                    "texture": "#0"
                }, 
                "west": {
                    "rotation": 90, 
                    "uv": [
                        7.625, 
                        11.875, 
                        7.625, 
                        11.875
                    ], 
                    "texture": "#0"
                }, 
                "up": {
                    "rotation": 90, 
                    "uv": [
                        7.625, 
                        11.875, 
                        7.625, 
                        11.875
                    ], 
                    "texture": "#0"
                }, 
                "down": {
                    "rotation": 90, 
                    "uv": [
                        7.625, 
                        11.875, 
                        7.625, 
                        11.875
                    ], 
                    "texture": "#0"
                }, 
                "east": {
                    "rotation": 90, 
                    "uv": [
                        7.625, 
                        11.875, 
                        7.625, 
                        11.875
                    ], 
                    "texture": "#0"
                }, 
                "south": {
                    "rotation": 90, 
                    "uv": [
                        7.625, 
                        11.875, 
                        7.625, 
                        11.875
                    ], 
                    "texture": "#0"
                }
            }
        }, 
        {
            "to": [
                8.3559, 
                9.01626, 
                3.77808
            ], 
            "rotation": {
                "origin": [
                    8.1543, 
                    8.31226, 
                    3.2128
                ], 
                "angle": 0, 
                "axis": "y"
            }, 
            "from": [
                7.6039, 
                8.47226, 
                2.72608
            ], 
            "faces": {
                "north": {
                    "rotation": 90, 
                    "uv": [
                        7.625, 
                        11.875, 
                        7.625, 
                        11.875
                    ], 
                    "texture": "#0"
                }, 
                "west": {
                    "rotation": 90, 
                    "uv": [
                        7.625, 
                        11.875, 
                        7.625, 
                        11.875
                    ], 
                    "texture": "#0"
                }, 
                "up": {
                    "rotation": 90, 
                    "uv": [
                        7.625, 
                        11.875, 
                        7.625, 
                        11.875
                    ], 
                    "texture": "#0"
                }, 
                "down": {
                    "rotation": 90, 
                    "uv": [
                        7.625, 
                        11.875, 
                        7.625, 
                        11.875
                    ], 
                    "texture": "#0"
                }, 
                "east": {
                    "rotation": 90, 
                    "uv": [
                        7.625, 
                        11.875, 
                        7.625, 
                        11.875
                    ], 
                    "texture": "#0"
                }, 
                "south": {
                    "rotation": 90, 
                    "uv": [
                        7.625, 
                        11.875, 
                        7.625, 
                        11.875
                    ], 
                    "texture": "#0"
                }
            }
        }, 
        {
            "to": [
                7.92757, 
                8.53626, 
                3.15871
            ], 
            "rotation": {
                "origin": [
                    7.77557, 
                    8.31226, 
                    3.08071
                ], 
                "angle": 45, 
                "axis": "y"
            }, 
            "from": [
                7.62357, 
                5.59226, 
                3.00271
            ], 
            "faces": {
                "north": {
                    "rotation": 90, 
                    "uv": [
                        7.625, 
                        11.875, 
                        7.625, 
                        11.875
                    ], 
                    "texture": "#0"
                }, 
                "west": {
                    "rotation": 90, 
                    "uv": [
                        7.625, 
                        11.875, 
                        7.625, 
                        11.875
                    ], 
                    "texture": "#0"
                }, 
                "up": {
                    "rotation": 90, 
                    "uv": [
                        7.625, 
                        11.875, 
                        7.625, 
                        11.875
                    ], 
                    "texture": "#0"
                }, 
                "down": {
                    "rotation": 90, 
                    "uv": [
                        7.625, 
                        11.875, 
                        7.625, 
                        11.875
                    ], 
                    "texture": "#0"
                }, 
                "east": {
                    "rotation": 90, 
                    "uv": [
                        7.625, 
                        11.875, 
                        7.625, 
                        11.875
                    ], 
                    "texture": "#0"
                }, 
                "south": {
                    "rotation": 90, 
                    "uv": [
                        7.625, 
                        11.875, 
                        7.625, 
                        11.875
                    ], 
                    "texture": "#0"
                }
            }
        }, 
        {
            "to": [
                8.44902, 
                8.53626, 
                3.5392
            ], 
            "rotation": {
                "origin": [
                    8.1543, 
                    8.31226, 
                    3.2128
                ], 
                "angle": -45, 
                "axis": "y"
            }, 
            "from": [
                8.29302, 
                5.59226, 
                3.2352
            ], 
            "faces": {
                "north": {
                    "rotation": 90, 
                    "uv": [
                        7.625, 
                        11.875, 
                        7.625, 
                        11.875
                    ], 
                    "texture": "#0"
                }, 
                "west": {
                    "rotation": 90, 
                    "uv": [
                        7.625, 
                        11.875, 
                        7.625, 
                        11.875
                    ], 
                    "texture": "#0"
                }, 
                "up": {
                    "rotation": 90, 
                    "uv": [
                        7.625, 
                        11.875, 
                        7.625, 
                        11.875
                    ], 
                    "texture": "#0"
                }, 
                "down": {
                    "rotation": 90, 
                    "uv": [
                        7.625, 
                        11.875, 
                        7.625, 
                        11.875
                    ], 
                    "texture": "#0"
                }, 
                "east": {
                    "rotation": 90, 
                    "uv": [
                        7.625, 
                        11.875, 
                        7.625, 
                        11.875
                    ], 
                    "texture": "#0"
                }, 
                "south": {
                    "rotation": 90, 
                    "uv": [
                        7.625, 
                        11.875, 
                        7.625, 
                        11.875
                    ], 
                    "texture": "#0"
                }
            }
        }, 
        {
            "to": [
                8.1639, 
                8.53626, 
                2.98357
            ], 
            "rotation": {
                "origin": [
                    8.20093, 
                    7.54426, 
                    3.18023
                ], 
                "angle": 0, 
                "axis": "y"
            }, 
            "from": [
                7.7959, 
                7.99226, 
                2.82757
            ], 
            "faces": {
                "north": {
                    "rotation": 90, 
                    "uv": [
                        3, 
                        3, 
                        3, 
                        3
                    ], 
                    "texture": "#0"
                }, 
                "west": {
                    "rotation": 90, 
                    "uv": [
                        3, 
                        3, 
                        3, 
                        3
                    ], 
                    "texture": "#0"
                }, 
                "up": {
                    "rotation": 270, 
                    "uv": [
                        3, 
                        3, 
                        3, 
                        3
                    ], 
                    "texture": "#0"
                }, 
                "down": {
                    "rotation": 270, 
                    "uv": [
                        3, 
                        3, 
                        3, 
                        3
                    ], 
                    "texture": "#0"
                }, 
                "east": {
                    "rotation": 90, 
                    "uv": [
                        3, 
                        3, 
                        3, 
                        3
                    ], 
                    "texture": "#0"
                }, 
                "south": {
                    "rotation": 90, 
                    "uv": [
                        3, 
                        3, 
                        3, 
                        3
                    ], 
                    "texture": "#0"
                }
            }
        }, 
        {
            "to": [
                8.1639, 
                7.86426, 
                2.98357
            ], 
            "rotation": {
                "origin": [
                    8.20093, 
                    6.87226, 
                    3.18023
                ], 
                "angle": 0, 
                "axis": "y"
            }, 
            "from": [
                7.7959, 
                5.78426, 
                2.82757
            ], 
            "faces": {
                "north": {
                    "rotation": 90, 
                    "uv": [
                        3, 
                        3, 
                        3, 
                        3
                    ], 
                    "texture": "#0"
                }, 
                "west": {
                    "rotation": 90, 
                    "uv": [
                        3, 
                        3, 
                        3, 
                        3
                    ], 
                    "texture": "#0"
                }, 
                "up": {
                    "rotation": 270, 
                    "uv": [
                        3, 
                        3, 
                        3, 
                        3
                    ], 
                    "texture": "#0"
                }, 
                "down": {
                    "rotation": 270, 
                    "uv": [
                        3, 
                        3, 
                        3, 
                        3
                    ], 
                    "texture": "#0"
                }, 
                "east": {
                    "rotation": 90, 
                    "uv": [
                        3, 
                        3, 
                        3, 
                        3
                    ], 
                    "texture": "#0"
                }, 
                "south": {
                    "rotation": 90, 
                    "uv": [
                        3, 
                        3, 
                        3, 
                        3
                    ], 
                    "texture": "#0"
                }
            }
        }
    ], 
    "display": {
        "thirdperson_righthand": {
            "rotation": [
                -6, 
                -1, 
                16
            ], 
            "scale": [
                0.93, 
                0.93, 
                0.93
            ], 
            "translation": [
                -1, 
                -1, 
                -3
            ]
        }, 
        "head": {
            "rotation": [
                0, 
                44, 
                90
            ], 
            "scale": [
                1.42, 
                1.53, 
                1.36
            ], 
            "translation": [
                -3.5, 
                7.25, 
                -5.75
            ]
        }, 
        "thirdperson_lefthand": {
            "rotation": [
                -6, 
                -1, 
                16
            ], 
            "scale": [
                0.93, 
                0.93, 
                0.93
            ], 
            "translation": [
                -1.75, 
                -0.5, 
                -4
            ]
        }, 
        "gui": {
            "rotation": [
                16, 
                24, 
                0
            ], 
            "scale": [
                1.5, 
                1.58, 
                1.22
            ], 
            "translation": [
                1.25, 
                -0.25, 
                1
            ]
        }, 
        "firstperson_righthand": {
            "translation": [
                -3.5, 
                4.25, 
                -1.5
            ], 
            "scale": [
                0.98, 
                1.17, 
                1.03
            ]
        }, 
        "firstperson_lefthand": {
            "translation": [
                -4.5, 
                4.25, 
                0
            ], 
            "scale": [
                0.98, 
                1.17, 
                1.03
            ]
        }, 
        "fixed": {
            "rotation": [
                0, 
                91, 
                0
            ], 
            "scale": [
                1.67, 
                1.53, 
                1.33
            ], 
            "translation": [
                0, 
                0, 
                -1.25
            ]
        }
    }
}