{
	"credit": "Made with Blockbench",
	"textures": {
		"0": "gci:items/common/all_in_one",
		"particle": "gci:items/common/all_in_one"
	},
	"elements": [
		{
			"from": [7.7, 1.88478, 8.02074],
			"to": [8.3, 3.95978, 9.12074],
			"rotation": {"angle": -22.5, "axis": "x", "origin": [8, 2.88478, 7.92074]},
			"faces": {
				"north": {"uv": [5.375, 12.875, 5.5, 13], "texture": "#0"},
				"east": {"uv": [5.375, 12.875, 5.5, 13], "texture": "#0"},
				"south": {"uv": [5.375, 12.875, 5.5, 13], "texture": "#0"},
				"west": {"uv": [5.375, 12.875, 5.5, 13], "texture": "#0"},
				"up": {"uv": [5.375, 12.875, 5.5, 13], "texture": "#0"},
				"down": {"uv": [5.375, 12.875, 5.5, 13], "texture": "#0"}
			}
		},
		{
			"from": [7.7, 3.28559, 7.64005],
			"to": [8.3, 3.71059, 8.04005],
			"rotation": {"angle": 22.5, "axis": "x", "origin": [8, 3.49809, 7.74005]},
			"faces": {
				"north": {"uv": [5.375, 12.875, 5.5, 13], "texture": "#0"},
				"east": {"uv": [5.375, 12.875, 5.5, 13], "texture": "#0"},
				"south": {"uv": [5.375, 12.875, 5.5, 13], "texture": "#0"},
				"west": {"uv": [5.375, 12.875, 5.5, 13], "texture": "#0"},
				"up": {"uv": [5.375, 12.875, 5.5, 13], "texture": "#0"},
				"down": {"uv": [5.375, 12.875, 5.5, 13], "texture": "#0"}
			}
		},
		{
			"from": [7.7, 1.99917, 8.39582],
			"to": [8.3, 2.42417, 9.41082],
			"rotation": {"angle": 0, "axis": "x", "origin": [8, 2.09917, 8.60832]},
			"faces": {
				"north": {"uv": [5.375, 12.875, 5.5, 13], "texture": "#0"},
				"east": {"uv": [5.375, 12.875, 5.5, 13], "texture": "#0"},
				"south": {"uv": [5.375, 12.875, 5.5, 13], "texture": "#0"},
				"west": {"uv": [5.375, 12.875, 5.5, 13], "texture": "#0"},
				"up": {"uv": [5.375, 12.875, 5.5, 13], "texture": "#0"},
				"down": {"uv": [5.375, 12.875, 5.5, 13], "texture": "#0"}
			}
		},
		{
			"from": [7.7, 3.34003, 7.56634],
			"to": [8.3, 3.91503, 7.96634],
			"rotation": {"angle": 0, "axis": "x", "origin": [8, 3.55253, 7.66634]},
			"faces": {
				"north": {"uv": [5.375, 12.875, 5.5, 13], "texture": "#0"},
				"east": {"uv": [5.375, 12.875, 5.5, 13], "texture": "#0"},
				"south": {"uv": [5.375, 12.875, 5.5, 13], "texture": "#0"},
				"west": {"uv": [5.375, 12.875, 5.5, 13], "texture": "#0"},
				"up": {"uv": [5.375, 12.875, 5.5, 13], "texture": "#0"},
				"down": {"uv": [5.375, 12.875, 5.5, 13], "texture": "#0"}
			}
		},
		{
			"from": [7.7, 3.34003, 6.29134],
			"to": [8.3, 3.51503, 7.59134],
			"rotation": {"angle": 0, "axis": "y", "origin": [8, 3.55253, 7.29134]},
			"faces": {
				"north": {"uv": [5.375, 12.875, 5.5, 13], "texture": "#0"},
				"east": {"uv": [5.375, 12.875, 5.5, 13], "texture": "#0"},
				"south": {"uv": [5.375, 12.875, 5.5, 13], "texture": "#0"},
				"west": {"uv": [5.375, 12.875, 5.5, 13], "texture": "#0"},
				"up": {"uv": [5.375, 12.875, 5.5, 13], "texture": "#0"},
				"down": {"uv": [5.375, 12.875, 5.5, 13], "texture": "#0"}
			}
		},
		{
			"from": [7.7, 3.46059, 7.34005],
			"to": [8.3, 4.31059, 7.74005],
			"rotation": {"angle": 22.5, "axis": "x", "origin": [8, 3.62309, 7.44005]},
			"faces": {
				"north": {"uv": [5.375, 12.875, 5.5, 13], "texture": "#0"},
				"east": {"uv": [5.375, 12.875, 5.5, 13], "texture": "#0"},
				"south": {"uv": [5.375, 12.875, 5.5, 13], "texture": "#0"},
				"west": {"uv": [5.375, 12.875, 5.5, 13], "texture": "#0"},
				"up": {"uv": [5.375, 12.875, 5.5, 13], "texture": "#0"},
				"down": {"uv": [5.375, 12.875, 5.5, 13], "texture": "#0"}
			}
		},
		{
			"from": [7.7, 3.40243, 6.01697],
			"to": [8.3, 3.80243, 6.19197],
			"rotation": {"angle": -45, "axis": "x", "origin": [8, 3.70243, 6.22947]},
			"faces": {
				"north": {"uv": [5.375, 12.875, 5.5, 13], "texture": "#0"},
				"east": {"uv": [5.375, 12.875, 5.5, 13], "texture": "#0"},
				"south": {"uv": [5.375, 12.875, 5.5, 13], "texture": "#0"},
				"west": {"uv": [5.375, 12.875, 5.5, 13], "texture": "#0"},
				"up": {"uv": [5.375, 12.875, 5.5, 13], "texture": "#0"},
				"down": {"uv": [5.375, 12.875, 5.5, 13], "texture": "#0"}
			}
		},
		{
			"from": [7.7, 3.62288, 6.0085],
			"to": [8.3, 4.32288, 6.1835],
			"rotation": {"angle": 0, "axis": "x", "origin": [8, 3.92288, 6.221]},
			"faces": {
				"north": {"uv": [5.375, 12.875, 5.5, 13], "texture": "#0"},
				"east": {"uv": [5.375, 12.875, 5.5, 13], "texture": "#0"},
				"south": {"uv": [5.375, 12.875, 5.5, 13], "texture": "#0"},
				"west": {"uv": [5.375, 12.875, 5.5, 13], "texture": "#0"},
				"up": {"uv": [5.375, 12.875, 5.5, 13], "texture": "#0"},
				"down": {"uv": [5.375, 12.875, 5.5, 13], "texture": "#0"}
			}
		},
		{
			"from": [7.7, 4.22288, 5.9585],
			"to": [8.3, 4.62288, 6.3585],
			"rotation": {"angle": -45, "axis": "x", "origin": [8, 4.42288, 6.146]},
			"faces": {
				"north": {"uv": [5.375, 12.875, 5.5, 13], "texture": "#0"},
				"east": {"uv": [5.375, 12.875, 5.5, 13], "texture": "#0"},
				"south": {"uv": [5.375, 12.875, 5.5, 13], "texture": "#0"},
				"west": {"uv": [5.375, 12.875, 5.5, 13], "texture": "#0"},
				"up": {"uv": [5.375, 12.875, 5.5, 13], "texture": "#0"},
				"down": {"uv": [5.375, 12.875, 5.5, 13], "texture": "#0"}
			}
		},
		{
			"from": [7.7, 3.83478, 7.57074],
			"to": [8.3, 4.40978, 8.62074],
			"rotation": {"angle": 0, "axis": "x", "origin": [8, 3.33478, 7.42074]},
			"faces": {
				"north": {"uv": [5.375, 12.875, 5.5, 13], "texture": "#0"},
				"east": {"uv": [5.375, 12.875, 5.5, 13], "texture": "#0"},
				"south": {"uv": [5.375, 12.875, 5.5, 13], "texture": "#0"},
				"west": {"uv": [5.375, 12.875, 5.5, 13], "texture": "#0"},
				"up": {"uv": [5.375, 12.875, 5.5, 13], "texture": "#0"},
				"down": {"uv": [5.375, 12.875, 5.5, 13], "texture": "#0"}
			}
		},
		{
			"from": [7.9, 3.51059, 7.11505],
			"to": [8.1, 4.51059, 7.56505],
			"rotation": {"angle": 0, "axis": "x", "origin": [8, 3.67309, 7.44005]},
			"faces": {
				"north": {"uv": [13.75, 5, 13.774, 5.125], "texture": "#0"},
				"east": {"uv": [13.75, 5, 13.774, 5.125], "texture": "#0"},
				"south": {"uv": [13.75, 5, 13.774, 5.125], "texture": "#0"},
				"west": {"uv": [13.75, 5, 13.774, 5.125], "texture": "#0"},
				"up": {"uv": [13.75, 5, 13.774, 5.125], "texture": "#0"},
				"down": {"uv": [13.75, 5, 13.774, 5.125], "texture": "#0"}
			}
		},
		{
			"from": [7.9, 4.23559, 7.24005],
			"to": [8.1, 4.93559, 7.46505],
			"rotation": {"angle": -45, "axis": "x", "origin": [8, 4.09809, 7.56505]},
			"faces": {
				"north": {"uv": [13.75, 5, 13.774, 5.125], "texture": "#0"},
				"east": {"uv": [13.75, 5, 13.774, 5.125], "texture": "#0"},
				"south": {"uv": [13.75, 5, 13.774, 5.125], "texture": "#0"},
				"west": {"uv": [13.75, 5, 13.774, 5.125], "texture": "#0"},
				"up": {"uv": [13.75, 5, 13.774, 5.125], "texture": "#0"},
				"down": {"uv": [13.75, 5, 13.774, 5.125], "texture": "#0"}
			}
		},
		{
			"from": [7.9, 3.26174, 6.95998],
			"to": [8.1, 3.86174, 7.18498],
			"rotation": {"angle": 45, "axis": "x", "origin": [8, 3.56174, 7.18498]},
			"faces": {
				"north": {"uv": [13.75, 5, 13.774, 5.125], "texture": "#0"},
				"east": {"uv": [13.75, 5, 13.774, 5.125], "texture": "#0"},
				"south": {"uv": [13.75, 5, 13.774, 5.125], "texture": "#0"},
				"west": {"uv": [13.75, 5, 13.774, 5.125], "texture": "#0"},
				"up": {"uv": [13.75, 5, 13.774, 5.125], "texture": "#0"},
				"down": {"uv": [13.75, 5, 13.774, 5.125], "texture": "#0"}
			}
		},
		{
			"from": [7.9, 3.78674, 7.08498],
			"to": [8.1, 4.38674, 7.53498],
			"rotation": {"angle": -22.5, "axis": "x", "origin": [8, 4.08674, 7.30998]},
			"faces": {
				"north": {"uv": [13.75, 5, 13.774, 5.125], "texture": "#0"},
				"east": {"uv": [13.75, 5, 13.774, 5.125], "texture": "#0"},
				"south": {"uv": [13.75, 5, 13.774, 5.125], "texture": "#0"},
				"west": {"uv": [13.75, 5, 13.774, 5.125], "texture": "#0"},
				"up": {"uv": [13.75, 5, 13.774, 5.125], "texture": "#0"},
				"down": {"uv": [13.75, 5, 13.774, 5.125], "texture": "#0"}
			}
		},
		{
			"from": [7.9, 3.43674, 7.05998],
			"to": [8.1, 4.03674, 7.50998],
			"rotation": {"angle": 22.5, "axis": "x", "origin": [8, 3.73674, 7.28498]},
			"faces": {
				"north": {"uv": [13.75, 5, 13.774, 5.125], "texture": "#0"},
				"east": {"uv": [13.75, 5, 13.774, 5.125], "texture": "#0"},
				"south": {"uv": [13.75, 5, 13.774, 5.125], "texture": "#0"},
				"west": {"uv": [13.75, 5, 13.774, 5.125], "rotation": 180, "texture": "#0"},
				"up": {"uv": [13.75, 5, 13.774, 5.125], "texture": "#0"},
				"down": {"uv": [13.75, 5, 13.774, 5.125], "texture": "#0"}
			}
		},
		{
			"from": [7.6, 1.98478, 8.12074],
			"to": [8.4, 3.85978, 9.02074],
			"rotation": {"angle": -22.5, "axis": "x", "origin": [8, 2.88478, 7.92074]},
			"faces": {
				"north": {"uv": [9.5, 13, 9.625, 13.125], "texture": "#0"},
				"east": {"uv": [9.5, 13, 9.625, 13.125], "texture": "#0"},
				"south": {"uv": [9.5, 13, 9.625, 13.125], "texture": "#0"},
				"west": {"uv": [9.5, 13, 9.625, 13.125], "texture": "#0"},
				"up": {"uv": [9.5, 13, 9.625, 13.125], "texture": "#0"},
				"down": {"uv": [9.5, 13, 9.625, 13.125], "texture": "#0"}
			}
		},
		{
			"from": [7.6, 3.85651, 7.735],
			"to": [8.4, 4.18151, 8.561],
			"rotation": {"angle": 0, "axis": "x", "origin": [8, 3.23151, 7.46389]},
			"faces": {
				"north": {"uv": [9.5, 13, 9.625, 13.125], "texture": "#0"},
				"east": {"uv": [9.5, 13, 9.625, 13.125], "texture": "#0"},
				"south": {"uv": [9.5, 13, 9.625, 13.125], "texture": "#0"},
				"west": {"uv": [9.5, 13, 9.625, 13.125], "texture": "#0"},
				"up": {"uv": [9.5, 13, 9.625, 13.125], "texture": "#0"},
				"down": {"uv": [9.5, 13, 9.625, 13.125], "texture": "#0"}
			}
		},
		{
			"from": [7.6, 2.12982, 8.44993],
			"to": [8.4, 2.47982, 9.27993],
			"rotation": {"angle": 0, "axis": "y", "origin": [8, 1.50482, 8.17883]},
			"faces": {
				"north": {"uv": [9.5, 13, 9.625, 13.125], "texture": "#0"},
				"east": {"uv": [9.5, 13, 9.625, 13.125], "texture": "#0"},
				"south": {"uv": [9.5, 13, 9.625, 13.125], "texture": "#0"},
				"west": {"uv": [9.5, 13, 9.625, 13.125], "texture": "#0"},
				"up": {"uv": [9.5, 13, 9.625, 13.125], "texture": "#0"},
				"down": {"uv": [9.5, 13, 9.625, 13.125], "texture": "#0"}
			}
		},
		{
			"from": [7.6, 4.18478, 7.42074],
			"to": [8.4, 5.50978, 8.62074],
			"rotation": {"angle": 0, "axis": "y", "origin": [8, 3.78478, 7.42074]},
			"faces": {
				"north": {"uv": [5.375, 12.875, 5.5, 13], "texture": "#0"},
				"east": {"uv": [5.375, 12.875, 5.5, 13], "texture": "#0"},
				"south": {"uv": [5.375, 12.875, 5.5, 13], "texture": "#0"},
				"west": {"uv": [5.375, 12.875, 5.5, 13], "texture": "#0"},
				"up": {"uv": [5.375, 12.875, 5.5, 13], "texture": "#0"},
				"down": {"uv": [5.375, 12.875, 5.5, 13], "texture": "#0"}
			}
		},
		{
			"from": [7.6, 4.47337, 8.27263],
			"to": [8.4, 4.87337, 8.77263],
			"rotation": {"angle": 22.5, "axis": "x", "origin": [8, 4.76087, 8.22263]},
			"faces": {
				"north": {"uv": [5.375, 12.875, 5.5, 13], "texture": "#0"},
				"east": {"uv": [5.375, 12.875, 5.5, 13], "texture": "#0"},
				"south": {"uv": [5.375, 12.875, 5.5, 13], "texture": "#0"},
				"west": {"uv": [5.375, 12.875, 5.5, 13], "texture": "#0"},
				"up": {"uv": [5.375, 12.875, 5.5, 13], "texture": "#0"},
				"down": {"uv": [5.375, 12.875, 5.5, 13], "texture": "#0"}
			}
		},
		{
			"from": [7.6, 4.75903, 8.6382],
			"to": [8.4, 5.15903, 9.1382],
			"rotation": {"angle": 45, "axis": "x", "origin": [8, 5.24653, 8.5882]},
			"faces": {
				"north": {"uv": [5.375, 12.875, 5.5, 13], "texture": "#0"},
				"east": {"uv": [5.375, 12.875, 5.5, 13], "texture": "#0"},
				"south": {"uv": [5.375, 12.875, 5.5, 13], "texture": "#0"},
				"west": {"uv": [5.375, 12.875, 5.5, 13], "texture": "#0"},
				"up": {"uv": [5.375, 12.875, 5.5, 13], "texture": "#0"},
				"down": {"uv": [5.375, 12.875, 5.5, 13], "texture": "#0"}
			}
		},
		{
			"from": [7.6, 4.39788, 5.8585],
			"to": [8.4, 5.34788, 7.6585],
			"rotation": {"angle": 0, "axis": "x", "origin": [8, 4.59788, 6.146]},
			"faces": {
				"north": {"uv": [5.375, 12.875, 5.5, 13], "texture": "#0"},
				"east": {"uv": [5.375, 12.875, 5.5, 13], "texture": "#0"},
				"south": {"uv": [5.375, 12.875, 5.5, 13], "texture": "#0"},
				"west": {"uv": [5.375, 12.875, 5.5, 13], "texture": "#0"},
				"up": {"uv": [5.375, 12.875, 5.5, 13], "texture": "#0"},
				"down": {"uv": [5.375, 12.875, 5.5, 13], "texture": "#0"}
			}
		},
		{
			"from": [7.6, 4.403, 7.07899],
			"to": [8.4, 4.603, 7.35399],
			"rotation": {"angle": 22.5, "axis": "x", "origin": [8, 4.50262, 7.09149]},
			"faces": {
				"north": {"uv": [5.375, 12.875, 5.5, 13], "texture": "#0"},
				"east": {"uv": [5.375, 12.875, 5.5, 13], "texture": "#0"},
				"south": {"uv": [5.375, 12.875, 5.5, 13], "texture": "#0"},
				"west": {"uv": [5.375, 12.875, 5.5, 13], "texture": "#0"},
				"up": {"uv": [5.375, 12.875, 5.5, 13], "texture": "#0"},
				"down": {"uv": [5.375, 12.875, 5.5, 13], "texture": "#0"}
			}
		},
		{
			"from": [7.6, 4.36318, 6.99004],
			"to": [8.4, 4.56318, 7.51504],
			"rotation": {"angle": 45, "axis": "x", "origin": [8, 4.3878, 7.25254]},
			"faces": {
				"north": {"uv": [5.375, 12.875, 5.5, 13], "texture": "#0"},
				"east": {"uv": [5.375, 12.875, 5.5, 13], "texture": "#0"},
				"south": {"uv": [5.375, 12.875, 5.5, 13], "texture": "#0"},
				"west": {"uv": [5.375, 12.875, 5.5, 13], "texture": "#0"},
				"up": {"uv": [5.375, 12.875, 5.5, 13], "texture": "#0"},
				"down": {"uv": [5.375, 12.875, 5.5, 13], "texture": "#0"}
			}
		},
		{
			"from": [7.6, 5.24788, 5.1335],
			"to": [8.4, 5.34788, 5.8835],
			"rotation": {"angle": 0, "axis": "y", "origin": [8, 4.59788, 6.146]},
			"faces": {
				"north": {"uv": [5.375, 12.875, 5.5, 13], "texture": "#0"},
				"east": {"uv": [5.375, 12.875, 5.5, 13], "texture": "#0"},
				"south": {"uv": [5.375, 12.875, 5.5, 13], "texture": "#0"},
				"west": {"uv": [5.375, 12.875, 5.5, 13], "texture": "#0"},
				"up": {"uv": [5.375, 12.875, 5.5, 13], "texture": "#0"},
				"down": {"uv": [5.375, 12.875, 5.5, 13], "texture": "#0"}
			}
		},
		{
			"from": [7.6, 4.51764, 8.12913],
			"to": [8.4, 5.29264, 8.62913],
			"rotation": {"angle": -22.5, "axis": "x", "origin": [8, 5.38014, 8.07913]},
			"faces": {
				"north": {"uv": [5.375, 12.875, 5.5, 13], "texture": "#0"},
				"east": {"uv": [5.375, 12.875, 5.5, 13], "texture": "#0"},
				"south": {"uv": [5.375, 12.875, 5.5, 13], "texture": "#0"},
				"west": {"uv": [5.375, 12.875, 5.5, 13], "texture": "#0"},
				"up": {"uv": [5.375, 12.875, 5.5, 13], "texture": "#0"},
				"down": {"uv": [5.375, 12.875, 5.5, 13], "texture": "#0"}
			}
		},
		{
			"from": [7.8, 4.41764, 8.32913],
			"to": [8.2, 5.29264, 8.72913],
			"rotation": {"angle": -22.5, "axis": "x", "origin": [8, 5.38014, 8.07913]},
			"faces": {
				"north": {"uv": [13.75, 5, 13.774, 5.125], "texture": "#0"},
				"east": {"uv": [13.75, 5, 13.774, 5.125], "texture": "#0"},
				"south": {"uv": [13.75, 5, 13.774, 5.125], "texture": "#0"},
				"west": {"uv": [13.75, 5, 13.774, 5.125], "texture": "#0"},
				"up": {"uv": [13.75, 5, 13.774, 5.125], "texture": "#0"},
				"down": {"uv": [13.75, 5, 13.774, 5.125], "texture": "#0"}
			}
		},
		{
			"from": [7.6, 5.38478, 7.22074],
			"to": [8.4, 5.50978, 7.42074],
			"rotation": {"angle": 0, "axis": "y", "origin": [8, 3.78478, 7.42074]},
			"faces": {
				"north": {"uv": [5.375, 12.875, 5.5, 13], "texture": "#0"},
				"east": {"uv": [5.375, 12.875, 5.5, 13], "texture": "#0"},
				"south": {"uv": [5.375, 12.875, 5.5, 13], "texture": "#0"},
				"west": {"uv": [5.375, 12.875, 5.5, 13], "texture": "#0"},
				"up": {"uv": [5.375, 12.875, 5.5, 13], "texture": "#0"},
				"down": {"uv": [5.375, 12.875, 5.5, 13], "texture": "#0"}
			}
		},
		{
			"from": [7.6, 5.28478, 7.32074],
			"to": [8.4, 5.50978, 7.42074],
			"rotation": {"angle": 0, "axis": "y", "origin": [8, 3.78478, 7.42074]},
			"faces": {
				"north": {"uv": [5.375, 12.875, 5.5, 13], "texture": "#0"},
				"east": {"uv": [5.375, 12.875, 5.5, 13], "texture": "#0"},
				"south": {"uv": [5.375, 12.875, 5.5, 13], "texture": "#0"},
				"west": {"uv": [5.375, 12.875, 5.5, 13], "texture": "#0"},
				"up": {"uv": [5.375, 12.875, 5.5, 13], "texture": "#0"},
				"down": {"uv": [5.375, 12.875, 5.5, 13], "texture": "#0"}
			}
		},
		{
			"from": [7.95, 5.29788, 5.3585],
			"to": [8.05, 5.54788, 5.6835],
			"rotation": {"angle": 0, "axis": "y", "origin": [8, 4.59788, 6.146]},
			"faces": {
				"north": {"uv": [5.375, 12.875, 5.5, 13], "texture": "#0"},
				"east": {"uv": [5.375, 12.875, 5.5, 13], "texture": "#0"},
				"south": {"uv": [5.375, 12.875, 5.5, 13], "texture": "#0"},
				"west": {"uv": [5.375, 12.875, 5.5, 13], "texture": "#0"},
				"up": {"uv": [5.375, 12.875, 5.5, 13], "texture": "#0"},
				"down": {"uv": [5.375, 12.875, 5.5, 13], "texture": "#0"}
			}
		},
		{
			"from": [7.8, 4.28478, 8.42074],
			"to": [7.9, 5.60978, 8.62074],
			"rotation": {"angle": 0, "axis": "y", "origin": [8, 3.88478, 7.42074]},
			"faces": {
				"north": {"uv": [5.375, 12.875, 5.5, 13], "texture": "#0"},
				"east": {"uv": [5.375, 12.875, 5.5, 13], "texture": "#0"},
				"south": {"uv": [5.375, 12.875, 5.5, 13], "texture": "#0"},
				"west": {"uv": [5.375, 12.875, 5.5, 13], "texture": "#0"},
				"up": {"uv": [5.375, 12.875, 5.5, 13], "texture": "#0"},
				"down": {"uv": [5.375, 12.875, 5.5, 13], "texture": "#0"}
			}
		},
		{
			"from": [8.1, 4.28478, 8.42074],
			"to": [8.2, 5.60978, 8.62074],
			"rotation": {"angle": 0, "axis": "y", "origin": [8.3, 3.88478, 7.42074]},
			"faces": {
				"north": {"uv": [5.375, 12.875, 5.5, 13], "texture": "#0"},
				"east": {"uv": [5.375, 12.875, 5.5, 13], "texture": "#0"},
				"south": {"uv": [5.375, 12.875, 5.5, 13], "texture": "#0"},
				"west": {"uv": [5.375, 12.875, 5.5, 13], "texture": "#0"},
				"up": {"uv": [5.375, 12.875, 5.5, 13], "texture": "#0"},
				"down": {"uv": [5.375, 12.875, 5.5, 13], "texture": "#0"}
			}
		},
		{
			"from": [7.575, 2.22982, 8.74993],
			"to": [8.425, 2.37982, 8.89993],
			"rotation": {"angle": 45, "axis": "x", "origin": [8, 2.30482, 8.82493]},
			"faces": {
				"north": {"uv": [14.375, 6.75, 14.5, 6.875], "texture": "#0"},
				"east": {"uv": [14.375, 6.75, 14.5, 6.875], "texture": "#0"},
				"south": {"uv": [14.375, 6.75, 14.5, 6.875], "texture": "#0"},
				"west": {"uv": [14.375, 6.75, 14.5, 6.875], "texture": "#0"},
				"up": {"uv": [14.375, 6.75, 14.5, 6.875], "texture": "#0"},
				"down": {"uv": [14.375, 6.75, 14.5, 6.875], "texture": "#0"}
			}
		},
		{
			"from": [7.575, 5.02982, 8.52493],
			"to": [8.425, 5.17982, 8.67493],
			"rotation": {"angle": 45, "axis": "x", "origin": [8, 5.10482, 8.59993]},
			"faces": {
				"north": {"uv": [14.375, 6.75, 14.5, 6.875], "texture": "#0"},
				"east": {"uv": [14.375, 6.75, 14.5, 6.875], "texture": "#0"},
				"south": {"uv": [14.375, 6.75, 14.5, 6.875], "texture": "#0"},
				"west": {"uv": [14.375, 6.75, 14.5, 6.875], "texture": "#0"},
				"up": {"uv": [14.375, 6.75, 14.5, 6.875], "texture": "#0"},
				"down": {"uv": [14.375, 6.75, 14.5, 6.875], "texture": "#0"}
			}
		},
		{
			"from": [7.575, 4.30482, 7.39993],
			"to": [8.425, 4.45482, 7.54993],
			"rotation": {"angle": 45, "axis": "x", "origin": [8, 4.37982, 7.47493]},
			"faces": {
				"north": {"uv": [14.375, 6.75, 14.5, 6.875], "texture": "#0"},
				"east": {"uv": [14.375, 6.75, 14.5, 6.875], "texture": "#0"},
				"south": {"uv": [14.375, 6.75, 14.5, 6.875], "texture": "#0"},
				"west": {"uv": [14.375, 6.75, 14.5, 6.875], "texture": "#0"},
				"up": {"uv": [14.375, 6.75, 14.5, 6.875], "texture": "#0"},
				"down": {"uv": [14.375, 6.75, 14.5, 6.875], "texture": "#0"}
			}
		},
		{
			"from": [8.1, 5.22288, 5.1335],
			"to": [8.275, 5.29788, 5.8585],
			"rotation": {"angle": 0, "axis": "y", "origin": [7.875, 4.54788, 6.121]},
			"faces": {
				"north": {"uv": [5.375, 12.875, 5.5, 13], "texture": "#0"},
				"east": {"uv": [5.375, 12.875, 5.5, 13], "texture": "#0"},
				"south": {"uv": [5.375, 12.875, 5.5, 13], "texture": "#0"},
				"west": {"uv": [5.375, 12.875, 5.5, 13], "texture": "#0"},
				"up": {"uv": [5.375, 12.875, 5.5, 13], "texture": "#0"},
				"down": {"uv": [5.375, 12.875, 5.5, 13], "texture": "#0"}
			}
		},
		{
			"from": [8.1, 4.94788, 5.1335],
			"to": [8.275, 5.02288, 5.8585],
			"rotation": {"angle": 0, "axis": "y", "origin": [7.875, 4.27288, 6.121]},
			"faces": {
				"north": {"uv": [5.375, 12.875, 5.5, 13], "texture": "#0"},
				"east": {"uv": [5.375, 12.875, 5.5, 13], "texture": "#0"},
				"south": {"uv": [5.375, 12.875, 5.5, 13], "texture": "#0"},
				"west": {"uv": [5.375, 12.875, 5.5, 13], "texture": "#0"},
				"up": {"uv": [5.375, 12.875, 5.5, 13], "texture": "#0"},
				"down": {"uv": [5.375, 12.875, 5.5, 13], "texture": "#0"}
			}
		},
		{
			"from": [8.0125, 5.03538, 5.1335],
			"to": [8.0875, 5.21038, 5.8585],
			"rotation": {"angle": 0, "axis": "z", "origin": [8.1875, 5.12288, 5.496]},
			"faces": {
				"north": {"uv": [5.375, 12.875, 5.5, 13], "rotation": 270, "texture": "#0"},
				"east": {"uv": [5.375, 12.875, 5.5, 13], "rotation": 90, "texture": "#0"},
				"south": {"uv": [5.375, 12.875, 5.5, 13], "rotation": 90, "texture": "#0"},
				"west": {"uv": [5.375, 12.875, 5.5, 13], "rotation": 90, "texture": "#0"},
				"up": {"uv": [5.375, 12.875, 5.5, 13], "rotation": 90, "texture": "#0"},
				"down": {"uv": [5.375, 12.875, 5.5, 13], "rotation": 90, "texture": "#0"}
			}
		},
		{
			"from": [8.2875, 5.03538, 5.1335],
			"to": [8.3625, 5.21038, 5.8585],
			"rotation": {"angle": 0, "axis": "z", "origin": [8.1875, 5.12288, 5.496]},
			"faces": {
				"north": {"uv": [5.375, 12.875, 5.5, 13], "rotation": 270, "texture": "#0"},
				"east": {"uv": [5.375, 12.875, 5.5, 13], "rotation": 90, "texture": "#0"},
				"south": {"uv": [5.375, 12.875, 5.5, 13], "rotation": 90, "texture": "#0"},
				"west": {"uv": [5.375, 12.875, 5.5, 13], "rotation": 90, "texture": "#0"},
				"up": {"uv": [5.375, 12.875, 5.5, 13], "rotation": 90, "texture": "#0"},
				"down": {"uv": [5.375, 12.875, 5.5, 13], "rotation": 90, "texture": "#0"}
			}
		},
		{
			"from": [8.0125, 5.03538, 5.1335],
			"to": [8.0875, 5.21038, 5.8585],
			"rotation": {"angle": 45, "axis": "z", "origin": [8.1875, 5.12288, 5.496]},
			"faces": {
				"north": {"uv": [5.375, 12.875, 5.5, 13], "rotation": 270, "texture": "#0"},
				"east": {"uv": [5.375, 12.875, 5.5, 13], "rotation": 90, "texture": "#0"},
				"south": {"uv": [5.375, 12.875, 5.5, 13], "rotation": 90, "texture": "#0"},
				"west": {"uv": [5.375, 12.875, 5.5, 13], "rotation": 90, "texture": "#0"},
				"up": {"uv": [5.375, 12.875, 5.5, 13], "rotation": 90, "texture": "#0"},
				"down": {"uv": [5.375, 12.875, 5.5, 13], "rotation": 90, "texture": "#0"}
			}
		},
		{
			"from": [8.2875, 5.03538, 5.1335],
			"to": [8.3625, 5.21038, 5.8585],
			"rotation": {"angle": 45, "axis": "z", "origin": [8.1875, 5.12288, 5.496]},
			"faces": {
				"north": {"uv": [5.375, 12.875, 5.5, 13], "rotation": 270, "texture": "#0"},
				"east": {"uv": [5.375, 12.875, 5.5, 13], "rotation": 90, "texture": "#0"},
				"south": {"uv": [5.375, 12.875, 5.5, 13], "rotation": 90, "texture": "#0"},
				"west": {"uv": [5.375, 12.875, 5.5, 13], "rotation": 90, "texture": "#0"},
				"up": {"uv": [5.375, 12.875, 5.5, 13], "rotation": 90, "texture": "#0"},
				"down": {"uv": [5.375, 12.875, 5.5, 13], "rotation": 90, "texture": "#0"}
			}
		},
		{
			"from": [8.0125, 5.03538, 5.1335],
			"to": [8.0875, 5.21038, 5.8585],
			"rotation": {"angle": -45, "axis": "z", "origin": [8.1875, 5.12288, 5.496]},
			"faces": {
				"north": {"uv": [5.375, 12.875, 5.5, 13], "rotation": 270, "texture": "#0"},
				"east": {"uv": [5.375, 12.875, 5.5, 13], "rotation": 90, "texture": "#0"},
				"south": {"uv": [5.375, 12.875, 5.5, 13], "rotation": 90, "texture": "#0"},
				"west": {"uv": [5.375, 12.875, 5.5, 13], "rotation": 90, "texture": "#0"},
				"up": {"uv": [5.375, 12.875, 5.5, 13], "rotation": 90, "texture": "#0"},
				"down": {"uv": [5.375, 12.875, 5.5, 13], "rotation": 90, "texture": "#0"}
			}
		},
		{
			"from": [8.2875, 5.03538, 5.1335],
			"to": [8.3625, 5.21038, 5.8585],
			"rotation": {"angle": -45, "axis": "z", "origin": [8.1875, 5.12288, 5.496]},
			"faces": {
				"north": {"uv": [5.375, 12.875, 5.5, 13], "rotation": 270, "texture": "#0"},
				"east": {"uv": [5.375, 12.875, 5.5, 13], "rotation": 90, "texture": "#0"},
				"south": {"uv": [5.375, 12.875, 5.5, 13], "rotation": 90, "texture": "#0"},
				"west": {"uv": [5.375, 12.875, 5.5, 13], "rotation": 90, "texture": "#0"},
				"up": {"uv": [5.375, 12.875, 5.5, 13], "rotation": 90, "texture": "#0"},
				"down": {"uv": [5.375, 12.875, 5.5, 13], "rotation": 90, "texture": "#0"}
			}
		},
		{
			"from": [7.6375, 5.03538, 5.1335],
			"to": [7.7125, 5.21038, 5.8585],
			"rotation": {"angle": -45, "axis": "z", "origin": [7.8125, 5.12288, 5.496]},
			"faces": {
				"north": {"uv": [5.375, 12.875, 5.5, 13], "rotation": 270, "texture": "#0"},
				"east": {"uv": [5.375, 12.875, 5.5, 13], "rotation": 90, "texture": "#0"},
				"south": {"uv": [5.375, 12.875, 5.5, 13], "rotation": 90, "texture": "#0"},
				"west": {"uv": [5.375, 12.875, 5.5, 13], "rotation": 90, "texture": "#0"},
				"up": {"uv": [5.375, 12.875, 5.5, 13], "rotation": 90, "texture": "#0"},
				"down": {"uv": [5.375, 12.875, 5.5, 13], "rotation": 90, "texture": "#0"}
			}
		},
		{
			"from": [7.9125, 5.03538, 5.1335],
			"to": [7.9875, 5.21038, 5.8585],
			"rotation": {"angle": -45, "axis": "z", "origin": [7.8125, 5.12288, 5.496]},
			"faces": {
				"north": {"uv": [5.375, 12.875, 5.5, 13], "rotation": 270, "texture": "#0"},
				"east": {"uv": [5.375, 12.875, 5.5, 13], "rotation": 90, "texture": "#0"},
				"south": {"uv": [5.375, 12.875, 5.5, 13], "rotation": 90, "texture": "#0"},
				"west": {"uv": [5.375, 12.875, 5.5, 13], "rotation": 90, "texture": "#0"},
				"up": {"uv": [5.375, 12.875, 5.5, 13], "rotation": 90, "texture": "#0"},
				"down": {"uv": [5.375, 12.875, 5.5, 13], "rotation": 90, "texture": "#0"}
			}
		},
		{
			"from": [7.725, 5.22288, 5.1335],
			"to": [7.9, 5.29788, 5.8585],
			"rotation": {"angle": 0, "axis": "y", "origin": [7.5, 4.54788, 6.121]},
			"faces": {
				"north": {"uv": [5.375, 12.875, 5.5, 13], "texture": "#0"},
				"east": {"uv": [5.375, 12.875, 5.5, 13], "texture": "#0"},
				"south": {"uv": [5.375, 12.875, 5.5, 13], "texture": "#0"},
				"west": {"uv": [5.375, 12.875, 5.5, 13], "texture": "#0"},
				"up": {"uv": [5.375, 12.875, 5.5, 13], "texture": "#0"},
				"down": {"uv": [5.375, 12.875, 5.5, 13], "texture": "#0"}
			}
		},
		{
			"from": [7.9125, 5.03538, 5.1335],
			"to": [7.9875, 5.21038, 5.8585],
			"rotation": {"angle": 0, "axis": "y", "origin": [7.8125, 5.12288, 5.496]},
			"faces": {
				"north": {"uv": [5.375, 12.875, 5.5, 13], "rotation": 270, "texture": "#0"},
				"east": {"uv": [5.375, 12.875, 5.5, 13], "rotation": 90, "texture": "#0"},
				"south": {"uv": [5.375, 12.875, 5.5, 13], "rotation": 90, "texture": "#0"},
				"west": {"uv": [5.375, 12.875, 5.5, 13], "rotation": 90, "texture": "#0"},
				"up": {"uv": [5.375, 12.875, 5.5, 13], "rotation": 90, "texture": "#0"},
				"down": {"uv": [5.375, 12.875, 5.5, 13], "rotation": 90, "texture": "#0"}
			}
		},
		{
			"from": [7.9125, 5.03538, 5.1335],
			"to": [7.9875, 5.21038, 5.8585],
			"rotation": {"angle": 45, "axis": "z", "origin": [7.8125, 5.12288, 5.496]},
			"faces": {
				"north": {"uv": [5.375, 12.875, 5.5, 13], "rotation": 270, "texture": "#0"},
				"east": {"uv": [5.375, 12.875, 5.5, 13], "rotation": 90, "texture": "#0"},
				"south": {"uv": [5.375, 12.875, 5.5, 13], "rotation": 90, "texture": "#0"},
				"west": {"uv": [5.375, 12.875, 5.5, 13], "rotation": 90, "texture": "#0"},
				"up": {"uv": [5.375, 12.875, 5.5, 13], "rotation": 90, "texture": "#0"},
				"down": {"uv": [5.375, 12.875, 5.5, 13], "rotation": 90, "texture": "#0"}
			}
		},
		{
			"from": [7.6375, 5.03538, 5.1335],
			"to": [7.7125, 5.21038, 5.8585],
			"rotation": {"angle": 0, "axis": "y", "origin": [7.8125, 5.12288, 5.496]},
			"faces": {
				"north": {"uv": [5.375, 12.875, 5.5, 13], "rotation": 270, "texture": "#0"},
				"east": {"uv": [5.375, 12.875, 5.5, 13], "rotation": 90, "texture": "#0"},
				"south": {"uv": [5.375, 12.875, 5.5, 13], "rotation": 90, "texture": "#0"},
				"west": {"uv": [5.375, 12.875, 5.5, 13], "rotation": 90, "texture": "#0"},
				"up": {"uv": [5.375, 12.875, 5.5, 13], "rotation": 90, "texture": "#0"},
				"down": {"uv": [5.375, 12.875, 5.5, 13], "rotation": 90, "texture": "#0"}
			}
		},
		{
			"from": [7.6375, 5.03538, 5.1335],
			"to": [7.7125, 5.21038, 5.8585],
			"rotation": {"angle": 45, "axis": "z", "origin": [7.8125, 5.12288, 5.496]},
			"faces": {
				"north": {"uv": [5.375, 12.875, 5.5, 13], "rotation": 270, "texture": "#0"},
				"east": {"uv": [5.375, 12.875, 5.5, 13], "rotation": 90, "texture": "#0"},
				"south": {"uv": [5.375, 12.875, 5.5, 13], "rotation": 90, "texture": "#0"},
				"west": {"uv": [5.375, 12.875, 5.5, 13], "rotation": 90, "texture": "#0"},
				"up": {"uv": [5.375, 12.875, 5.5, 13], "rotation": 90, "texture": "#0"},
				"down": {"uv": [5.375, 12.875, 5.5, 13], "rotation": 90, "texture": "#0"}
			}
		},
		{
			"from": [7.725, 4.94788, 5.1335],
			"to": [7.9, 5.02288, 5.8585],
			"rotation": {"angle": 0, "axis": "y", "origin": [7.5, 4.27288, 6.121]},
			"faces": {
				"north": {"uv": [5.375, 12.875, 5.5, 13], "texture": "#0"},
				"east": {"uv": [5.375, 12.875, 5.5, 13], "texture": "#0"},
				"south": {"uv": [5.375, 12.875, 5.5, 13], "texture": "#0"},
				"west": {"uv": [5.375, 12.875, 5.5, 13], "texture": "#0"},
				"up": {"uv": [5.375, 12.875, 5.5, 13], "texture": "#0"},
				"down": {"uv": [5.375, 12.875, 5.5, 13], "texture": "#0"}
			}
		},
		{
			"from": [7.6375, 4.56038, 5.1335],
			"to": [7.7125, 4.73538, 5.8585],
			"rotation": {"angle": -45, "axis": "z", "origin": [7.8125, 4.64788, 5.496]},
			"faces": {
				"north": {"uv": [5.375, 12.875, 5.5, 13], "rotation": 270, "texture": "#0"},
				"east": {"uv": [5.375, 12.875, 5.5, 13], "rotation": 90, "texture": "#0"},
				"south": {"uv": [5.375, 12.875, 5.5, 13], "rotation": 90, "texture": "#0"},
				"west": {"uv": [5.375, 12.875, 5.5, 13], "rotation": 90, "texture": "#0"},
				"up": {"uv": [5.375, 12.875, 5.5, 13], "rotation": 90, "texture": "#0"},
				"down": {"uv": [5.375, 12.875, 5.5, 13], "rotation": 90, "texture": "#0"}
			}
		},
		{
			"from": [7.9125, 4.56038, 5.1335],
			"to": [7.9875, 4.73538, 5.8585],
			"rotation": {"angle": -45, "axis": "z", "origin": [7.8125, 4.64788, 5.496]},
			"faces": {
				"north": {"uv": [5.375, 12.875, 5.5, 13], "rotation": 270, "texture": "#0"},
				"east": {"uv": [5.375, 12.875, 5.5, 13], "rotation": 90, "texture": "#0"},
				"south": {"uv": [5.375, 12.875, 5.5, 13], "rotation": 90, "texture": "#0"},
				"west": {"uv": [5.375, 12.875, 5.5, 13], "rotation": 90, "texture": "#0"},
				"up": {"uv": [5.375, 12.875, 5.5, 13], "rotation": 90, "texture": "#0"},
				"down": {"uv": [5.375, 12.875, 5.5, 13], "rotation": 90, "texture": "#0"}
			}
		},
		{
			"from": [7.725, 4.74788, 5.1335],
			"to": [7.9, 4.82288, 5.8585],
			"rotation": {"angle": 0, "axis": "y", "origin": [7.5, 4.07288, 6.121]},
			"faces": {
				"north": {"uv": [5.375, 12.875, 5.5, 13], "texture": "#0"},
				"east": {"uv": [5.375, 12.875, 5.5, 13], "texture": "#0"},
				"south": {"uv": [5.375, 12.875, 5.5, 13], "texture": "#0"},
				"west": {"uv": [5.375, 12.875, 5.5, 13], "texture": "#0"},
				"up": {"uv": [5.375, 12.875, 5.5, 13], "texture": "#0"},
				"down": {"uv": [5.375, 12.875, 5.5, 13], "texture": "#0"}
			}
		},
		{
			"from": [7.9125, 4.56038, 5.1335],
			"to": [7.9875, 4.73538, 5.8585],
			"rotation": {"angle": 0, "axis": "y", "origin": [7.8125, 4.64788, 5.496]},
			"faces": {
				"north": {"uv": [5.375, 12.875, 5.5, 13], "rotation": 270, "texture": "#0"},
				"east": {"uv": [5.375, 12.875, 5.5, 13], "rotation": 90, "texture": "#0"},
				"south": {"uv": [5.375, 12.875, 5.5, 13], "rotation": 90, "texture": "#0"},
				"west": {"uv": [5.375, 12.875, 5.5, 13], "rotation": 90, "texture": "#0"},
				"up": {"uv": [5.375, 12.875, 5.5, 13], "rotation": 90, "texture": "#0"},
				"down": {"uv": [5.375, 12.875, 5.5, 13], "rotation": 90, "texture": "#0"}
			}
		},
		{
			"from": [7.9125, 4.56038, 5.1335],
			"to": [7.9875, 4.73538, 5.8585],
			"rotation": {"angle": 45, "axis": "z", "origin": [7.8125, 4.64788, 5.496]},
			"faces": {
				"north": {"uv": [5.375, 12.875, 5.5, 13], "rotation": 270, "texture": "#0"},
				"east": {"uv": [5.375, 12.875, 5.5, 13], "rotation": 90, "texture": "#0"},
				"south": {"uv": [5.375, 12.875, 5.5, 13], "rotation": 90, "texture": "#0"},
				"west": {"uv": [5.375, 12.875, 5.5, 13], "rotation": 90, "texture": "#0"},
				"up": {"uv": [5.375, 12.875, 5.5, 13], "rotation": 90, "texture": "#0"},
				"down": {"uv": [5.375, 12.875, 5.5, 13], "rotation": 90, "texture": "#0"}
			}
		},
		{
			"from": [7.6375, 4.56038, 5.1335],
			"to": [7.7125, 4.73538, 5.8585],
			"rotation": {"angle": 0, "axis": "y", "origin": [7.8125, 4.64788, 5.496]},
			"faces": {
				"north": {"uv": [5.375, 12.875, 5.5, 13], "rotation": 270, "texture": "#0"},
				"east": {"uv": [5.375, 12.875, 5.5, 13], "rotation": 90, "texture": "#0"},
				"south": {"uv": [5.375, 12.875, 5.5, 13], "rotation": 90, "texture": "#0"},
				"west": {"uv": [5.375, 12.875, 5.5, 13], "rotation": 90, "texture": "#0"},
				"up": {"uv": [5.375, 12.875, 5.5, 13], "rotation": 90, "texture": "#0"},
				"down": {"uv": [5.375, 12.875, 5.5, 13], "rotation": 90, "texture": "#0"}
			}
		},
		{
			"from": [7.6375, 4.56038, 5.1335],
			"to": [7.7125, 4.73538, 5.8585],
			"rotation": {"angle": 45, "axis": "z", "origin": [7.8125, 4.64788, 5.496]},
			"faces": {
				"north": {"uv": [5.375, 12.875, 5.5, 13], "rotation": 270, "texture": "#0"},
				"east": {"uv": [5.375, 12.875, 5.5, 13], "rotation": 90, "texture": "#0"},
				"south": {"uv": [5.375, 12.875, 5.5, 13], "rotation": 90, "texture": "#0"},
				"west": {"uv": [5.375, 12.875, 5.5, 13], "rotation": 90, "texture": "#0"},
				"up": {"uv": [5.375, 12.875, 5.5, 13], "rotation": 90, "texture": "#0"},
				"down": {"uv": [5.375, 12.875, 5.5, 13], "rotation": 90, "texture": "#0"}
			}
		},
		{
			"from": [7.725, 4.47288, 5.1335],
			"to": [7.9, 4.54788, 5.8585],
			"rotation": {"angle": 0, "axis": "y", "origin": [7.5, 3.79788, 6.121]},
			"faces": {
				"north": {"uv": [5.375, 12.875, 5.5, 13], "texture": "#0"},
				"east": {"uv": [5.375, 12.875, 5.5, 13], "texture": "#0"},
				"south": {"uv": [5.375, 12.875, 5.5, 13], "texture": "#0"},
				"west": {"uv": [5.375, 12.875, 5.5, 13], "texture": "#0"},
				"up": {"uv": [5.375, 12.875, 5.5, 13], "texture": "#0"},
				"down": {"uv": [5.375, 12.875, 5.5, 13], "texture": "#0"}
			}
		},
		{
			"from": [8.0125, 4.56038, 5.1335],
			"to": [8.0875, 4.73538, 5.8585],
			"rotation": {"angle": -45, "axis": "z", "origin": [8.1875, 4.64788, 5.496]},
			"faces": {
				"north": {"uv": [5.375, 12.875, 5.5, 13], "rotation": 270, "texture": "#0"},
				"east": {"uv": [5.375, 12.875, 5.5, 13], "rotation": 90, "texture": "#0"},
				"south": {"uv": [5.375, 12.875, 5.5, 13], "rotation": 90, "texture": "#0"},
				"west": {"uv": [5.375, 12.875, 5.5, 13], "rotation": 90, "texture": "#0"},
				"up": {"uv": [5.375, 12.875, 5.5, 13], "rotation": 90, "texture": "#0"},
				"down": {"uv": [5.375, 12.875, 5.5, 13], "rotation": 90, "texture": "#0"}
			}
		},
		{
			"from": [8.1, 4.74788, 5.1335],
			"to": [8.275, 4.82288, 5.8585],
			"rotation": {"angle": 0, "axis": "y", "origin": [7.875, 4.07288, 6.121]},
			"faces": {
				"north": {"uv": [5.375, 12.875, 5.5, 13], "texture": "#0"},
				"east": {"uv": [5.375, 12.875, 5.5, 13], "texture": "#0"},
				"south": {"uv": [5.375, 12.875, 5.5, 13], "texture": "#0"},
				"west": {"uv": [5.375, 12.875, 5.5, 13], "texture": "#0"},
				"up": {"uv": [5.375, 12.875, 5.5, 13], "texture": "#0"},
				"down": {"uv": [5.375, 12.875, 5.5, 13], "texture": "#0"}
			}
		},
		{
			"from": [8.2875, 4.56038, 5.1335],
			"to": [8.3625, 4.73538, 5.8585],
			"rotation": {"angle": 0, "axis": "y", "origin": [8.1875, 4.64788, 5.496]},
			"faces": {
				"north": {"uv": [5.375, 12.875, 5.5, 13], "rotation": 270, "texture": "#0"},
				"east": {"uv": [5.375, 12.875, 5.5, 13], "rotation": 90, "texture": "#0"},
				"south": {"uv": [5.375, 12.875, 5.5, 13], "rotation": 90, "texture": "#0"},
				"west": {"uv": [5.375, 12.875, 5.5, 13], "rotation": 90, "texture": "#0"},
				"up": {"uv": [5.375, 12.875, 5.5, 13], "rotation": 90, "texture": "#0"},
				"down": {"uv": [5.375, 12.875, 5.5, 13], "rotation": 90, "texture": "#0"}
			}
		},
		{
			"from": [8.2875, 4.56038, 5.1335],
			"to": [8.3625, 4.73538, 5.8585],
			"rotation": {"angle": 45, "axis": "z", "origin": [8.1875, 4.64788, 5.496]},
			"faces": {
				"north": {"uv": [5.375, 12.875, 5.5, 13], "rotation": 270, "texture": "#0"},
				"east": {"uv": [5.375, 12.875, 5.5, 13], "rotation": 90, "texture": "#0"},
				"south": {"uv": [5.375, 12.875, 5.5, 13], "rotation": 90, "texture": "#0"},
				"west": {"uv": [5.375, 12.875, 5.5, 13], "rotation": 90, "texture": "#0"},
				"up": {"uv": [5.375, 12.875, 5.5, 13], "rotation": 90, "texture": "#0"},
				"down": {"uv": [5.375, 12.875, 5.5, 13], "rotation": 90, "texture": "#0"}
			}
		},
		{
			"from": [8.0125, 4.56038, 5.1335],
			"to": [8.0875, 4.73538, 5.8585],
			"rotation": {"angle": 0, "axis": "y", "origin": [8.1875, 4.64788, 5.496]},
			"faces": {
				"north": {"uv": [5.375, 12.875, 5.5, 13], "rotation": 270, "texture": "#0"},
				"east": {"uv": [5.375, 12.875, 5.5, 13], "rotation": 90, "texture": "#0"},
				"south": {"uv": [5.375, 12.875, 5.5, 13], "rotation": 90, "texture": "#0"},
				"west": {"uv": [5.375, 12.875, 5.5, 13], "rotation": 90, "texture": "#0"},
				"up": {"uv": [5.375, 12.875, 5.5, 13], "rotation": 90, "texture": "#0"},
				"down": {"uv": [5.375, 12.875, 5.5, 13], "rotation": 90, "texture": "#0"}
			}
		},
		{
			"from": [8.0125, 4.56038, 5.1335],
			"to": [8.0875, 4.73538, 5.8585],
			"rotation": {"angle": 45, "axis": "z", "origin": [8.1875, 4.64788, 5.496]},
			"faces": {
				"north": {"uv": [5.375, 12.875, 5.5, 13], "rotation": 270, "texture": "#0"},
				"east": {"uv": [5.375, 12.875, 5.5, 13], "rotation": 90, "texture": "#0"},
				"south": {"uv": [5.375, 12.875, 5.5, 13], "rotation": 90, "texture": "#0"},
				"west": {"uv": [5.375, 12.875, 5.5, 13], "rotation": 90, "texture": "#0"},
				"up": {"uv": [5.375, 12.875, 5.5, 13], "rotation": 90, "texture": "#0"},
				"down": {"uv": [5.375, 12.875, 5.5, 13], "rotation": 90, "texture": "#0"}
			}
		},
		{
			"from": [8.1, 4.47288, 5.1335],
			"to": [8.275, 4.54788, 5.8585],
			"rotation": {"angle": 0, "axis": "y", "origin": [7.875, 3.79788, 6.121]},
			"faces": {
				"north": {"uv": [5.375, 12.875, 5.5, 13], "texture": "#0"},
				"east": {"uv": [5.375, 12.875, 5.5, 13], "texture": "#0"},
				"south": {"uv": [5.375, 12.875, 5.5, 13], "texture": "#0"},
				"west": {"uv": [5.375, 12.875, 5.5, 13], "texture": "#0"},
				"up": {"uv": [5.375, 12.875, 5.5, 13], "texture": "#0"},
				"down": {"uv": [5.375, 12.875, 5.5, 13], "texture": "#0"}
			}
		},
		{
			"from": [8.2875, 4.56038, 5.1335],
			"to": [8.3625, 4.73538, 5.8585],
			"rotation": {"angle": -45, "axis": "z", "origin": [8.1875, 4.64788, 5.496]},
			"faces": {
				"north": {"uv": [5.375, 12.875, 5.5, 13], "rotation": 270, "texture": "#0"},
				"east": {"uv": [5.375, 12.875, 5.5, 13], "rotation": 90, "texture": "#0"},
				"south": {"uv": [5.375, 12.875, 5.5, 13], "rotation": 90, "texture": "#0"},
				"west": {"uv": [5.375, 12.875, 5.5, 13], "rotation": 90, "texture": "#0"},
				"up": {"uv": [5.375, 12.875, 5.5, 13], "rotation": 90, "texture": "#0"},
				"down": {"uv": [5.375, 12.875, 5.5, 13], "rotation": 90, "texture": "#0"}
			}
		},
		{
			"from": [8.3, 4.39788, 5.1335],
			"to": [8.4, 5.34788, 5.8835],
			"rotation": {"angle": 0, "axis": "y", "origin": [8, 4.59788, 6.146]},
			"faces": {
				"north": {"uv": [5.375, 12.875, 5.5, 13], "texture": "#0"},
				"east": {"uv": [5.375, 12.875, 5.5, 13], "texture": "#0"},
				"south": {"uv": [5.375, 12.875, 5.5, 13], "texture": "#0"},
				"west": {"uv": [5.375, 12.875, 5.5, 13], "texture": "#0"},
				"up": {"uv": [5.375, 12.875, 5.5, 13], "texture": "#0"},
				"down": {"uv": [5.375, 12.875, 5.5, 13], "texture": "#0"}
			}
		},
		{
			"from": [7.6, 4.39788, 5.1335],
			"to": [7.7, 5.34788, 5.8835],
			"rotation": {"angle": 0, "axis": "y", "origin": [8, 4.59788, 6.146]},
			"faces": {
				"north": {"uv": [5.375, 12.875, 5.5, 13], "texture": "#0"},
				"east": {"uv": [5.375, 12.875, 5.5, 13], "texture": "#0"},
				"south": {"uv": [5.375, 12.875, 5.5, 13], "texture": "#0"},
				"west": {"uv": [5.375, 12.875, 5.5, 13], "texture": "#0"},
				"up": {"uv": [5.375, 12.875, 5.5, 13], "texture": "#0"},
				"down": {"uv": [5.375, 12.875, 5.5, 13], "texture": "#0"}
			}
		},
		{
			"from": [7.6, 4.39788, 5.1335],
			"to": [8.4, 4.52288, 5.8835],
			"rotation": {"angle": 0, "axis": "y", "origin": [8, 4.59788, 6.146]},
			"faces": {
				"north": {"uv": [5.375, 12.875, 5.5, 13], "texture": "#0"},
				"east": {"uv": [5.375, 12.875, 5.5, 13], "texture": "#0"},
				"south": {"uv": [5.375, 12.875, 5.5, 13], "texture": "#0"},
				"west": {"uv": [5.375, 12.875, 5.5, 13], "texture": "#0"},
				"up": {"uv": [5.375, 12.875, 5.5, 13], "texture": "#0"},
				"down": {"uv": [5.375, 12.875, 5.5, 13], "texture": "#0"}
			}
		},
		{
			"from": [7.7, 4.77288, 5.1335],
			"to": [8.3, 4.99788, 5.8835],
			"rotation": {"angle": 0, "axis": "y", "origin": [8, 4.59788, 6.146]},
			"faces": {
				"north": {"uv": [5.375, 12.875, 5.5, 13], "texture": "#0"},
				"east": {"uv": [5.375, 12.875, 5.5, 13], "texture": "#0"},
				"south": {"uv": [5.375, 12.875, 5.5, 13], "texture": "#0"},
				"west": {"uv": [5.375, 12.875, 5.5, 13], "texture": "#0"},
				"up": {"uv": [5.375, 12.875, 5.5, 13], "texture": "#0"},
				"down": {"uv": [5.375, 12.875, 5.5, 13], "texture": "#0"}
			}
		},
		{
			"from": [7.925, 4.39788, 5.1335],
			"to": [8.075, 5.34788, 5.8835],
			"rotation": {"angle": 0, "axis": "y", "origin": [8, 4.59788, 6.146]},
			"faces": {
				"north": {"uv": [5.375, 12.875, 5.5, 13], "texture": "#0"},
				"east": {"uv": [5.375, 12.875, 5.5, 13], "texture": "#0"},
				"south": {"uv": [5.375, 12.875, 5.5, 13], "texture": "#0"},
				"west": {"uv": [5.375, 12.875, 5.5, 13], "texture": "#0"},
				"up": {"uv": [5.375, 12.875, 5.5, 13], "texture": "#0"},
				"down": {"uv": [5.375, 12.875, 5.5, 13], "texture": "#0"}
			}
		},
		{
			"from": [7.625, 4.42288, 5.8335],
			"to": [8.375, 5.32288, 7.1585],
			"rotation": {"angle": 0, "axis": "y", "origin": [8, 4.59788, 6.146]},
			"faces": {
				"north": {"uv": [7.375, 12.25, 7.5, 12.375], "texture": "#0"},
				"east": {"uv": [5.375, 12.875, 5.5, 13], "texture": "#missing"},
				"south": {"uv": [5.375, 12.875, 5.5, 13], "texture": "#missing"},
				"west": {"uv": [5.375, 12.875, 5.5, 13], "texture": "#missing"},
				"up": {"uv": [5.375, 12.875, 5.5, 13], "texture": "#missing"},
				"down": {"uv": [5.375, 12.875, 5.5, 13], "texture": "#missing"}
			}
		}
	],
	"display": {
		"thirdperson_righthand": {
			"translation": [-0.25, 4, 1.25]
		},
		"thirdperson_lefthand": {
			"translation": [-0.5, 4, 1.25]
		},
		"firstperson_righthand": {
			"translation": [0, 7.75, 2.75],
			"scale": [1.1, 1.1, 1.1]
		},
		"firstperson_lefthand": {
			"translation": [0, 7.75, 2.75],
			"scale": [1.1, 1.1, 1.1]
		},
		"ground": {
			"rotation": [0, 0, 90],
			"translation": [0, -2, 0]
		},
		"gui": {
			"rotation": [27, 139, 0],
			"translation": [0.75, 10, 0],
			"scale": [3, 3, 3]
		},
		"fixed": {
			"rotation": [90, 45, -90],
			"translation": [3.5, 3.5, -1.5]
		}
	}
}
