{
    "textures": {
        "0": "gci:items/common/mpz",
        "1": "gci:items/common/all_in_one",
        "particle": "gci:items/common/mpz"
    },
    "elements": [
        {
            "from": [
                8.19737,
                6.7343,
                -6.6
            ],
            "to": [
                8.29737,
                7.0343,
                -6
            ],
            "rotation": {
                "angle": 45,
                "axis": "z",
                "origin": [
                    7.66751,
                    6.94859,
                    -14.19315
                ]
            },
            "faces": {
                "north": {
                    "uv": [
                        14.375,
                        6.75,
                        14.625,
                        6.825
                    ],
                    "rotation": 180,
                    "texture": "#1"
                },
                "east": {
                    "uv": [
                        14.375,
                        6.75,
                        14.625,
                        6.825
                    ],
                    "rotation": 180,
                    "texture": "#1"
                },
                "south": {
                    "uv": [
                        14.375,
                        6.75,
                        14.625,
                        6.825
                    ],
                    "rotation": 180,
                    "texture": "#1"
                },
                "west": {
                    "uv": [
                        14.375,
                        6.75,
                        14.625,
                        6.825
                    ],
                    "rotation": 180,
                    "texture": "#1"
                },
                "up": {
                    "uv": [
                        14.375,
                        6.75,
                        14.625,
                        6.825
                    ],
                    "rotation": 180,
                    "texture": "#1"
                },
                "down": {
                    "uv": [
                        14.375,
                        6.75,
                        14.625,
                        6.825
                    ],
                    "rotation": 180,
                    "texture": "#1"
                }
            }
        },
        {
            "from": [
                7.98764,
                7.56922,
                -6.6
            ],
            "to": [
                8.28764,
                7.66922,
                -6
            ],
            "rotation": {
                "angle": 45,
                "axis": "z",
                "origin": [
                    8.08764,
                    7.61922,
                    -18.95
                ]
            },
            "faces": {
                "north": {
                    "uv": [
                        14.375,
                        6.75,
                        14.625,
                        6.825
                    ],
                    "rotation": 90,
                    "texture": "#1"
                },
                "east": {
                    "uv": [
                        14.375,
                        6.75,
                        14.625,
                        6.825
                    ],
                    "rotation": 90,
                    "texture": "#1"
                },
                "south": {
                    "uv": [
                        14.375,
                        6.75,
                        14.625,
                        6.825
                    ],
                    "rotation": 90,
                    "texture": "#1"
                },
                "west": {
                    "uv": [
                        14.375,
                        6.75,
                        14.625,
                        6.825
                    ],
                    "rotation": 90,
                    "texture": "#1"
                },
                "up": {
                    "uv": [
                        14.375,
                        6.75,
                        14.625,
                        6.825
                    ],
                    "rotation": 90,
                    "texture": "#1"
                },
                "down": {
                    "uv": [
                        14.375,
                        6.75,
                        14.625,
                        6.825
                    ],
                    "rotation": 90,
                    "texture": "#1"
                }
            }
        },
        {
            "from": [
                8.38764,
                7.2278,
                -6.6
            ],
            "to": [
                8.68764,
                7.3278,
                -6
            ],
            "rotation": {
                "angle": 45,
                "axis": "z",
                "origin": [
                    8.48764,
                    7.2778,
                    -18.95
                ]
            },
            "faces": {
                "north": {
                    "uv": [
                        14.375,
                        6.75,
                        14.625,
                        6.825
                    ],
                    "rotation": 90,
                    "texture": "#1"
                },
                "east": {
                    "uv": [
                        14.375,
                        6.75,
                        14.625,
                        6.825
                    ],
                    "rotation": 90,
                    "texture": "#1"
                },
                "south": {
                    "uv": [
                        14.375,
                        6.75,
                        14.625,
                        6.825
                    ],
                    "rotation": 90,
                    "texture": "#1"
                },
                "west": {
                    "uv": [
                        14.375,
                        6.75,
                        14.625,
                        6.825
                    ],
                    "rotation": 90,
                    "texture": "#1"
                },
                "up": {
                    "uv": [
                        14.375,
                        6.75,
                        14.625,
                        6.825
                    ],
                    "rotation": 90,
                    "texture": "#1"
                },
                "down": {
                    "uv": [
                        14.375,
                        6.75,
                        14.625,
                        6.825
                    ],
                    "rotation": 90,
                    "texture": "#1"
                }
            }
        },
        {
            "from": [
                8.53704,
                0.41875,
                -6.6
            ],
            "to": [
                8.73704,
                7.31875,
                -6.2
            ],
            "rotation": {
                "angle": 22.5,
                "axis": "z",
                "origin": [
                    8.53704,
                    7.16875,
                    -19.05
                ]
            },
            "faces": {
                "north": {
                    "uv": [
                        14.375,
                        6.75,
                        14.625,
                        6.825
                    ],
                    "rotation": 90,
                    "texture": "#1"
                },
                "east": {
                    "uv": [
                        14.375,
                        6.75,
                        14.625,
                        6.825
                    ],
                    "rotation": 90,
                    "texture": "#1"
                },
                "south": {
                    "uv": [
                        14.375,
                        6.75,
                        14.625,
                        6.825
                    ],
                    "rotation": 90,
                    "texture": "#1"
                },
                "west": {
                    "uv": [
                        14.375,
                        6.75,
                        14.625,
                        6.825
                    ],
                    "rotation": 90,
                    "texture": "#1"
                },
                "up": {
                    "uv": [
                        14.375,
                        6.75,
                        14.625,
                        6.825
                    ],
                    "rotation": 90,
                    "texture": "#1"
                },
                "down": {
                    "uv": [
                        14.375,
                        6.75,
                        14.625,
                        6.825
                    ],
                    "rotation": 90,
                    "texture": "#1"
                }
            }
        },
        {
            "from": [
                11.01254,
                0.87083,
                -7.1
            ],
            "to": [
                11.41254,
                1.07083,
                -5.7
            ],
            "rotation": {
                "angle": 0,
                "axis": "y",
                "origin": [
                    11.21254,
                    0.97083,
                    -6.4
                ]
            },
            "faces": {
                "north": {
                    "uv": [
                        14.375,
                        6.75,
                        14.625,
                        6.825
                    ],
                    "rotation": 90,
                    "texture": "#1"
                },
                "east": {
                    "uv": [
                        14.375,
                        6.75,
                        14.625,
                        6.825
                    ],
                    "rotation": 90,
                    "texture": "#1"
                },
                "south": {
                    "uv": [
                        14.375,
                        6.75,
                        14.625,
                        6.825
                    ],
                    "rotation": 90,
                    "texture": "#1"
                },
                "west": {
                    "uv": [
                        14.375,
                        6.75,
                        14.625,
                        6.825
                    ],
                    "rotation": 90,
                    "texture": "#1"
                },
                "up": {
                    "uv": [
                        14.375,
                        6.75,
                        14.625,
                        6.825
                    ],
                    "rotation": 90,
                    "texture": "#1"
                },
                "down": {
                    "uv": [
                        14.375,
                        6.75,
                        14.625,
                        6.825
                    ],
                    "rotation": 90,
                    "texture": "#1"
                }
            }
        },
        {
            "from": [
                6.63457,
                0.71202,
                -6.6
            ],
            "to": [
                6.83457,
                7.61202,
                -6.2
            ],
            "rotation": {
                "angle": -22.5,
                "axis": "z",
                "origin": [
                    6.73457,
                    4.11202,
                    -6.4
                ]
            },
            "faces": {
                "north": {
                    "uv": [
                        14.375,
                        6.75,
                        14.625,
                        6.825
                    ],
                    "rotation": 90,
                    "texture": "#1"
                },
                "east": {
                    "uv": [
                        14.375,
                        6.75,
                        14.625,
                        6.825
                    ],
                    "rotation": 90,
                    "texture": "#1"
                },
                "south": {
                    "uv": [
                        14.375,
                        6.75,
                        14.625,
                        6.825
                    ],
                    "rotation": 90,
                    "texture": "#1"
                },
                "west": {
                    "uv": [
                        14.375,
                        6.75,
                        14.625,
                        6.825
                    ],
                    "rotation": 90,
                    "texture": "#1"
                },
                "up": {
                    "uv": [
                        14.375,
                        6.75,
                        14.625,
                        6.825
                    ],
                    "rotation": 90,
                    "texture": "#1"
                },
                "down": {
                    "uv": [
                        14.375,
                        6.75,
                        14.625,
                        6.825
                    ],
                    "rotation": 90,
                    "texture": "#1"
                }
            }
        },
        {
            "from": [
                5.23345,
                0.87083,
                -7
            ],
            "to": [
                5.63345,
                1.07083,
                -5.8
            ],
            "rotation": {
                "angle": 0,
                "axis": "y",
                "origin": [
                    5.43345,
                    0.97083,
                    -6.4
                ]
            },
            "faces": {
                "north": {
                    "uv": [
                        14.375,
                        6.75,
                        14.625,
                        6.825
                    ],
                    "rotation": 90,
                    "texture": "#1"
                },
                "east": {
                    "uv": [
                        14.375,
                        6.75,
                        14.625,
                        6.825
                    ],
                    "rotation": 90,
                    "texture": "#1"
                },
                "south": {
                    "uv": [
                        14.375,
                        6.75,
                        14.625,
                        6.825
                    ],
                    "rotation": 90,
                    "texture": "#1"
                },
                "west": {
                    "uv": [
                        14.375,
                        6.75,
                        14.625,
                        6.825
                    ],
                    "rotation": 90,
                    "texture": "#1"
                },
                "up": {
                    "uv": [
                        14.375,
                        6.75,
                        14.625,
                        6.825
                    ],
                    "rotation": 90,
                    "texture": "#1"
                },
                "down": {
                    "uv": [
                        14.375,
                        6.75,
                        14.625,
                        6.825
                    ],
                    "rotation": 90,
                    "texture": "#1"
                }
            }
        },
        {
            "from": [
                8.56442,
                7.38386,
                -6.6
            ],
            "to": [
                8.66442,
                7.58386,
                -6
            ],
            "rotation": {
                "angle": 0,
                "axis": "y",
                "origin": [
                    8.61442,
                    7.48386,
                    -18.95
                ]
            },
            "faces": {
                "north": {
                    "uv": [
                        14.375,
                        6.75,
                        14.625,
                        6.825
                    ],
                    "texture": "#1"
                },
                "east": {
                    "uv": [
                        14.375,
                        6.75,
                        14.625,
                        6.825
                    ],
                    "texture": "#1"
                },
                "south": {
                    "uv": [
                        14.375,
                        6.75,
                        14.625,
                        6.825
                    ],
                    "texture": "#1"
                },
                "west": {
                    "uv": [
                        14.375,
                        6.75,
                        14.625,
                        6.825
                    ],
                    "texture": "#1"
                },
                "up": {
                    "uv": [
                        14.375,
                        6.75,
                        14.625,
                        6.825
                    ],
                    "texture": "#1"
                },
                "down": {
                    "uv": [
                        14.375,
                        6.75,
                        14.625,
                        6.825
                    ],
                    "texture": "#1"
                }
            }
        },
        {
            "from": [
                7.98157,
                7.38386,
                -6.6
            ],
            "to": [
                8.08157,
                7.58386,
                -6
            ],
            "rotation": {
                "angle": 0,
                "axis": "y",
                "origin": [
                    8.03157,
                    7.48386,
                    -18.95
                ]
            },
            "faces": {
                "north": {
                    "uv": [
                        14.375,
                        6.75,
                        14.625,
                        6.825
                    ],
                    "texture": "#1"
                },
                "east": {
                    "uv": [
                        14.375,
                        6.75,
                        14.625,
                        6.825
                    ],
                    "texture": "#1"
                },
                "south": {
                    "uv": [
                        14.375,
                        6.75,
                        14.625,
                        6.825
                    ],
                    "texture": "#1"
                },
                "west": {
                    "uv": [
                        14.375,
                        6.75,
                        14.625,
                        6.825
                    ],
                    "texture": "#1"
                },
                "up": {
                    "uv": [
                        14.375,
                        6.75,
                        14.625,
                        6.825
                    ],
                    "texture": "#1"
                },
                "down": {
                    "uv": [
                        14.375,
                        6.75,
                        14.625,
                        6.825
                    ],
                    "texture": "#1"
                }
            }
        },
        {
            "from": [
                8.19371,
                7.696,
                -6.6
            ],
            "to": [
                8.45361,
                7.796,
                -6
            ],
            "rotation": {
                "angle": 0,
                "axis": "y",
                "origin": [
                    8.03513,
                    7.65458,
                    -31.7
                ]
            },
            "faces": {
                "north": {
                    "uv": [
                        14.375,
                        6.75,
                        14.625,
                        6.825
                    ],
                    "rotation": 270,
                    "texture": "#1"
                },
                "east": {
                    "uv": [
                        14.375,
                        6.75,
                        14.625,
                        6.825
                    ],
                    "rotation": 270,
                    "texture": "#1"
                },
                "south": {
                    "uv": [
                        14.375,
                        6.75,
                        14.625,
                        6.825
                    ],
                    "rotation": 270,
                    "texture": "#1"
                },
                "west": {
                    "uv": [
                        14.375,
                        6.75,
                        14.625,
                        6.825
                    ],
                    "rotation": 270,
                    "texture": "#1"
                },
                "up": {
                    "uv": [
                        14.375,
                        6.75,
                        14.625,
                        6.825
                    ],
                    "rotation": 270,
                    "texture": "#1"
                },
                "down": {
                    "uv": [
                        14.375,
                        6.75,
                        14.625,
                        6.825
                    ],
                    "rotation": 270,
                    "texture": "#1"
                }
            }
        },
        {
            "from": [
                8.19371,
                7.17173,
                -6.6
            ],
            "to": [
                8.45361,
                7.27173,
                -6
            ],
            "rotation": {
                "angle": 0,
                "axis": "y",
                "origin": [
                    8.03513,
                    7.13031,
                    -31.7
                ]
            },
            "faces": {
                "north": {
                    "uv": [
                        14.375,
                        6.75,
                        14.625,
                        6.825
                    ],
                    "rotation": 270,
                    "texture": "#1"
                },
                "east": {
                    "uv": [
                        14.375,
                        6.75,
                        14.625,
                        6.825
                    ],
                    "rotation": 270,
                    "texture": "#1"
                },
                "south": {
                    "uv": [
                        14.375,
                        6.75,
                        14.625,
                        6.825
                    ],
                    "rotation": 270,
                    "texture": "#1"
                },
                "west": {
                    "uv": [
                        14.375,
                        6.75,
                        14.625,
                        6.825
                    ],
                    "rotation": 270,
                    "texture": "#1"
                },
                "up": {
                    "uv": [
                        14.375,
                        6.75,
                        14.625,
                        6.825
                    ],
                    "rotation": 270,
                    "texture": "#1"
                },
                "down": {
                    "uv": [
                        14.375,
                        6.75,
                        14.625,
                        6.825
                    ],
                    "rotation": 270,
                    "texture": "#1"
                }
            }
        },
        {
            "from": [
                8.59737,
                7.07572,
                -6.6
            ],
            "to": [
                8.69737,
                7.37572,
                -6
            ],
            "rotation": {
                "angle": 45,
                "axis": "z",
                "origin": [
                    8.06751,
                    7.29001,
                    -18.89315
                ]
            },
            "faces": {
                "north": {
                    "uv": [
                        14.375,
                        6.75,
                        14.625,
                        6.825
                    ],
                    "rotation": 180,
                    "texture": "#1"
                },
                "east": {
                    "uv": [
                        14.375,
                        6.75,
                        14.625,
                        6.825
                    ],
                    "rotation": 180,
                    "texture": "#1"
                },
                "south": {
                    "uv": [
                        14.375,
                        6.75,
                        14.625,
                        6.825
                    ],
                    "rotation": 180,
                    "texture": "#1"
                },
                "west": {
                    "uv": [
                        14.375,
                        6.75,
                        14.625,
                        6.825
                    ],
                    "rotation": 180,
                    "texture": "#1"
                },
                "up": {
                    "uv": [
                        14.375,
                        6.75,
                        14.625,
                        6.825
                    ],
                    "rotation": 180,
                    "texture": "#1"
                },
                "down": {
                    "uv": [
                        14.375,
                        6.75,
                        14.625,
                        6.825
                    ],
                    "rotation": 180,
                    "texture": "#1"
                }
            }
        },
        {
            "from": [
                8.19737,
                6.7343,
                -6.6
            ],
            "to": [
                8.29737,
                7.0343,
                -6
            ],
            "rotation": {
                "angle": 45,
                "axis": "z",
                "origin": [
                    7.66751,
                    6.94859,
                    -14.19315
                ]
            },
            "faces": {
                "north": {
                    "uv": [
                        14.375,
                        6.75,
                        14.625,
                        6.825
                    ],
                    "rotation": 180,
                    "texture": "#1"
                },
                "east": {
                    "uv": [
                        14.375,
                        6.75,
                        14.625,
                        6.825
                    ],
                    "rotation": 180,
                    "texture": "#1"
                },
                "south": {
                    "uv": [
                        14.375,
                        6.75,
                        14.625,
                        6.825
                    ],
                    "rotation": 180,
                    "texture": "#1"
                },
                "west": {
                    "uv": [
                        14.375,
                        6.75,
                        14.625,
                        6.825
                    ],
                    "rotation": 180,
                    "texture": "#1"
                },
                "up": {
                    "uv": [
                        14.375,
                        6.75,
                        14.625,
                        6.825
                    ],
                    "rotation": 180,
                    "texture": "#1"
                },
                "down": {
                    "uv": [
                        14.375,
                        6.75,
                        14.625,
                        6.825
                    ],
                    "rotation": 180,
                    "texture": "#1"
                }
            }
        },
        {
            "from": [
                7.98764,
                7.56922,
                -6.6
            ],
            "to": [
                8.28764,
                7.66922,
                -6
            ],
            "rotation": {
                "angle": 45,
                "axis": "z",
                "origin": [
                    8.08764,
                    7.61922,
                    -18.95
                ]
            },
            "faces": {
                "north": {
                    "uv": [
                        14.375,
                        6.75,
                        14.625,
                        6.825
                    ],
                    "rotation": 90,
                    "texture": "#1"
                },
                "east": {
                    "uv": [
                        14.375,
                        6.75,
                        14.625,
                        6.825
                    ],
                    "rotation": 90,
                    "texture": "#1"
                },
                "south": {
                    "uv": [
                        14.375,
                        6.75,
                        14.625,
                        6.825
                    ],
                    "rotation": 90,
                    "texture": "#1"
                },
                "west": {
                    "uv": [
                        14.375,
                        6.75,
                        14.625,
                        6.825
                    ],
                    "rotation": 90,
                    "texture": "#1"
                },
                "up": {
                    "uv": [
                        14.375,
                        6.75,
                        14.625,
                        6.825
                    ],
                    "rotation": 90,
                    "texture": "#1"
                },
                "down": {
                    "uv": [
                        14.375,
                        6.75,
                        14.625,
                        6.825
                    ],
                    "rotation": 90,
                    "texture": "#1"
                }
            }
        },
        {
            "from": [
                8.38764,
                7.2278,
                -6.6
            ],
            "to": [
                8.68764,
                7.3278,
                -6
            ],
            "rotation": {
                "angle": 45,
                "axis": "z",
                "origin": [
                    8.48764,
                    7.2778,
                    -18.95
                ]
            },
            "faces": {
                "north": {
                    "uv": [
                        14.375,
                        6.75,
                        14.625,
                        6.825
                    ],
                    "rotation": 90,
                    "texture": "#1"
                },
                "east": {
                    "uv": [
                        14.375,
                        6.75,
                        14.625,
                        6.825
                    ],
                    "rotation": 90,
                    "texture": "#1"
                },
                "south": {
                    "uv": [
                        14.375,
                        6.75,
                        14.625,
                        6.825
                    ],
                    "rotation": 90,
                    "texture": "#1"
                },
                "west": {
                    "uv": [
                        14.375,
                        6.75,
                        14.625,
                        6.825
                    ],
                    "rotation": 90,
                    "texture": "#1"
                },
                "up": {
                    "uv": [
                        14.375,
                        6.75,
                        14.625,
                        6.825
                    ],
                    "rotation": 90,
                    "texture": "#1"
                },
                "down": {
                    "uv": [
                        14.375,
                        6.75,
                        14.625,
                        6.825
                    ],
                    "rotation": 90,
                    "texture": "#1"
                }
            }
        },
        {
            "from": [
                8.53704,
                0.41875,
                -6.6
            ],
            "to": [
                8.73704,
                7.31875,
                -6.2
            ],
            "rotation": {
                "angle": 22.5,
                "axis": "z",
                "origin": [
                    8.53704,
                    7.16875,
                    -19.05
                ]
            },
            "faces": {
                "north": {
                    "uv": [
                        14.375,
                        6.75,
                        14.625,
                        6.825
                    ],
                    "rotation": 90,
                    "texture": "#1"
                },
                "east": {
                    "uv": [
                        14.375,
                        6.75,
                        14.625,
                        6.825
                    ],
                    "rotation": 90,
                    "texture": "#1"
                },
                "south": {
                    "uv": [
                        14.375,
                        6.75,
                        14.625,
                        6.825
                    ],
                    "rotation": 90,
                    "texture": "#1"
                },
                "west": {
                    "uv": [
                        14.375,
                        6.75,
                        14.625,
                        6.825
                    ],
                    "rotation": 90,
                    "texture": "#1"
                },
                "up": {
                    "uv": [
                        14.375,
                        6.75,
                        14.625,
                        6.825
                    ],
                    "rotation": 90,
                    "texture": "#1"
                },
                "down": {
                    "uv": [
                        14.375,
                        6.75,
                        14.625,
                        6.825
                    ],
                    "rotation": 90,
                    "texture": "#1"
                }
            }
        },
        {
            "from": [
                11.01254,
                0.87083,
                -7.1
            ],
            "to": [
                11.41254,
                1.07083,
                -5.7
            ],
            "rotation": {
                "angle": 0,
                "axis": "y",
                "origin": [
                    11.21254,
                    0.97083,
                    -6.4
                ]
            },
            "faces": {
                "north": {
                    "uv": [
                        14.375,
                        6.75,
                        14.625,
                        6.825
                    ],
                    "rotation": 90,
                    "texture": "#1"
                },
                "east": {
                    "uv": [
                        14.375,
                        6.75,
                        14.625,
                        6.825
                    ],
                    "rotation": 90,
                    "texture": "#1"
                },
                "south": {
                    "uv": [
                        14.375,
                        6.75,
                        14.625,
                        6.825
                    ],
                    "rotation": 90,
                    "texture": "#1"
                },
                "west": {
                    "uv": [
                        14.375,
                        6.75,
                        14.625,
                        6.825
                    ],
                    "rotation": 90,
                    "texture": "#1"
                },
                "up": {
                    "uv": [
                        14.375,
                        6.75,
                        14.625,
                        6.825
                    ],
                    "rotation": 90,
                    "texture": "#1"
                },
                "down": {
                    "uv": [
                        14.375,
                        6.75,
                        14.625,
                        6.825
                    ],
                    "rotation": 90,
                    "texture": "#1"
                }
            }
        },
        {
            "from": [
                6.63457,
                0.71202,
                -6.6
            ],
            "to": [
                6.83457,
                7.61202,
                -6.2
            ],
            "rotation": {
                "angle": -22.5,
                "axis": "z",
                "origin": [
                    6.73457,
                    4.11202,
                    -6.4
                ]
            },
            "faces": {
                "north": {
                    "uv": [
                        14.375,
                        6.75,
                        14.625,
                        6.825
                    ],
                    "rotation": 90,
                    "texture": "#1"
                },
                "east": {
                    "uv": [
                        14.375,
                        6.75,
                        14.625,
                        6.825
                    ],
                    "rotation": 90,
                    "texture": "#1"
                },
                "south": {
                    "uv": [
                        14.375,
                        6.75,
                        14.625,
                        6.825
                    ],
                    "rotation": 90,
                    "texture": "#1"
                },
                "west": {
                    "uv": [
                        14.375,
                        6.75,
                        14.625,
                        6.825
                    ],
                    "rotation": 90,
                    "texture": "#1"
                },
                "up": {
                    "uv": [
                        14.375,
                        6.75,
                        14.625,
                        6.825
                    ],
                    "rotation": 90,
                    "texture": "#1"
                },
                "down": {
                    "uv": [
                        14.375,
                        6.75,
                        14.625,
                        6.825
                    ],
                    "rotation": 90,
                    "texture": "#1"
                }
            }
        },
        {
            "from": [
                5.23345,
                0.87083,
                -7
            ],
            "to": [
                5.63345,
                1.07083,
                -5.8
            ],
            "rotation": {
                "angle": 0,
                "axis": "y",
                "origin": [
                    5.43345,
                    0.97083,
                    -6.4
                ]
            },
            "faces": {
                "north": {
                    "uv": [
                        14.375,
                        6.75,
                        14.625,
                        6.825
                    ],
                    "rotation": 90,
                    "texture": "#1"
                },
                "east": {
                    "uv": [
                        14.375,
                        6.75,
                        14.625,
                        6.825
                    ],
                    "rotation": 90,
                    "texture": "#1"
                },
                "south": {
                    "uv": [
                        14.375,
                        6.75,
                        14.625,
                        6.825
                    ],
                    "rotation": 90,
                    "texture": "#1"
                },
                "west": {
                    "uv": [
                        14.375,
                        6.75,
                        14.625,
                        6.825
                    ],
                    "rotation": 90,
                    "texture": "#1"
                },
                "up": {
                    "uv": [
                        14.375,
                        6.75,
                        14.625,
                        6.825
                    ],
                    "rotation": 90,
                    "texture": "#1"
                },
                "down": {
                    "uv": [
                        14.375,
                        6.75,
                        14.625,
                        6.825
                    ],
                    "rotation": 90,
                    "texture": "#1"
                }
            }
        },
        {
            "from": [
                8.56442,
                7.38386,
                -6.6
            ],
            "to": [
                8.66442,
                7.58386,
                -6
            ],
            "rotation": {
                "angle": 0,
                "axis": "y",
                "origin": [
                    8.61442,
                    7.48386,
                    -18.95
                ]
            },
            "faces": {
                "north": {
                    "uv": [
                        14.375,
                        6.75,
                        14.625,
                        6.825
                    ],
                    "texture": "#1"
                },
                "east": {
                    "uv": [
                        14.375,
                        6.75,
                        14.625,
                        6.825
                    ],
                    "texture": "#1"
                },
                "south": {
                    "uv": [
                        14.375,
                        6.75,
                        14.625,
                        6.825
                    ],
                    "texture": "#1"
                },
                "west": {
                    "uv": [
                        14.375,
                        6.75,
                        14.625,
                        6.825
                    ],
                    "texture": "#1"
                },
                "up": {
                    "uv": [
                        14.375,
                        6.75,
                        14.625,
                        6.825
                    ],
                    "texture": "#1"
                },
                "down": {
                    "uv": [
                        14.375,
                        6.75,
                        14.625,
                        6.825
                    ],
                    "texture": "#1"
                }
            }
        },
        {
            "from": [
                7.98157,
                7.38386,
                -6.6
            ],
            "to": [
                8.08157,
                7.58386,
                -6
            ],
            "rotation": {
                "angle": 0,
                "axis": "y",
                "origin": [
                    8.03157,
                    7.48386,
                    -18.95
                ]
            },
            "faces": {
                "north": {
                    "uv": [
                        14.375,
                        6.75,
                        14.625,
                        6.825
                    ],
                    "texture": "#1"
                },
                "east": {
                    "uv": [
                        14.375,
                        6.75,
                        14.625,
                        6.825
                    ],
                    "texture": "#1"
                },
                "south": {
                    "uv": [
                        14.375,
                        6.75,
                        14.625,
                        6.825
                    ],
                    "texture": "#1"
                },
                "west": {
                    "uv": [
                        14.375,
                        6.75,
                        14.625,
                        6.825
                    ],
                    "texture": "#1"
                },
                "up": {
                    "uv": [
                        14.375,
                        6.75,
                        14.625,
                        6.825
                    ],
                    "texture": "#1"
                },
                "down": {
                    "uv": [
                        14.375,
                        6.75,
                        14.625,
                        6.825
                    ],
                    "texture": "#1"
                }
            }
        },
        {
            "from": [
                8.19371,
                7.696,
                -6.6
            ],
            "to": [
                8.45361,
                7.796,
                -6
            ],
            "rotation": {
                "angle": 0,
                "axis": "y",
                "origin": [
                    8.03513,
                    7.65458,
                    -31.7
                ]
            },
            "faces": {
                "north": {
                    "uv": [
                        14.375,
                        6.75,
                        14.625,
                        6.825
                    ],
                    "rotation": 270,
                    "texture": "#1"
                },
                "east": {
                    "uv": [
                        14.375,
                        6.75,
                        14.625,
                        6.825
                    ],
                    "rotation": 270,
                    "texture": "#1"
                },
                "south": {
                    "uv": [
                        14.375,
                        6.75,
                        14.625,
                        6.825
                    ],
                    "rotation": 270,
                    "texture": "#1"
                },
                "west": {
                    "uv": [
                        14.375,
                        6.75,
                        14.625,
                        6.825
                    ],
                    "rotation": 270,
                    "texture": "#1"
                },
                "up": {
                    "uv": [
                        14.375,
                        6.75,
                        14.625,
                        6.825
                    ],
                    "rotation": 270,
                    "texture": "#1"
                },
                "down": {
                    "uv": [
                        14.375,
                        6.75,
                        14.625,
                        6.825
                    ],
                    "rotation": 270,
                    "texture": "#1"
                }
            }
        },
        {
            "from": [
                8.19371,
                7.17173,
                -6.6
            ],
            "to": [
                8.45361,
                7.27173,
                -6
            ],
            "rotation": {
                "angle": 0,
                "axis": "y",
                "origin": [
                    8.03513,
                    7.13031,
                    -31.7
                ]
            },
            "faces": {
                "north": {
                    "uv": [
                        14.375,
                        6.75,
                        14.625,
                        6.825
                    ],
                    "rotation": 270,
                    "texture": "#1"
                },
                "east": {
                    "uv": [
                        14.375,
                        6.75,
                        14.625,
                        6.825
                    ],
                    "rotation": 270,
                    "texture": "#1"
                },
                "south": {
                    "uv": [
                        14.375,
                        6.75,
                        14.625,
                        6.825
                    ],
                    "rotation": 270,
                    "texture": "#1"
                },
                "west": {
                    "uv": [
                        14.375,
                        6.75,
                        14.625,
                        6.825
                    ],
                    "rotation": 270,
                    "texture": "#1"
                },
                "up": {
                    "uv": [
                        14.375,
                        6.75,
                        14.625,
                        6.825
                    ],
                    "rotation": 270,
                    "texture": "#1"
                },
                "down": {
                    "uv": [
                        14.375,
                        6.75,
                        14.625,
                        6.825
                    ],
                    "rotation": 270,
                    "texture": "#1"
                }
            }
        }
    ],
    "display": {
        "thirdperson_righthand": {
            "translation": [
                -0.25,
                1,
                6.25
            ]
        },
        "thirdperson_lefthand": {
            "translation": [
                0,
                1,
                6.25
            ]
        },
        "firstperson_righthand": {
            "translation": [
                -2.25,
                3,
                5.75
            ]
        },
        "firstperson_lefthand": {
            "translation": [
                -1.75,
                3.5,
                6.25
            ]
        },
        "ground": {
            "translation": [
                0,
                0,
                8.5
            ]
        },
        "gui": {
            "rotation": [
                31,
                33,
                -21
            ],
            "translation": [
                4,
                -1.25,
                0
            ],
            "scale": [
                0.86,
                0.86,
                0.86
            ]
        },
        "fixed": {
            "rotation": [
                90,
                45,
                -90
            ],
            "translation": [
                5.75,
                -4.25,
                -1.75
            ]
        }
    }
}