{
    "textures": {
        "0": "gci:items/common/mpz",
        "particle": "gci:items/common/mpz"
    },
    "elements": [
        {
            "name": "hexadecagon",
            "from": [
                1.82629,
                4.63054,
                -2.42187
            ],
            "to": [
                2.13379,
                4.72005,
                -2.06562
            ],
            "rotation": {
                "angle": -45,
                "axis": "z",
                "origin": [
                    1.90879,
                    4.6753,
                    2.18125
                ]
            },
            "faces": {
                "north": {
                    "uv": [
                        6.33333,
                        4,
                        7.33333,
                        5
                    ],
                    "texture": "#0"
                },
                "east": {
                    "uv": [
                        6.33333,
                        4,
                        7.33333,
                        5
                    ],
                    "texture": "#0"
                },
                "south": {
                    "uv": [
                        6.33333,
                        4,
                        7.33333,
                        5
                    ],
                    "texture": "#0"
                },
                "west": {
                    "uv": [
                        6.33333,
                        4,
                        7.33333,
                        5
                    ],
                    "texture": "#0"
                },
                "up": {
                    "uv": [
                        6.33333,
                        4,
                        7.33333,
                        5
                    ],
                    "rotation": 90,
                    "texture": "#0"
                },
                "down": {
                    "uv": [
                        6.33333,
                        4,
                        7.33333,
                        5
                    ],
                    "rotation": 270,
                    "texture": "#0"
                }
            }
        },
        {
            "name": "hexadecagon",
            "from": [
                1.82629,
                4.63054,
                -2.42187
            ],
            "to": [
                2.13379,
                4.72005,
                -2.06562
            ],
            "rotation": {
                "angle": -22.5,
                "axis": "z",
                "origin": [
                    1.90879,
                    4.6753,
                    2.18125
                ]
            },
            "faces": {
                "north": {
                    "uv": [
                        6.33333,
                        4,
                        7.33333,
                        5
                    ],
                    "texture": "#0"
                },
                "east": {
                    "uv": [
                        6.33333,
                        4,
                        7.33333,
                        5
                    ],
                    "texture": "#0"
                },
                "south": {
                    "uv": [
                        6.33333,
                        4,
                        7.33333,
                        5
                    ],
                    "texture": "#0"
                },
                "west": {
                    "uv": [
                        6.33333,
                        4,
                        7.33333,
                        5
                    ],
                    "texture": "#0"
                },
                "up": {
                    "uv": [
                        6.33333,
                        4,
                        7.33333,
                        5
                    ],
                    "rotation": 90,
                    "texture": "#0"
                },
                "down": {
                    "uv": [
                        6.33333,
                        4,
                        7.33333,
                        5
                    ],
                    "rotation": 270,
                    "texture": "#0"
                }
            }
        },
        {
            "name": "hexadecagon",
            "from": [
                1.82629,
                4.63054,
                -2.42187
            ],
            "to": [
                2.13379,
                4.72005,
                -2.06562
            ],
            "rotation": {
                "angle": 0,
                "axis": "y",
                "origin": [
                    1.90879,
                    4.6753,
                    2.18125
                ]
            },
            "faces": {
                "north": {
                    "uv": [
                        6.33333,
                        4,
                        7.33333,
                        5
                    ],
                    "texture": "#0"
                },
                "east": {
                    "uv": [
                        6.33333,
                        4,
                        7.33333,
                        5
                    ],
                    "texture": "#0"
                },
                "south": {
                    "uv": [
                        6.33333,
                        4,
                        7.33333,
                        5
                    ],
                    "texture": "#0"
                },
                "west": {
                    "uv": [
                        6.33333,
                        4,
                        7.33333,
                        5
                    ],
                    "texture": "#0"
                },
                "up": {
                    "uv": [
                        6.33333,
                        4,
                        7.33333,
                        5
                    ],
                    "rotation": 90,
                    "texture": "#0"
                },
                "down": {
                    "uv": [
                        6.33333,
                        4,
                        7.33333,
                        5
                    ],
                    "rotation": 270,
                    "texture": "#0"
                }
            }
        },
        {
            "name": "hexadecagon",
            "from": [
                1.82629,
                4.63054,
                -2.42187
            ],
            "to": [
                2.13379,
                4.72005,
                -2.06562
            ],
            "rotation": {
                "angle": 22.5,
                "axis": "z",
                "origin": [
                    1.90879,
                    4.6753,
                    2.18125
                ]
            },
            "faces": {
                "north": {
                    "uv": [
                        6.33333,
                        4,
                        7.33333,
                        5
                    ],
                    "texture": "#0"
                },
                "east": {
                    "uv": [
                        6.33333,
                        4,
                        7.33333,
                        5
                    ],
                    "texture": "#0"
                },
                "south": {
                    "uv": [
                        6.33333,
                        4,
                        7.33333,
                        5
                    ],
                    "texture": "#0"
                },
                "west": {
                    "uv": [
                        6.33333,
                        4,
                        7.33333,
                        5
                    ],
                    "texture": "#0"
                },
                "up": {
                    "uv": [
                        6.33333,
                        4,
                        7.33333,
                        5
                    ],
                    "rotation": 90,
                    "texture": "#0"
                },
                "down": {
                    "uv": [
                        6.33333,
                        4,
                        7.33333,
                        5
                    ],
                    "rotation": 270,
                    "texture": "#0"
                }
            }
        },
        {
            "name": "hexadecagon",
            "from": [
                1.82629,
                4.63054,
                -2.42187
            ],
            "to": [
                2.13379,
                4.72005,
                -2.06562
            ],
            "rotation": {
                "angle": 45,
                "axis": "z",
                "origin": [
                    1.90879,
                    4.6753,
                    2.18125
                ]
            },
            "faces": {
                "north": {
                    "uv": [
                        6.33333,
                        4,
                        7.33333,
                        5
                    ],
                    "texture": "#0"
                },
                "east": {
                    "uv": [
                        6.33333,
                        4,
                        7.33333,
                        5
                    ],
                    "texture": "#0"
                },
                "south": {
                    "uv": [
                        6.33333,
                        4,
                        7.33333,
                        5
                    ],
                    "texture": "#0"
                },
                "west": {
                    "uv": [
                        6.33333,
                        4,
                        7.33333,
                        5
                    ],
                    "texture": "#0"
                },
                "up": {
                    "uv": [
                        6.33333,
                        4,
                        7.33333,
                        5
                    ],
                    "rotation": 90,
                    "texture": "#0"
                },
                "down": {
                    "uv": [
                        6.33333,
                        4,
                        7.33333,
                        5
                    ],
                    "rotation": 270,
                    "texture": "#0"
                }
            }
        },
        {
            "name": "hexadecagon",
            "from": [
                1.68379,
                4.63054,
                -2.42187
            ],
            "to": [
                1.99129,
                4.72005,
                -2.06562
            ],
            "rotation": {
                "angle": -45,
                "axis": "z",
                "origin": [
                    1.90879,
                    4.6753,
                    2.18125
                ]
            },
            "faces": {
                "north": {
                    "uv": [
                        6.33333,
                        4,
                        7.33333,
                        5
                    ],
                    "texture": "#0"
                },
                "east": {
                    "uv": [
                        6.33333,
                        4,
                        7.33333,
                        5
                    ],
                    "texture": "#0"
                },
                "south": {
                    "uv": [
                        6.33333,
                        4,
                        7.33333,
                        5
                    ],
                    "texture": "#0"
                },
                "west": {
                    "uv": [
                        6.33333,
                        4,
                        7.33333,
                        5
                    ],
                    "texture": "#0"
                },
                "up": {
                    "uv": [
                        6.33333,
                        4,
                        7.33333,
                        5
                    ],
                    "rotation": 90,
                    "texture": "#0"
                },
                "down": {
                    "uv": [
                        6.33333,
                        4,
                        7.33333,
                        5
                    ],
                    "rotation": 270,
                    "texture": "#0"
                }
            }
        },
        {
            "name": "hexadecagon",
            "from": [
                1.68379,
                4.63054,
                -2.42187
            ],
            "to": [
                1.99129,
                4.72005,
                -2.06562
            ],
            "rotation": {
                "angle": -22.5,
                "axis": "z",
                "origin": [
                    1.90879,
                    4.6753,
                    2.18125
                ]
            },
            "faces": {
                "north": {
                    "uv": [
                        6.33333,
                        4,
                        7.33333,
                        5
                    ],
                    "texture": "#0"
                },
                "east": {
                    "uv": [
                        6.33333,
                        4,
                        7.33333,
                        5
                    ],
                    "texture": "#0"
                },
                "south": {
                    "uv": [
                        6.33333,
                        4,
                        7.33333,
                        5
                    ],
                    "texture": "#0"
                },
                "west": {
                    "uv": [
                        6.33333,
                        4,
                        7.33333,
                        5
                    ],
                    "texture": "#0"
                },
                "up": {
                    "uv": [
                        6.33333,
                        4,
                        7.33333,
                        5
                    ],
                    "rotation": 90,
                    "texture": "#0"
                },
                "down": {
                    "uv": [
                        6.33333,
                        4,
                        7.33333,
                        5
                    ],
                    "rotation": 270,
                    "texture": "#0"
                }
            }
        },
        {
            "name": "hexadecagon",
            "from": [
                1.68379,
                4.63054,
                -2.42187
            ],
            "to": [
                1.99129,
                4.72005,
                -2.06562
            ],
            "rotation": {
                "angle": 0,
                "axis": "y",
                "origin": [
                    1.90879,
                    4.6753,
                    2.18125
                ]
            },
            "faces": {
                "north": {
                    "uv": [
                        6.33333,
                        4,
                        7.33333,
                        5
                    ],
                    "texture": "#0"
                },
                "east": {
                    "uv": [
                        6.33333,
                        4,
                        7.33333,
                        5
                    ],
                    "texture": "#0"
                },
                "south": {
                    "uv": [
                        6.33333,
                        4,
                        7.33333,
                        5
                    ],
                    "texture": "#0"
                },
                "west": {
                    "uv": [
                        6.33333,
                        4,
                        7.33333,
                        5
                    ],
                    "texture": "#0"
                },
                "up": {
                    "uv": [
                        6.33333,
                        4,
                        7.33333,
                        5
                    ],
                    "rotation": 90,
                    "texture": "#0"
                },
                "down": {
                    "uv": [
                        6.33333,
                        4,
                        7.33333,
                        5
                    ],
                    "rotation": 270,
                    "texture": "#0"
                }
            }
        },
        {
            "name": "hexadecagon",
            "from": [
                1.68379,
                4.63054,
                -2.42187
            ],
            "to": [
                1.75129,
                4.72005,
                -2.06562
            ],
            "rotation": {
                "angle": 22.5,
                "axis": "z",
                "origin": [
                    1.90879,
                    4.6753,
                    2.18125
                ]
            },
            "faces": {
                "north": {
                    "uv": [
                        6.33333,
                        4,
                        7.33333,
                        5
                    ],
                    "texture": "#0"
                },
                "east": {
                    "uv": [
                        6.33333,
                        4,
                        7.33333,
                        5
                    ],
                    "texture": "#0"
                },
                "south": {
                    "uv": [
                        6.33333,
                        4,
                        7.33333,
                        5
                    ],
                    "texture": "#0"
                },
                "west": {
                    "uv": [
                        6.33333,
                        4,
                        7.33333,
                        5
                    ],
                    "texture": "#0"
                },
                "up": {
                    "uv": [
                        6.33333,
                        4,
                        7.33333,
                        5
                    ],
                    "rotation": 90,
                    "texture": "#0"
                },
                "down": {
                    "uv": [
                        6.33333,
                        4,
                        7.33333,
                        5
                    ],
                    "rotation": 270,
                    "texture": "#0"
                }
            }
        },
        {
            "name": "hexadecagon",
            "from": [
                1.68379,
                4.63054,
                -2.42187
            ],
            "to": [
                1.99129,
                4.72005,
                -2.06562
            ],
            "rotation": {
                "angle": 45,
                "axis": "z",
                "origin": [
                    1.90879,
                    4.6753,
                    2.18125
                ]
            },
            "faces": {
                "north": {
                    "uv": [
                        6.33333,
                        4,
                        7.33333,
                        5
                    ],
                    "texture": "#0"
                },
                "east": {
                    "uv": [
                        6.33333,
                        4,
                        7.33333,
                        5
                    ],
                    "texture": "#0"
                },
                "south": {
                    "uv": [
                        6.33333,
                        4,
                        7.33333,
                        5
                    ],
                    "texture": "#0"
                },
                "west": {
                    "uv": [
                        6.33333,
                        4,
                        7.33333,
                        5
                    ],
                    "texture": "#0"
                },
                "up": {
                    "uv": [
                        6.33333,
                        4,
                        7.33333,
                        5
                    ],
                    "rotation": 90,
                    "texture": "#0"
                },
                "down": {
                    "uv": [
                        6.33333,
                        4,
                        7.33333,
                        5
                    ],
                    "rotation": 270,
                    "texture": "#0"
                }
            }
        },
        {
            "name": "hexadecagon",
            "from": [
                1.86403,
                4.4503,
                -2.42187
            ],
            "to": [
                1.95354,
                4.7578,
                -2.06562
            ],
            "rotation": {
                "angle": -22.5,
                "axis": "z",
                "origin": [
                    1.90879,
                    4.6753,
                    2.18125
                ]
            },
            "faces": {
                "north": {
                    "uv": [
                        6.33333,
                        4,
                        7.33333,
                        5
                    ],
                    "texture": "#0"
                },
                "east": {
                    "uv": [
                        6.33333,
                        4,
                        7.33333,
                        5
                    ],
                    "texture": "#0"
                },
                "south": {
                    "uv": [
                        6.33333,
                        4,
                        7.33333,
                        5
                    ],
                    "texture": "#0"
                },
                "west": {
                    "uv": [
                        6.33333,
                        4,
                        7.33333,
                        5
                    ],
                    "texture": "#0"
                },
                "up": {
                    "uv": [
                        6.33333,
                        4,
                        7.33333,
                        5
                    ],
                    "rotation": 90,
                    "texture": "#0"
                },
                "down": {
                    "uv": [
                        6.33333,
                        4,
                        7.33333,
                        5
                    ],
                    "rotation": 270,
                    "texture": "#0"
                }
            }
        },
        {
            "name": "hexadecagon",
            "from": [
                0.94665,
                4.22217,
                -5.99103
            ],
            "to": [
                1.03616,
                4.47842,
                -2.43353
            ],
            "rotation": {
                "angle": 22.5,
                "axis": "y",
                "origin": [
                    1.94601,
                    4.3503,
                    -4.72338
                ]
            },
            "faces": {
                "north": {
                    "uv": [
                        6.33333,
                        4,
                        7.33333,
                        5
                    ],
                    "rotation": 90,
                    "texture": "#0"
                },
                "east": {
                    "uv": [
                        6.33333,
                        4,
                        7.33333,
                        5
                    ],
                    "rotation": 270,
                    "texture": "#0"
                },
                "south": {
                    "uv": [
                        6.33333,
                        4,
                        7.33333,
                        5
                    ],
                    "rotation": 90,
                    "texture": "#0"
                },
                "west": {
                    "uv": [
                        6.33333,
                        4,
                        7.33333,
                        5
                    ],
                    "rotation": 90,
                    "texture": "#0"
                },
                "up": {
                    "uv": [
                        6.33333,
                        4,
                        7.33333,
                        5
                    ],
                    "rotation": 180,
                    "texture": "#0"
                },
                "down": {
                    "uv": [
                        6.33333,
                        4,
                        7.33333,
                        5
                    ],
                    "texture": "#0"
                }
            }
        },
        {
            "name": "hexadecagon",
            "from": [
                1.86403,
                4.4503,
                -2.42187
            ],
            "to": [
                1.95354,
                4.7578,
                -2.06562
            ],
            "rotation": {
                "angle": 0,
                "axis": "y",
                "origin": [
                    1.90879,
                    4.6753,
                    2.18125
                ]
            },
            "faces": {
                "north": {
                    "uv": [
                        6.33333,
                        4,
                        7.33333,
                        5
                    ],
                    "texture": "#0"
                },
                "east": {
                    "uv": [
                        6.33333,
                        4,
                        7.33333,
                        5
                    ],
                    "texture": "#0"
                },
                "south": {
                    "uv": [
                        6.33333,
                        4,
                        7.33333,
                        5
                    ],
                    "texture": "#0"
                },
                "west": {
                    "uv": [
                        6.33333,
                        4,
                        7.33333,
                        5
                    ],
                    "texture": "#0"
                },
                "up": {
                    "uv": [
                        6.33333,
                        4,
                        7.33333,
                        5
                    ],
                    "rotation": 90,
                    "texture": "#0"
                },
                "down": {
                    "uv": [
                        6.33333,
                        4,
                        7.33333,
                        5
                    ],
                    "rotation": 270,
                    "texture": "#0"
                }
            }
        },
        {
            "name": "hexadecagon",
            "from": [
                1.76403,
                4.2003,
                -2.52187
            ],
            "to": [
                2.05354,
                4.5578,
                -1.96562
            ],
            "rotation": {
                "angle": 0,
                "axis": "y",
                "origin": [
                    1.90879,
                    4.6753,
                    2.18125
                ]
            },
            "faces": {
                "north": {
                    "uv": [
                        11.66667,
                        1,
                        12.66667,
                        2
                    ],
                    "texture": "#0"
                },
                "east": {
                    "uv": [
                        11.66667,
                        1,
                        12.66667,
                        2
                    ],
                    "texture": "#0"
                },
                "south": {
                    "uv": [
                        11.66667,
                        1,
                        12.66667,
                        2
                    ],
                    "texture": "#0"
                },
                "west": {
                    "uv": [
                        11.66667,
                        1,
                        12.66667,
                        2
                    ],
                    "texture": "#0"
                },
                "up": {
                    "uv": [
                        11.66667,
                        1,
                        12.66667,
                        2
                    ],
                    "rotation": 90,
                    "texture": "#0"
                },
                "down": {
                    "uv": [
                        11.66667,
                        1,
                        12.66667,
                        2
                    ],
                    "rotation": 270,
                    "texture": "#0"
                }
            }
        },
        {
            "name": "hexadecagon",
            "from": [
                1.86403,
                4.4503,
                -2.42187
            ],
            "to": [
                1.95354,
                4.7578,
                -2.06562
            ],
            "rotation": {
                "angle": 22.5,
                "axis": "z",
                "origin": [
                    1.90879,
                    4.6753,
                    2.18125
                ]
            },
            "faces": {
                "north": {
                    "uv": [
                        6.33333,
                        4,
                        7.33333,
                        5
                    ],
                    "texture": "#0"
                },
                "east": {
                    "uv": [
                        6.33333,
                        4,
                        7.33333,
                        5
                    ],
                    "texture": "#0"
                },
                "south": {
                    "uv": [
                        6.33333,
                        4,
                        7.33333,
                        5
                    ],
                    "texture": "#0"
                },
                "west": {
                    "uv": [
                        6.33333,
                        4,
                        7.33333,
                        5
                    ],
                    "texture": "#0"
                },
                "up": {
                    "uv": [
                        6.33333,
                        4,
                        7.33333,
                        5
                    ],
                    "rotation": 90,
                    "texture": "#0"
                },
                "down": {
                    "uv": [
                        6.33333,
                        4,
                        7.33333,
                        5
                    ],
                    "rotation": 270,
                    "texture": "#0"
                }
            }
        },
        {
            "name": "hexadecagon",
            "from": [
                2.78708,
                4.22217,
                -5.96255
            ],
            "to": [
                2.87659,
                4.47842,
                -2.40505
            ],
            "rotation": {
                "angle": -22.5,
                "axis": "y",
                "origin": [
                    1.94601,
                    4.3503,
                    -4.72338
                ]
            },
            "faces": {
                "north": {
                    "uv": [
                        6.33333,
                        4,
                        7.33333,
                        5
                    ],
                    "rotation": 90,
                    "texture": "#0"
                },
                "east": {
                    "uv": [
                        6.33333,
                        4,
                        7.33333,
                        5
                    ],
                    "rotation": 270,
                    "texture": "#0"
                },
                "south": {
                    "uv": [
                        6.33333,
                        4,
                        7.33333,
                        5
                    ],
                    "rotation": 90,
                    "texture": "#0"
                },
                "west": {
                    "uv": [
                        6.33333,
                        4,
                        7.33333,
                        5
                    ],
                    "rotation": 90,
                    "texture": "#0"
                },
                "up": {
                    "uv": [
                        6.33333,
                        4,
                        7.33333,
                        5
                    ],
                    "rotation": 180,
                    "texture": "#0"
                },
                "down": {
                    "uv": [
                        6.33333,
                        4,
                        7.33333,
                        5
                    ],
                    "texture": "#0"
                }
            }
        },
        {
            "name": "hexadecagon",
            "from": [
                3.11316,
                4.12217,
                -5.66463
            ],
            "to": [
                3.45267,
                4.57842,
                -5.45713
            ],
            "rotation": {
                "angle": 0,
                "axis": "y",
                "origin": [
                    1.94601,
                    4.3503,
                    -4.72338
                ]
            },
            "faces": {
                "north": {
                    "uv": [
                        11.66667,
                        1,
                        12.66667,
                        2
                    ],
                    "rotation": 90,
                    "texture": "#0"
                },
                "east": {
                    "uv": [
                        11.66667,
                        1,
                        12.66667,
                        2
                    ],
                    "rotation": 270,
                    "texture": "#0"
                },
                "south": {
                    "uv": [
                        11.66667,
                        1,
                        12.66667,
                        2
                    ],
                    "rotation": 90,
                    "texture": "#0"
                },
                "west": {
                    "uv": [
                        11.66667,
                        1,
                        12.66667,
                        2
                    ],
                    "rotation": 90,
                    "texture": "#0"
                },
                "up": {
                    "uv": [
                        11.66667,
                        1,
                        12.66667,
                        2
                    ],
                    "rotation": 180,
                    "texture": "#0"
                },
                "down": {
                    "uv": [
                        11.66667,
                        1,
                        12.66667,
                        2
                    ],
                    "texture": "#0"
                }
            }
        },
        {
            "name": "hexadecagon",
            "from": [
                0.36316,
                4.12217,
                -5.66463
            ],
            "to": [
                0.70267,
                4.57842,
                -5.45713
            ],
            "rotation": {
                "angle": 0,
                "axis": "y",
                "origin": [
                    -0.80399,
                    4.3503,
                    -4.72338
                ]
            },
            "faces": {
                "north": {
                    "uv": [
                        11.66667,
                        1,
                        12.66667,
                        2
                    ],
                    "rotation": 90,
                    "texture": "#0"
                },
                "east": {
                    "uv": [
                        11.66667,
                        1,
                        12.66667,
                        2
                    ],
                    "rotation": 270,
                    "texture": "#0"
                },
                "south": {
                    "uv": [
                        11.66667,
                        1,
                        12.66667,
                        2
                    ],
                    "rotation": 90,
                    "texture": "#0"
                },
                "west": {
                    "uv": [
                        11.66667,
                        1,
                        12.66667,
                        2
                    ],
                    "rotation": 90,
                    "texture": "#0"
                },
                "up": {
                    "uv": [
                        11.66667,
                        1,
                        12.66667,
                        2
                    ],
                    "rotation": 180,
                    "texture": "#0"
                },
                "down": {
                    "uv": [
                        11.66667,
                        1,
                        12.66667,
                        2
                    ],
                    "texture": "#0"
                }
            }
        },
        {
            "name": "hexadecagon",
            "from": [
                1.86403,
                4.5928,
                -2.42187
            ],
            "to": [
                1.95354,
                4.9003,
                -2.06562
            ],
            "rotation": {
                "angle": -22.5,
                "axis": "z",
                "origin": [
                    1.90879,
                    4.6753,
                    2.18125
                ]
            },
            "faces": {
                "north": {
                    "uv": [
                        6.33333,
                        4,
                        7.33333,
                        5
                    ],
                    "texture": "#0"
                },
                "east": {
                    "uv": [
                        6.33333,
                        4,
                        7.33333,
                        5
                    ],
                    "texture": "#0"
                },
                "south": {
                    "uv": [
                        6.33333,
                        4,
                        7.33333,
                        5
                    ],
                    "texture": "#0"
                },
                "west": {
                    "uv": [
                        6.33333,
                        4,
                        7.33333,
                        5
                    ],
                    "texture": "#0"
                },
                "up": {
                    "uv": [
                        6.33333,
                        4,
                        7.33333,
                        5
                    ],
                    "rotation": 90,
                    "texture": "#0"
                },
                "down": {
                    "uv": [
                        6.33333,
                        4,
                        7.33333,
                        5
                    ],
                    "rotation": 270,
                    "texture": "#0"
                }
            }
        },
        {
            "name": "hexadecagon",
            "from": [
                1.86403,
                4.5928,
                -2.42187
            ],
            "to": [
                1.95354,
                4.9003,
                -2.06562
            ],
            "rotation": {
                "angle": 0,
                "axis": "y",
                "origin": [
                    1.90879,
                    4.6753,
                    2.18125
                ]
            },
            "faces": {
                "north": {
                    "uv": [
                        6.33333,
                        4,
                        7.33333,
                        5
                    ],
                    "texture": "#0"
                },
                "east": {
                    "uv": [
                        6.33333,
                        4,
                        7.33333,
                        5
                    ],
                    "texture": "#0"
                },
                "south": {
                    "uv": [
                        6.33333,
                        4,
                        7.33333,
                        5
                    ],
                    "texture": "#0"
                },
                "west": {
                    "uv": [
                        6.33333,
                        4,
                        7.33333,
                        5
                    ],
                    "texture": "#0"
                },
                "up": {
                    "uv": [
                        6.33333,
                        4,
                        7.33333,
                        5
                    ],
                    "rotation": 90,
                    "texture": "#0"
                },
                "down": {
                    "uv": [
                        6.33333,
                        4,
                        7.33333,
                        5
                    ],
                    "rotation": 270,
                    "texture": "#0"
                }
            }
        },
        {
            "name": "hexadecagon",
            "from": [
                1.86403,
                4.5928,
                -2.42187
            ],
            "to": [
                1.95354,
                4.9003,
                -2.06562
            ],
            "rotation": {
                "angle": 22.5,
                "axis": "z",
                "origin": [
                    1.90879,
                    4.6753,
                    2.18125
                ]
            },
            "faces": {
                "north": {
                    "uv": [
                        6.33333,
                        4,
                        7.33333,
                        5
                    ],
                    "texture": "#0"
                },
                "east": {
                    "uv": [
                        6.33333,
                        4,
                        7.33333,
                        5
                    ],
                    "texture": "#0"
                },
                "south": {
                    "uv": [
                        6.33333,
                        4,
                        7.33333,
                        5
                    ],
                    "texture": "#0"
                },
                "west": {
                    "uv": [
                        6.33333,
                        4,
                        7.33333,
                        5
                    ],
                    "texture": "#0"
                },
                "up": {
                    "uv": [
                        6.33333,
                        4,
                        7.33333,
                        5
                    ],
                    "rotation": 90,
                    "texture": "#0"
                },
                "down": {
                    "uv": [
                        6.33333,
                        4,
                        7.33333,
                        5
                    ],
                    "rotation": 270,
                    "texture": "#0"
                }
            }
        }
    ],
    "display": {
        "thirdperson_righthand": {
            "translation": [
                6.75,
                4.25,
                0.75
            ],
            "scale": [
                1.1,
                1.1,
                1.1
            ]
        },
        "thirdperson_lefthand": {
            "translation": [
                -6.75,
                4.25,
                0.75
            ],
            "scale": [
                1.1,
                1.1,
                1.1
            ]
        },
        "firstperson_righthand": {
            "translation": [
                1.5,
                10,
                8
            ],
            "scale": [
                1.2,
                1.2,
                1.2
            ]
        },
        "firstperson_lefthand": {
            "translation": [
                -13.25,
                10.25,
                8
            ],
            "scale": [
                1.2,
                1.2,
                1.2
            ]
        },
        "ground": {
            "translation": [
                7,
                5.5,
                3.5
            ],
            "scale": [
                1.2,
                1.2,
                1.2
            ]
        },
        "gui": {
            "rotation": [
                54,
                -44,
                63
            ],
            "translation": [
                -2,
                3,
                0
            ]
        },
        "head": {
            "translation": [
                6.25,
                11.5,
                0
            ]
        },
        "fixed": {
            "rotation": [
                90,
                45,
                -90
            ],
            "translation": [
                4.75,
                0.5,
                -6.75
            ],
            "scale": [
                1.1,
                1.1,
                1.1
            ]
        }
    }
}