{
    "textures": {
        "1": "gci:items/gun_hsmg/barrel_uni_compensator",
        "2": "gci:items/gun_hsmg/barrel_uni_supressor",
        "3": "gci:items/gun_hsmg/underbarrel_uni_flash_on",
        "5": "gci:items/gun_hsmg/underbarrel_uni_lcu",
        "6": "gci:items/gun_hsmg/barrel_uni_silencer",
        "7": "gci:items/gun_hsmg/optic_uni_scope_assault",
        "12": "gci:items/gun_hsmg/smgstockbase",
        "13": "gci:items/gun_hsmg/medmag",
        "14": "gci:items/gun_hsmg/grip",
        "15": "gci:items/gun_hsmg/holo",
        "16": "gci:items/gun_hsmg/grip_flash",
        "17": "gci:items/gun_hsmg/grip_laser",
        "18": "gci:items/gun_hsmg/stockfold",
        "19": "gci:items/gun_hsmg/stocktelescop",
        "20": "gci:items/gun_hsmg/reflex_scope",
        "21": "gci:items/gun_hsmg/bigmag",
        "22": "gci:items/gun_hsmg/smallmag",
        "23": "gci:items/gun_hsmg/underbarrel_flame",
        "24": "gci:items/gun_hsmg/underbarrel_shot",
        "25": "gci:items/gun_hsmg/snip_scope",
        "particle": "gci:items/gun_hsmg/medmag"
    },
    "elements": [
        {
            "from": [
                7.99047,
                -1.90366,
                7.9855
            ],
            "to": [
                9.44847,
                7.00634,
                9.77814
            ],
            "rotation": {
                "angle": -22.5,
                "axis": "x",
                "origin": [
                    8.71947,
                    5.85807,
                    7.22664
                ]
            },
            "faces": {
                "north": {
                    "uv": [
                        0,
                        0,
                        2,
                        11
                    ],
                    "texture": "#13"
                },
                "east": {
                    "uv": [
                        2,
                        0,
                        4,
                        11
                    ],
                    "texture": "#13"
                },
                "south": {
                    "uv": [
                        4,
                        0,
                        6,
                        11
                    ],
                    "texture": "#13"
                },
                "west": {
                    "uv": [
                        6,
                        0,
                        8,
                        11
                    ],
                    "texture": "#13"
                },
                "up": {
                    "uv": [
                        10,
                        2,
                        8,
                        0
                    ],
                    "texture": "#13"
                },
                "down": {
                    "uv": [
                        10,
                        2,
                        8,
                        4
                    ],
                    "texture": "#13"
                }
            }
        }
    ],
    "display": {
        "thirdperson_righthand": {
            "rotation": [
                0,
                180,
                0
            ],
            "translation": [
                0,
                0.5,
                -2.25
            ],
            "scale": [
                0.65,
                0.65,
                0.65
            ]
        },
        "thirdperson_lefthand": {
            "rotation": [
                0,
                180,
                0
            ],
            "translation": [
                -0.75,
                0.5,
                -2.25
            ],
            "scale": [
                0.65,
                0.65,
                0.65
            ]
        },
        "firstperson_righthand": {
            "rotation": [
                -179.11,
                0.85,
                176.24
            ],
            "translation": [
                -2.75,
                2.5,
                -0.25
            ],
            "scale": [
                1,
                1,
                0.9
            ]
        },
        "firstperson_lefthand": {
            "rotation": [
                -179.11,
                0.85,
                176.24
            ],
            "translation": [
                -4.25,
                2.5,
                -0.25
            ],
            "scale": [
                1,
                1,
                0.9
            ]
        },
        "ground": {
            "translation": [
                0,
                2.25,
                0
            ]
        },
        "gui": {
            "rotation": [
                -90,
                -55,
                -90
            ],
            "translation": [
                1.75,
                -0.75,
                0
            ]
        },
        "fixed": {
            "rotation": [
                90,
                45,
                -90
            ],
            "translation": [
                -1.25,
                0.5,
                -1.5
            ],
            "scale": [
                0.65,
                0.65,
                0.65
            ]
        }
    }
}