{
    "textures": {
        "1": "gci:items/gun_hsmg/barrel_uni_compensator",
        "2": "gci:items/gun_hsmg/barrel_uni_supressor",
        "3": "gci:items/gun_hsmg/underbarrel_uni_flash_on",
        "5": "gci:items/gun_hsmg/underbarrel_uni_lcu",
        "6": "gci:items/gun_hsmg/barrel_uni_silencer",
        "7": "gci:items/gun_hsmg/optic_uni_scope_assault",
        "12": "gci:items/gun_hsmg/smgstockbase",
        "13": "gci:items/gun_hsmg/medmag",
        "14": "gci:items/gun_hsmg/grip",
        "15": "gci:items/gun_hsmg/holo",
        "16": "gci:items/gun_hsmg/grip_flash",
        "17": "gci:items/gun_hsmg/grip_laser",
        "18": "gci:items/gun_hsmg/stockfold",
        "19": "gci:items/gun_hsmg/stocktelescop",
        "20": "gci:items/gun_hsmg/reflex_scope",
        "21": "gci:items/gun_hsmg/bigmag",
        "22": "gci:items/gun_hsmg/smallmag",
        "23": "gci:items/gun_hsmg/underbarrel_flame",
        "24": "gci:items/gun_hsmg/underbarrel_shot",
        "25": "gci:items/gun_hsmg/snip_scope",
        "particle": "gci:items/gun_hsmg/medmag"
    },
    "elements": [
        {
            "from": [
                7.99047,
                8.343,
                11.52962
            ],
            "to": [
                9.44847,
                8.586,
                13.95962
            ],
            "rotation": {
                "angle": 0,
                "axis": "y",
                "origin": [
                    8.71947,
                    7.047,
                    12.33962
                ]
            },
            "faces": {
                "north": {
                    "uv": [
                        4,
                        10,
                        6,
                        11
                    ],
                    "texture": "#5"
                },
                "east": {
                    "uv": [
                        6,
                        2,
                        9,
                        3
                    ],
                    "texture": "#5"
                },
                "south": {
                    "uv": [
                        10,
                        8,
                        12,
                        9
                    ],
                    "texture": "#5"
                },
                "west": {
                    "uv": [
                        6,
                        3,
                        9,
                        4
                    ],
                    "texture": "#5"
                },
                "up": {
                    "uv": [
                        4,
                        5,
                        2,
                        2
                    ],
                    "texture": "#5"
                },
                "down": {
                    "uv": [
                        6,
                        2,
                        4,
                        5
                    ],
                    "texture": "#5"
                }
            }
        },
        {
            "from": [
                7.82847,
                7.695,
                11.52962
            ],
            "to": [
                9.61047,
                8.343,
                13.95962
            ],
            "rotation": {
                "angle": 0,
                "axis": "y",
                "origin": [
                    8.71947,
                    6.804,
                    12.33962
                ]
            },
            "faces": {
                "north": {
                    "uv": [
                        9,
                        10,
                        11,
                        11
                    ],
                    "texture": "#5"
                },
                "east": {
                    "uv": [
                        6,
                        4,
                        9,
                        5
                    ],
                    "texture": "#5"
                },
                "south": {
                    "uv": [
                        0,
                        11,
                        2,
                        12
                    ],
                    "texture": "#5"
                },
                "west": {
                    "uv": [
                        6,
                        5,
                        9,
                        6
                    ],
                    "texture": "#5"
                },
                "up": {
                    "uv": [
                        4,
                        8,
                        2,
                        5
                    ],
                    "texture": "#5"
                },
                "down": {
                    "uv": [
                        6,
                        5,
                        4,
                        8
                    ],
                    "texture": "#5"
                }
            }
        },
        {
            "from": [
                8.65574,
                8.37079,
                11.52962
            ],
            "to": [
                9.06074,
                8.77579,
                13.95962
            ],
            "rotation": {
                "angle": 45,
                "axis": "z",
                "origin": [
                    9.54674,
                    7.23679,
                    12.33962
                ]
            },
            "faces": {
                "north": {
                    "uv": [
                        6,
                        10,
                        7,
                        11
                    ],
                    "texture": "#5"
                },
                "east": {
                    "uv": [
                        6,
                        6,
                        9,
                        7
                    ],
                    "texture": "#5"
                },
                "south": {
                    "uv": [
                        11,
                        0,
                        12,
                        1
                    ],
                    "texture": "#5"
                },
                "west": {
                    "uv": [
                        6,
                        7,
                        9,
                        8
                    ],
                    "texture": "#5"
                },
                "up": {
                    "uv": [
                        3,
                        11,
                        2,
                        8
                    ],
                    "texture": "#5"
                },
                "down": {
                    "uv": [
                        4,
                        8,
                        3,
                        11
                    ],
                    "texture": "#5"
                }
            }
        },
        {
            "from": [
                9.86498,
                8.37079,
                11.52962
            ],
            "to": [
                10.26998,
                8.77579,
                13.95962
            ],
            "rotation": {
                "angle": 45,
                "axis": "z",
                "origin": [
                    10.75598,
                    7.23679,
                    12.33962
                ]
            },
            "faces": {
                "north": {
                    "uv": [
                        11,
                        1,
                        12,
                        2
                    ],
                    "texture": "#5"
                },
                "east": {
                    "uv": [
                        4,
                        8,
                        7,
                        9
                    ],
                    "texture": "#5"
                },
                "south": {
                    "uv": [
                        2,
                        11,
                        3,
                        12
                    ],
                    "texture": "#5"
                },
                "west": {
                    "uv": [
                        7,
                        8,
                        10,
                        9
                    ],
                    "texture": "#5"
                },
                "up": {
                    "uv": [
                        10,
                        3,
                        9,
                        0
                    ],
                    "texture": "#5"
                },
                "down": {
                    "uv": [
                        10,
                        3,
                        9,
                        6
                    ],
                    "texture": "#5"
                }
            }
        },
        {
            "from": [
                9.78398,
                8.69479,
                11.69162
            ],
            "to": [
                10.18898,
                9.09979,
                14.12162
            ],
            "rotation": {
                "angle": 45,
                "axis": "z",
                "origin": [
                    10.67498,
                    7.56079,
                    12.50162
                ]
            },
            "faces": {
                "north": {
                    "uv": [
                        11,
                        2,
                        12,
                        3
                    ],
                    "texture": "#5"
                },
                "east": {
                    "uv": [
                        4,
                        9,
                        7,
                        10
                    ],
                    "texture": "#5"
                },
                "south": {
                    "uv": [
                        3,
                        11,
                        4,
                        12
                    ],
                    "texture": "#5"
                },
                "west": {
                    "uv": [
                        9,
                        6,
                        12,
                        7
                    ],
                    "texture": "#5"
                },
                "up": {
                    "uv": [
                        8,
                        12,
                        7,
                        9
                    ],
                    "texture": "#5"
                },
                "down": {
                    "uv": [
                        9,
                        9,
                        8,
                        12
                    ],
                    "texture": "#5"
                }
            }
        },
        {
            "from": [
                8.73098,
                8.69479,
                11.61062
            ],
            "to": [
                9.13598,
                9.09979,
                14.04062
            ],
            "rotation": {
                "angle": 45,
                "axis": "z",
                "origin": [
                    9.62198,
                    7.56079,
                    12.42062
                ]
            },
            "faces": {
                "north": {
                    "uv": [
                        11,
                        4,
                        12,
                        5
                    ],
                    "texture": "#5"
                },
                "east": {
                    "uv": [
                        9,
                        7,
                        12,
                        8
                    ],
                    "texture": "#5"
                },
                "south": {
                    "uv": [
                        5,
                        11,
                        6,
                        12
                    ],
                    "texture": "#5"
                },
                "west": {
                    "uv": [
                        9,
                        9,
                        12,
                        10
                    ],
                    "texture": "#5"
                },
                "up": {
                    "uv": [
                        11,
                        3,
                        10,
                        0
                    ],
                    "texture": "#5"
                },
                "down": {
                    "uv": [
                        11,
                        3,
                        10,
                        6
                    ],
                    "texture": "#5"
                }
            }
        }
    ],
    "display": {
        "thirdperson_righthand": {
            "rotation": [
                0,
                180,
                0
            ],
            "translation": [
                0,
                0.5,
                -2.25
            ],
            "scale": [
                0.65,
                0.65,
                0.65
            ]
        },
        "thirdperson_lefthand": {
            "rotation": [
                0,
                180,
                0
            ],
            "translation": [
                -0.75,
                0.5,
                -2.25
            ],
            "scale": [
                0.65,
                0.65,
                0.65
            ]
        },
        "firstperson_righthand": {
            "rotation": [
                -179.11,
                0.85,
                176.24
            ],
            "translation": [
                -2.75,
                2.5,
                -0.25
            ],
            "scale": [
                1,
                1,
                0.9
            ]
        },
        "firstperson_lefthand": {
            "rotation": [
                -179.11,
                0.85,
                176.24
            ],
            "translation": [
                -4.25,
                2.5,
                -0.25
            ],
            "scale": [
                1,
                1,
                0.9
            ]
        },
        "ground": {
            "translation": [
                0,
                2.25,
                0
            ]
        },
        "gui": {
            "rotation": [
                -90,
                -55,
                -90
            ],
            "translation": [
                1.75,
                -0.75,
                0
            ]
        },
        "fixed": {
            "rotation": [
                90,
                45,
                -90
            ],
            "translation": [
                -1.25,
                0.5,
                -1.5
            ],
            "scale": [
                0.65,
                0.65,
                0.65
            ]
        }
    }
}