{
    "textures": {
        "1": "gci:items/gun_hsmg/barrel_uni_compensator",
        "2": "gci:items/gun_hsmg/barrel_uni_supressor",
        "3": "gci:items/gun_hsmg/underbarrel_uni_flash_on",
        "5": "gci:items/gun_hsmg/underbarrel_uni_lcu",
        "6": "gci:items/gun_hsmg/barrel_uni_silencer",
        "7": "gci:items/gun_hsmg/optic_uni_scope_assault",
        "12": "gci:items/gun_hsmg/smgstockbase",
        "13": "gci:items/gun_hsmg/medmag",
        "14": "gci:items/gun_hsmg/grip",
        "15": "gci:items/gun_hsmg/holo",
        "16": "gci:items/gun_hsmg/grip_flash",
        "17": "gci:items/gun_hsmg/grip_laser",
        "18": "gci:items/gun_hsmg/stockfold",
        "19": "gci:items/gun_hsmg/stocktelescop",
        "20": "gci:items/gun_hsmg/reflex_scope",
        "21": "gci:items/gun_hsmg/bigmag",
        "22": "gci:items/gun_hsmg/smallmag",
        "23": "gci:items/gun_hsmg/underbarrel_flame",
        "24": "gci:items/gun_hsmg/underbarrel_shot",
        "25": "gci:items/gun_hsmg/snip_scope",
        "particle": "gci:items/gun_hsmg/medmag"
    },
    "elements": [
        {
            "from": [
                7.99047,
                7.776,
                10.94162
            ],
            "to": [
                9.44847,
                8.586,
                17.42162
            ],
            "rotation": {
                "angle": 0,
                "axis": "y",
                "origin": [
                    8.71947,
                    -0.324,
                    4.46162
                ]
            },
            "faces": {
                "north": {
                    "uv": [
                        5,
                        2,
                        6,
                        2.5
                    ],
                    "texture": "#24"
                },
                "east": {
                    "uv": [
                        4.5,
                        3,
                        8.5,
                        3.5
                    ],
                    "texture": "#24"
                },
                "south": {
                    "uv": [
                        6.5,
                        4.5,
                        7.5,
                        5
                    ],
                    "texture": "#24"
                },
                "west": {
                    "uv": [
                        4.5,
                        3.5,
                        8.5,
                        4
                    ],
                    "texture": "#24"
                },
                "up": {
                    "uv": [
                        1,
                        4,
                        0,
                        0
                    ],
                    "texture": "#24"
                },
                "down": {
                    "uv": [
                        2,
                        0,
                        1,
                        4
                    ],
                    "texture": "#24"
                }
            }
        },
        {
            "from": [
                7.90947,
                8.1,
                15.96362
            ],
            "to": [
                9.52947,
                8.586,
                16.44962
            ],
            "rotation": {
                "angle": 45,
                "axis": "x",
                "origin": [
                    8.71947,
                    8.343,
                    16.20662
                ]
            },
            "faces": {
                "north": {
                    "uv": [
                        6.5,
                        5,
                        7.5,
                        5.5
                    ],
                    "texture": "#24"
                },
                "east": {
                    "uv": [
                        6,
                        2,
                        6.5,
                        2.5
                    ],
                    "texture": "#24"
                },
                "south": {
                    "uv": [
                        5.5,
                        6.5,
                        6.5,
                        7
                    ],
                    "texture": "#24"
                },
                "west": {
                    "uv": [
                        3,
                        6.5,
                        3.5,
                        7
                    ],
                    "texture": "#24"
                },
                "up": {
                    "uv": [
                        7.5,
                        6,
                        6.5,
                        5.5
                    ],
                    "texture": "#24"
                },
                "down": {
                    "uv": [
                        7.5,
                        6,
                        6.5,
                        6.5
                    ],
                    "texture": "#24"
                }
            }
        },
        {
            "from": [
                7.90947,
                8.1,
                11.91362
            ],
            "to": [
                9.52947,
                8.586,
                12.39962
            ],
            "rotation": {
                "angle": 45,
                "axis": "x",
                "origin": [
                    8.71947,
                    8.343,
                    12.15662
                ]
            },
            "faces": {
                "north": {
                    "uv": [
                        6.5,
                        6.5,
                        7.5,
                        7
                    ],
                    "texture": "#24"
                },
                "east": {
                    "uv": [
                        7,
                        1.5,
                        7.5,
                        2
                    ],
                    "texture": "#24"
                },
                "south": {
                    "uv": [
                        0,
                        7,
                        1,
                        7.5
                    ],
                    "texture": "#24"
                },
                "west": {
                    "uv": [
                        2,
                        7,
                        2.5,
                        7.5
                    ],
                    "texture": "#24"
                },
                "up": {
                    "uv": [
                        2,
                        7.5,
                        1,
                        7
                    ],
                    "texture": "#24"
                },
                "down": {
                    "uv": [
                        8,
                        1,
                        7,
                        1.5
                    ],
                    "texture": "#24"
                }
            }
        },
        {
            "from": [
                7.90947,
                6.723,
                10.94162
            ],
            "to": [
                9.52947,
                8.343,
                14.18162
            ],
            "rotation": {
                "angle": -45,
                "axis": "z",
                "origin": [
                    8.71947,
                    7.533,
                    14.18162
                ]
            },
            "faces": {
                "north": {
                    "uv": [
                        5.5,
                        5.5,
                        6.5,
                        6.5
                    ],
                    "texture": "#24"
                },
                "east": {
                    "uv": [
                        4.5,
                        4.5,
                        6.5,
                        5.5
                    ],
                    "texture": "#24"
                },
                "south": {
                    "uv": [
                        0,
                        6,
                        1,
                        7
                    ],
                    "texture": "#24"
                },
                "west": {
                    "uv": [
                        0,
                        5,
                        2,
                        6
                    ],
                    "texture": "#24"
                },
                "up": {
                    "uv": [
                        6,
                        2,
                        5,
                        0
                    ],
                    "texture": "#24"
                },
                "down": {
                    "uv": [
                        5.5,
                        5.5,
                        4.5,
                        7.5
                    ],
                    "texture": "#24"
                }
            }
        },
        {
            "from": [
                7.57396,
                6.318,
                10.94162
            ],
            "to": [
                9.86498,
                7.533,
                14.18162
            ],
            "rotation": {
                "angle": 0,
                "axis": "y",
                "origin": [
                    8.71947,
                    6.642,
                    12.56162
                ]
            },
            "faces": {
                "north": {
                    "uv": [
                        6.5,
                        1,
                        7,
                        2.5
                    ],
                    "rotation": 270,
                    "texture": "#24"
                },
                "east": {
                    "uv": [
                        2.5,
                        7,
                        2,
                        5
                    ],
                    "rotation": 90,
                    "texture": "#24"
                },
                "south": {
                    "uv": [
                        2.5,
                        6.5,
                        3,
                        8
                    ],
                    "rotation": 90,
                    "texture": "#24"
                },
                "west": {
                    "uv": [
                        6.5,
                        0,
                        6,
                        2
                    ],
                    "rotation": 90,
                    "texture": "#24"
                },
                "up": {
                    "uv": [
                        2,
                        1.5,
                        4,
                        3
                    ],
                    "rotation": 90,
                    "texture": "#24"
                },
                "down": {
                    "uv": [
                        2,
                        0,
                        4,
                        1.5
                    ],
                    "rotation": 90,
                    "texture": "#24"
                }
            }
        },
        {
            "from": [
                7.99047,
                6.075,
                14.18162
            ],
            "to": [
                9.44847,
                7.533,
                18.23162
            ],
            "rotation": {
                "angle": -45,
                "axis": "z",
                "origin": [
                    8.71947,
                    6.804,
                    14.18162
                ]
            },
            "faces": {
                "north": {
                    "uv": [
                        1,
                        6,
                        2,
                        7
                    ],
                    "texture": "#24"
                },
                "east": {
                    "uv": [
                        2,
                        3,
                        4.5,
                        4
                    ],
                    "texture": "#24"
                },
                "south": {
                    "uv": [
                        6.5,
                        0,
                        7.5,
                        1
                    ],
                    "texture": "#24"
                },
                "west": {
                    "uv": [
                        0,
                        4,
                        2.5,
                        5
                    ],
                    "texture": "#24"
                },
                "up": {
                    "uv": [
                        5,
                        2.5,
                        4,
                        0
                    ],
                    "texture": "#24"
                },
                "down": {
                    "uv": [
                        3.5,
                        4,
                        2.5,
                        6.5
                    ],
                    "texture": "#24"
                }
            }
        },
        {
            "from": [
                8.23347,
                6.804,
                14.18162
            ],
            "to": [
                9.20547,
                7.776,
                21.47162
            ],
            "rotation": {
                "angle": -45,
                "axis": "z",
                "origin": [
                    8.71947,
                    7.29,
                    14.18162
                ]
            },
            "faces": {
                "north": {
                    "uv": [
                        7,
                        2,
                        7.5,
                        2.5
                    ],
                    "texture": "#24"
                },
                "east": {
                    "uv": [
                        4,
                        2.5,
                        8.5,
                        3
                    ],
                    "texture": "#24"
                },
                "south": {
                    "uv": [
                        3,
                        7,
                        3.5,
                        7.5
                    ],
                    "texture": "#24"
                },
                "west": {
                    "uv": [
                        3.5,
                        4,
                        8,
                        4.5
                    ],
                    "texture": "#24"
                },
                "up": {
                    "uv": [
                        4,
                        9,
                        3.5,
                        4.5
                    ],
                    "texture": "#24"
                },
                "down": {
                    "uv": [
                        4.5,
                        4.5,
                        4,
                        9
                    ],
                    "texture": "#24"
                }
            }
        }
    ],
    "display": {
        "thirdperson_righthand": {
            "rotation": [
                0,
                180,
                0
            ],
            "translation": [
                0,
                0.5,
                -2.25
            ],
            "scale": [
                0.65,
                0.65,
                0.65
            ]
        },
        "thirdperson_lefthand": {
            "rotation": [
                0,
                180,
                0
            ],
            "translation": [
                -0.75,
                0.5,
                -2.25
            ],
            "scale": [
                0.65,
                0.65,
                0.65
            ]
        },
        "firstperson_righthand": {
            "rotation": [
                -179.11,
                0.85,
                176.24
            ],
            "translation": [
                -2.75,
                2.5,
                -0.25
            ],
            "scale": [
                1,
                1,
                0.9
            ]
        },
        "firstperson_lefthand": {
            "rotation": [
                -179.11,
                0.85,
                176.24
            ],
            "translation": [
                -4.25,
                2.5,
                -0.25
            ],
            "scale": [
                1,
                1,
                0.9
            ]
        },
        "ground": {
            "translation": [
                0,
                2.25,
                0
            ]
        },
        "gui": {
            "rotation": [
                -90,
                -55,
                -90
            ],
            "translation": [
                1.75,
                -0.75,
                0
            ]
        },
        "fixed": {
            "rotation": [
                90,
                45,
                -90
            ],
            "translation": [
                -1.25,
                0.5,
                -1.5
            ],
            "scale": [
                0.65,
                0.65,
                0.65
            ]
        }
    }
}