{
    "textures": {
        "0": "gci:items/common/mpz",
        "particle": "gci:items/common/mpz"
    },
    "elements": [
        {
            "name": "hexadecagon",
            "from": [
                5.9375,
                2.76297,
                10.82969
            ],
            "to": [
                7.38125,
                3.18729,
                12.23281
            ],
            "rotation": {
                "angle": 0,
                "axis": "y",
                "origin": [
                    5.6,
                    3.12513,
                    4.58125
                ]
            },
            "faces": {
                "north": {
                    "uv": [
                        9,
                        11.33333,
                        10,
                        12.33333
                    ],
                    "texture": "#0"
                },
                "east": {
                    "uv": [
                        9,
                        11.33333,
                        10,
                        12.33333
                    ],
                    "texture": "#0"
                },
                "south": {
                    "uv": [
                        9,
                        11.33333,
                        10,
                        12.33333
                    ],
                    "texture": "#0"
                },
                "west": {
                    "uv": [
                        9,
                        11.33333,
                        10,
                        12.33333
                    ],
                    "texture": "#0"
                },
                "up": {
                    "uv": [
                        9,
                        11.33333,
                        10,
                        12.33333
                    ],
                    "rotation": 90,
                    "texture": "#0"
                },
                "down": {
                    "uv": [
                        9,
                        11.33333,
                        10,
                        12.33333
                    ],
                    "rotation": 270,
                    "texture": "#0"
                }
            }
        },
        {
            "name": "hexadecagon",
            "from": [
                5.9375,
                2.71297,
                11.92969
            ],
            "to": [
                6.88125,
                3.23729,
                12.13281
            ],
            "rotation": {
                "angle": 0,
                "axis": "y",
                "origin": [
                    5.6,
                    3.12513,
                    5.58125
                ]
            },
            "faces": {
                "north": {
                    "uv": [
                        9,
                        11.33333,
                        10,
                        12.33333
                    ],
                    "texture": "#0"
                },
                "east": {
                    "uv": [
                        9,
                        11.33333,
                        10,
                        12.33333
                    ],
                    "texture": "#0"
                },
                "south": {
                    "uv": [
                        9,
                        11.33333,
                        10,
                        12.33333
                    ],
                    "texture": "#0"
                },
                "west": {
                    "uv": [
                        9,
                        11.33333,
                        10,
                        12.33333
                    ],
                    "texture": "#0"
                },
                "up": {
                    "uv": [
                        9,
                        11.33333,
                        10,
                        12.33333
                    ],
                    "rotation": 90,
                    "texture": "#0"
                },
                "down": {
                    "uv": [
                        9,
                        11.33333,
                        10,
                        12.33333
                    ],
                    "rotation": 270,
                    "texture": "#0"
                }
            }
        },
        {
            "name": "hexadecagon",
            "from": [
                5.9375,
                2.71297,
                10.92969
            ],
            "to": [
                6.88125,
                3.23729,
                11.13281
            ],
            "rotation": {
                "angle": 0,
                "axis": "y",
                "origin": [
                    5.6,
                    3.12513,
                    4.58125
                ]
            },
            "faces": {
                "north": {
                    "uv": [
                        9,
                        11.33333,
                        10,
                        12.33333
                    ],
                    "texture": "#0"
                },
                "east": {
                    "uv": [
                        9,
                        11.33333,
                        10,
                        12.33333
                    ],
                    "texture": "#0"
                },
                "south": {
                    "uv": [
                        9,
                        11.33333,
                        10,
                        12.33333
                    ],
                    "texture": "#0"
                },
                "west": {
                    "uv": [
                        9,
                        11.33333,
                        10,
                        12.33333
                    ],
                    "texture": "#0"
                },
                "up": {
                    "uv": [
                        9,
                        11.33333,
                        10,
                        12.33333
                    ],
                    "rotation": 90,
                    "texture": "#0"
                },
                "down": {
                    "uv": [
                        9,
                        11.33333,
                        10,
                        12.33333
                    ],
                    "rotation": 270,
                    "texture": "#0"
                }
            }
        },
        {
            "name": "hexadecagon",
            "from": [
                5.9375,
                2.71297,
                11.42969
            ],
            "to": [
                6.88125,
                3.23729,
                11.63281
            ],
            "rotation": {
                "angle": 0,
                "axis": "y",
                "origin": [
                    5.6,
                    3.12513,
                    5.08125
                ]
            },
            "faces": {
                "north": {
                    "uv": [
                        9,
                        11.33333,
                        10,
                        12.33333
                    ],
                    "texture": "#0"
                },
                "east": {
                    "uv": [
                        9,
                        11.33333,
                        10,
                        12.33333
                    ],
                    "texture": "#0"
                },
                "south": {
                    "uv": [
                        9,
                        11.33333,
                        10,
                        12.33333
                    ],
                    "texture": "#0"
                },
                "west": {
                    "uv": [
                        9,
                        11.33333,
                        10,
                        12.33333
                    ],
                    "texture": "#0"
                },
                "up": {
                    "uv": [
                        9,
                        11.33333,
                        10,
                        12.33333
                    ],
                    "rotation": 90,
                    "texture": "#0"
                },
                "down": {
                    "uv": [
                        9,
                        11.33333,
                        10,
                        12.33333
                    ],
                    "rotation": 270,
                    "texture": "#0"
                }
            }
        },
        {
            "name": "hexadecagon",
            "from": [
                3.44208,
                2.76297,
                9.6925
            ],
            "to": [
                4.88583,
                3.18729,
                11.09562
            ],
            "rotation": {
                "angle": -45,
                "axis": "y",
                "origin": [
                    4.03896,
                    2.97513,
                    10.39406
                ]
            },
            "faces": {
                "north": {
                    "uv": [
                        9,
                        11.33333,
                        10,
                        12.33333
                    ],
                    "texture": "#0"
                },
                "east": {
                    "uv": [
                        9,
                        11.33333,
                        10,
                        12.33333
                    ],
                    "texture": "#0"
                },
                "south": {
                    "uv": [
                        9,
                        11.33333,
                        10,
                        12.33333
                    ],
                    "texture": "#0"
                },
                "west": {
                    "uv": [
                        9,
                        11.33333,
                        10,
                        12.33333
                    ],
                    "texture": "#0"
                },
                "up": {
                    "uv": [
                        9,
                        11.33333,
                        10,
                        12.33333
                    ],
                    "rotation": 90,
                    "texture": "#0"
                },
                "down": {
                    "uv": [
                        9,
                        11.33333,
                        10,
                        12.33333
                    ],
                    "rotation": 270,
                    "texture": "#0"
                }
            }
        },
        {
            "name": "hexadecagon",
            "from": [
                3.34208,
                2.71297,
                9.6425
            ],
            "to": [
                3.48583,
                3.28729,
                11.14562
            ],
            "rotation": {
                "angle": -45,
                "axis": "y",
                "origin": [
                    4.03896,
                    2.97513,
                    10.39406
                ]
            },
            "faces": {
                "north": {
                    "uv": [
                        9,
                        11.33333,
                        10,
                        12.33333
                    ],
                    "texture": "#0"
                },
                "east": {
                    "uv": [
                        9,
                        11.33333,
                        10,
                        12.33333
                    ],
                    "texture": "#0"
                },
                "south": {
                    "uv": [
                        9,
                        11.33333,
                        10,
                        12.33333
                    ],
                    "texture": "#0"
                },
                "west": {
                    "uv": [
                        9,
                        11.33333,
                        10,
                        12.33333
                    ],
                    "texture": "#0"
                },
                "up": {
                    "uv": [
                        9,
                        11.33333,
                        10,
                        12.33333
                    ],
                    "rotation": 90,
                    "texture": "#0"
                },
                "down": {
                    "uv": [
                        9,
                        11.33333,
                        10,
                        12.33333
                    ],
                    "rotation": 270,
                    "texture": "#0"
                }
            }
        },
        {
            "name": "hexadecagon",
            "from": [
                3.36376,
                2.71297,
                10.80148
            ],
            "to": [
                4.90751,
                3.23729,
                11.0046
            ],
            "rotation": {
                "angle": -45,
                "axis": "y",
                "origin": [
                    4.06063,
                    2.97513,
                    10.40304
                ]
            },
            "faces": {
                "north": {
                    "uv": [
                        9,
                        11.33333,
                        10,
                        12.33333
                    ],
                    "texture": "#0"
                },
                "east": {
                    "uv": [
                        9,
                        11.33333,
                        10,
                        12.33333
                    ],
                    "texture": "#0"
                },
                "south": {
                    "uv": [
                        9,
                        11.33333,
                        10,
                        12.33333
                    ],
                    "texture": "#0"
                },
                "west": {
                    "uv": [
                        9,
                        11.33333,
                        10,
                        12.33333
                    ],
                    "texture": "#0"
                },
                "up": {
                    "uv": [
                        9,
                        11.33333,
                        10,
                        12.33333
                    ],
                    "rotation": 90,
                    "texture": "#0"
                },
                "down": {
                    "uv": [
                        9,
                        11.33333,
                        10,
                        12.33333
                    ],
                    "rotation": 270,
                    "texture": "#0"
                }
            }
        },
        {
            "name": "hexadecagon",
            "from": [
                3.29382,
                2.71297,
                10.02104
            ],
            "to": [
                4.63757,
                3.23729,
                10.22416
            ],
            "rotation": {
                "angle": -45,
                "axis": "y",
                "origin": [
                    4.1907,
                    2.97513,
                    10.6226
                ]
            },
            "faces": {
                "north": {
                    "uv": [
                        9,
                        11.33333,
                        10,
                        12.33333
                    ],
                    "texture": "#0"
                },
                "east": {
                    "uv": [
                        9,
                        11.33333,
                        10,
                        12.33333
                    ],
                    "texture": "#0"
                },
                "south": {
                    "uv": [
                        9,
                        11.33333,
                        10,
                        12.33333
                    ],
                    "texture": "#0"
                },
                "west": {
                    "uv": [
                        9,
                        11.33333,
                        10,
                        12.33333
                    ],
                    "texture": "#0"
                },
                "up": {
                    "uv": [
                        9,
                        11.33333,
                        10,
                        12.33333
                    ],
                    "rotation": 90,
                    "texture": "#0"
                },
                "down": {
                    "uv": [
                        9,
                        11.33333,
                        10,
                        12.33333
                    ],
                    "rotation": 270,
                    "texture": "#0"
                }
            }
        },
        {
            "name": "hexadecagon",
            "from": [
                3.32879,
                2.71297,
                10.41126
            ],
            "to": [
                4.77254,
                3.23729,
                10.61438
            ],
            "rotation": {
                "angle": -45,
                "axis": "y",
                "origin": [
                    4.12567,
                    2.97513,
                    10.51282
                ]
            },
            "faces": {
                "north": {
                    "uv": [
                        9,
                        11.33333,
                        10,
                        12.33333
                    ],
                    "texture": "#0"
                },
                "east": {
                    "uv": [
                        9,
                        11.33333,
                        10,
                        12.33333
                    ],
                    "texture": "#0"
                },
                "south": {
                    "uv": [
                        9,
                        11.33333,
                        10,
                        12.33333
                    ],
                    "texture": "#0"
                },
                "west": {
                    "uv": [
                        9,
                        11.33333,
                        10,
                        12.33333
                    ],
                    "texture": "#0"
                },
                "up": {
                    "uv": [
                        9,
                        11.33333,
                        10,
                        12.33333
                    ],
                    "rotation": 90,
                    "texture": "#0"
                },
                "down": {
                    "uv": [
                        9,
                        11.33333,
                        10,
                        12.33333
                    ],
                    "rotation": 270,
                    "texture": "#0"
                }
            }
        },
        {
            "name": "hexadecagon",
            "from": [
                4.30766,
                2.76297,
                10.65468
            ],
            "to": [
                6.25141,
                3.18729,
                12.0578
            ],
            "rotation": {
                "angle": -22.5,
                "axis": "y",
                "origin": [
                    5.65454,
                    2.97513,
                    11.35624
                ]
            },
            "faces": {
                "north": {
                    "uv": [
                        9,
                        11.33333,
                        10,
                        12.33333
                    ],
                    "texture": "#0"
                },
                "east": {
                    "uv": [
                        9,
                        11.33333,
                        10,
                        12.33333
                    ],
                    "texture": "#0"
                },
                "south": {
                    "uv": [
                        9,
                        11.33333,
                        10,
                        12.33333
                    ],
                    "texture": "#0"
                },
                "west": {
                    "uv": [
                        9,
                        11.33333,
                        10,
                        12.33333
                    ],
                    "texture": "#0"
                },
                "up": {
                    "uv": [
                        9,
                        11.33333,
                        10,
                        12.33333
                    ],
                    "rotation": 270,
                    "texture": "#0"
                },
                "down": {
                    "uv": [
                        9,
                        11.33333,
                        10,
                        12.33333
                    ],
                    "rotation": 90,
                    "texture": "#0"
                }
            }
        },
        {
            "name": "hexadecagon",
            "from": [
                4.55626,
                2.71297,
                10.82402
            ],
            "to": [
                5.80001,
                3.23729,
                11.02714
            ],
            "rotation": {
                "angle": -22.5,
                "axis": "y",
                "origin": [
                    5.60314,
                    2.97513,
                    11.42558
                ]
            },
            "faces": {
                "north": {
                    "uv": [
                        9,
                        11.33333,
                        10,
                        12.33333
                    ],
                    "texture": "#0"
                },
                "east": {
                    "uv": [
                        9,
                        11.33333,
                        10,
                        12.33333
                    ],
                    "texture": "#0"
                },
                "south": {
                    "uv": [
                        9,
                        11.33333,
                        10,
                        12.33333
                    ],
                    "texture": "#0"
                },
                "west": {
                    "uv": [
                        9,
                        11.33333,
                        10,
                        12.33333
                    ],
                    "texture": "#0"
                },
                "up": {
                    "uv": [
                        9,
                        11.33333,
                        10,
                        12.33333
                    ],
                    "rotation": 270,
                    "texture": "#0"
                },
                "down": {
                    "uv": [
                        9,
                        11.33333,
                        10,
                        12.33333
                    ],
                    "rotation": 90,
                    "texture": "#0"
                }
            }
        },
        {
            "name": "hexadecagon",
            "from": [
                4.36939,
                2.71297,
                11.74706
            ],
            "to": [
                6.21314,
                3.23729,
                11.95019
            ],
            "rotation": {
                "angle": -22.5,
                "axis": "y",
                "origin": [
                    5.61627,
                    2.97513,
                    11.34863
                ]
            },
            "faces": {
                "north": {
                    "uv": [
                        9,
                        11.33333,
                        10,
                        12.33333
                    ],
                    "texture": "#0"
                },
                "east": {
                    "uv": [
                        9,
                        11.33333,
                        10,
                        12.33333
                    ],
                    "texture": "#0"
                },
                "south": {
                    "uv": [
                        9,
                        11.33333,
                        10,
                        12.33333
                    ],
                    "texture": "#0"
                },
                "west": {
                    "uv": [
                        9,
                        11.33333,
                        10,
                        12.33333
                    ],
                    "texture": "#0"
                },
                "up": {
                    "uv": [
                        9,
                        11.33333,
                        10,
                        12.33333
                    ],
                    "rotation": 270,
                    "texture": "#0"
                },
                "down": {
                    "uv": [
                        9,
                        11.33333,
                        10,
                        12.33333
                    ],
                    "rotation": 90,
                    "texture": "#0"
                }
            }
        },
        {
            "name": "hexadecagon",
            "from": [
                4.46283,
                2.71297,
                11.28554
            ],
            "to": [
                6.00658,
                3.23729,
                11.48867
            ],
            "rotation": {
                "angle": -22.5,
                "axis": "y",
                "origin": [
                    5.6097,
                    2.97513,
                    11.3871
                ]
            },
            "faces": {
                "north": {
                    "uv": [
                        9,
                        11.33333,
                        10,
                        12.33333
                    ],
                    "texture": "#0"
                },
                "east": {
                    "uv": [
                        9,
                        11.33333,
                        10,
                        12.33333
                    ],
                    "texture": "#0"
                },
                "south": {
                    "uv": [
                        9,
                        11.33333,
                        10,
                        12.33333
                    ],
                    "texture": "#0"
                },
                "west": {
                    "uv": [
                        9,
                        11.33333,
                        10,
                        12.33333
                    ],
                    "texture": "#0"
                },
                "up": {
                    "uv": [
                        9,
                        11.33333,
                        10,
                        12.33333
                    ],
                    "rotation": 270,
                    "texture": "#0"
                },
                "down": {
                    "uv": [
                        9,
                        11.33333,
                        10,
                        12.33333
                    ],
                    "rotation": 90,
                    "texture": "#0"
                }
            }
        }
    ],
    "display": {
        "thirdperson_righthand": {
            "translation": [
                0,
                6,
                -2
            ]
        },
        "thirdperson_lefthand": {
            "translation": [
                0,
                6.25,
                -2
            ]
        },
        "firstperson_righthand": {
            "translation": [
                -1.75,
                7.75,
                0
            ]
        },
        "firstperson_lefthand": {
            "translation": [
                -4.25,
                7.75,
                0
            ]
        },
        "ground": {
            "translation": [
                0,
                2.25,
                0
            ]
        },
        "gui": {
            "rotation": [
                90,
                45,
                -90
            ],
            "translation": [
                3.5,
                3.25,
                0
            ]
        },
        "fixed": {
            "rotation": [
                90,
                45,
                -90
            ],
            "translation": [
                3.5,
                3.75,
                -0.75
            ]
        }
    }
}