{
    "textures": {
        "0": "gci:items/common/mpz",
        "particle": "gci:items/common/mpz"
    },
    "elements": [
        {
            "name": "hexadecagon",
            "from": [
                7.42629,
                2.68054,
                -0.42187
            ],
            "to": [
                7.73379,
                2.77005,
                -0.06562
            ],
            "rotation": {
                "angle": -45,
                "axis": "z",
                "origin": [
                    7.50879,
                    2.7253,
                    4.18125
                ]
            },
            "faces": {
                "north": {
                    "uv": [
                        6.33333,
                        4,
                        7.33333,
                        5
                    ],
                    "texture": "#0"
                },
                "east": {
                    "uv": [
                        6.33333,
                        4,
                        7.33333,
                        5
                    ],
                    "texture": "#0"
                },
                "south": {
                    "uv": [
                        6.33333,
                        4,
                        7.33333,
                        5
                    ],
                    "texture": "#0"
                },
                "west": {
                    "uv": [
                        6.33333,
                        4,
                        7.33333,
                        5
                    ],
                    "texture": "#0"
                },
                "up": {
                    "uv": [
                        6.33333,
                        4,
                        7.33333,
                        5
                    ],
                    "rotation": 90,
                    "texture": "#0"
                },
                "down": {
                    "uv": [
                        6.33333,
                        4,
                        7.33333,
                        5
                    ],
                    "rotation": 270,
                    "texture": "#0"
                }
            }
        },
        {
            "name": "hexadecagon",
            "from": [
                7.42629,
                2.68054,
                -0.42187
            ],
            "to": [
                7.73379,
                2.77005,
                -0.06562
            ],
            "rotation": {
                "angle": -22.5,
                "axis": "z",
                "origin": [
                    7.50879,
                    2.7253,
                    4.18125
                ]
            },
            "faces": {
                "north": {
                    "uv": [
                        6.33333,
                        4,
                        7.33333,
                        5
                    ],
                    "texture": "#0"
                },
                "east": {
                    "uv": [
                        6.33333,
                        4,
                        7.33333,
                        5
                    ],
                    "texture": "#0"
                },
                "south": {
                    "uv": [
                        6.33333,
                        4,
                        7.33333,
                        5
                    ],
                    "texture": "#0"
                },
                "west": {
                    "uv": [
                        6.33333,
                        4,
                        7.33333,
                        5
                    ],
                    "texture": "#0"
                },
                "up": {
                    "uv": [
                        6.33333,
                        4,
                        7.33333,
                        5
                    ],
                    "rotation": 90,
                    "texture": "#0"
                },
                "down": {
                    "uv": [
                        6.33333,
                        4,
                        7.33333,
                        5
                    ],
                    "rotation": 270,
                    "texture": "#0"
                }
            }
        },
        {
            "name": "hexadecagon",
            "from": [
                7.42629,
                2.68054,
                -0.42187
            ],
            "to": [
                7.73379,
                2.77005,
                -0.06562
            ],
            "rotation": {
                "angle": 0,
                "axis": "y",
                "origin": [
                    7.50879,
                    2.7253,
                    4.18125
                ]
            },
            "faces": {
                "north": {
                    "uv": [
                        6.33333,
                        4,
                        7.33333,
                        5
                    ],
                    "texture": "#0"
                },
                "east": {
                    "uv": [
                        6.33333,
                        4,
                        7.33333,
                        5
                    ],
                    "texture": "#0"
                },
                "south": {
                    "uv": [
                        6.33333,
                        4,
                        7.33333,
                        5
                    ],
                    "texture": "#0"
                },
                "west": {
                    "uv": [
                        6.33333,
                        4,
                        7.33333,
                        5
                    ],
                    "texture": "#0"
                },
                "up": {
                    "uv": [
                        6.33333,
                        4,
                        7.33333,
                        5
                    ],
                    "rotation": 90,
                    "texture": "#0"
                },
                "down": {
                    "uv": [
                        6.33333,
                        4,
                        7.33333,
                        5
                    ],
                    "rotation": 270,
                    "texture": "#0"
                }
            }
        },
        {
            "name": "hexadecagon",
            "from": [
                7.42629,
                2.68054,
                -0.42187
            ],
            "to": [
                7.73379,
                2.77005,
                -0.06562
            ],
            "rotation": {
                "angle": 22.5,
                "axis": "z",
                "origin": [
                    7.50879,
                    2.7253,
                    4.18125
                ]
            },
            "faces": {
                "north": {
                    "uv": [
                        6.33333,
                        4,
                        7.33333,
                        5
                    ],
                    "texture": "#0"
                },
                "east": {
                    "uv": [
                        6.33333,
                        4,
                        7.33333,
                        5
                    ],
                    "texture": "#0"
                },
                "south": {
                    "uv": [
                        6.33333,
                        4,
                        7.33333,
                        5
                    ],
                    "texture": "#0"
                },
                "west": {
                    "uv": [
                        6.33333,
                        4,
                        7.33333,
                        5
                    ],
                    "texture": "#0"
                },
                "up": {
                    "uv": [
                        6.33333,
                        4,
                        7.33333,
                        5
                    ],
                    "rotation": 90,
                    "texture": "#0"
                },
                "down": {
                    "uv": [
                        6.33333,
                        4,
                        7.33333,
                        5
                    ],
                    "rotation": 270,
                    "texture": "#0"
                }
            }
        },
        {
            "name": "hexadecagon",
            "from": [
                7.42629,
                2.68054,
                -0.42187
            ],
            "to": [
                7.73379,
                2.77005,
                -0.06562
            ],
            "rotation": {
                "angle": 45,
                "axis": "z",
                "origin": [
                    7.50879,
                    2.7253,
                    4.18125
                ]
            },
            "faces": {
                "north": {
                    "uv": [
                        6.33333,
                        4,
                        7.33333,
                        5
                    ],
                    "texture": "#0"
                },
                "east": {
                    "uv": [
                        6.33333,
                        4,
                        7.33333,
                        5
                    ],
                    "texture": "#0"
                },
                "south": {
                    "uv": [
                        6.33333,
                        4,
                        7.33333,
                        5
                    ],
                    "texture": "#0"
                },
                "west": {
                    "uv": [
                        6.33333,
                        4,
                        7.33333,
                        5
                    ],
                    "texture": "#0"
                },
                "up": {
                    "uv": [
                        6.33333,
                        4,
                        7.33333,
                        5
                    ],
                    "rotation": 90,
                    "texture": "#0"
                },
                "down": {
                    "uv": [
                        6.33333,
                        4,
                        7.33333,
                        5
                    ],
                    "rotation": 270,
                    "texture": "#0"
                }
            }
        },
        {
            "name": "hexadecagon",
            "from": [
                7.28379,
                2.68054,
                -0.42187
            ],
            "to": [
                7.59129,
                2.77005,
                -0.06562
            ],
            "rotation": {
                "angle": -45,
                "axis": "z",
                "origin": [
                    7.50879,
                    2.7253,
                    4.18125
                ]
            },
            "faces": {
                "north": {
                    "uv": [
                        6.33333,
                        4,
                        7.33333,
                        5
                    ],
                    "texture": "#0"
                },
                "east": {
                    "uv": [
                        6.33333,
                        4,
                        7.33333,
                        5
                    ],
                    "texture": "#0"
                },
                "south": {
                    "uv": [
                        6.33333,
                        4,
                        7.33333,
                        5
                    ],
                    "texture": "#0"
                },
                "west": {
                    "uv": [
                        6.33333,
                        4,
                        7.33333,
                        5
                    ],
                    "texture": "#0"
                },
                "up": {
                    "uv": [
                        6.33333,
                        4,
                        7.33333,
                        5
                    ],
                    "rotation": 90,
                    "texture": "#0"
                },
                "down": {
                    "uv": [
                        6.33333,
                        4,
                        7.33333,
                        5
                    ],
                    "rotation": 270,
                    "texture": "#0"
                }
            }
        },
        {
            "name": "hexadecagon",
            "from": [
                7.28379,
                2.68054,
                -0.42187
            ],
            "to": [
                7.59129,
                2.77005,
                -0.06562
            ],
            "rotation": {
                "angle": -22.5,
                "axis": "z",
                "origin": [
                    7.50879,
                    2.7253,
                    4.18125
                ]
            },
            "faces": {
                "north": {
                    "uv": [
                        6.33333,
                        4,
                        7.33333,
                        5
                    ],
                    "texture": "#0"
                },
                "east": {
                    "uv": [
                        6.33333,
                        4,
                        7.33333,
                        5
                    ],
                    "texture": "#0"
                },
                "south": {
                    "uv": [
                        6.33333,
                        4,
                        7.33333,
                        5
                    ],
                    "texture": "#0"
                },
                "west": {
                    "uv": [
                        6.33333,
                        4,
                        7.33333,
                        5
                    ],
                    "texture": "#0"
                },
                "up": {
                    "uv": [
                        6.33333,
                        4,
                        7.33333,
                        5
                    ],
                    "rotation": 90,
                    "texture": "#0"
                },
                "down": {
                    "uv": [
                        6.33333,
                        4,
                        7.33333,
                        5
                    ],
                    "rotation": 270,
                    "texture": "#0"
                }
            }
        },
        {
            "name": "hexadecagon",
            "from": [
                7.28379,
                2.68054,
                -0.42187
            ],
            "to": [
                7.59129,
                2.77005,
                -0.06562
            ],
            "rotation": {
                "angle": 0,
                "axis": "y",
                "origin": [
                    7.50879,
                    2.7253,
                    4.18125
                ]
            },
            "faces": {
                "north": {
                    "uv": [
                        6.33333,
                        4,
                        7.33333,
                        5
                    ],
                    "texture": "#0"
                },
                "east": {
                    "uv": [
                        6.33333,
                        4,
                        7.33333,
                        5
                    ],
                    "texture": "#0"
                },
                "south": {
                    "uv": [
                        6.33333,
                        4,
                        7.33333,
                        5
                    ],
                    "texture": "#0"
                },
                "west": {
                    "uv": [
                        6.33333,
                        4,
                        7.33333,
                        5
                    ],
                    "texture": "#0"
                },
                "up": {
                    "uv": [
                        6.33333,
                        4,
                        7.33333,
                        5
                    ],
                    "rotation": 90,
                    "texture": "#0"
                },
                "down": {
                    "uv": [
                        6.33333,
                        4,
                        7.33333,
                        5
                    ],
                    "rotation": 270,
                    "texture": "#0"
                }
            }
        },
        {
            "name": "hexadecagon",
            "from": [
                7.28379,
                2.68054,
                -0.42187
            ],
            "to": [
                7.35129,
                2.77005,
                -0.06562
            ],
            "rotation": {
                "angle": 22.5,
                "axis": "z",
                "origin": [
                    7.50879,
                    2.7253,
                    4.18125
                ]
            },
            "faces": {
                "north": {
                    "uv": [
                        6.33333,
                        4,
                        7.33333,
                        5
                    ],
                    "texture": "#0"
                },
                "east": {
                    "uv": [
                        6.33333,
                        4,
                        7.33333,
                        5
                    ],
                    "texture": "#0"
                },
                "south": {
                    "uv": [
                        6.33333,
                        4,
                        7.33333,
                        5
                    ],
                    "texture": "#0"
                },
                "west": {
                    "uv": [
                        6.33333,
                        4,
                        7.33333,
                        5
                    ],
                    "texture": "#0"
                },
                "up": {
                    "uv": [
                        6.33333,
                        4,
                        7.33333,
                        5
                    ],
                    "rotation": 90,
                    "texture": "#0"
                },
                "down": {
                    "uv": [
                        6.33333,
                        4,
                        7.33333,
                        5
                    ],
                    "rotation": 270,
                    "texture": "#0"
                }
            }
        },
        {
            "name": "hexadecagon",
            "from": [
                7.28379,
                2.68054,
                -0.42187
            ],
            "to": [
                7.59129,
                2.77005,
                -0.06562
            ],
            "rotation": {
                "angle": 45,
                "axis": "z",
                "origin": [
                    7.50879,
                    2.7253,
                    4.18125
                ]
            },
            "faces": {
                "north": {
                    "uv": [
                        6.33333,
                        4,
                        7.33333,
                        5
                    ],
                    "texture": "#0"
                },
                "east": {
                    "uv": [
                        6.33333,
                        4,
                        7.33333,
                        5
                    ],
                    "texture": "#0"
                },
                "south": {
                    "uv": [
                        6.33333,
                        4,
                        7.33333,
                        5
                    ],
                    "texture": "#0"
                },
                "west": {
                    "uv": [
                        6.33333,
                        4,
                        7.33333,
                        5
                    ],
                    "texture": "#0"
                },
                "up": {
                    "uv": [
                        6.33333,
                        4,
                        7.33333,
                        5
                    ],
                    "rotation": 90,
                    "texture": "#0"
                },
                "down": {
                    "uv": [
                        6.33333,
                        4,
                        7.33333,
                        5
                    ],
                    "rotation": 270,
                    "texture": "#0"
                }
            }
        },
        {
            "name": "hexadecagon",
            "from": [
                7.46403,
                2.5003,
                -0.42187
            ],
            "to": [
                7.55354,
                2.8078,
                -0.06562
            ],
            "rotation": {
                "angle": -22.5,
                "axis": "z",
                "origin": [
                    7.50879,
                    2.7253,
                    4.18125
                ]
            },
            "faces": {
                "north": {
                    "uv": [
                        6.33333,
                        4,
                        7.33333,
                        5
                    ],
                    "texture": "#0"
                },
                "east": {
                    "uv": [
                        6.33333,
                        4,
                        7.33333,
                        5
                    ],
                    "texture": "#0"
                },
                "south": {
                    "uv": [
                        6.33333,
                        4,
                        7.33333,
                        5
                    ],
                    "texture": "#0"
                },
                "west": {
                    "uv": [
                        6.33333,
                        4,
                        7.33333,
                        5
                    ],
                    "texture": "#0"
                },
                "up": {
                    "uv": [
                        6.33333,
                        4,
                        7.33333,
                        5
                    ],
                    "rotation": 90,
                    "texture": "#0"
                },
                "down": {
                    "uv": [
                        6.33333,
                        4,
                        7.33333,
                        5
                    ],
                    "rotation": 270,
                    "texture": "#0"
                }
            }
        },
        {
            "name": "hexadecagon",
            "from": [
                6.54665,
                2.27217,
                -3.99103
            ],
            "to": [
                6.63616,
                2.52842,
                -0.43353
            ],
            "rotation": {
                "angle": 22.5,
                "axis": "y",
                "origin": [
                    7.54601,
                    2.4003,
                    -2.72338
                ]
            },
            "faces": {
                "north": {
                    "uv": [
                        6.33333,
                        4,
                        7.33333,
                        5
                    ],
                    "rotation": 90,
                    "texture": "#0"
                },
                "east": {
                    "uv": [
                        6.33333,
                        4,
                        7.33333,
                        5
                    ],
                    "rotation": 270,
                    "texture": "#0"
                },
                "south": {
                    "uv": [
                        6.33333,
                        4,
                        7.33333,
                        5
                    ],
                    "rotation": 90,
                    "texture": "#0"
                },
                "west": {
                    "uv": [
                        6.33333,
                        4,
                        7.33333,
                        5
                    ],
                    "rotation": 90,
                    "texture": "#0"
                },
                "up": {
                    "uv": [
                        6.33333,
                        4,
                        7.33333,
                        5
                    ],
                    "rotation": 180,
                    "texture": "#0"
                },
                "down": {
                    "uv": [
                        6.33333,
                        4,
                        7.33333,
                        5
                    ],
                    "texture": "#0"
                }
            }
        },
        {
            "name": "hexadecagon",
            "from": [
                7.46403,
                2.5003,
                -0.42187
            ],
            "to": [
                7.55354,
                2.8078,
                -0.06562
            ],
            "rotation": {
                "angle": 0,
                "axis": "y",
                "origin": [
                    7.50879,
                    2.7253,
                    4.18125
                ]
            },
            "faces": {
                "north": {
                    "uv": [
                        6.33333,
                        4,
                        7.33333,
                        5
                    ],
                    "texture": "#0"
                },
                "east": {
                    "uv": [
                        6.33333,
                        4,
                        7.33333,
                        5
                    ],
                    "texture": "#0"
                },
                "south": {
                    "uv": [
                        6.33333,
                        4,
                        7.33333,
                        5
                    ],
                    "texture": "#0"
                },
                "west": {
                    "uv": [
                        6.33333,
                        4,
                        7.33333,
                        5
                    ],
                    "texture": "#0"
                },
                "up": {
                    "uv": [
                        6.33333,
                        4,
                        7.33333,
                        5
                    ],
                    "rotation": 90,
                    "texture": "#0"
                },
                "down": {
                    "uv": [
                        6.33333,
                        4,
                        7.33333,
                        5
                    ],
                    "rotation": 270,
                    "texture": "#0"
                }
            }
        },
        {
            "name": "hexadecagon",
            "from": [
                7.36403,
                2.2503,
                -0.52187
            ],
            "to": [
                7.65354,
                2.6078,
                0.03438
            ],
            "rotation": {
                "angle": 0,
                "axis": "y",
                "origin": [
                    7.50879,
                    2.7253,
                    4.18125
                ]
            },
            "faces": {
                "north": {
                    "uv": [
                        11.66667,
                        1,
                        12.66667,
                        2
                    ],
                    "texture": "#0"
                },
                "east": {
                    "uv": [
                        11.66667,
                        1,
                        12.66667,
                        2
                    ],
                    "texture": "#0"
                },
                "south": {
                    "uv": [
                        11.66667,
                        1,
                        12.66667,
                        2
                    ],
                    "texture": "#0"
                },
                "west": {
                    "uv": [
                        11.66667,
                        1,
                        12.66667,
                        2
                    ],
                    "texture": "#0"
                },
                "up": {
                    "uv": [
                        11.66667,
                        1,
                        12.66667,
                        2
                    ],
                    "rotation": 90,
                    "texture": "#0"
                },
                "down": {
                    "uv": [
                        11.66667,
                        1,
                        12.66667,
                        2
                    ],
                    "rotation": 270,
                    "texture": "#0"
                }
            }
        },
        {
            "name": "hexadecagon",
            "from": [
                7.46403,
                2.5003,
                -0.42187
            ],
            "to": [
                7.55354,
                2.8078,
                -0.06562
            ],
            "rotation": {
                "angle": 22.5,
                "axis": "z",
                "origin": [
                    7.50879,
                    2.7253,
                    4.18125
                ]
            },
            "faces": {
                "north": {
                    "uv": [
                        6.33333,
                        4,
                        7.33333,
                        5
                    ],
                    "texture": "#0"
                },
                "east": {
                    "uv": [
                        6.33333,
                        4,
                        7.33333,
                        5
                    ],
                    "texture": "#0"
                },
                "south": {
                    "uv": [
                        6.33333,
                        4,
                        7.33333,
                        5
                    ],
                    "texture": "#0"
                },
                "west": {
                    "uv": [
                        6.33333,
                        4,
                        7.33333,
                        5
                    ],
                    "texture": "#0"
                },
                "up": {
                    "uv": [
                        6.33333,
                        4,
                        7.33333,
                        5
                    ],
                    "rotation": 90,
                    "texture": "#0"
                },
                "down": {
                    "uv": [
                        6.33333,
                        4,
                        7.33333,
                        5
                    ],
                    "rotation": 270,
                    "texture": "#0"
                }
            }
        },
        {
            "name": "hexadecagon",
            "from": [
                8.38708,
                2.27217,
                -3.96255
            ],
            "to": [
                8.47659,
                2.52842,
                -0.40505
            ],
            "rotation": {
                "angle": -22.5,
                "axis": "y",
                "origin": [
                    7.54601,
                    2.4003,
                    -2.72338
                ]
            },
            "faces": {
                "north": {
                    "uv": [
                        6.33333,
                        4,
                        7.33333,
                        5
                    ],
                    "rotation": 90,
                    "texture": "#0"
                },
                "east": {
                    "uv": [
                        6.33333,
                        4,
                        7.33333,
                        5
                    ],
                    "rotation": 270,
                    "texture": "#0"
                },
                "south": {
                    "uv": [
                        6.33333,
                        4,
                        7.33333,
                        5
                    ],
                    "rotation": 90,
                    "texture": "#0"
                },
                "west": {
                    "uv": [
                        6.33333,
                        4,
                        7.33333,
                        5
                    ],
                    "rotation": 90,
                    "texture": "#0"
                },
                "up": {
                    "uv": [
                        6.33333,
                        4,
                        7.33333,
                        5
                    ],
                    "rotation": 180,
                    "texture": "#0"
                },
                "down": {
                    "uv": [
                        6.33333,
                        4,
                        7.33333,
                        5
                    ],
                    "texture": "#0"
                }
            }
        },
        {
            "name": "hexadecagon",
            "from": [
                8.71316,
                2.17217,
                -3.66463
            ],
            "to": [
                9.05267,
                2.62842,
                -3.45713
            ],
            "rotation": {
                "angle": 0,
                "axis": "y",
                "origin": [
                    7.54601,
                    2.4003,
                    -2.72338
                ]
            },
            "faces": {
                "north": {
                    "uv": [
                        11.66667,
                        1,
                        12.66667,
                        2
                    ],
                    "rotation": 90,
                    "texture": "#0"
                },
                "east": {
                    "uv": [
                        11.66667,
                        1,
                        12.66667,
                        2
                    ],
                    "rotation": 270,
                    "texture": "#0"
                },
                "south": {
                    "uv": [
                        11.66667,
                        1,
                        12.66667,
                        2
                    ],
                    "rotation": 90,
                    "texture": "#0"
                },
                "west": {
                    "uv": [
                        11.66667,
                        1,
                        12.66667,
                        2
                    ],
                    "rotation": 90,
                    "texture": "#0"
                },
                "up": {
                    "uv": [
                        11.66667,
                        1,
                        12.66667,
                        2
                    ],
                    "rotation": 180,
                    "texture": "#0"
                },
                "down": {
                    "uv": [
                        11.66667,
                        1,
                        12.66667,
                        2
                    ],
                    "texture": "#0"
                }
            }
        },
        {
            "name": "hexadecagon",
            "from": [
                5.96316,
                2.17217,
                -3.66463
            ],
            "to": [
                6.30267,
                2.62842,
                -3.45713
            ],
            "rotation": {
                "angle": 0,
                "axis": "y",
                "origin": [
                    4.79601,
                    2.4003,
                    -2.72338
                ]
            },
            "faces": {
                "north": {
                    "uv": [
                        11.66667,
                        1,
                        12.66667,
                        2
                    ],
                    "rotation": 90,
                    "texture": "#0"
                },
                "east": {
                    "uv": [
                        11.66667,
                        1,
                        12.66667,
                        2
                    ],
                    "rotation": 270,
                    "texture": "#0"
                },
                "south": {
                    "uv": [
                        11.66667,
                        1,
                        12.66667,
                        2
                    ],
                    "rotation": 90,
                    "texture": "#0"
                },
                "west": {
                    "uv": [
                        11.66667,
                        1,
                        12.66667,
                        2
                    ],
                    "rotation": 90,
                    "texture": "#0"
                },
                "up": {
                    "uv": [
                        11.66667,
                        1,
                        12.66667,
                        2
                    ],
                    "rotation": 180,
                    "texture": "#0"
                },
                "down": {
                    "uv": [
                        11.66667,
                        1,
                        12.66667,
                        2
                    ],
                    "texture": "#0"
                }
            }
        },
        {
            "name": "hexadecagon",
            "from": [
                7.46403,
                2.6428,
                -0.42187
            ],
            "to": [
                7.55354,
                2.9503,
                -0.06562
            ],
            "rotation": {
                "angle": -22.5,
                "axis": "z",
                "origin": [
                    7.50879,
                    2.7253,
                    4.18125
                ]
            },
            "faces": {
                "north": {
                    "uv": [
                        6.33333,
                        4,
                        7.33333,
                        5
                    ],
                    "texture": "#0"
                },
                "east": {
                    "uv": [
                        6.33333,
                        4,
                        7.33333,
                        5
                    ],
                    "texture": "#0"
                },
                "south": {
                    "uv": [
                        6.33333,
                        4,
                        7.33333,
                        5
                    ],
                    "texture": "#0"
                },
                "west": {
                    "uv": [
                        6.33333,
                        4,
                        7.33333,
                        5
                    ],
                    "texture": "#0"
                },
                "up": {
                    "uv": [
                        6.33333,
                        4,
                        7.33333,
                        5
                    ],
                    "rotation": 90,
                    "texture": "#0"
                },
                "down": {
                    "uv": [
                        6.33333,
                        4,
                        7.33333,
                        5
                    ],
                    "rotation": 270,
                    "texture": "#0"
                }
            }
        },
        {
            "name": "hexadecagon",
            "from": [
                7.46403,
                2.6428,
                -0.42187
            ],
            "to": [
                7.55354,
                2.9503,
                -0.06562
            ],
            "rotation": {
                "angle": 0,
                "axis": "y",
                "origin": [
                    7.50879,
                    2.7253,
                    4.18125
                ]
            },
            "faces": {
                "north": {
                    "uv": [
                        6.33333,
                        4,
                        7.33333,
                        5
                    ],
                    "texture": "#0"
                },
                "east": {
                    "uv": [
                        6.33333,
                        4,
                        7.33333,
                        5
                    ],
                    "texture": "#0"
                },
                "south": {
                    "uv": [
                        6.33333,
                        4,
                        7.33333,
                        5
                    ],
                    "texture": "#0"
                },
                "west": {
                    "uv": [
                        6.33333,
                        4,
                        7.33333,
                        5
                    ],
                    "texture": "#0"
                },
                "up": {
                    "uv": [
                        6.33333,
                        4,
                        7.33333,
                        5
                    ],
                    "rotation": 90,
                    "texture": "#0"
                },
                "down": {
                    "uv": [
                        6.33333,
                        4,
                        7.33333,
                        5
                    ],
                    "rotation": 270,
                    "texture": "#0"
                }
            }
        },
        {
            "name": "hexadecagon",
            "from": [
                7.46403,
                2.6428,
                -0.42187
            ],
            "to": [
                7.55354,
                2.9503,
                -0.06562
            ],
            "rotation": {
                "angle": 22.5,
                "axis": "z",
                "origin": [
                    7.50879,
                    2.7253,
                    4.18125
                ]
            },
            "faces": {
                "north": {
                    "uv": [
                        6.33333,
                        4,
                        7.33333,
                        5
                    ],
                    "texture": "#0"
                },
                "east": {
                    "uv": [
                        6.33333,
                        4,
                        7.33333,
                        5
                    ],
                    "texture": "#0"
                },
                "south": {
                    "uv": [
                        6.33333,
                        4,
                        7.33333,
                        5
                    ],
                    "texture": "#0"
                },
                "west": {
                    "uv": [
                        6.33333,
                        4,
                        7.33333,
                        5
                    ],
                    "texture": "#0"
                },
                "up": {
                    "uv": [
                        6.33333,
                        4,
                        7.33333,
                        5
                    ],
                    "rotation": 90,
                    "texture": "#0"
                },
                "down": {
                    "uv": [
                        6.33333,
                        4,
                        7.33333,
                        5
                    ],
                    "rotation": 270,
                    "texture": "#0"
                }
            }
        }
    ],
    "display": {
        "thirdperson_righthand": {
            "translation": [
                0,
                6,
                -2
            ]
        },
        "thirdperson_lefthand": {
            "translation": [
                0,
                6.25,
                -2
            ]
        },
        "firstperson_righthand": {
            "translation": [
                -1.75,
                7.75,
                0
            ]
        },
        "firstperson_lefthand": {
            "translation": [
                -4.25,
                7.75,
                0
            ]
        },
        "ground": {
            "translation": [
                0,
                2.25,
                0
            ]
        },
        "gui": {
            "rotation": [
                90,
                45,
                -90
            ],
            "translation": [
                3.5,
                3.25,
                0
            ]
        },
        "fixed": {
            "rotation": [
                90,
                45,
                -90
            ],
            "translation": [
                3.5,
                3.75,
                -0.75
            ]
        }
    }
}