{
	"credit": "Made with Blockbench",
	"texture_size": [64, 64],
	"textures": {
		"0": "gci:items/gun_mammoth/mammoth",
		"particle": "gci:items/gun_mammoth/mammoth"
	},
	"elements": [
		{
			"from": [6.3935, 10.555, 10.47472],
			"to": [9.6065, 12.085, 16.59472],
			"rotation": {"angle": -22.5, "axis": "x", "origin": [8, 11.32, 11.23972]},
			"faces": {
				"north": {"uv": [7, 11.5, 8, 12], "texture": "#0"},
				"east": {"uv": [5, 11.5, 7, 12], "texture": "#0"},
				"south": {"uv": [10, 11.5, 11, 12], "texture": "#0"},
				"west": {"uv": [8, 11.5, 10, 12], "texture": "#0"},
				"up": {"uv": [8, 11.5, 7, 9.5], "texture": "#0"},
				"down": {"uv": [9, 9.5, 8, 11.5], "texture": "#0"}
			}
		},
		{
			"from": [6.776, 12.085, 13.91722],
			"to": [9.224, 15.145, 15.98272],
			"rotation": {"angle": -22.5, "axis": "x", "origin": [8, 11.32, 11.23972]},
			"faces": {
				"north": {"uv": [6.5, 0.5, 7.25, 1.5], "texture": "#0"},
				"east": {"uv": [6, 0.5, 6.5, 1.5], "texture": "#0"},
				"south": {"uv": [7.75, 0.5, 8.5, 1.5], "texture": "#0"},
				"west": {"uv": [7.25, 0.5, 7.75, 1.5], "texture": "#0"},
				"up": {"uv": [7.25, 0.5, 6.5, 0], "texture": "#0"},
				"down": {"uv": [8, 0, 7.25, 0.5], "texture": "#0"}
			}
		},
		{
			"from": [6.6995, 12.085, 14.68222],
			"to": [9.3005, 14.38, 16.13572],
			"rotation": {"angle": -22.5, "axis": "x", "origin": [8, 11.32, 11.23972]},
			"faces": {
				"north": {"uv": [10.25, 5.5, 11, 6.25], "texture": "#0"},
				"east": {"uv": [10, 5.5, 10.25, 6.25], "texture": "#0"},
				"south": {"uv": [11.25, 5.5, 12, 6.25], "texture": "#0"},
				"west": {"uv": [11, 5.5, 11.25, 6.25], "texture": "#0"},
				"up": {"uv": [11, 5.5, 10.25, 5.25], "texture": "#0"},
				"down": {"uv": [11.75, 5.25, 11, 5.5], "texture": "#0"}
			}
		},
		{
			"from": [6.929, 17.24992, 5.57878],
			"to": [9.071, 19.54492, 14.52928],
			"rotation": {"angle": 0, "axis": "y", "origin": [8, 15.56692, 13.49653]},
			"faces": {
				"north": {"uv": [10.75, 12.25, 11.25, 13], "texture": "#0"},
				"east": {"uv": [8, 12.25, 10.75, 13], "texture": "#0"},
				"south": {"uv": [14, 12.25, 14.5, 13], "texture": "#0"},
				"west": {"uv": [11.25, 12.25, 14, 13], "texture": "#0"},
				"up": {"uv": [11.25, 12.25, 10.75, 9.5], "texture": "#0"},
				"down": {"uv": [11.75, 9.5, 11.25, 12.25], "texture": "#0"}
			}
		},
		{
			"from": [6.8525, 17.48397, 14.6349],
			"to": [9.1475, 19.01397, 15.3999],
			"rotation": {"angle": -22.5, "axis": "x", "origin": [8, 17.10147, 15.1704]},
			"faces": {
				"north": {"uv": [10.25, 7.75, 11, 8.25], "texture": "#0"},
				"east": {"uv": [10, 7.75, 10.25, 8.25], "texture": "#0"},
				"south": {"uv": [11.25, 7.75, 12, 8.25], "texture": "#0"},
				"west": {"uv": [11, 7.75, 11.25, 8.25], "texture": "#0"},
				"up": {"uv": [11, 7.75, 10.25, 7.5], "texture": "#0"},
				"down": {"uv": [11.75, 7.5, 11, 7.75], "texture": "#0"}
			}
		},
		{
			"from": [6.8525, 15.87847, 12.24964],
			"to": [9.1475, 17.48497, 14.31514],
			"rotation": {"angle": 0, "axis": "y", "origin": [8, 17.40847, 13.28239]},
			"faces": {
				"north": {"uv": [0.5, 7.75, 1.25, 8.25], "texture": "#0"},
				"east": {"uv": [0, 7.75, 0.5, 8.25], "texture": "#0"},
				"south": {"uv": [1.75, 7.75, 2.5, 8.25], "texture": "#0"},
				"west": {"uv": [1.25, 7.75, 1.75, 8.25], "texture": "#0"},
				"up": {"uv": [1.25, 7.75, 0.5, 7.25], "texture": "#0"},
				"down": {"uv": [2, 7.25, 1.25, 7.75], "texture": "#0"}
			}
		},
		{
			"from": [7.0055, 17.40847, 12.02014],
			"to": [8.9945, 19.01497, 12.78514],
			"rotation": {"angle": -45, "axis": "x", "origin": [8, 17.40847, 13.28239]},
			"faces": {
				"north": {"uv": [9.25, 10.5, 9.75, 11], "texture": "#0"},
				"east": {"uv": [9, 10.5, 9.25, 11], "texture": "#0"},
				"south": {"uv": [10, 10.5, 10.5, 11], "texture": "#0"},
				"west": {"uv": [9.75, 10.5, 10, 11], "texture": "#0"},
				"up": {"uv": [9.75, 10.5, 9.25, 10.25], "texture": "#0"},
				"down": {"uv": [10.25, 10.25, 9.75, 10.5], "texture": "#0"}
			}
		},
		{
			"from": [6.317, 10.32048, 9.2957],
			"to": [9.683, 11.85048, 10.8257],
			"rotation": {"angle": 0, "axis": "y", "origin": [8, 11.08548, 5.4707]},
			"faces": {
				"north": {"uv": [6, 7.5, 7, 8], "texture": "#0"},
				"east": {"uv": [5.5, 7.5, 6, 8], "texture": "#0"},
				"south": {"uv": [7.5, 7.5, 8.5, 8], "texture": "#0"},
				"west": {"uv": [7, 7.5, 7.5, 8], "texture": "#0"},
				"up": {"uv": [7, 7.5, 6, 7], "texture": "#0"},
				"down": {"uv": [8, 7, 7, 7.5], "texture": "#0"}
			}
		},
		{
			"from": [6.3935, 11.67578, 9.94744],
			"to": [9.6065, 17.79578, 11.47744],
			"rotation": {"angle": -22.5, "axis": "x", "origin": [8, 12.44078, 9.94744]},
			"faces": {
				"north": {"uv": [0.5, 0.5, 1.5, 2.5], "texture": "#0"},
				"east": {"uv": [0, 0.5, 0.5, 2.5], "texture": "#0"},
				"south": {"uv": [2, 0.5, 3, 2.5], "texture": "#0"},
				"west": {"uv": [1.5, 0.5, 2, 2.5], "texture": "#0"},
				"up": {"uv": [1.5, 0.5, 0.5, 0], "texture": "#0"},
				"down": {"uv": [2.5, 0, 1.5, 0.5], "texture": "#0"}
			}
		},
		{
			"from": [6.6995, 11.67578, 9.41194],
			"to": [9.3005, 13.97078, 10.94194],
			"rotation": {"angle": 0, "axis": "y", "origin": [8, 12.44078, 9.94744]},
			"faces": {
				"north": {"uv": [0.5, 9.75, 1.25, 10.5], "texture": "#0"},
				"east": {"uv": [0, 9.75, 0.5, 10.5], "texture": "#0"},
				"south": {"uv": [1.75, 9.75, 2.5, 10.5], "texture": "#0"},
				"west": {"uv": [1.25, 9.75, 1.75, 10.5], "texture": "#0"},
				"up": {"uv": [1.25, 9.75, 0.5, 9.25], "texture": "#0"},
				"down": {"uv": [2, 9.25, 1.25, 9.75], "texture": "#0"}
			}
		},
		{
			"from": [7.0055, 15.50078, 9.41194],
			"to": [8.9945, 17.79578, 10.17694],
			"rotation": {"angle": 22.5, "axis": "x", "origin": [8, 16.64828, 10.17694]},
			"faces": {
				"north": {"uv": [10.25, 6.75, 10.75, 7.5], "texture": "#0"},
				"east": {"uv": [10, 6.75, 10.25, 7.5], "texture": "#0"},
				"south": {"uv": [11, 6.75, 11.5, 7.5], "texture": "#0"},
				"west": {"uv": [10.75, 6.75, 11, 7.5], "texture": "#0"},
				"up": {"uv": [10.75, 6.75, 10.25, 6.5], "texture": "#0"},
				"down": {"uv": [11.25, 6.5, 10.75, 6.75], "texture": "#0"}
			}
		},
		{
			"from": [6.6995, 12.35584, 10.85437],
			"to": [9.3005, 14.65084, 11.61937],
			"rotation": {"angle": -45, "axis": "x", "origin": [8, 13.50334, 11.77237]},
			"faces": {
				"north": {"uv": [5.75, 8.25, 6.5, 9], "texture": "#0"},
				"east": {"uv": [5.5, 8.25, 5.75, 9], "texture": "#0"},
				"south": {"uv": [6.75, 8.25, 7.5, 9], "texture": "#0"},
				"west": {"uv": [6.5, 8.25, 6.75, 9], "texture": "#0"},
				"up": {"uv": [6.5, 8.25, 5.75, 8], "texture": "#0"},
				"down": {"uv": [7.25, 8, 6.5, 8.25], "texture": "#0"}
			}
		},
		{
			"from": [6.3935, 18.7405, -0.23528],
			"to": [9.6065, 21.8005, 12.00472],
			"rotation": {"angle": 0, "axis": "y", "origin": [8, 5.2, 11.23972]},
			"faces": {
				"north": {"uv": [4, 4, 5, 5], "texture": "#0"},
				"east": {"uv": [0, 4, 4, 5], "texture": "#0"},
				"south": {"uv": [9, 4, 10, 5], "texture": "#0"},
				"west": {"uv": [5, 4, 9, 5], "texture": "#0"},
				"up": {"uv": [5, 4, 4, 0], "texture": "#0"},
				"down": {"uv": [6, 0, 5, 4], "texture": "#0"}
			}
		},
		{
			"from": [6.3935, 14.9155, -0.23528],
			"to": [9.6065, 17.2105, 8.94472],
			"rotation": {"angle": 0, "axis": "y", "origin": [8, 5.2, 11.23972]},
			"faces": {
				"north": {"uv": [3, 12.25, 4, 13], "texture": "#0"},
				"east": {"uv": [0, 12.25, 3, 13], "texture": "#0"},
				"south": {"uv": [7, 12.25, 8, 13], "texture": "#0"},
				"west": {"uv": [4, 12.25, 7, 13], "texture": "#0"},
				"up": {"uv": [4, 12.25, 3, 9.25], "texture": "#0"},
				"down": {"uv": [5, 9.25, 4, 12.25], "texture": "#0"}
			}
		},
		{
			"from": [6.0875, 16.063, 2.05972],
			"to": [9.9125, 19.888, 5.88472],
			"rotation": {"angle": 0, "axis": "y", "origin": [8, 17.9755, 3.97222]},
			"faces": {
				"north": {"uv": [1.25, 14.25, 2.5, 15.5], "texture": "#0"},
				"east": {"uv": [0, 14.25, 1.25, 15.5], "texture": "#0"},
				"south": {"uv": [3.75, 14.25, 5, 15.5], "texture": "#0"},
				"west": {"uv": [2.5, 14.25, 3.75, 15.5], "texture": "#0"},
				"up": {"uv": [2.5, 14.25, 1.25, 13], "texture": "#0"},
				"down": {"uv": [3.75, 13, 2.5, 14.25], "texture": "#0"}
			}
		},
		{
			"from": [6.6995, 16.71442, 0.22378],
			"to": [9.3005, 19.31542, 2.28928],
			"rotation": {"angle": 0, "axis": "y", "origin": [8, 15.56692, 13.49653]},
			"faces": {
				"north": {"uv": [6.5, 2.25, 7.25, 3], "texture": "#0"},
				"east": {"uv": [6, 2.25, 6.5, 3], "texture": "#0"},
				"south": {"uv": [7.75, 2.25, 8.5, 3], "texture": "#0"},
				"west": {"uv": [7.25, 2.25, 7.75, 3], "texture": "#0"},
				"up": {"uv": [7.25, 2.25, 6.5, 1.75], "texture": "#0"},
				"down": {"uv": [8, 1.75, 7.25, 2.25], "texture": "#0"}
			}
		},
		{
			"from": [6.317, 14.02213, -1.00028],
			"to": [9.683, 17.46463, 0.52972],
			"rotation": {"angle": 22.5, "axis": "x", "origin": [8, 15.32263, 0.1855]},
			"faces": {
				"north": {"uv": [6, 5.75, 7, 6.75], "texture": "#0"},
				"east": {"uv": [5.5, 5.75, 6, 6.75], "texture": "#0"},
				"south": {"uv": [7.5, 5.75, 8.5, 6.75], "texture": "#0"},
				"west": {"uv": [7, 5.75, 7.5, 6.75], "texture": "#0"},
				"up": {"uv": [7, 5.75, 6, 5.25], "texture": "#0"},
				"down": {"uv": [8, 5.25, 7, 5.75], "texture": "#0"}
			}
		},
		{
			"from": [7.0055, 17.24992, 11.92828],
			"to": [8.9945, 20.99842, 12.69328],
			"rotation": {"angle": -22.5, "axis": "x", "origin": [8, 19.54492, 10.43653]},
			"faces": {
				"north": {"uv": [1, 6, 1.5, 7], "texture": "#0"},
				"east": {"uv": [0.75, 6, 1, 7], "texture": "#0"},
				"south": {"uv": [1.75, 6, 2.25, 7], "texture": "#0"},
				"west": {"uv": [1.5, 6, 1.75, 7], "texture": "#0"},
				"up": {"uv": [1.5, 6, 1, 5.75], "texture": "#0"},
				"down": {"uv": [2, 5.75, 1.5, 6], "texture": "#0"}
			}
		},
		{
			"from": [6.55194, 14.533, -0.23528],
			"to": [7.31694, 15.298, 9.70972],
			"rotation": {"angle": 45, "axis": "z", "origin": [6.93444, 14.9155, 5.88472]},
			"faces": {
				"north": {"uv": [13.75, 3.25, 14, 3.5], "texture": "#0"},
				"east": {"uv": [10.5, 3.25, 13.75, 3.5], "texture": "#0"},
				"south": {"uv": [17.25, 3.25, 17.5, 3.5], "texture": "#0"},
				"west": {"uv": [12.75, 10, 16, 10.25], "texture": "#0"},
				"up": {"uv": [14, 3.25, 13.75, 0], "texture": "#0"},
				"down": {"uv": [14.25, 0, 14, 3.25], "texture": "#0"}
			}
		},
		{
			"from": [8.68306, 21.418, -0.23528],
			"to": [9.44806, 22.183, 12.00472],
			"rotation": {"angle": 45, "axis": "z", "origin": [9.06556, 21.8005, 5.88472]},
			"faces": {
				"north": {"uv": [10, 5, 10.25, 5.25], "texture": "#0"},
				"east": {"uv": [6, 5, 10, 5.25], "texture": "#0"},
				"south": {"uv": [14.25, 5, 14.5, 5.25], "texture": "#0"},
				"west": {"uv": [10.25, 5, 14.25, 5.25], "texture": "#0"},
				"up": {"uv": [10.25, 5, 10, 1], "texture": "#0"},
				"down": {"uv": [10.5, 1, 10.25, 5], "texture": "#0"}
			}
		},
		{
			"from": [6.55194, 21.418, -0.23528],
			"to": [7.31694, 22.183, 12.00472],
			"rotation": {"angle": 45, "axis": "z", "origin": [6.93444, 21.8005, 5.88472]},
			"faces": {
				"north": {"uv": [9.5, 9.25, 9.75, 9.5], "texture": "#0"},
				"east": {"uv": [5.5, 9.25, 9.5, 9.5], "texture": "#0"},
				"south": {"uv": [13.75, 9.25, 14, 9.5], "texture": "#0"},
				"west": {"uv": [9.75, 9.25, 13.75, 9.5], "texture": "#0"},
				"up": {"uv": [9.75, 9.25, 9.5, 5.25], "texture": "#0"},
				"down": {"uv": [10, 5.25, 9.75, 9.25], "texture": "#0"}
			}
		},
		{
			"from": [8.68306, 14.533, -0.23528],
			"to": [9.44806, 15.298, 9.70972],
			"rotation": {"angle": 45, "axis": "z", "origin": [9.06556, 14.9155, 5.88472]},
			"faces": {
				"north": {"uv": [13.25, 8.5, 13.5, 8.75], "texture": "#0"},
				"east": {"uv": [10, 8.5, 13.25, 8.75], "texture": "#0"},
				"south": {"uv": [16.75, 8.5, 17, 8.75], "texture": "#0"},
				"west": {"uv": [12.75, 9.75, 16, 10], "texture": "#0"},
				"up": {"uv": [13.5, 8.5, 13.25, 5.25], "texture": "#0"},
				"down": {"uv": [13.75, 5.25, 13.5, 8.5], "texture": "#0"}
			}
		},
		{
			"from": [7.6175, 19.88018, 12.94615],
			"to": [8.3825, 22.09868, 13.71115],
			"rotation": {"angle": -22.5, "axis": "x", "origin": [8.0765, 19.45943, 13.32865]},
			"faces": {
				"north": {"uv": [0.25, 2.75, 0.5, 3.25], "texture": "#0"},
				"east": {"uv": [0, 2.75, 0.25, 3.25], "texture": "#0"},
				"south": {"uv": [0.75, 2.75, 1, 3.25], "texture": "#0"},
				"west": {"uv": [0.5, 2.75, 0.75, 3.25], "texture": "#0"},
				"up": {"uv": [0.5, 2.75, 0.25, 2.5], "texture": "#0"},
				"down": {"uv": [0.75, 2.5, 0.5, 2.75], "texture": "#0"}
			}
		},
		{
			"from": [6.92356, 21.34694, -0.23528],
			"to": [9.06556, 22.11194, 12.00472],
			"rotation": {"angle": 0, "axis": "y", "origin": [7.53556, 5.74094, 12.00472]},
			"faces": {
				"north": {"uv": [4, 9, 4.5, 9.25], "texture": "#0"},
				"east": {"uv": [0, 9, 4, 9.25], "texture": "#0"},
				"south": {"uv": [8.5, 9, 9, 9.25], "texture": "#0"},
				"west": {"uv": [4.5, 9, 8.5, 9.25], "texture": "#0"},
				"up": {"uv": [4.5, 9, 4, 5], "texture": "#0"},
				"down": {"uv": [5, 5, 4.5, 9], "texture": "#0"}
			}
		},
		{
			"from": [6.929, 19.54492, 11.39278],
			"to": [9.071, 20.30992, 14.45278],
			"rotation": {"angle": 0, "axis": "y", "origin": [8, 15.56692, 13.49653]},
			"faces": {
				"north": {"uv": [1, 3.5, 1.5, 3.75], "texture": "#0"},
				"east": {"uv": [0, 3.5, 1, 3.75], "texture": "#0"},
				"south": {"uv": [2.5, 3.5, 3, 3.75], "texture": "#0"},
				"west": {"uv": [1.5, 3.5, 2.5, 3.75], "texture": "#0"},
				"up": {"uv": [1.5, 3.5, 1, 2.5], "texture": "#0"},
				"down": {"uv": [2, 2.5, 1.5, 3.5], "texture": "#0"}
			}
		},
		{
			"from": [6.8525, 18.66346, 13.94378],
			"to": [9.1475, 20.42296, 14.70878],
			"rotation": {"angle": 0, "axis": "y", "origin": [8, 18.28096, 14.47928]},
			"faces": {
				"north": {"uv": [9.25, 9.75, 10, 10.25], "texture": "#0"},
				"east": {"uv": [9, 9.75, 9.25, 10.25], "texture": "#0"},
				"south": {"uv": [10.25, 9.75, 11, 10.25], "texture": "#0"},
				"west": {"uv": [10, 9.75, 10.25, 10.25], "texture": "#0"},
				"up": {"uv": [10, 9.75, 9.25, 9.5], "texture": "#0"},
				"down": {"uv": [10.75, 9.5, 10, 9.75], "texture": "#0"}
			}
		},
		{
			"from": [7.529, 21.7295, 0.58493],
			"to": [8.471, 22.2595, 10.58493],
			"rotation": {"angle": 0, "axis": "y", "origin": [1.88, 5.2, 3.58993]},
			"faces": {
				"north": {"uv": [15.75, 11.25, 16, 11.5], "texture": "#0"},
				"east": {"uv": [12.5, 11, 16, 11.25], "texture": "#0"},
				"south": {"uv": [15.75, 11.25, 16, 11.5], "texture": "#0"},
				"west": {"uv": [12.5, 10.75, 16, 11], "texture": "#0"},
				"up": {"uv": [12.5, 10.5, 16, 10.75], "rotation": 90, "texture": "#0"},
				"down": {"uv": [12.5, 10.25, 16, 10.5], "rotation": 90, "texture": "#0"}
			}
		},
		{
			"from": [7.5585, 21.906, 7.88543],
			"to": [8.4415, 22.436, 8.72693],
			"rotation": {"angle": 0, "axis": "y", "origin": [1.88, 5.3, 4.28993]},
			"faces": {
				"north": {"uv": [12.75, 11.25, 13, 11.5], "texture": "#0"},
				"east": {"uv": [12.75, 11.75, 13, 12], "texture": "#0"},
				"south": {"uv": [12.5, 11.75, 12.75, 12], "texture": "#0"},
				"west": {"uv": [12.75, 11.5, 13, 11.75], "texture": "#0"},
				"up": {"uv": [12.5, 11.25, 12.75, 11.5], "texture": "#0"},
				"down": {"uv": [12.5, 11.5, 12.75, 11.75], "texture": "#0"}
			}
		},
		{
			"from": [7.5585, 21.906, 6.88543],
			"to": [8.4415, 22.436, 7.72693],
			"rotation": {"angle": 0, "axis": "y", "origin": [1.88, 5.3, 3.28993]},
			"faces": {
				"north": {"uv": [12.75, 11.25, 13, 11.5], "texture": "#0"},
				"east": {"uv": [12.75, 11.75, 13, 12], "texture": "#0"},
				"south": {"uv": [12.5, 11.75, 12.75, 12], "texture": "#0"},
				"west": {"uv": [12.75, 11.5, 13, 11.75], "texture": "#0"},
				"up": {"uv": [12.5, 11.25, 12.75, 11.5], "texture": "#0"},
				"down": {"uv": [12.5, 11.5, 12.75, 11.75], "texture": "#0"}
			}
		},
		{
			"from": [7.5585, 21.906, 5.88543],
			"to": [8.4415, 22.436, 6.72693],
			"rotation": {"angle": 0, "axis": "y", "origin": [1.88, 5.3, 2.28993]},
			"faces": {
				"north": {"uv": [12.75, 11.25, 13, 11.5], "texture": "#0"},
				"east": {"uv": [12.75, 11.75, 13, 12], "texture": "#0"},
				"south": {"uv": [12.5, 11.75, 12.75, 12], "texture": "#0"},
				"west": {"uv": [12.75, 11.5, 13, 11.75], "texture": "#0"},
				"up": {"uv": [12.5, 11.25, 12.75, 11.5], "texture": "#0"},
				"down": {"uv": [12.5, 11.5, 12.75, 11.75], "texture": "#0"}
			}
		},
		{
			"from": [7.5585, 21.906, 4.88543],
			"to": [8.4415, 22.436, 5.72693],
			"rotation": {"angle": 0, "axis": "y", "origin": [1.88, 5.3, 1.28993]},
			"faces": {
				"north": {"uv": [12.75, 11.25, 13, 11.5], "texture": "#0"},
				"east": {"uv": [12.75, 11.75, 13, 12], "texture": "#0"},
				"south": {"uv": [12.5, 11.75, 12.75, 12], "texture": "#0"},
				"west": {"uv": [12.75, 11.5, 13, 11.75], "texture": "#0"},
				"up": {"uv": [12.5, 11.25, 12.75, 11.5], "texture": "#0"},
				"down": {"uv": [12.5, 11.5, 12.75, 11.75], "texture": "#0"}
			}
		},
		{
			"from": [7.5585, 21.906, 3.88543],
			"to": [8.4415, 22.436, 4.72693],
			"rotation": {"angle": 0, "axis": "y", "origin": [1.88, 5.3, 0.28993]},
			"faces": {
				"north": {"uv": [12.75, 11.25, 13, 11.5], "texture": "#0"},
				"east": {"uv": [12.75, 11.75, 13, 12], "texture": "#0"},
				"south": {"uv": [12.5, 11.75, 12.75, 12], "texture": "#0"},
				"west": {"uv": [12.75, 11.5, 13, 11.75], "texture": "#0"},
				"up": {"uv": [12.5, 11.25, 12.75, 11.5], "texture": "#0"},
				"down": {"uv": [12.5, 11.5, 12.75, 11.75], "texture": "#0"}
			}
		},
		{
			"from": [7.5585, 21.906, 2.88543],
			"to": [8.4415, 22.436, 3.72693],
			"rotation": {"angle": 0, "axis": "y", "origin": [1.88, 5.3, -0.71007]},
			"faces": {
				"north": {"uv": [12.75, 11.25, 13, 11.5], "texture": "#0"},
				"east": {"uv": [12.75, 11.75, 13, 12], "texture": "#0"},
				"south": {"uv": [12.5, 11.75, 12.75, 12], "texture": "#0"},
				"west": {"uv": [12.75, 11.5, 13, 11.75], "texture": "#0"},
				"up": {"uv": [12.5, 11.25, 12.75, 11.5], "texture": "#0"},
				"down": {"uv": [12.5, 11.5, 12.75, 11.75], "texture": "#0"}
			}
		},
		{
			"from": [7.5585, 21.906, 1.88543],
			"to": [8.4415, 22.436, 2.72693],
			"rotation": {"angle": 0, "axis": "y", "origin": [1.88, 5.3, -1.71007]},
			"faces": {
				"north": {"uv": [12.75, 11.25, 13, 11.5], "texture": "#0"},
				"east": {"uv": [12.75, 11.75, 13, 12], "texture": "#0"},
				"south": {"uv": [12.5, 11.75, 12.75, 12], "texture": "#0"},
				"west": {"uv": [12.75, 11.5, 13, 11.75], "texture": "#0"},
				"up": {"uv": [12.5, 11.25, 12.75, 11.5], "texture": "#0"},
				"down": {"uv": [12.5, 11.5, 12.75, 11.75], "texture": "#0"}
			}
		},
		{
			"from": [6.92356, 22.11194, 9.25072],
			"to": [9.06556, 22.87694, 10.78072],
			"rotation": {"angle": -22.5, "axis": "x", "origin": [7.99456, 22.49444, 11.62222]},
			"faces": {
				"north": {"uv": [9, 0.5, 9.5, 0.75], "texture": "#0"},
				"east": {"uv": [8.5, 0.5, 9, 0.75], "texture": "#0"},
				"south": {"uv": [10, 0.5, 10.5, 0.75], "texture": "#0"},
				"west": {"uv": [9.5, 0.5, 10, 0.75], "texture": "#0"},
				"up": {"uv": [9.5, 0.5, 9, 0], "texture": "#0"},
				"down": {"uv": [10, 0, 9.5, 0.5], "texture": "#0"}
			}
		},
		{
			"from": [6.92356, 21.19394, 0.37672],
			"to": [9.06556, 21.95894, 1.90672],
			"rotation": {"angle": 22.5, "axis": "x", "origin": [7.99456, 22.49444, 1.67722]},
			"faces": {
				"north": {"uv": [6.5, 3.75, 7, 4], "texture": "#0"},
				"east": {"uv": [6, 3.75, 6.5, 4], "texture": "#0"},
				"south": {"uv": [7.5, 3.75, 8, 4], "texture": "#0"},
				"west": {"uv": [7, 3.75, 7.5, 4], "texture": "#0"},
				"up": {"uv": [7, 3.75, 6.5, 3.25], "texture": "#0"},
				"down": {"uv": [7.5, 3.25, 7, 3.75], "texture": "#0"}
			}
		},
		{
			"from": [7.84156, 21.27044, 0.83572],
			"to": [8.14756, 22.03544, 2.36572],
			"rotation": {"angle": 45, "axis": "x", "origin": [7.99456, 22.49444, 1.67722]},
			"faces": {
				"north": {"uv": [15, 6.75, 15, 7], "texture": "#0"},
				"east": {"uv": [14.5, 6.75, 15, 7], "texture": "#0"},
				"south": {"uv": [15.5, 6.75, 15.5, 7], "texture": "#0"},
				"west": {"uv": [15, 6.75, 15.5, 7], "texture": "#0"},
				"up": {"uv": [15, 6.75, 15.25, 6.5], "texture": "#0"},
				"down": {"uv": [15, 6.25, 15, 6.75], "texture": "#0"}
			}
		},
		{
			"from": [7.07656, 27.08444, 7.26172],
			"to": [7.61206, 28.61444, 8.79172],
			"rotation": {"angle": 45, "axis": "x", "origin": [7.99456, 22.49444, 1.67722]},
			"faces": {
				"north": {"uv": [15, 7.25, 15, 7.75], "texture": "#0"},
				"east": {"uv": [14.5, 7.25, 15, 7.75], "texture": "#0"},
				"south": {"uv": [15.5, 7.25, 15.5, 7.75], "texture": "#0"},
				"west": {"uv": [15, 7.25, 15.5, 7.75], "texture": "#0"},
				"up": {"uv": [14.75, 7.25, 15, 7], "texture": "#0"},
				"down": {"uv": [15, 6.75, 15, 7.25], "texture": "#0"}
			}
		},
		{
			"from": [8.45356, 27.08444, 7.26172],
			"to": [8.98906, 28.61444, 8.79172],
			"rotation": {"angle": 45, "axis": "x", "origin": [7.99456, 22.49444, 1.67722]},
			"faces": {
				"north": {"uv": [15, 6, 15, 6.5], "texture": "#0"},
				"east": {"uv": [14.5, 6, 15, 6.5], "texture": "#0"},
				"south": {"uv": [15.5, 6, 15.5, 6.5], "texture": "#0"},
				"west": {"uv": [15, 6, 15.5, 6.5], "texture": "#0"},
				"up": {"uv": [15, 6, 15.25, 5.75], "texture": "#0"},
				"down": {"uv": [15, 5.5, 15, 6], "texture": "#0"}
			}
		},
		{
			"from": [7.235, 19.735, -1.00028],
			"to": [8.765, 21.265, 0.52972],
			"rotation": {"angle": 45, "axis": "z", "origin": [8, 20.5, -0.23528]},
			"faces": {
				"north": {"uv": [8, 8.5, 8.5, 9], "texture": "#0"},
				"east": {"uv": [7.5, 8.5, 8, 9], "texture": "#0"},
				"south": {"uv": [9, 8.5, 9.5, 9], "texture": "#0"},
				"west": {"uv": [8.5, 8.5, 9, 9], "texture": "#0"},
				"up": {"uv": [8.5, 8.5, 8, 8], "texture": "#0"},
				"down": {"uv": [9, 8, 8.5, 8.5], "texture": "#0"}
			}
		}
	],
	"display": {
		"thirdperson_righthand": {
			"rotation": [0, 0, 2],
			"translation": [-0.25, -5.25, -1.25],
			"scale": [0.56, 0.56, 0.56]
		},
		"thirdperson_lefthand": {
			"rotation": [0, 0, 2],
			"translation": [-0.25, -5.25, -1.25],
			"scale": [0.56, 0.56, 0.56]
		},
		"firstperson_righthand": {
			"rotation": [0, 4, 0],
			"translation": [1, -12, -5.25]
		},
		"firstperson_lefthand": {
			"rotation": [0, 4, 0],
			"translation": [1, -12, -5.25]
		},
		"ground": {
			"scale": [0.4, 0.4, 0.4]
		},
		"gui": {
			"rotation": [-90, 52.5, 90],
			"translation": [6, -3, 0],
			"scale": [0.75977, 0.75977, 0.75977]
		},
		"fixed": {
			"rotation": [90, 45, -90],
			"translation": [-3.25, -5.75, -1.5],
			"scale": [0.56, 0.56, 0.56]
		}
	},
	"groups": [
		{
			"name": "gun",
			"origin": [8, 20, -6.00028],
			"color": 0,
			"children": [
				{
					"name": "chassis",
					"origin": [8, 17.09929, 13.23443],
					"color": 0,
					"children": [0, 1, 2, 3, 4, 5, 6, 7, 8, 9, 10, 11, 12, 13, 14, 15, 16, 17, 18, 19, 20, 21, 22, 23, 24, 25, 26, 27, 28, 29, 30, 31, 32, 33]
				},
				{
					"name": "musk",
					"origin": [7.99289, 22.60711, -3.50028],
					"color": 0,
					"children": [34, 35, 36, 37, 38]
				},
				{
					"name": "barrel",
					"origin": [8, 20, -6.00028],
					"color": 0,
					"children": [39]
				}
			]
		}
	]
}