{
    "textures": {
        "0": "gci:items/gun_mammoth/mammoth",
        "1": "gci:items/gun_mammoth/optic_uni_scope_reflex_small",
        "2": "gci:items/gun_mammoth/optic_uni_scope_assault",
        "3": "gci:items/gun_mammoth/barrel_uni_compensator",
        "5": "gci:items/gun_mammoth/barrel_uni_silencer",
        "8": "gci:items/gun_mammoth/barrel_uni_supressor",
        "12": "gci:items/gun_mammoth/reflex_scope",
        "13": "gci:items/gun_mammoth/holo",
        "14": "gci:items/gun_mammoth/holo",
        "particle": "gci:items/gun_mammoth/mammoth"
    },
    "elements": [
        {
            "from": [
                7.29047,
                22.126,
                3.89338
            ],
            "to": [
                8.74847,
                22.612,
                6.32338
            ],
            "rotation": {
                "angle": 0,
                "axis": "y",
                "origin": [
                    8.01947,
                    22.126,
                    6.32338
                ]
            },
            "faces": {
                "north": {
                    "uv": [
                        2,
                        7,
                        0,
                        8
                    ],
                    "texture": "#12"
                },
                "east": {
                    "uv": [
                        3,
                        5,
                        0,
                        6
                    ],
                    "texture": "#12"
                },
                "south": {
                    "uv": [
                        8,
                        5,
                        6,
                        6
                    ],
                    "texture": "#12"
                },
                "west": {
                    "uv": [
                        8,
                        6,
                        5,
                        7
                    ],
                    "texture": "#12"
                },
                "up": {
                    "uv": [
                        6,
                        0,
                        4,
                        3
                    ],
                    "texture": "#12"
                },
                "down": {
                    "uv": [
                        6,
                        6,
                        4,
                        3
                    ],
                    "texture": "#12"
                }
            }
        },
        {
            "from": [
                7.12847,
                22.126,
                4.62238
            ],
            "to": [
                8.91047,
                22.774,
                5.59438
            ],
            "rotation": {
                "angle": 0,
                "axis": "y",
                "origin": [
                    8.01947,
                    22.126,
                    6.32338
                ]
            },
            "faces": {
                "north": {
                    "uv": [
                        6,
                        7,
                        4,
                        8
                    ],
                    "texture": "#12"
                },
                "east": {
                    "uv": [
                        4,
                        5,
                        3,
                        6
                    ],
                    "texture": "#12"
                },
                "south": {
                    "uv": [
                        4,
                        7,
                        2,
                        8
                    ],
                    "texture": "#12"
                },
                "west": {
                    "uv": [
                        3,
                        10,
                        2,
                        11
                    ],
                    "texture": "#12"
                },
                "up": {
                    "uv": [
                        8,
                        7,
                        6,
                        8
                    ],
                    "texture": "#12"
                },
                "down": {
                    "uv": [
                        2,
                        9,
                        0,
                        8
                    ],
                    "texture": "#12"
                }
            }
        },
        {
            "from": [
                7.04747,
                22.288,
                4.94638
            ],
            "to": [
                8.99147,
                22.612,
                5.27038
            ],
            "rotation": {
                "angle": -45,
                "axis": "x",
                "origin": [
                    8.01947,
                    22.45,
                    5.10838
                ]
            },
            "faces": {
                "north": {
                    "uv": [
                        4,
                        8,
                        2,
                        9
                    ],
                    "texture": "#12"
                },
                "east": {
                    "uv": [
                        11,
                        2,
                        10,
                        3
                    ],
                    "texture": "#12"
                },
                "south": {
                    "uv": [
                        10,
                        1,
                        8,
                        2
                    ],
                    "texture": "#12"
                },
                "west": {
                    "uv": [
                        4,
                        10,
                        3,
                        11
                    ],
                    "texture": "#12"
                },
                "up": {
                    "uv": [
                        10,
                        2,
                        8,
                        3
                    ],
                    "texture": "#12"
                },
                "down": {
                    "uv": [
                        10,
                        4,
                        8,
                        3
                    ],
                    "texture": "#12"
                }
            }
        },
        {
            "from": [
                7.20947,
                22.531,
                3.16438
            ],
            "to": [
                8.82947,
                23.017,
                7.05238
            ],
            "rotation": {
                "angle": 0,
                "axis": "y",
                "origin": [
                    8.01947,
                    22.531,
                    6.32338
                ]
            },
            "faces": {
                "north": {
                    "uv": [
                        10,
                        4,
                        8,
                        5
                    ],
                    "texture": "#12"
                },
                "east": {
                    "uv": [
                        5,
                        6,
                        0,
                        7
                    ],
                    "texture": "#12"
                },
                "south": {
                    "uv": [
                        6,
                        8,
                        4,
                        9
                    ],
                    "texture": "#12"
                },
                "west": {
                    "uv": [
                        11,
                        0,
                        6,
                        1
                    ],
                    "texture": "#12"
                },
                "up": {
                    "uv": [
                        2,
                        0,
                        0,
                        5
                    ],
                    "texture": "#12"
                },
                "down": {
                    "uv": [
                        4,
                        5,
                        2,
                        0
                    ],
                    "texture": "#12"
                }
            }
        },
        {
            "from": [
                7.29047,
                23.017,
                3.16438
            ],
            "to": [
                8.74847,
                23.179,
                3.56938
            ],
            "rotation": {
                "angle": 0,
                "axis": "y",
                "origin": [
                    8.01947,
                    22.693,
                    6.32338
                ]
            },
            "faces": {
                "north": {
                    "uv": [
                        8,
                        8,
                        6,
                        9
                    ],
                    "texture": "#12"
                },
                "east": {
                    "uv": [
                        11,
                        3,
                        10,
                        4
                    ],
                    "texture": "#12"
                },
                "south": {
                    "uv": [
                        10,
                        5,
                        8,
                        6
                    ],
                    "texture": "#12"
                },
                "west": {
                    "uv": [
                        5,
                        10,
                        4,
                        11
                    ],
                    "texture": "#12"
                },
                "up": {
                    "uv": [
                        10,
                        6,
                        8,
                        7
                    ],
                    "texture": "#12"
                },
                "down": {
                    "uv": [
                        10,
                        8,
                        8,
                        7
                    ],
                    "texture": "#12"
                }
            }
        },
        {
            "from": [
                7.29047,
                22.855,
                5.99938
            ],
            "to": [
                8.74847,
                23.341,
                7.45738
            ],
            "rotation": {
                "angle": 0,
                "axis": "y",
                "origin": [
                    8.01947,
                    22.855,
                    6.72838
                ]
            },
            "faces": {
                "north": {
                    "uv": [
                        4,
                        9,
                        2,
                        10
                    ],
                    "texture": "#12"
                },
                "east": {
                    "uv": [
                        2,
                        9,
                        0,
                        10
                    ],
                    "texture": "#12"
                },
                "south": {
                    "uv": [
                        10,
                        8,
                        8,
                        9
                    ],
                    "texture": "#12"
                },
                "west": {
                    "uv": [
                        6,
                        9,
                        4,
                        10
                    ],
                    "texture": "#12"
                },
                "up": {
                    "uv": [
                        8,
                        1,
                        6,
                        3
                    ],
                    "texture": "#12"
                },
                "down": {
                    "uv": [
                        8,
                        5,
                        6,
                        3
                    ],
                    "texture": "#12"
                }
            }
        },
        {
            "from": [
                7.45247,
                22.855,
                4.13638
            ],
            "to": [
                8.58647,
                23.341,
                5.27038
            ],
            "rotation": {
                "angle": 45,
                "axis": "y",
                "origin": [
                    8.01947,
                    23.098,
                    4.70338
                ]
            },
            "faces": {
                "north": {
                    "uv": [
                        11,
                        5,
                        10,
                        6
                    ],
                    "texture": "#12"
                },
                "east": {
                    "uv": [
                        6,
                        10,
                        5,
                        11
                    ],
                    "texture": "#12"
                },
                "south": {
                    "uv": [
                        11,
                        4,
                        10,
                        5
                    ],
                    "texture": "#12"
                },
                "west": {
                    "uv": [
                        7,
                        10,
                        6,
                        11
                    ],
                    "texture": "#12"
                },
                "up": {
                    "uv": [
                        14,
                        6,
                        12,
                        8
                    ],
                    "texture": "#12"
                },
                "down": {
                    "uv": [
                        8,
                        11,
                        7,
                        10
                    ],
                    "texture": "#12"
                }
            }
        },
        {
            "from": [
                7.40286,
                24.33788,
                3.16438
            ],
            "to": [
                8.63811,
                24.58088,
                3.56938
            ],
            "rotation": {
                "angle": 0,
                "axis": "y",
                "origin": [
                    8.21286,
                    24.09488,
                    6.32338
                ]
            },
            "faces": {
                "north": {
                    "uv": [
                        10,
                        9,
                        8,
                        10
                    ],
                    "texture": "#12"
                },
                "east": {
                    "uv": [
                        11,
                        7,
                        10,
                        8
                    ],
                    "texture": "#12"
                },
                "south": {
                    "uv": [
                        8,
                        9,
                        6,
                        10
                    ],
                    "texture": "#12"
                },
                "west": {
                    "uv": [
                        9,
                        10,
                        8,
                        11
                    ],
                    "texture": "#12"
                },
                "up": {
                    "uv": [
                        2,
                        10,
                        0,
                        11
                    ],
                    "texture": "#12"
                },
                "down": {
                    "uv": [
                        12,
                        2,
                        10,
                        1
                    ],
                    "texture": "#12"
                }
            }
        },
        {
            "from": [
                7.94961,
                23.71013,
                3.36688
            ],
            "to": [
                8.07111,
                23.83163,
                3.36688
            ],
            "rotation": {
                "angle": 45,
                "axis": "z",
                "origin": [
                    8.02048,
                    23.77088,
                    3.36688
                ]
            },
            "faces": {
                "north": {
                    "uv": [
                        10,
                        10,
                        9,
                        11
                    ],
                    "texture": "#12"
                },
                "east": {
                    "uv": [
                        0,
                        0,
                        0,
                        1
                    ],
                    "texture": "#12"
                },
                "south": {
                    "uv": [
                        11,
                        8,
                        10,
                        9
                    ],
                    "texture": "#12"
                },
                "west": {
                    "uv": [
                        0,
                        0,
                        0,
                        1
                    ],
                    "texture": "#12"
                },
                "up": {
                    "uv": [
                        1,
                        0,
                        0,
                        0
                    ],
                    "texture": "#12"
                },
                "down": {
                    "uv": [
                        1,
                        0,
                        0,
                        0
                    ],
                    "texture": "#12"
                }
            }
        },
        {
            "from": [
                8.69179,
                22.8985,
                3.16438
            ],
            "to": [
                8.93479,
                23.3845,
                3.56938
            ],
            "rotation": {
                "angle": -22.5,
                "axis": "z",
                "origin": [
                    8.77279,
                    23.3845,
                    3.48838
                ]
            },
            "faces": {
                "north": {
                    "uv": [
                        1,
                        11,
                        0,
                        12
                    ],
                    "texture": "#12"
                },
                "east": {
                    "uv": [
                        11,
                        10,
                        10,
                        11
                    ],
                    "texture": "#12"
                },
                "south": {
                    "uv": [
                        11,
                        9,
                        10,
                        10
                    ],
                    "texture": "#12"
                },
                "west": {
                    "uv": [
                        12,
                        0,
                        11,
                        1
                    ],
                    "texture": "#12"
                },
                "up": {
                    "uv": [
                        2,
                        11,
                        1,
                        12
                    ],
                    "texture": "#12"
                },
                "down": {
                    "uv": [
                        3,
                        12,
                        2,
                        11
                    ],
                    "texture": "#12"
                }
            }
        },
        {
            "from": [
                8.56491,
                24.16605,
                3.16438
            ],
            "to": [
                8.96991,
                24.40905,
                3.56938
            ],
            "rotation": {
                "angle": -45,
                "axis": "z",
                "origin": [
                    8.80791,
                    24.40905,
                    3.48838
                ]
            },
            "faces": {
                "north": {
                    "uv": [
                        12,
                        3,
                        11,
                        4
                    ],
                    "texture": "#12"
                },
                "east": {
                    "uv": [
                        4,
                        11,
                        3,
                        12
                    ],
                    "texture": "#12"
                },
                "south": {
                    "uv": [
                        12,
                        2,
                        11,
                        3
                    ],
                    "texture": "#12"
                },
                "west": {
                    "uv": [
                        5,
                        11,
                        4,
                        12
                    ],
                    "texture": "#12"
                },
                "up": {
                    "uv": [
                        12,
                        4,
                        11,
                        5
                    ],
                    "texture": "#12"
                },
                "down": {
                    "uv": [
                        6,
                        12,
                        5,
                        11
                    ],
                    "texture": "#12"
                }
            }
        },
        {
            "from": [
                8.67946,
                23.3225,
                3.16438
            ],
            "to": [
                8.92246,
                24.2945,
                3.56938
            ],
            "rotation": {
                "angle": 0,
                "axis": "y",
                "origin": [
                    8.76046,
                    23.8085,
                    3.48838
                ]
            },
            "faces": {
                "north": {
                    "uv": [
                        12,
                        6,
                        11,
                        7
                    ],
                    "texture": "#12"
                },
                "east": {
                    "uv": [
                        7,
                        11,
                        6,
                        12
                    ],
                    "texture": "#12"
                },
                "south": {
                    "uv": [
                        12,
                        5,
                        11,
                        6
                    ],
                    "texture": "#12"
                },
                "west": {
                    "uv": [
                        8,
                        11,
                        7,
                        12
                    ],
                    "texture": "#12"
                },
                "up": {
                    "uv": [
                        12,
                        7,
                        11,
                        8
                    ],
                    "texture": "#12"
                },
                "down": {
                    "uv": [
                        9,
                        12,
                        8,
                        11
                    ],
                    "texture": "#12"
                }
            }
        },
        {
            "from": [
                7.06903,
                24.16605,
                3.16438
            ],
            "to": [
                7.47403,
                24.40905,
                3.56938
            ],
            "rotation": {
                "angle": 45,
                "axis": "z",
                "origin": [
                    7.23103,
                    24.40905,
                    3.48838
                ]
            },
            "faces": {
                "north": {
                    "uv": [
                        12,
                        9,
                        11,
                        10
                    ],
                    "texture": "#12"
                },
                "east": {
                    "uv": [
                        10,
                        11,
                        9,
                        12
                    ],
                    "texture": "#12"
                },
                "south": {
                    "uv": [
                        12,
                        8,
                        11,
                        9
                    ],
                    "texture": "#12"
                },
                "west": {
                    "uv": [
                        11,
                        11,
                        10,
                        12
                    ],
                    "texture": "#12"
                },
                "up": {
                    "uv": [
                        12,
                        10,
                        11,
                        11
                    ],
                    "texture": "#12"
                },
                "down": {
                    "uv": [
                        12,
                        12,
                        11,
                        11
                    ],
                    "texture": "#12"
                }
            }
        },
        {
            "from": [
                7.11648,
                23.3225,
                3.16438
            ],
            "to": [
                7.35948,
                24.2945,
                3.56938
            ],
            "rotation": {
                "angle": 0,
                "axis": "y",
                "origin": [
                    7.27848,
                    23.8085,
                    3.48838
                ]
            },
            "faces": {
                "north": {
                    "uv": [
                        2,
                        12,
                        1,
                        13
                    ],
                    "texture": "#12"
                },
                "east": {
                    "uv": [
                        13,
                        0,
                        12,
                        1
                    ],
                    "texture": "#12"
                },
                "south": {
                    "uv": [
                        1,
                        12,
                        0,
                        13
                    ],
                    "texture": "#12"
                },
                "west": {
                    "uv": [
                        13,
                        1,
                        12,
                        2
                    ],
                    "texture": "#12"
                },
                "up": {
                    "uv": [
                        3,
                        12,
                        2,
                        13
                    ],
                    "texture": "#12"
                },
                "down": {
                    "uv": [
                        13,
                        3,
                        12,
                        2
                    ],
                    "texture": "#12"
                }
            }
        },
        {
            "from": [
                7.10415,
                22.8985,
                3.16438
            ],
            "to": [
                7.34715,
                23.3845,
                3.56938
            ],
            "rotation": {
                "angle": 22.5,
                "axis": "z",
                "origin": [
                    7.26615,
                    23.3845,
                    3.48838
                ]
            },
            "faces": {
                "north": {
                    "uv": [
                        5,
                        12,
                        4,
                        13
                    ],
                    "texture": "#12"
                },
                "east": {
                    "uv": [
                        13,
                        3,
                        12,
                        4
                    ],
                    "texture": "#12"
                },
                "south": {
                    "uv": [
                        4,
                        12,
                        3,
                        13
                    ],
                    "texture": "#12"
                },
                "west": {
                    "uv": [
                        13,
                        4,
                        12,
                        5
                    ],
                    "texture": "#12"
                },
                "up": {
                    "uv": [
                        6,
                        12,
                        5,
                        13
                    ],
                    "texture": "#12"
                },
                "down": {
                    "uv": [
                        13,
                        6,
                        12,
                        5
                    ],
                    "texture": "#12"
                }
            }
        }
    ],
    "display": {
        "thirdperson_righthand": {
            "rotation": [
                0,
                0,
                2
            ],
            "translation": [
                -0.25,
                -5.25,
                -1.25
            ],
            "scale": [
                0.56,
                0.56,
                0.56
            ]
        },
        "thirdperson_lefthand": {
            "rotation": [
                0,
                0,
                2
            ],
            "translation": [
                -0.25,
                -5.25,
                -1.25
            ],
            "scale": [
                0.56,
                0.56,
                0.56
            ]
        },
        "firstperson_righthand": {
            "rotation": [
                0.5,
                4,
                10
            ],
            "translation": [
                1,
                -7.25,
                -5.25
            ]
        },
        "firstperson_lefthand": {
            "rotation": [
                0.5,
                4,
                10
            ],
            "translation": [
                1,
                -7.25,
                -5.25
            ]
        },
        "ground": {
            "scale": [
                0.4,
                0.4,
                0.4
            ]
        },
        "gui": {
            "rotation": [
                -90,
                52.5,
                90
            ],
            "translation": [
                6,
                -3,
                0
            ],
            "scale": [
                0.75977,
                0.75977,
                0.75977
            ]
        },
        "fixed": {
            "rotation": [
                -90,
                -53.25,
                -90
            ],
            "translation": [
                -7,
                -4.5,
                0
            ]
        }
    }
}