{
	"credit": "Made with Blockbench",
	"textures": {
		"1": "gci:items/common/mpz2",
		"particle": "gci:items/common/all_in_one"
	},
	"elements": [
		{
			"from": [7.90153, 9.76092, -11.02485],
			"to": [8.17153, 9.96092, -7.02485],
			"rotation": {"angle": 0, "axis": "y", "origin": [7.89224, 9.78592, -7.11229]},
			"faces": {
				"north": {"uv": [9, 0.5, 10.547, 3.047], "rotation": 180, "texture": "#1"},
				"east": {"uv": [9, 0.5, 10.547, 3.047], "rotation": 180, "texture": "#1"},
				"south": {"uv": [9, 0.5, 10.547, 3.047], "rotation": 180, "texture": "#1"},
				"west": {"uv": [9, 0.5, 10.547, 3.047], "rotation": 180, "texture": "#1"},
				"up": {"uv": [9, 0.5, 10.547, 3.047], "rotation": 180, "texture": "#1"},
				"down": {"uv": [9, 0.5, 10.547, 3.047], "rotation": 180, "texture": "#1"}
			}
		},
		{
			"from": [7.90153, 9.30909, -11.02485],
			"to": [8.17153, 9.50909, -7.02485],
			"rotation": {"angle": 0, "axis": "y", "origin": [7.89224, 9.34407, -7.11229]},
			"faces": {
				"north": {"uv": [9, 0.5, 10.547, 3.047], "rotation": 180, "texture": "#1"},
				"east": {"uv": [9, 0.5, 10.547, 3.047], "rotation": 180, "texture": "#1"},
				"south": {"uv": [9, 0.5, 10.547, 3.047], "rotation": 180, "texture": "#1"},
				"west": {"uv": [9, 0.5, 10.547, 3.047], "rotation": 180, "texture": "#1"},
				"up": {"uv": [9, 0.5, 10.547, 3.047], "rotation": 180, "texture": "#1"},
				"down": {"uv": [9, 0.5, 10.547, 3.047], "rotation": 180, "texture": "#1"}
			}
		},
		{
			"from": [7.71061, 9.5, -11.02485],
			"to": [7.91061, 9.77, -7.02485],
			"rotation": {"angle": 0, "axis": "y", "origin": [7.88561, 9.49571, -7.11229]},
			"faces": {
				"north": {"uv": [9, 0.5, 10.547, 3.047], "rotation": 270, "texture": "#1"},
				"east": {"uv": [9, 0.5, 10.547, 3.047], "rotation": 270, "texture": "#1"},
				"south": {"uv": [9, 0.5, 10.547, 3.047], "rotation": 270, "texture": "#1"},
				"west": {"uv": [9, 0.5, 10.547, 3.047], "rotation": 270, "texture": "#1"},
				"up": {"uv": [9, 0.5, 10.547, 3.047], "rotation": 270, "texture": "#1"},
				"down": {"uv": [9, 0.5, 10.547, 3.047], "rotation": 270, "texture": "#1"}
			}
		},
		{
			"from": [8.16245, 9.5, -11.02485],
			"to": [8.36245, 9.77, -7.02485],
			"rotation": {"angle": 0, "axis": "y", "origin": [8.33745, 9.49571, -7.11229]},
			"faces": {
				"north": {"uv": [9, 0.5, 10.547, 3.047], "rotation": 270, "texture": "#1"},
				"east": {"uv": [9, 0.5, 10.547, 3.047], "rotation": 270, "texture": "#1"},
				"south": {"uv": [9, 0.5, 10.547, 3.047], "rotation": 270, "texture": "#1"},
				"west": {"uv": [9, 0.5, 10.547, 3.047], "rotation": 270, "texture": "#1"},
				"up": {"uv": [9, 0.5, 10.547, 3.047], "rotation": 270, "texture": "#1"},
				"down": {"uv": [9, 0.5, 10.547, 3.047], "rotation": 270, "texture": "#1"}
			}
		},
		{
			"from": [7.83268, 9.6253, -11.02485],
			"to": [8.10268, 9.8253, -7.02485],
			"rotation": {"angle": 45, "axis": "z", "origin": [7.83839, 9.6503, -7.11229]},
			"faces": {
				"north": {"uv": [9, 0.5, 10.547, 3.047], "rotation": 180, "texture": "#1"},
				"east": {"uv": [9, 0.5, 10.547, 3.047], "rotation": 180, "texture": "#1"},
				"south": {"uv": [9, 0.5, 10.547, 3.047], "rotation": 180, "texture": "#1"},
				"west": {"uv": [9, 0.5, 10.547, 3.047], "rotation": 180, "texture": "#1"},
				"up": {"uv": [9, 0.5, 10.547, 3.047], "rotation": 180, "texture": "#1"},
				"down": {"uv": [9, 0.5, 10.547, 3.047], "rotation": 180, "texture": "#1"}
			}
		},
		{
			"from": [8.15218, 9.3058, -11.02485],
			"to": [8.42218, 9.5058, -7.02485],
			"rotation": {"angle": 45, "axis": "z", "origin": [8.15789, 9.3308, -7.11229]},
			"faces": {
				"north": {"uv": [9, 0.5, 10.547, 3.047], "rotation": 180, "texture": "#1"},
				"east": {"uv": [9, 0.5, 10.547, 3.047], "rotation": 180, "texture": "#1"},
				"south": {"uv": [9, 0.5, 10.547, 3.047], "rotation": 180, "texture": "#1"},
				"west": {"uv": [9, 0.5, 10.547, 3.047], "rotation": 180, "texture": "#1"},
				"up": {"uv": [9, 0.5, 10.547, 3.047], "rotation": 180, "texture": "#1"},
				"down": {"uv": [9, 0.5, 10.547, 3.047], "rotation": 180, "texture": "#1"}
			}
		},
		{
			"from": [8.04611, 9.80814, -11.02485],
			"to": [8.31611, 10.00814, -7.02485],
			"rotation": {"angle": -45, "axis": "z", "origin": [8.05182, 9.83314, -7.11229]},
			"faces": {
				"north": {"uv": [9, 0.5, 10.547, 3.047], "rotation": 180, "texture": "#1"},
				"east": {"uv": [9, 0.5, 10.547, 3.047], "rotation": 180, "texture": "#1"},
				"south": {"uv": [9, 0.5, 10.547, 3.047], "rotation": 180, "texture": "#1"},
				"west": {"uv": [9, 0.5, 10.547, 3.047], "rotation": 180, "texture": "#1"},
				"up": {"uv": [9, 0.5, 10.547, 3.047], "rotation": 180, "texture": "#1"},
				"down": {"uv": [9, 0.5, 10.547, 3.047], "rotation": 180, "texture": "#1"}
			}
		},
		{
			"from": [7.72662, 9.48864, -11.02485],
			"to": [7.99662, 9.68864, -7.02485],
			"rotation": {"angle": -45, "axis": "z", "origin": [7.73233, 9.51364, -7.11229]},
			"faces": {
				"north": {"uv": [9, 0.5, 10.547, 3.047], "rotation": 180, "texture": "#1"},
				"east": {"uv": [9, 0.5, 10.547, 3.047], "rotation": 180, "texture": "#1"},
				"south": {"uv": [9, 0.5, 10.547, 3.047], "rotation": 180, "texture": "#1"},
				"west": {"uv": [9, 0.5, 10.547, 3.047], "rotation": 180, "texture": "#1"},
				"up": {"uv": [9, 0.5, 10.547, 3.047], "rotation": 180, "texture": "#1"},
				"down": {"uv": [9, 0.5, 10.547, 3.047], "rotation": 180, "texture": "#1"}
			}
		}
	],
	"display": {
		"thirdperson_righthand": {
			"rotation": [0.5, 0, 1.25],
			"translation": [-1.25, -0.75, -6],
			"scale": [1, 1, 0.83]
		},
		"thirdperson_lefthand": {
			"rotation": [3, 0, 0],
			"translation": [-0.75, -0.75, -5.75],
			"scale": [1, 1, 0.83]
		},
		"firstperson_righthand": {
			"rotation": [1, 1, 0],
			"translation": [-5.25, 3.5, -0.75],
			"scale": [1.19, 1.14, 0.87]
		},
		"firstperson_lefthand": {
			"rotation": [1, 1, 0],
			"translation": [-3.5, 3.25, -4.5],
			"scale": [1.19, 1.14, 0.87]
		},
		"ground": {
			"translation": [0, 0, -3.25]
		},
		"gui": {
			"rotation": [11, 16, -16],
			"translation": [-0.75, -0.25, 0],
			"scale": [1.25, 1.28, 1.60945]
		},
		"head": {
			"rotation": [0, -139, 90],
			"translation": [2.5, 6.5, 4.5],
			"scale": [1.36, 1.36, 1.36]
		},
		"fixed": {
			"rotation": [0, -90, 0],
			"translation": [4, 0, -1.75],
			"scale": [1.58, 1.39, 1.28]
		}
	}
}