{
	"credit": "Made with Blockbench",
	"textures": {
		"0": "gci:items/common/all_in_one",
		"particle": "gci:items/common/all_in_one"
	},
	"elements": [
		{
			"from": [8.16922, 9.51986, -8.476],
			"to": [8.26922, 9.71986, -7.04],
			"rotation": {"angle": 45, "axis": "z", "origin": [8.0278, 9.61986, -6.11]},
			"faces": {
				"north": {"uv": [7.625, 12.375, 7.625, 12.5], "rotation": 270, "texture": "#0"},
				"east": {"uv": [4, 3, 4.625, 3], "rotation": 180, "texture": "#0"},
				"south": {"uv": [4, 3, 4.625, 3], "rotation": 180, "texture": "#0"},
				"west": {"uv": [7.625, 12.375, 7.625, 12.5], "rotation": 270, "texture": "#0"},
				"up": {"uv": [4, 3, 4.625, 3], "rotation": 180, "texture": "#0"},
				"down": {"uv": [4, 3, 4.625, 3], "rotation": 180, "texture": "#0"}
			}
		},
		{
			"from": [7.78637, 9.51986, -8.476],
			"to": [7.88637, 9.71986, -7.04],
			"rotation": {"angle": 45, "axis": "z", "origin": [8.0278, 9.61986, -6.11]},
			"faces": {
				"north": {"uv": [7.625, 12.375, 7.625, 12.5], "rotation": 270, "texture": "#0"},
				"east": {"uv": [7.625, 12.375, 7.625, 12.5], "rotation": 270, "texture": "#0"},
				"south": {"uv": [4, 3, 4.625, 3], "rotation": 180, "texture": "#0"},
				"west": {"uv": [4, 3, 4.625, 3], "rotation": 180, "texture": "#0"},
				"up": {"uv": [4, 3, 4.625, 3], "rotation": 180, "texture": "#0"},
				"down": {"uv": [4, 3, 4.625, 3], "rotation": 180, "texture": "#0"}
			}
		},
		{
			"from": [7.9278, 9.37844, -8.476],
			"to": [8.1278, 9.47844, -7.04],
			"rotation": {"angle": 0, "axis": "y", "origin": [7.76922, 9.33702, -19.86]},
			"faces": {
				"north": {"uv": [7.625, 12.375, 7.625, 12.5], "rotation": 270, "texture": "#0"},
				"east": {"uv": [4, 3, 4.625, 3], "rotation": 270, "texture": "#0"},
				"south": {"uv": [4, 3, 4.625, 3], "rotation": 270, "texture": "#0"},
				"west": {"uv": [4, 3, 4.625, 3], "rotation": 270, "texture": "#0"},
				"up": {"uv": [7.625, 12.375, 7.625, 12.5], "rotation": 270, "texture": "#0"},
				"down": {"uv": [4, 3, 4.625, 3], "rotation": 270, "texture": "#0"}
			}
		},
		{
			"from": [7.9278, 9.76129, -8.476],
			"to": [8.1278, 9.86129, -7.04],
			"rotation": {"angle": 0, "axis": "y", "origin": [7.76922, 9.71986, -19.86]},
			"faces": {
				"north": {"uv": [7.625, 12.375, 7.625, 12.5], "rotation": 270, "texture": "#0"},
				"east": {"uv": [4, 3, 4.625, 3], "rotation": 270, "texture": "#0"},
				"south": {"uv": [4, 3, 4.625, 3], "rotation": 270, "texture": "#0"},
				"west": {"uv": [4, 3, 4.625, 3], "rotation": 270, "texture": "#0"},
				"up": {"uv": [4, 3, 4.625, 3], "rotation": 270, "texture": "#0"},
				"down": {"uv": [7.625, 12.375, 7.625, 12.5], "rotation": 270, "texture": "#0"}
			}
		},
		{
			"from": [8.18248, 9.48662, -8.508],
			"to": [8.34648, 9.75062, -7.296],
			"rotation": {"angle": 0, "axis": "y", "origin": [8.24401, 9.61862, -7.566]},
			"faces": {
				"north": {"uv": [3, 2.75, 3, 2.875], "texture": "#0"},
				"east": {"uv": [3, 2.75, 3, 2.875], "rotation": 180, "texture": "#0"},
				"south": {"uv": [3, 2.75, 3, 2.875], "rotation": 180, "texture": "#0"},
				"west": {"uv": [7.625, 12.375, 7.625, 12.5], "rotation": 270, "texture": "#0"},
				"up": {"uv": [3, 2.75, 3, 2.875], "rotation": 180, "texture": "#0"},
				"down": {"uv": [3, 2.75, 3, 2.875], "rotation": 180, "texture": "#0"}
			}
		},
		{
			"from": [7.70912, 9.48662, -8.508],
			"to": [7.87312, 9.75062, -7.296],
			"rotation": {"angle": 0, "axis": "y", "origin": [7.86564, 9.55145, -7.566]},
			"faces": {
				"north": {"uv": [3, 2.75, 3, 2.875], "rotation": 180, "texture": "#0"},
				"east": {"uv": [7.625, 12.375, 7.625, 12.5], "rotation": 270, "texture": "#0"},
				"south": {"uv": [3, 2.75, 3, 2.875], "texture": "#0"},
				"west": {"uv": [3, 2.75, 3, 2.875], "texture": "#0"},
				"up": {"uv": [3, 2.75, 3, 2.875], "texture": "#0"},
				"down": {"uv": [3, 2.75, 3, 2.875], "texture": "#0"}
			}
		},
		{
			"from": [7.70912, 9.67862, -8.664],
			"to": [7.80912, 9.75062, -8.508],
			"rotation": {"angle": 0, "axis": "y", "origin": [7.86564, 9.55145, -7.722]},
			"faces": {
				"north": {"uv": [3, 2.75, 3, 2.875], "rotation": 180, "texture": "#0"},
				"east": {"uv": [3, 2.75, 3, 2.875], "texture": "#0"},
				"south": {"uv": [3, 2.75, 3, 2.875], "texture": "#0"},
				"west": {"uv": [3, 2.75, 3, 2.875], "texture": "#0"},
				"up": {"uv": [3, 2.75, 3, 2.875], "texture": "#0"},
				"down": {"uv": [3, 2.75, 3, 2.875], "texture": "#0"}
			}
		},
		{
			"from": [8.25312, 9.67862, -8.664],
			"to": [8.35312, 9.75062, -8.508],
			"rotation": {"angle": 0, "axis": "y", "origin": [8.40964, 9.55145, -7.722]},
			"faces": {
				"north": {"uv": [3, 2.75, 3, 2.875], "rotation": 180, "texture": "#0"},
				"east": {"uv": [3, 2.75, 3, 2.875], "texture": "#0"},
				"south": {"uv": [3, 2.75, 3, 2.875], "texture": "#0"},
				"west": {"uv": [3, 2.75, 3, 2.875], "texture": "#0"},
				"up": {"uv": [3, 2.75, 3, 2.875], "texture": "#0"},
				"down": {"uv": [3, 2.75, 3, 2.875], "texture": "#0"}
			}
		},
		{
			"from": [7.70912, 9.48662, -8.664],
			"to": [7.80912, 9.55862, -8.508],
			"rotation": {"angle": 0, "axis": "y", "origin": [7.86564, 9.39145, -7.722]},
			"faces": {
				"north": {"uv": [3, 2.75, 3, 2.875], "rotation": 180, "texture": "#0"},
				"east": {"uv": [3, 2.75, 3, 2.875], "texture": "#0"},
				"south": {"uv": [3, 2.75, 3, 2.875], "texture": "#0"},
				"west": {"uv": [3, 2.75, 3, 2.875], "texture": "#0"},
				"up": {"uv": [3, 2.75, 3, 2.875], "texture": "#0"},
				"down": {"uv": [3, 2.75, 3, 2.875], "texture": "#0"}
			}
		},
		{
			"from": [8.25312, 9.48662, -8.664],
			"to": [8.35312, 9.55862, -8.508],
			"rotation": {"angle": 0, "axis": "y", "origin": [8.40964, 9.39145, -7.722]},
			"faces": {
				"north": {"uv": [3, 2.75, 3, 2.875], "rotation": 180, "texture": "#0"},
				"east": {"uv": [3, 2.75, 3, 2.875], "texture": "#0"},
				"south": {"uv": [3, 2.75, 3, 2.875], "texture": "#0"},
				"west": {"uv": [3, 2.75, 3, 2.875], "texture": "#0"},
				"up": {"uv": [3, 2.75, 3, 2.875], "texture": "#0"},
				"down": {"uv": [3, 2.75, 3, 2.875], "texture": "#0"}
			}
		},
		{
			"from": [7.95913, 9.62041, -8.508],
			"to": [8.22313, 9.78441, -7.296],
			"rotation": {"angle": -45, "axis": "z", "origin": [8.24401, 9.61862, -7.566]},
			"faces": {
				"north": {"uv": [3, 2.75, 3, 2.875], "rotation": 270, "texture": "#0"},
				"east": {"uv": [3, 2.75, 3, 2.875], "rotation": 270, "texture": "#0"},
				"south": {"uv": [3, 2.75, 3, 2.875], "rotation": 270, "texture": "#0"},
				"west": {"uv": [3, 2.75, 3, 2.875], "rotation": 270, "texture": "#0"},
				"up": {"uv": [3, 2.75, 3, 2.875], "rotation": 270, "texture": "#0"},
				"down": {"uv": [7.625, 12.375, 7.625, 12.5], "rotation": 270, "texture": "#0"}
			}
		},
		{
			"from": [7.95913, 9.68441, -8.664],
			"to": [8.22313, 9.78441, -8.508],
			"rotation": {"angle": -45, "axis": "z", "origin": [8.24401, 9.61862, -7.722]},
			"faces": {
				"north": {"uv": [3, 2.75, 3, 2.875], "rotation": 270, "texture": "#0"},
				"east": {"uv": [3, 2.75, 3, 2.875], "rotation": 270, "texture": "#0"},
				"south": {"uv": [3, 2.75, 3, 2.875], "rotation": 270, "texture": "#0"},
				"west": {"uv": [3, 2.75, 3, 2.875], "rotation": 270, "texture": "#0"},
				"up": {"uv": [3, 2.75, 3, 2.875], "rotation": 270, "texture": "#0"},
				"down": {"uv": [3, 2.75, 3, 2.875], "rotation": 270, "texture": "#0"}
			}
		},
		{
			"from": [7.70912, 9.35229, -8.508],
			"to": [7.87312, 9.61629, -7.296],
			"rotation": {"angle": 45, "axis": "z", "origin": [7.86564, 9.55145, -7.566]},
			"faces": {
				"north": {"uv": [3, 2.75, 3, 2.875], "texture": "#0"},
				"east": {"uv": [7.625, 12.375, 7.625, 12.5], "rotation": 270, "texture": "#0"},
				"south": {"uv": [3, 2.75, 3, 2.875], "rotation": 180, "texture": "#0"},
				"west": {"uv": [3, 2.75, 3, 2.875], "rotation": 180, "texture": "#0"},
				"up": {"uv": [3, 2.75, 3, 2.875], "rotation": 180, "texture": "#0"},
				"down": {"uv": [3, 2.75, 3, 2.875], "rotation": 180, "texture": "#0"}
			}
		},
		{
			"from": [7.70912, 9.35229, -8.664],
			"to": [7.80912, 9.61629, -8.508],
			"rotation": {"angle": 45, "axis": "z", "origin": [7.86564, 9.55145, -7.722]},
			"faces": {
				"north": {"uv": [3, 2.75, 3, 2.875], "texture": "#0"},
				"east": {"uv": [3, 2.75, 3, 2.875], "rotation": 180, "texture": "#0"},
				"south": {"uv": [3, 2.75, 3, 2.875], "rotation": 180, "texture": "#0"},
				"west": {"uv": [3, 2.75, 3, 2.875], "rotation": 180, "texture": "#0"},
				"up": {"uv": [3, 2.75, 3, 2.875], "rotation": 180, "texture": "#0"},
				"down": {"uv": [3, 2.75, 3, 2.875], "rotation": 180, "texture": "#0"}
			}
		},
		{
			"from": [7.8958, 9.7733, -8.508],
			"to": [8.1598, 9.9373, -7.296],
			"rotation": {"angle": 0, "axis": "y", "origin": [8.0278, 9.90729, -7.566]},
			"faces": {
				"north": {"uv": [3, 2.75, 3, 2.875], "rotation": 270, "texture": "#0"},
				"east": {"uv": [3, 2.75, 3, 2.875], "rotation": 270, "texture": "#0"},
				"south": {"uv": [3, 2.75, 3, 2.875], "rotation": 270, "texture": "#0"},
				"west": {"uv": [3, 2.75, 3, 2.875], "rotation": 270, "texture": "#0"},
				"up": {"uv": [3, 2.75, 3, 2.875], "rotation": 270, "texture": "#0"},
				"down": {"uv": [7.625, 12.375, 7.625, 12.5], "rotation": 270, "texture": "#0"}
			}
		},
		{
			"from": [7.8958, 9.8373, -8.664],
			"to": [8.1598, 9.9373, -8.508],
			"rotation": {"angle": 0, "axis": "y", "origin": [8.0278, 9.90729, -7.722]},
			"faces": {
				"north": {"uv": [3, 2.75, 3, 2.875], "rotation": 270, "texture": "#0"},
				"east": {"uv": [3, 2.75, 3, 2.875], "rotation": 270, "texture": "#0"},
				"south": {"uv": [3, 2.75, 3, 2.875], "rotation": 270, "texture": "#0"},
				"west": {"uv": [3, 2.75, 3, 2.875], "rotation": 270, "texture": "#0"},
				"up": {"uv": [3, 2.75, 3, 2.875], "rotation": 270, "texture": "#0"},
				"down": {"uv": [3, 2.75, 3, 2.875], "rotation": 270, "texture": "#0"}
			}
		},
		{
			"from": [7.8958, 9.29995, -8.508],
			"to": [8.1598, 9.46395, -7.296],
			"rotation": {"angle": 0, "axis": "y", "origin": [7.86564, 9.55145, -7.566]},
			"faces": {
				"north": {"uv": [3, 2.75, 3, 2.875], "rotation": 90, "texture": "#0"},
				"east": {"uv": [3, 2.75, 3, 2.875], "rotation": 90, "texture": "#0"},
				"south": {"uv": [3, 2.75, 3, 2.875], "rotation": 90, "texture": "#0"},
				"west": {"uv": [3, 2.75, 3, 2.875], "rotation": 90, "texture": "#0"},
				"up": {"uv": [7.625, 12.375, 7.625, 12.5], "rotation": 270, "texture": "#0"},
				"down": {"uv": [3, 2.75, 3, 2.875], "rotation": 90, "texture": "#0"}
			}
		},
		{
			"from": [7.8958, 9.29995, -8.664],
			"to": [8.1598, 9.39995, -8.508],
			"rotation": {"angle": 0, "axis": "y", "origin": [7.86564, 9.55145, -7.722]},
			"faces": {
				"north": {"uv": [3, 2.75, 3, 2.875], "rotation": 90, "texture": "#0"},
				"east": {"uv": [3, 2.75, 3, 2.875], "rotation": 90, "texture": "#0"},
				"south": {"uv": [3, 2.75, 3, 2.875], "rotation": 90, "texture": "#0"},
				"west": {"uv": [3, 2.75, 3, 2.875], "rotation": 90, "texture": "#0"},
				"up": {"uv": [3, 2.75, 3, 2.875], "rotation": 90, "texture": "#0"},
				"down": {"uv": [3, 2.75, 3, 2.875], "rotation": 90, "texture": "#0"}
			}
		},
		{
			"from": [8.2458, 9.33374, -8.508],
			"to": [8.4098, 9.59774, -7.296],
			"rotation": {"angle": -45, "axis": "z", "origin": [8.24401, 9.61862, -7.566]},
			"faces": {
				"north": {"uv": [3, 2.75, 3, 2.875], "rotation": 180, "texture": "#0"},
				"east": {"uv": [3, 2.75, 3, 2.875], "texture": "#0"},
				"south": {"uv": [3, 2.75, 3, 2.875], "texture": "#0"},
				"west": {"uv": [7.625, 12.375, 7.625, 12.5], "rotation": 270, "texture": "#0"},
				"up": {"uv": [3, 2.75, 3, 2.875], "texture": "#0"},
				"down": {"uv": [3, 2.75, 3, 2.875], "texture": "#0"}
			}
		},
		{
			"from": [8.3098, 9.33374, -8.664],
			"to": [8.4098, 9.59774, -8.508],
			"rotation": {"angle": -45, "axis": "z", "origin": [8.24401, 9.61862, -7.722]},
			"faces": {
				"north": {"uv": [3, 2.75, 3, 2.875], "rotation": 180, "texture": "#0"},
				"east": {"uv": [3, 2.75, 3, 2.875], "texture": "#0"},
				"south": {"uv": [3, 2.75, 3, 2.875], "texture": "#0"},
				"west": {"uv": [3, 2.75, 3, 2.875], "texture": "#0"},
				"up": {"uv": [3, 2.75, 3, 2.875], "texture": "#0"},
				"down": {"uv": [3, 2.75, 3, 2.875], "texture": "#0"}
			}
		},
		{
			"from": [7.8958, 9.63896, -8.508],
			"to": [8.1598, 9.80296, -7.296],
			"rotation": {"angle": 45, "axis": "z", "origin": [7.86564, 9.55145, -7.566]},
			"faces": {
				"north": {"uv": [3, 2.75, 3, 2.875], "rotation": 270, "texture": "#0"},
				"east": {"uv": [3, 2.75, 3, 2.875], "rotation": 270, "texture": "#0"},
				"south": {"uv": [3, 2.75, 3, 2.875], "rotation": 270, "texture": "#0"},
				"west": {"uv": [3, 2.75, 3, 2.875], "rotation": 270, "texture": "#0"},
				"up": {"uv": [3, 2.75, 3, 2.875], "rotation": 270, "texture": "#0"},
				"down": {"uv": [7.625, 12.375, 7.625, 12.5], "rotation": 270, "texture": "#0"}
			}
		},
		{
			"from": [7.8958, 9.70296, -8.664],
			"to": [8.1598, 9.80296, -8.508],
			"rotation": {"angle": 45, "axis": "z", "origin": [7.86564, 9.55145, -7.722]},
			"faces": {
				"north": {"uv": [3, 2.75, 3, 2.875], "rotation": 270, "texture": "#0"},
				"east": {"uv": [3, 2.75, 3, 2.875], "rotation": 270, "texture": "#0"},
				"south": {"uv": [3, 2.75, 3, 2.875], "rotation": 270, "texture": "#0"},
				"west": {"uv": [3, 2.75, 3, 2.875], "rotation": 270, "texture": "#0"},
				"up": {"uv": [3, 2.75, 3, 2.875], "rotation": 270, "texture": "#0"},
				"down": {"uv": [3, 2.75, 3, 2.875], "rotation": 270, "texture": "#0"}
			}
		},
		{
			"from": [7.78637, 9.51986, -8.476],
			"to": [7.88637, 9.71986, -7.04],
			"rotation": {"angle": 0, "axis": "y", "origin": [7.83637, 9.61986, -7.11]},
			"faces": {
				"north": {"uv": [7.625, 12.375, 7.625, 12.5], "rotation": 270, "texture": "#0"},
				"east": {"uv": [7.625, 12.375, 7.625, 12.5], "rotation": 270, "texture": "#0"},
				"south": {"uv": [4, 3, 4.625, 3], "texture": "#0"},
				"west": {"uv": [4, 3, 4.625, 3], "texture": "#0"},
				"up": {"uv": [4, 3, 4.625, 3], "texture": "#0"},
				"down": {"uv": [4, 3, 4.625, 3], "texture": "#0"}
			}
		},
		{
			"from": [8.16922, 9.51986, -8.476],
			"to": [8.26922, 9.71986, -7.04],
			"rotation": {"angle": 0, "axis": "y", "origin": [8.21922, 9.61986, -7.11]},
			"faces": {
				"north": {"uv": [7.625, 12.375, 7.625, 12.5], "rotation": 270, "texture": "#0"},
				"east": {"uv": [4, 3, 4.625, 3], "texture": "#0"},
				"south": {"uv": [4, 3, 4.625, 3], "texture": "#0"},
				"west": {"uv": [7.625, 12.375, 7.625, 12.5], "rotation": 270, "texture": "#0"},
				"up": {"uv": [4, 3, 4.625, 3], "texture": "#0"},
				"down": {"uv": [4, 3, 4.625, 3], "texture": "#0"}
			}
		},
		{
			"from": [7.9278, 9.37844, -8.476],
			"to": [8.1278, 9.47844, -7.04],
			"rotation": {"angle": 45, "axis": "z", "origin": [8.0278, 9.61986, -6.11]},
			"faces": {
				"north": {"uv": [7.625, 12.375, 7.625, 12.5], "rotation": 270, "texture": "#0"},
				"east": {"uv": [4, 3, 4.625, 3], "rotation": 90, "texture": "#0"},
				"south": {"uv": [4, 3, 4.625, 3], "rotation": 90, "texture": "#0"},
				"west": {"uv": [4, 3, 4.625, 3], "rotation": 90, "texture": "#0"},
				"up": {"uv": [7.625, 12.375, 7.625, 12.5], "rotation": 270, "texture": "#0"},
				"down": {"uv": [4, 3, 4.625, 3], "rotation": 90, "texture": "#0"}
			}
		},
		{
			"from": [7.9278, 9.76129, -8.476],
			"to": [8.1278, 9.86129, -7.04],
			"rotation": {"angle": 45, "axis": "z", "origin": [8.0278, 9.61986, -6.11]},
			"faces": {
				"north": {"uv": [7.625, 12.375, 7.625, 12.5], "rotation": 270, "texture": "#0"},
				"east": {"uv": [4, 3, 4.625, 3], "rotation": 90, "texture": "#0"},
				"south": {"uv": [4, 3, 4.625, 3], "rotation": 90, "texture": "#0"},
				"west": {"uv": [4, 3, 4.625, 3], "rotation": 90, "texture": "#0"},
				"up": {"uv": [4, 3, 4.625, 3], "rotation": 90, "texture": "#0"},
				"down": {"uv": [7.625, 12.375, 7.625, 12.5], "rotation": 270, "texture": "#0"}
			}
		}
	],
	"display": {
		"thirdperson_righthand": {
			"rotation": [0.5, 0, 1.25],
			"translation": [-1.25, -0.75, -6],
			"scale": [1, 1, 0.83]
		},
		"thirdperson_lefthand": {
			"rotation": [3, 0, 0],
			"translation": [-0.75, -0.75, -5.75],
			"scale": [1, 1, 0.83]
		},
		"firstperson_righthand": {
			"rotation": [1, 1, 0],
			"translation": [-5.25, 3.5, -0.75],
			"scale": [1.19, 1.14, 0.87]
		},
		"firstperson_lefthand": {
			"rotation": [1, 1, 0],
			"translation": [-3.5, 3.25, -4.5],
			"scale": [1.19, 1.14, 0.87]
		},
		"ground": {
			"translation": [0, 0, -3.25]
		},
		"gui": {
			"rotation": [11, 16, -16],
			"translation": [-0.75, -0.25, 0],
			"scale": [1.25, 1.28, 1.60945]
		},
		"head": {
			"rotation": [0, -139, 90],
			"translation": [2.5, 6.5, 4.5],
			"scale": [1.36, 1.36, 1.36]
		},
		"fixed": {
			"rotation": [0, -90, 0],
			"translation": [4, 0, -1.75],
			"scale": [1.58, 1.39, 1.28]
		}
	}
}