{
    "textures": {
        "0": "gci:items/common/mpz",
        "particle": "MPZ"
    },
    "elements": [
        {
            "from": [
                1.56657,
                3.74516,
                3.02128
            ],
            "to": [
                2.27937,
                4.33422,
                5.24128
            ],
            "rotation": {
                "angle": 0,
                "axis": "y",
                "origin": [
                    1.92297,
                    4.43969,
                    3.73128
                ]
            },
            "faces": {
                "north": {
                    "uv": [
                        11.33333,
                        1.33333,
                        12,
                        1.66667
                    ],
                    "rotation": 270,
                    "texture": "#0"
                },
                "east": {
                    "uv": [
                        11.33333,
                        1.33333,
                        12,
                        1.66667
                    ],
                    "rotation": 270,
                    "texture": "#0"
                },
                "south": {
                    "uv": [
                        11.33333,
                        1.33333,
                        12,
                        1.66667
                    ],
                    "rotation": 270,
                    "texture": "#0"
                },
                "west": {
                    "uv": [
                        11.33333,
                        1.33333,
                        12,
                        1.66667
                    ],
                    "rotation": 270,
                    "texture": "#0"
                },
                "up": {
                    "uv": [
                        11.33333,
                        1.33333,
                        12,
                        1.66667
                    ],
                    "rotation": 270,
                    "texture": "#0"
                },
                "down": {
                    "uv": [
                        11.33333,
                        1.33333,
                        12,
                        1.66667
                    ],
                    "rotation": 270,
                    "texture": "#0"
                }
            }
        }
    ],
    "display": {
        "thirdperson_righthand": {
            "translation": [
                6,
                3.5,
                1.5
            ]
        },
        "thirdperson_lefthand": {
            "translation": [
                -6.25,
                3.75,
                1.5
            ]
        },
        "firstperson_righthand": {
            "translation": [
                0.75,
                7,
                4.25
            ]
        },
        "firstperson_lefthand": {
            "translation": [
                -10.25,
                6.5,
                2.75
            ]
        },
        "ground": {
            "translation": [
                6.5,
                3.5,
                4.5
            ]
        },
        "gui": {
            "rotation": [
                90,
                45,
                -91
            ],
            "translation": [
                5,
                -0.5,
                0
            ],
            "scale": [
                0.8,
                0.8,
                0.8
            ]
        },
        "head": {
            "translation": [
                6.5,
                12,
                4.75
            ]
        },
        "fixed": {
            "rotation": [
                90,
                45,
                -90
            ],
            "translation": [
                5.25,
                -0.25,
                -6.5
            ]
        }
    }
}