{
    "textures": {
        "1": "gci:items/common/all_in_one",
        "2": "gci:items/common/mpz"
    },
    "elements": [
        {
            "from": [
                7.75772,
                11.08895,
                8.2363
            ],
            "to": [
                8.43772,
                11.22495,
                8.6443
            ],
            "rotation": {
                "angle": 0,
                "axis": "y",
                "origin": [
                    18.63772,
                    21.69695,
                    19.5243
                ]
            },
            "faces": {
                "north": {
                    "uv": [
                        9,
                        0.33333,
                        10.33333,
                        2.33333
                    ],
                    "texture": "#2"
                },
                "east": {
                    "uv": [
                        9,
                        0.33333,
                        10.33333,
                        2.33333
                    ],
                    "texture": "#2"
                },
                "south": {
                    "uv": [
                        9,
                        0.33333,
                        10.33333,
                        2.33333
                    ],
                    "texture": "#2"
                },
                "west": {
                    "uv": [
                        9,
                        0.33333,
                        10.33333,
                        2.33333
                    ],
                    "texture": "#2"
                },
                "up": {
                    "uv": [
                        9,
                        0.33333,
                        10.33333,
                        2.33333
                    ],
                    "texture": "#2"
                },
                "down": {
                    "uv": [
                        9,
                        0.33333,
                        10.33333,
                        2.33333
                    ],
                    "texture": "#2"
                }
            }
        },
        {
            "from": [
                8.06372,
                10.98695,
                8.1683
            ],
            "to": [
                8.13172,
                11.05495,
                8.3043
            ],
            "rotation": {
                "angle": -45,
                "axis": "z",
                "origin": [
                    8.06372,
                    10.98695,
                    8.1683
                ]
            },
            "faces": {
                "north": {
                    "uv": [
                        9,
                        0.33333,
                        10.33333,
                        2.33333
                    ],
                    "rotation": 90,
                    "texture": "#2"
                },
                "east": {
                    "uv": [
                        9,
                        0.33333,
                        10.33333,
                        2.33333
                    ],
                    "rotation": 90,
                    "texture": "#2"
                },
                "south": {
                    "uv": [
                        9,
                        0.33333,
                        10.33333,
                        2.33333
                    ],
                    "rotation": 90,
                    "texture": "#2"
                },
                "west": {
                    "uv": [
                        9,
                        0.33333,
                        10.33333,
                        2.33333
                    ],
                    "rotation": 90,
                    "texture": "#2"
                },
                "up": {
                    "uv": [
                        9,
                        0.33333,
                        10.33333,
                        2.33333
                    ],
                    "rotation": 90,
                    "texture": "#2"
                },
                "down": {
                    "uv": [
                        9,
                        0.33333,
                        10.33333,
                        2.33333
                    ],
                    "rotation": 90,
                    "texture": "#2"
                }
            }
        },
        {
            "from": [
                8.30172,
                11.15695,
                8.3043
            ],
            "to": [
                8.36972,
                11.42895,
                8.5083
            ],
            "rotation": {
                "angle": 0,
                "axis": "y",
                "origin": [
                    1.73389,
                    6.50478,
                    -6.9277
                ]
            },
            "faces": {
                "north": {
                    "uv": [
                        9,
                        0.33333,
                        10.33333,
                        2.33333
                    ],
                    "texture": "#2"
                },
                "east": {
                    "uv": [
                        9,
                        0.33333,
                        10.33333,
                        2.33333
                    ],
                    "texture": "#2"
                },
                "south": {
                    "uv": [
                        9,
                        0.33333,
                        10.33333,
                        2.33333
                    ],
                    "texture": "#2"
                },
                "west": {
                    "uv": [
                        9,
                        0.33333,
                        10.33333,
                        2.33333
                    ],
                    "texture": "#2"
                },
                "up": {
                    "uv": [
                        9,
                        0.33333,
                        10.33333,
                        2.33333
                    ],
                    "texture": "#2"
                },
                "down": {
                    "uv": [
                        9,
                        0.33333,
                        10.33333,
                        2.33333
                    ],
                    "texture": "#2"
                }
            }
        },
        {
            "from": [
                7.82572,
                11.15695,
                8.3043
            ],
            "to": [
                7.89372,
                11.42895,
                8.5083
            ],
            "rotation": {
                "angle": 0,
                "axis": "y",
                "origin": [
                    1.73389,
                    6.50478,
                    -6.9277
                ]
            },
            "faces": {
                "north": {
                    "uv": [
                        9,
                        0.33333,
                        10.33333,
                        2.33333
                    ],
                    "texture": "#2"
                },
                "east": {
                    "uv": [
                        9,
                        0.33333,
                        10.33333,
                        2.33333
                    ],
                    "texture": "#2"
                },
                "south": {
                    "uv": [
                        9,
                        0.33333,
                        10.33333,
                        2.33333
                    ],
                    "texture": "#2"
                },
                "west": {
                    "uv": [
                        9,
                        0.33333,
                        10.33333,
                        2.33333
                    ],
                    "texture": "#2"
                },
                "up": {
                    "uv": [
                        9,
                        0.33333,
                        10.33333,
                        2.33333
                    ],
                    "texture": "#2"
                },
                "down": {
                    "uv": [
                        9,
                        0.33333,
                        10.33333,
                        2.33333
                    ],
                    "texture": "#2"
                }
            }
        },
        {
            "from": [
                7.68972,
                10.68095,
                8.7803
            ],
            "to": [
                7.75772,
                11.08895,
                8.9843
            ],
            "rotation": {
                "angle": 0,
                "axis": "y",
                "origin": [
                    1.73389,
                    6.50478,
                    -6.9277
                ]
            },
            "faces": {
                "north": {
                    "uv": [
                        9,
                        0.33333,
                        10.33333,
                        2.33333
                    ],
                    "texture": "#2"
                },
                "east": {
                    "uv": [
                        9,
                        0.33333,
                        10.33333,
                        2.33333
                    ],
                    "texture": "#2"
                },
                "south": {
                    "uv": [
                        9,
                        0.33333,
                        10.33333,
                        2.33333
                    ],
                    "texture": "#2"
                },
                "west": {
                    "uv": [
                        9,
                        0.33333,
                        10.33333,
                        2.33333
                    ],
                    "texture": "#2"
                },
                "up": {
                    "uv": [
                        9,
                        0.33333,
                        10.33333,
                        2.33333
                    ],
                    "texture": "#2"
                },
                "down": {
                    "uv": [
                        9,
                        0.33333,
                        10.33333,
                        2.33333
                    ],
                    "texture": "#2"
                }
            }
        },
        {
            "from": [
                7.68972,
                10.68095,
                8.2635
            ],
            "to": [
                7.75772,
                11.08895,
                8.4675
            ],
            "rotation": {
                "angle": 0,
                "axis": "y",
                "origin": [
                    1.73389,
                    6.50478,
                    -6.9277
                ]
            },
            "faces": {
                "north": {
                    "uv": [
                        9,
                        0.33333,
                        10.33333,
                        2.33333
                    ],
                    "texture": "#2"
                },
                "east": {
                    "uv": [
                        9,
                        0.33333,
                        10.33333,
                        2.33333
                    ],
                    "texture": "#2"
                },
                "south": {
                    "uv": [
                        9,
                        0.33333,
                        10.33333,
                        2.33333
                    ],
                    "texture": "#2"
                },
                "west": {
                    "uv": [
                        9,
                        0.33333,
                        10.33333,
                        2.33333
                    ],
                    "texture": "#2"
                },
                "up": {
                    "uv": [
                        9,
                        0.33333,
                        10.33333,
                        2.33333
                    ],
                    "texture": "#2"
                },
                "down": {
                    "uv": [
                        9,
                        0.33333,
                        10.33333,
                        2.33333
                    ],
                    "texture": "#2"
                }
            }
        },
        {
            "from": [
                8.43772,
                10.68095,
                8.2635
            ],
            "to": [
                8.50572,
                11.08895,
                8.4675
            ],
            "rotation": {
                "angle": 0,
                "axis": "y",
                "origin": [
                    3.09389,
                    6.50478,
                    -6.9277
                ]
            },
            "faces": {
                "north": {
                    "uv": [
                        9,
                        0.33333,
                        10.33333,
                        2.33333
                    ],
                    "texture": "#2"
                },
                "east": {
                    "uv": [
                        9,
                        0.33333,
                        10.33333,
                        2.33333
                    ],
                    "texture": "#2"
                },
                "south": {
                    "uv": [
                        9,
                        0.33333,
                        10.33333,
                        2.33333
                    ],
                    "texture": "#2"
                },
                "west": {
                    "uv": [
                        9,
                        0.33333,
                        10.33333,
                        2.33333
                    ],
                    "texture": "#2"
                },
                "up": {
                    "uv": [
                        9,
                        0.33333,
                        10.33333,
                        2.33333
                    ],
                    "texture": "#2"
                },
                "down": {
                    "uv": [
                        9,
                        0.33333,
                        10.33333,
                        2.33333
                    ],
                    "texture": "#2"
                }
            }
        },
        {
            "from": [
                8.43772,
                10.68095,
                8.7803
            ],
            "to": [
                8.50572,
                11.08895,
                8.9843
            ],
            "rotation": {
                "angle": 0,
                "axis": "y",
                "origin": [
                    3.09389,
                    6.50478,
                    -6.9277
                ]
            },
            "faces": {
                "north": {
                    "uv": [
                        9,
                        0.33333,
                        10.33333,
                        2.33333
                    ],
                    "texture": "#2"
                },
                "east": {
                    "uv": [
                        9,
                        0.33333,
                        10.33333,
                        2.33333
                    ],
                    "texture": "#2"
                },
                "south": {
                    "uv": [
                        9,
                        0.33333,
                        10.33333,
                        2.33333
                    ],
                    "texture": "#2"
                },
                "west": {
                    "uv": [
                        9,
                        0.33333,
                        10.33333,
                        2.33333
                    ],
                    "texture": "#2"
                },
                "up": {
                    "uv": [
                        9,
                        0.33333,
                        10.33333,
                        2.33333
                    ],
                    "texture": "#2"
                },
                "down": {
                    "uv": [
                        9,
                        0.33333,
                        10.33333,
                        2.33333
                    ],
                    "texture": "#2"
                }
            }
        },
        {
            "from": [
                5.4549,
                17.45761,
                8.3043
            ],
            "to": [
                5.5229,
                17.66161,
                8.5083
            ],
            "rotation": {
                "angle": -45,
                "axis": "z",
                "origin": [
                    -0.63693,
                    11.58144,
                    -6.9277
                ]
            },
            "faces": {
                "north": {
                    "uv": [
                        9,
                        0.33333,
                        10.33333,
                        2.33333
                    ],
                    "texture": "#2"
                },
                "east": {
                    "uv": [
                        9,
                        0.33333,
                        10.33333,
                        2.33333
                    ],
                    "texture": "#2"
                },
                "south": {
                    "uv": [
                        9,
                        0.33333,
                        10.33333,
                        2.33333
                    ],
                    "texture": "#2"
                },
                "west": {
                    "uv": [
                        9,
                        0.33333,
                        10.33333,
                        2.33333
                    ],
                    "texture": "#2"
                },
                "up": {
                    "uv": [
                        9,
                        0.33333,
                        10.33333,
                        2.33333
                    ],
                    "texture": "#2"
                },
                "down": {
                    "uv": [
                        9,
                        0.33333,
                        10.33333,
                        2.33333
                    ],
                    "texture": "#2"
                }
            }
        },
        {
            "from": [
                14.26097,
                8.79438,
                8.3043
            ],
            "to": [
                14.32897,
                8.99838,
                8.5083
            ],
            "rotation": {
                "angle": 45,
                "axis": "z",
                "origin": [
                    8.16914,
                    2.9182,
                    -6.9277
                ]
            },
            "faces": {
                "north": {
                    "uv": [
                        9,
                        0.33333,
                        10.33333,
                        2.33333
                    ],
                    "texture": "#2"
                },
                "east": {
                    "uv": [
                        9,
                        0.33333,
                        10.33333,
                        2.33333
                    ],
                    "texture": "#2"
                },
                "south": {
                    "uv": [
                        9,
                        0.33333,
                        10.33333,
                        2.33333
                    ],
                    "texture": "#2"
                },
                "west": {
                    "uv": [
                        9,
                        0.33333,
                        10.33333,
                        2.33333
                    ],
                    "texture": "#2"
                },
                "up": {
                    "uv": [
                        9,
                        0.33333,
                        10.33333,
                        2.33333
                    ],
                    "texture": "#2"
                },
                "down": {
                    "uv": [
                        9,
                        0.33333,
                        10.33333,
                        2.33333
                    ],
                    "texture": "#2"
                }
            }
        },
        {
            "from": [
                7.96707,
                11.5052,
                8.3043
            ],
            "to": [
                8.22547,
                11.5732,
                8.5083
            ],
            "rotation": {
                "angle": 0,
                "axis": "y",
                "origin": [
                    14.04723,
                    5.41337,
                    -6.9277
                ]
            },
            "faces": {
                "north": {
                    "uv": [
                        9,
                        0.33333,
                        10.33333,
                        2.33333
                    ],
                    "rotation": 270,
                    "texture": "#2"
                },
                "east": {
                    "uv": [
                        9,
                        0.33333,
                        10.33333,
                        2.33333
                    ],
                    "rotation": 270,
                    "texture": "#2"
                },
                "south": {
                    "uv": [
                        9,
                        0.33333,
                        10.33333,
                        2.33333
                    ],
                    "rotation": 270,
                    "texture": "#2"
                },
                "west": {
                    "uv": [
                        9,
                        0.33333,
                        10.33333,
                        2.33333
                    ],
                    "rotation": 270,
                    "texture": "#2"
                },
                "up": {
                    "uv": [
                        9,
                        0.33333,
                        10.33333,
                        2.33333
                    ],
                    "rotation": 270,
                    "texture": "#2"
                },
                "down": {
                    "uv": [
                        9,
                        0.33333,
                        10.33333,
                        2.33333
                    ],
                    "rotation": 270,
                    "texture": "#2"
                }
            }
        },
        {
            "from": [
                7.75772,
                10.88495,
                8.2363
            ],
            "to": [
                8.43772,
                11.08895,
                9.5283
            ],
            "rotation": {
                "angle": 0,
                "axis": "y",
                "origin": [
                    18.63772,
                    21.69695,
                    19.5243
                ]
            },
            "faces": {
                "north": {
                    "uv": [
                        9,
                        0.33333,
                        10.33333,
                        2.33333
                    ],
                    "texture": "#2"
                },
                "east": {
                    "uv": [
                        9,
                        0.33333,
                        10.33333,
                        2.33333
                    ],
                    "texture": "#2"
                },
                "south": {
                    "uv": [
                        9,
                        0.33333,
                        10.33333,
                        2.33333
                    ],
                    "texture": "#2"
                },
                "west": {
                    "uv": [
                        9,
                        0.33333,
                        10.33333,
                        2.33333
                    ],
                    "texture": "#2"
                },
                "up": {
                    "uv": [
                        9,
                        0.33333,
                        10.33333,
                        2.33333
                    ],
                    "texture": "#2"
                },
                "down": {
                    "uv": [
                        9,
                        0.33333,
                        10.33333,
                        2.33333
                    ],
                    "texture": "#2"
                }
            }
        },
        {
            "from": [
                7.75772,
                11.08895,
                8.2363
            ],
            "to": [
                8.43772,
                11.22495,
                8.6443
            ],
            "rotation": {
                "angle": 0,
                "axis": "y",
                "origin": [
                    18.63772,
                    21.69695,
                    19.5243
                ]
            },
            "faces": {
                "north": {
                    "uv": [
                        9,
                        0.33333,
                        10.33333,
                        2.33333
                    ],
                    "texture": "#2"
                },
                "east": {
                    "uv": [
                        9,
                        0.33333,
                        10.33333,
                        2.33333
                    ],
                    "texture": "#2"
                },
                "south": {
                    "uv": [
                        9,
                        0.33333,
                        10.33333,
                        2.33333
                    ],
                    "texture": "#2"
                },
                "west": {
                    "uv": [
                        9,
                        0.33333,
                        10.33333,
                        2.33333
                    ],
                    "texture": "#2"
                },
                "up": {
                    "uv": [
                        9,
                        0.33333,
                        10.33333,
                        2.33333
                    ],
                    "texture": "#2"
                },
                "down": {
                    "uv": [
                        9,
                        0.33333,
                        10.33333,
                        2.33333
                    ],
                    "texture": "#2"
                }
            }
        },
        {
            "from": [
                8.06372,
                10.98695,
                8.1683
            ],
            "to": [
                8.13172,
                11.05495,
                8.3043
            ],
            "rotation": {
                "angle": -45,
                "axis": "z",
                "origin": [
                    8.06372,
                    10.98695,
                    8.1683
                ]
            },
            "faces": {
                "north": {
                    "uv": [
                        9,
                        0.33333,
                        10.33333,
                        2.33333
                    ],
                    "rotation": 90,
                    "texture": "#2"
                },
                "east": {
                    "uv": [
                        9,
                        0.33333,
                        10.33333,
                        2.33333
                    ],
                    "rotation": 90,
                    "texture": "#2"
                },
                "south": {
                    "uv": [
                        9,
                        0.33333,
                        10.33333,
                        2.33333
                    ],
                    "rotation": 90,
                    "texture": "#2"
                },
                "west": {
                    "uv": [
                        9,
                        0.33333,
                        10.33333,
                        2.33333
                    ],
                    "rotation": 90,
                    "texture": "#2"
                },
                "up": {
                    "uv": [
                        9,
                        0.33333,
                        10.33333,
                        2.33333
                    ],
                    "rotation": 90,
                    "texture": "#2"
                },
                "down": {
                    "uv": [
                        9,
                        0.33333,
                        10.33333,
                        2.33333
                    ],
                    "rotation": 90,
                    "texture": "#2"
                }
            }
        },
        {
            "from": [
                8.30172,
                11.15695,
                8.3043
            ],
            "to": [
                8.36972,
                11.42895,
                8.5083
            ],
            "rotation": {
                "angle": 0,
                "axis": "y",
                "origin": [
                    1.73389,
                    6.50478,
                    -6.9277
                ]
            },
            "faces": {
                "north": {
                    "uv": [
                        9,
                        0.33333,
                        10.33333,
                        2.33333
                    ],
                    "texture": "#2"
                },
                "east": {
                    "uv": [
                        9,
                        0.33333,
                        10.33333,
                        2.33333
                    ],
                    "texture": "#2"
                },
                "south": {
                    "uv": [
                        9,
                        0.33333,
                        10.33333,
                        2.33333
                    ],
                    "texture": "#2"
                },
                "west": {
                    "uv": [
                        9,
                        0.33333,
                        10.33333,
                        2.33333
                    ],
                    "texture": "#2"
                },
                "up": {
                    "uv": [
                        9,
                        0.33333,
                        10.33333,
                        2.33333
                    ],
                    "texture": "#2"
                },
                "down": {
                    "uv": [
                        9,
                        0.33333,
                        10.33333,
                        2.33333
                    ],
                    "texture": "#2"
                }
            }
        },
        {
            "from": [
                7.82572,
                11.15695,
                8.3043
            ],
            "to": [
                7.89372,
                11.42895,
                8.5083
            ],
            "rotation": {
                "angle": 0,
                "axis": "y",
                "origin": [
                    1.73389,
                    6.50478,
                    -6.9277
                ]
            },
            "faces": {
                "north": {
                    "uv": [
                        9,
                        0.33333,
                        10.33333,
                        2.33333
                    ],
                    "texture": "#2"
                },
                "east": {
                    "uv": [
                        9,
                        0.33333,
                        10.33333,
                        2.33333
                    ],
                    "texture": "#2"
                },
                "south": {
                    "uv": [
                        9,
                        0.33333,
                        10.33333,
                        2.33333
                    ],
                    "texture": "#2"
                },
                "west": {
                    "uv": [
                        9,
                        0.33333,
                        10.33333,
                        2.33333
                    ],
                    "texture": "#2"
                },
                "up": {
                    "uv": [
                        9,
                        0.33333,
                        10.33333,
                        2.33333
                    ],
                    "texture": "#2"
                },
                "down": {
                    "uv": [
                        9,
                        0.33333,
                        10.33333,
                        2.33333
                    ],
                    "texture": "#2"
                }
            }
        },
        {
            "from": [
                7.68972,
                10.68095,
                8.7803
            ],
            "to": [
                7.75772,
                11.08895,
                8.9843
            ],
            "rotation": {
                "angle": 0,
                "axis": "y",
                "origin": [
                    1.73389,
                    6.50478,
                    -6.9277
                ]
            },
            "faces": {
                "north": {
                    "uv": [
                        9,
                        0.33333,
                        10.33333,
                        2.33333
                    ],
                    "texture": "#2"
                },
                "east": {
                    "uv": [
                        9,
                        0.33333,
                        10.33333,
                        2.33333
                    ],
                    "texture": "#2"
                },
                "south": {
                    "uv": [
                        9,
                        0.33333,
                        10.33333,
                        2.33333
                    ],
                    "texture": "#2"
                },
                "west": {
                    "uv": [
                        9,
                        0.33333,
                        10.33333,
                        2.33333
                    ],
                    "texture": "#2"
                },
                "up": {
                    "uv": [
                        9,
                        0.33333,
                        10.33333,
                        2.33333
                    ],
                    "texture": "#2"
                },
                "down": {
                    "uv": [
                        9,
                        0.33333,
                        10.33333,
                        2.33333
                    ],
                    "texture": "#2"
                }
            }
        },
        {
            "from": [
                7.68972,
                10.68095,
                8.2635
            ],
            "to": [
                7.75772,
                11.08895,
                8.4675
            ],
            "rotation": {
                "angle": 0,
                "axis": "y",
                "origin": [
                    1.73389,
                    6.50478,
                    -6.9277
                ]
            },
            "faces": {
                "north": {
                    "uv": [
                        9,
                        0.33333,
                        10.33333,
                        2.33333
                    ],
                    "texture": "#2"
                },
                "east": {
                    "uv": [
                        9,
                        0.33333,
                        10.33333,
                        2.33333
                    ],
                    "texture": "#2"
                },
                "south": {
                    "uv": [
                        9,
                        0.33333,
                        10.33333,
                        2.33333
                    ],
                    "texture": "#2"
                },
                "west": {
                    "uv": [
                        9,
                        0.33333,
                        10.33333,
                        2.33333
                    ],
                    "texture": "#2"
                },
                "up": {
                    "uv": [
                        9,
                        0.33333,
                        10.33333,
                        2.33333
                    ],
                    "texture": "#2"
                },
                "down": {
                    "uv": [
                        9,
                        0.33333,
                        10.33333,
                        2.33333
                    ],
                    "texture": "#2"
                }
            }
        },
        {
            "from": [
                8.43772,
                10.68095,
                8.2635
            ],
            "to": [
                8.50572,
                11.08895,
                8.4675
            ],
            "rotation": {
                "angle": 0,
                "axis": "y",
                "origin": [
                    3.09389,
                    6.50478,
                    -6.9277
                ]
            },
            "faces": {
                "north": {
                    "uv": [
                        9,
                        0.33333,
                        10.33333,
                        2.33333
                    ],
                    "texture": "#2"
                },
                "east": {
                    "uv": [
                        9,
                        0.33333,
                        10.33333,
                        2.33333
                    ],
                    "texture": "#2"
                },
                "south": {
                    "uv": [
                        9,
                        0.33333,
                        10.33333,
                        2.33333
                    ],
                    "texture": "#2"
                },
                "west": {
                    "uv": [
                        9,
                        0.33333,
                        10.33333,
                        2.33333
                    ],
                    "texture": "#2"
                },
                "up": {
                    "uv": [
                        9,
                        0.33333,
                        10.33333,
                        2.33333
                    ],
                    "texture": "#2"
                },
                "down": {
                    "uv": [
                        9,
                        0.33333,
                        10.33333,
                        2.33333
                    ],
                    "texture": "#2"
                }
            }
        },
        {
            "from": [
                8.43772,
                10.68095,
                8.7803
            ],
            "to": [
                8.50572,
                11.08895,
                8.9843
            ],
            "rotation": {
                "angle": 0,
                "axis": "y",
                "origin": [
                    3.09389,
                    6.50478,
                    -6.9277
                ]
            },
            "faces": {
                "north": {
                    "uv": [
                        9,
                        0.33333,
                        10.33333,
                        2.33333
                    ],
                    "texture": "#2"
                },
                "east": {
                    "uv": [
                        9,
                        0.33333,
                        10.33333,
                        2.33333
                    ],
                    "texture": "#2"
                },
                "south": {
                    "uv": [
                        9,
                        0.33333,
                        10.33333,
                        2.33333
                    ],
                    "texture": "#2"
                },
                "west": {
                    "uv": [
                        9,
                        0.33333,
                        10.33333,
                        2.33333
                    ],
                    "texture": "#2"
                },
                "up": {
                    "uv": [
                        9,
                        0.33333,
                        10.33333,
                        2.33333
                    ],
                    "texture": "#2"
                },
                "down": {
                    "uv": [
                        9,
                        0.33333,
                        10.33333,
                        2.33333
                    ],
                    "texture": "#2"
                }
            }
        },
        {
            "from": [
                5.4549,
                17.45761,
                8.3043
            ],
            "to": [
                5.5229,
                17.66161,
                8.5083
            ],
            "rotation": {
                "angle": -45,
                "axis": "z",
                "origin": [
                    -0.63693,
                    11.58144,
                    -6.9277
                ]
            },
            "faces": {
                "north": {
                    "uv": [
                        9,
                        0.33333,
                        10.33333,
                        2.33333
                    ],
                    "texture": "#2"
                },
                "east": {
                    "uv": [
                        9,
                        0.33333,
                        10.33333,
                        2.33333
                    ],
                    "texture": "#2"
                },
                "south": {
                    "uv": [
                        9,
                        0.33333,
                        10.33333,
                        2.33333
                    ],
                    "texture": "#2"
                },
                "west": {
                    "uv": [
                        9,
                        0.33333,
                        10.33333,
                        2.33333
                    ],
                    "texture": "#2"
                },
                "up": {
                    "uv": [
                        9,
                        0.33333,
                        10.33333,
                        2.33333
                    ],
                    "texture": "#2"
                },
                "down": {
                    "uv": [
                        9,
                        0.33333,
                        10.33333,
                        2.33333
                    ],
                    "texture": "#2"
                }
            }
        },
        {
            "from": [
                14.26097,
                8.79438,
                8.3043
            ],
            "to": [
                14.32897,
                8.99838,
                8.5083
            ],
            "rotation": {
                "angle": 45,
                "axis": "z",
                "origin": [
                    8.16914,
                    2.9182,
                    -6.9277
                ]
            },
            "faces": {
                "north": {
                    "uv": [
                        9,
                        0.33333,
                        10.33333,
                        2.33333
                    ],
                    "texture": "#2"
                },
                "east": {
                    "uv": [
                        9,
                        0.33333,
                        10.33333,
                        2.33333
                    ],
                    "texture": "#2"
                },
                "south": {
                    "uv": [
                        9,
                        0.33333,
                        10.33333,
                        2.33333
                    ],
                    "texture": "#2"
                },
                "west": {
                    "uv": [
                        9,
                        0.33333,
                        10.33333,
                        2.33333
                    ],
                    "texture": "#2"
                },
                "up": {
                    "uv": [
                        9,
                        0.33333,
                        10.33333,
                        2.33333
                    ],
                    "texture": "#2"
                },
                "down": {
                    "uv": [
                        9,
                        0.33333,
                        10.33333,
                        2.33333
                    ],
                    "texture": "#2"
                }
            }
        },
        {
            "from": [
                7.96707,
                11.5052,
                8.3043
            ],
            "to": [
                8.22547,
                11.5732,
                8.5083
            ],
            "rotation": {
                "angle": 0,
                "axis": "y",
                "origin": [
                    14.04723,
                    5.41337,
                    -6.9277
                ]
            },
            "faces": {
                "north": {
                    "uv": [
                        9,
                        0.33333,
                        10.33333,
                        2.33333
                    ],
                    "rotation": 270,
                    "texture": "#2"
                },
                "east": {
                    "uv": [
                        9,
                        0.33333,
                        10.33333,
                        2.33333
                    ],
                    "rotation": 270,
                    "texture": "#2"
                },
                "south": {
                    "uv": [
                        9,
                        0.33333,
                        10.33333,
                        2.33333
                    ],
                    "rotation": 270,
                    "texture": "#2"
                },
                "west": {
                    "uv": [
                        9,
                        0.33333,
                        10.33333,
                        2.33333
                    ],
                    "rotation": 270,
                    "texture": "#2"
                },
                "up": {
                    "uv": [
                        9,
                        0.33333,
                        10.33333,
                        2.33333
                    ],
                    "rotation": 270,
                    "texture": "#2"
                },
                "down": {
                    "uv": [
                        9,
                        0.33333,
                        10.33333,
                        2.33333
                    ],
                    "rotation": 270,
                    "texture": "#2"
                }
            }
        }
    ],
    "display": {
        "thirdperson_righthand": {
            "translation": [
                -0.75,
                -1,
                -0.75
            ],
            "scale": [
                1,
                1.2,
                1
            ]
        },
        "thirdperson_lefthand": {
            "translation": [
                -0.75,
                -1,
                -1.25
            ],
            "scale": [
                1.2,
                1.2,
                1.1
            ]
        },
        "firstperson_righthand": {
            "rotation": [
                -5.25,
                0,
                0
            ],
            "translation": [
                -2.75,
                1,
                -1.25
            ],
            "scale": [
                1.2,
                1.2,
                1.1
            ]
        },
        "firstperson_lefthand": {
            "rotation": [
                -5.25,
                0,
                0
            ],
            "translation": [
                -2.75,
                1,
                -1.25
            ],
            "scale": [
                1.2,
                1.2,
                1.1
            ]
        },
        "gui": {
            "rotation": [
                21.75,
                19.25,
                31.75
            ],
            "translation": [
                2.5,
                -1.75,
                0
            ],
            "scale": [
                0.9,
                0.9,
                0.9
            ]
        },
        "fixed": {
            "rotation": [
                -90,
                -180,
                -180
            ],
            "translation": [
                0,
                -1.25,
                -5.25
            ],
            "scale": [
                1.4,
                1.4,
                1.4
            ]
        }
    }
}