{
    "textures": {
        "0": "gci:items/common/all_in_one", 
        "particle": "gci:items/common/all_in_one"
    }, 
    "elements": [
        {
            "to": [
                8.64561, 
                9.82957, 
                18.08934
            ], 
            "rotation": {
                "origin": [
                    8.29166, 
                    7.84357, 
                    13.91134
                ], 
                "angle": 0, 
                "axis": "y"
            }, 
            "from": [
                8.00171, 
                7.36157, 
                17.66934
            ], 
            "faces": {
                "north": {
                    "uv": [
                        4, 
                        2.75, 
                        4.25, 
                        4.125
                    ], 
                    "texture": "#0"
                }, 
                "west": {
                    "uv": [
                        4, 
                        2.75, 
                        4.25, 
                        4.125
                    ], 
                    "texture": "#0"
                }, 
                "up": {
                    "uv": [
                        4.25, 
                        4, 
                        4.375, 
                        4
                    ], 
                    "texture": "#0"
                }, 
                "down": {
                    "uv": [
                        4.25, 
                        4, 
                        4.375, 
                        4
                    ], 
                    "texture": "#0"
                }, 
                "east": {
                    "uv": [
                        4, 
                        2.75, 
                        4.25, 
                        4.125
                    ], 
                    "texture": "#0"
                }, 
                "south": {
                    "uv": [
                        4, 
                        2.75, 
                        4.25, 
                        4.125
                    ], 
                    "texture": "#0"
                }
            }
        }, 
        {
            "to": [
                8.5175, 
                9.48057, 
                14.35501
            ], 
            "rotation": {
                "origin": [
                    8.29166, 
                    8.87057, 
                    10.20901
                ], 
                "angle": 0, 
                "axis": "y"
            }, 
            "from": [
                8.1298, 
                9.31657, 
                13.19901
            ], 
            "faces": {
                "north": {
                    "rotation": 270, 
                    "uv": [
                        0.25, 
                        2.5, 
                        0.5, 
                        3.875
                    ], 
                    "texture": "#0"
                }, 
                "west": {
                    "uv": [
                        0.25, 
                        2.5, 
                        0.5, 
                        3.875
                    ], 
                    "texture": "#0"
                }, 
                "up": {
                    "rotation": 270, 
                    "uv": [
                        0.25, 
                        2.5, 
                        0.5, 
                        3.875
                    ], 
                    "texture": "#0"
                }, 
                "down": {
                    "rotation": 270, 
                    "uv": [
                        0.25, 
                        2.5, 
                        0.5, 
                        3.875
                    ], 
                    "texture": "#0"
                }, 
                "east": {
                    "rotation": 180, 
                    "uv": [
                        0.25, 
                        2.5, 
                        0.5, 
                        3.875
                    ], 
                    "texture": "#0"
                }, 
                "south": {
                    "rotation": 270, 
                    "uv": [
                        0.25, 
                        2.5, 
                        0.5, 
                        3.875
                    ], 
                    "texture": "#0"
                }
            }
        }, 
        {
            "to": [
                8.51761, 
                9.53573, 
                14.128
            ], 
            "rotation": {
                "origin": [
                    8.32366, 
                    9.27773, 
                    13.31
                ], 
                "angle": 22.5, 
                "axis": "x"
            }, 
            "from": [
                8.12971, 
                9.11573, 
                12.364
            ], 
            "faces": {
                "north": {
                    "rotation": 270, 
                    "uv": [
                        0.25, 
                        2.5, 
                        0.5, 
                        3.875
                    ], 
                    "texture": "#0"
                }, 
                "west": {
                    "rotation": 270, 
                    "uv": [
                        0.25, 
                        2.5, 
                        0.5, 
                        3.875
                    ], 
                    "texture": "#0"
                }, 
                "up": {
                    "rotation": 270, 
                    "uv": [
                        0.25, 
                        2.5, 
                        0.5, 
                        3.875
                    ], 
                    "texture": "#0"
                }, 
                "down": {
                    "rotation": 270, 
                    "uv": [
                        0.25, 
                        2.5, 
                        0.5, 
                        3.875
                    ], 
                    "texture": "#0"
                }, 
                "east": {
                    "rotation": 270, 
                    "uv": [
                        0.25, 
                        2.5, 
                        0.5, 
                        3.875
                    ], 
                    "texture": "#0"
                }, 
                "south": {
                    "rotation": 270, 
                    "uv": [
                        0.25, 
                        2.5, 
                        0.5, 
                        3.875
                    ], 
                    "texture": "#0"
                }
            }
        }, 
        {
            "to": [
                8.5175, 
                9.87811, 
                12.53474
            ], 
            "rotation": {
                "origin": [
                    8.32366, 
                    9.62973, 
                    13.31
                ], 
                "angle": 0, 
                "axis": "x"
            }, 
            "from": [
                8.1298, 
                9.37173, 
                11.82
            ], 
            "faces": {
                "north": {
                    "rotation": 270, 
                    "uv": [
                        0.25, 
                        2.5, 
                        0.5, 
                        3.875
                    ], 
                    "texture": "#0"
                }, 
                "west": {
                    "rotation": 270, 
                    "uv": [
                        0.25, 
                        2.5, 
                        0.5, 
                        3.875
                    ], 
                    "texture": "#0"
                }, 
                "up": {
                    "rotation": 270, 
                    "uv": [
                        0.25, 
                        2.5, 
                        0.5, 
                        3.875
                    ], 
                    "texture": "#0"
                }, 
                "down": {
                    "rotation": 270, 
                    "uv": [
                        0.25, 
                        2.5, 
                        0.5, 
                        3.875
                    ], 
                    "texture": "#0"
                }, 
                "east": {
                    "rotation": 270, 
                    "uv": [
                        0.25, 
                        2.5, 
                        0.5, 
                        3.875
                    ], 
                    "texture": "#0"
                }, 
                "south": {
                    "rotation": 270, 
                    "uv": [
                        0.25, 
                        2.5, 
                        0.5, 
                        3.875
                    ], 
                    "texture": "#0"
                }
            }
        }, 
        {
            "to": [
                8.45361, 
                9.56773, 
                13.328
            ], 
            "rotation": {
                "origin": [
                    8.32366, 
                    9.27773, 
                    13.31
                ], 
                "angle": 22.5, 
                "axis": "x"
            }, 
            "from": [
                8.19371, 
                9.11573, 
                12.364
            ], 
            "faces": {
                "north": {
                    "rotation": 270, 
                    "uv": [
                        2.25, 
                        2.75, 
                        2.375, 
                        4.125
                    ], 
                    "texture": "#0"
                }, 
                "west": {
                    "rotation": 270, 
                    "uv": [
                        2.25, 
                        2.75, 
                        2.375, 
                        4.125
                    ], 
                    "texture": "#0"
                }, 
                "up": {
                    "rotation": 270, 
                    "uv": [
                        2.25, 
                        2.75, 
                        2.375, 
                        4.125
                    ], 
                    "texture": "#0"
                }, 
                "down": {
                    "rotation": 270, 
                    "uv": [
                        2.25, 
                        2.75, 
                        2.375, 
                        4.125
                    ], 
                    "texture": "#0"
                }, 
                "east": {
                    "rotation": 270, 
                    "uv": [
                        2.25, 
                        2.75, 
                        2.375, 
                        4.125
                    ], 
                    "texture": "#0"
                }, 
                "south": {
                    "rotation": 270, 
                    "uv": [
                        2.25, 
                        2.75, 
                        2.375, 
                        4.125
                    ], 
                    "texture": "#0"
                }
            }
        }, 
        {
            "to": [
                8.45361, 
                9.90767, 
                12.54699
            ], 
            "rotation": {
                "origin": [
                    8.32366, 
                    9.62973, 
                    13.31
                ], 
                "angle": 0, 
                "axis": "x"
            }, 
            "from": [
                8.19371, 
                9.37173, 
                11.82
            ], 
            "faces": {
                "north": {
                    "rotation": 270, 
                    "uv": [
                        2.25, 
                        2.75, 
                        2.375, 
                        4.125
                    ], 
                    "texture": "#0"
                }, 
                "west": {
                    "rotation": 270, 
                    "uv": [
                        2.25, 
                        2.75, 
                        2.375, 
                        4.125
                    ], 
                    "texture": "#0"
                }, 
                "up": {
                    "rotation": 270, 
                    "uv": [
                        2.25, 
                        2.75, 
                        2.375, 
                        4.125
                    ], 
                    "texture": "#0"
                }, 
                "down": {
                    "rotation": 270, 
                    "uv": [
                        2.25, 
                        2.75, 
                        2.375, 
                        4.125
                    ], 
                    "texture": "#0"
                }, 
                "east": {
                    "rotation": 270, 
                    "uv": [
                        2.25, 
                        2.75, 
                        2.375, 
                        4.125
                    ], 
                    "texture": "#0"
                }, 
                "south": {
                    "rotation": 270, 
                    "uv": [
                        2.25, 
                        2.75, 
                        2.375, 
                        4.125
                    ], 
                    "texture": "#0"
                }
            }
        }, 
        {
            "to": [
                8.51761, 
                9.21573, 
                13.776
            ], 
            "rotation": {
                "origin": [
                    8.32366, 
                    8.89373, 
                    12.99
                ], 
                "angle": 22.5, 
                "axis": "x"
            }, 
            "from": [
                8.16171, 
                8.85973, 
                11.948
            ], 
            "faces": {
                "north": {
                    "rotation": 270, 
                    "uv": [
                        0.25, 
                        2.5, 
                        0.5, 
                        3.875
                    ], 
                    "texture": "#0"
                }, 
                "west": {
                    "rotation": 270, 
                    "uv": [
                        0.25, 
                        2.5, 
                        0.5, 
                        3.875
                    ], 
                    "texture": "#0"
                }, 
                "up": {
                    "rotation": 270, 
                    "uv": [
                        0.25, 
                        2.5, 
                        0.5, 
                        3.875
                    ], 
                    "texture": "#0"
                }, 
                "down": {
                    "rotation": 270, 
                    "uv": [
                        0.25, 
                        2.5, 
                        0.5, 
                        3.875
                    ], 
                    "texture": "#0"
                }, 
                "east": {
                    "rotation": 270, 
                    "uv": [
                        0.25, 
                        2.5, 
                        0.5, 
                        3.875
                    ], 
                    "texture": "#0"
                }, 
                "south": {
                    "rotation": 270, 
                    "uv": [
                        0.25, 
                        2.5, 
                        0.5, 
                        3.875
                    ], 
                    "texture": "#0"
                }
            }
        }, 
        {
            "to": [
                8.54961, 
                9.46055, 
                14.5553
            ], 
            "rotation": {
                "origin": [
                    8.29166, 
                    9.20255, 
                    14.8253
                ], 
                "angle": 0, 
                "axis": "y"
            }, 
            "from": [
                8.09771, 
                8.59255, 
                13.6873
            ], 
            "faces": {
                "north": {
                    "rotation": 270, 
                    "uv": [
                        0.25, 
                        2.5, 
                        0.5, 
                        3.875
                    ], 
                    "texture": "#0"
                }, 
                "west": {
                    "rotation": 270, 
                    "uv": [
                        0.25, 
                        2.5, 
                        0.5, 
                        3.875
                    ], 
                    "texture": "#0"
                }, 
                "up": {
                    "rotation": 270, 
                    "uv": [
                        0.25, 
                        2.5, 
                        0.5, 
                        3.875
                    ], 
                    "texture": "#0"
                }, 
                "down": {
                    "rotation": 270, 
                    "uv": [
                        0.25, 
                        2.5, 
                        0.5, 
                        3.875
                    ], 
                    "texture": "#0"
                }, 
                "east": {
                    "rotation": 270, 
                    "uv": [
                        0.25, 
                        2.5, 
                        0.5, 
                        3.875
                    ], 
                    "texture": "#0"
                }, 
                "south": {
                    "rotation": 270, 
                    "uv": [
                        0.25, 
                        2.5, 
                        0.5, 
                        3.875
                    ], 
                    "texture": "#0"
                }
            }
        }, 
        {
            "to": [
                8.54961, 
                9.71655, 
                12.8273
            ], 
            "rotation": {
                "origin": [
                    8.32366, 
                    9.65055, 
                    12.7613
                ], 
                "angle": -45, 
                "axis": "x"
            }, 
            "from": [
                8.09771, 
                9.58455, 
                12.6953
            ], 
            "faces": {
                "north": {
                    "uv": [
                        4, 
                        3.25, 
                        4.125, 
                        3.25
                    ], 
                    "texture": "#0"
                }, 
                "west": {
                    "uv": [
                        4, 
                        3.25, 
                        4.125, 
                        3.25
                    ], 
                    "texture": "#0"
                }, 
                "up": {
                    "uv": [
                        4, 
                        3.25, 
                        4.125, 
                        3.25
                    ], 
                    "texture": "#0"
                }, 
                "down": {
                    "uv": [
                        4, 
                        3.25, 
                        4.125, 
                        3.25
                    ], 
                    "texture": "#0"
                }, 
                "east": {
                    "uv": [
                        4, 
                        3.25, 
                        4.125, 
                        3.25
                    ], 
                    "texture": "#0"
                }, 
                "south": {
                    "uv": [
                        4, 
                        3.25, 
                        4.125, 
                        3.25
                    ], 
                    "texture": "#0"
                }
            }
        }, 
        {
            "to": [
                8.54961, 
                9.33255, 
                13.3393
            ], 
            "rotation": {
                "origin": [
                    8.32366, 
                    9.26655, 
                    13.2733
                ], 
                "angle": -45, 
                "axis": "x"
            }, 
            "from": [
                8.09771, 
                9.20055, 
                13.2073
            ], 
            "faces": {
                "north": {
                    "uv": [
                        4, 
                        3.25, 
                        4.125, 
                        3.25
                    ], 
                    "texture": "#0"
                }, 
                "west": {
                    "uv": [
                        4, 
                        3.25, 
                        4.125, 
                        3.25
                    ], 
                    "texture": "#0"
                }, 
                "up": {
                    "uv": [
                        4, 
                        3.25, 
                        4.125, 
                        3.25
                    ], 
                    "texture": "#0"
                }, 
                "down": {
                    "uv": [
                        4, 
                        3.25, 
                        4.125, 
                        3.25
                    ], 
                    "texture": "#0"
                }, 
                "east": {
                    "uv": [
                        4, 
                        3.25, 
                        4.125, 
                        3.25
                    ], 
                    "texture": "#0"
                }, 
                "south": {
                    "uv": [
                        4, 
                        3.25, 
                        4.125, 
                        3.25
                    ], 
                    "texture": "#0"
                }
            }
        }, 
        {
            "to": [
                8.58161, 
                9.12405, 
                14.27219
            ], 
            "rotation": {
                "origin": [
                    8.29166, 
                    9.74605, 
                    13.66219
                ], 
                "angle": -45, 
                "axis": "x"
            }, 
            "from": [
                8.06571, 
                8.19205, 
                13.50019
            ], 
            "faces": {
                "north": {
                    "rotation": 90, 
                    "uv": [
                        0.25, 
                        2.5, 
                        0.5, 
                        3.875
                    ], 
                    "texture": "#0"
                }, 
                "west": {
                    "rotation": 90, 
                    "uv": [
                        0.25, 
                        2.5, 
                        0.5, 
                        3.875
                    ], 
                    "texture": "#0"
                }, 
                "up": {
                    "rotation": 90, 
                    "uv": [
                        0.25, 
                        2.5, 
                        0.5, 
                        3.875
                    ], 
                    "texture": "#0"
                }, 
                "down": {
                    "rotation": 270, 
                    "uv": [
                        0.25, 
                        2.5, 
                        0.5, 
                        3.875
                    ], 
                    "texture": "#0"
                }, 
                "east": {
                    "rotation": 90, 
                    "uv": [
                        0.25, 
                        2.5, 
                        0.5, 
                        3.875
                    ], 
                    "texture": "#0"
                }, 
                "south": {
                    "rotation": 270, 
                    "uv": [
                        0.25, 
                        2.5, 
                        0.5, 
                        3.875
                    ], 
                    "texture": "#0"
                }
            }
        }, 
        {
            "to": [
                8.48561, 
                7.01657, 
                16.17901
            ], 
            "rotation": {
                "origin": [
                    8.29166, 
                    6.43857, 
                    12.03301
                ], 
                "angle": -45, 
                "axis": "x"
            }, 
            "from": [
                8.12971, 
                6.98057, 
                15.02301
            ], 
            "faces": {
                "north": {
                    "rotation": 270, 
                    "uv": [
                        0.25, 
                        2.5, 
                        0.5, 
                        3.875
                    ], 
                    "texture": "#0"
                }, 
                "west": {
                    "uv": [
                        0.25, 
                        2.5, 
                        0.5, 
                        3.875
                    ], 
                    "texture": "#0"
                }, 
                "up": {
                    "rotation": 270, 
                    "uv": [
                        0.25, 
                        2.5, 
                        0.5, 
                        3.875
                    ], 
                    "texture": "#0"
                }, 
                "down": {
                    "rotation": 270, 
                    "uv": [
                        0.25, 
                        2.5, 
                        0.5, 
                        3.875
                    ], 
                    "texture": "#0"
                }, 
                "east": {
                    "rotation": 180, 
                    "uv": [
                        0.25, 
                        2.5, 
                        0.5, 
                        3.875
                    ], 
                    "texture": "#0"
                }, 
                "south": {
                    "rotation": 270, 
                    "uv": [
                        0.25, 
                        2.5, 
                        0.5, 
                        3.875
                    ], 
                    "texture": "#0"
                }
            }
        }, 
        {
            "to": [
                8.51761, 
                9.76957, 
                18.05734
            ], 
            "rotation": {
                "origin": [
                    8.29166, 
                    9.19157, 
                    13.91134
                ], 
                "angle": 0, 
                "axis": "y"
            }, 
            "from": [
                8.12971, 
                9.73357, 
                14.53334
            ], 
            "faces": {
                "north": {
                    "rotation": 270, 
                    "uv": [
                        0.25, 
                        2.5, 
                        0.5, 
                        3.875
                    ], 
                    "texture": "#0"
                }, 
                "west": {
                    "uv": [
                        0.25, 
                        2.5, 
                        0.5, 
                        3.875
                    ], 
                    "texture": "#0"
                }, 
                "up": {
                    "rotation": 270, 
                    "uv": [
                        0.25, 
                        2.5, 
                        0.5, 
                        3.875
                    ], 
                    "texture": "#0"
                }, 
                "down": {
                    "rotation": 270, 
                    "uv": [
                        0.25, 
                        2.5, 
                        0.5, 
                        3.875
                    ], 
                    "texture": "#0"
                }, 
                "east": {
                    "rotation": 180, 
                    "uv": [
                        0.25, 
                        2.5, 
                        0.5, 
                        3.875
                    ], 
                    "texture": "#0"
                }, 
                "south": {
                    "rotation": 270, 
                    "uv": [
                        0.25, 
                        2.5, 
                        0.5, 
                        3.875
                    ], 
                    "texture": "#0"
                }
            }
        }, 
        {
            "to": [
                8.61361, 
                9.80157, 
                15.14534
            ], 
            "rotation": {
                "origin": [
                    8.29166, 
                    9.12757, 
                    13.91134
                ], 
                "angle": 0, 
                "axis": "y"
            }, 
            "from": [
                8.03371, 
                8.42157, 
                14.66134
            ], 
            "faces": {
                "north": {
                    "uv": [
                        7.25, 
                        2.375, 
                        7.75, 
                        2.5
                    ], 
                    "texture": "#0"
                }, 
                "west": {
                    "uv": [
                        7.25, 
                        2.375, 
                        7.75, 
                        2.5
                    ], 
                    "texture": "#0"
                }, 
                "up": {
                    "rotation": 90, 
                    "uv": [
                        7.25, 
                        2.375, 
                        7.75, 
                        2.5
                    ], 
                    "texture": "#0"
                }, 
                "down": {
                    "rotation": 270, 
                    "uv": [
                        7.25, 
                        2.375, 
                        7.75, 
                        2.5
                    ], 
                    "texture": "#0"
                }, 
                "east": {
                    "rotation": 180, 
                    "uv": [
                        7.25, 
                        2.375, 
                        7.75, 
                        2.5
                    ], 
                    "texture": "#0"
                }, 
                "south": {
                    "uv": [
                        7.25, 
                        2.375, 
                        7.75, 
                        2.5
                    ], 
                    "texture": "#0"
                }
            }
        }, 
        {
            "to": [
                8.5817, 
                10.09885, 
                18.17394
            ], 
            "rotation": {
                "origin": [
                    8.29166, 
                    9.48885, 
                    13.99594
                ], 
                "angle": 22.5, 
                "axis": "x"
            }, 
            "from": [
                8.0656, 
                9.00685, 
                15.00194
            ], 
            "faces": {
                "north": {
                    "rotation": 270, 
                    "uv": [
                        0.25, 
                        2.5, 
                        0.5, 
                        3.875
                    ], 
                    "texture": "#0"
                }, 
                "west": {
                    "uv": [
                        0.25, 
                        2.5, 
                        0.5, 
                        3.875
                    ], 
                    "texture": "#0"
                }, 
                "up": {
                    "rotation": 270, 
                    "uv": [
                        0.25, 
                        2.5, 
                        0.5, 
                        3.875
                    ], 
                    "texture": "#0"
                }, 
                "down": {
                    "rotation": 270, 
                    "uv": [
                        0.25, 
                        2.5, 
                        0.5, 
                        3.875
                    ], 
                    "texture": "#0"
                }, 
                "east": {
                    "rotation": 180, 
                    "uv": [
                        0.25, 
                        2.5, 
                        0.5, 
                        3.875
                    ], 
                    "texture": "#0"
                }, 
                "south": {
                    "rotation": 270, 
                    "uv": [
                        0.25, 
                        2.5, 
                        0.5, 
                        3.875
                    ], 
                    "texture": "#0"
                }
            }
        }, 
        {
            "to": [
                8.58161, 
                9.73757, 
                17.89734
            ], 
            "rotation": {
                "origin": [
                    8.29166, 
                    9.12757, 
                    13.91134
                ], 
                "angle": 0, 
                "axis": "y"
            }, 
            "from": [
                8.06571, 
                8.45357, 
                14.53334
            ], 
            "faces": {
                "north": {
                    "rotation": 270, 
                    "uv": [
                        0.25, 
                        2.5, 
                        0.5, 
                        3.875
                    ], 
                    "texture": "#0"
                }, 
                "west": {
                    "uv": [
                        0.25, 
                        2.5, 
                        0.5, 
                        3.875
                    ], 
                    "texture": "#0"
                }, 
                "up": {
                    "rotation": 270, 
                    "uv": [
                        0.25, 
                        2.5, 
                        0.5, 
                        3.875
                    ], 
                    "texture": "#0"
                }, 
                "down": {
                    "rotation": 270, 
                    "uv": [
                        0.25, 
                        2.5, 
                        0.5, 
                        3.875
                    ], 
                    "texture": "#0"
                }, 
                "east": {
                    "rotation": 180, 
                    "uv": [
                        0.25, 
                        2.5, 
                        0.5, 
                        3.875
                    ], 
                    "texture": "#0"
                }, 
                "south": {
                    "rotation": 270, 
                    "uv": [
                        0.25, 
                        2.5, 
                        0.5, 
                        3.875
                    ], 
                    "texture": "#0"
                }
            }
        }
    ], 
    "display": {
        "thirdperson_righthand": {
            "translation": [
                -1.25, 
                -1.25, 
                -5.5
            ], 
            "scale": [
                1.7, 
                1.7, 
                1.7
            ]
        }, 
        "head": {
            "rotation": [
                0, 
                -139, 
                90
            ], 
            "scale": [
                1.36, 
                1.36, 
                1.36
            ], 
            "translation": [
                0.75, 
                6.5, 
                0.5
            ]
        }, 
        "thirdperson_lefthand": {
            "translation": [
                0, 
                -1.25, 
                -3.75
            ], 
            "scale": [
                1.7, 
                1.7, 
                1.7
            ]
        }, 
        "gui": {
            "rotation": [
                11, 
                16, 
                -16
            ], 
            "scale": [
                2.2, 
                2.24, 
                2.83
            ], 
            "translation": [
                -2, 
                0, 
                0
            ]
        }, 
        "firstperson_righthand": {
            "rotation": [
                1, 
                1, 
                0
            ], 
            "scale": [
                1.19, 
                1.14, 
                0.87
            ], 
            "translation": [
                -5.25, 
                5, 
                4
            ]
        }, 
        "firstperson_lefthand": {
            "rotation": [
                1, 
                1, 
                0
            ], 
            "scale": [
                1.19, 
                1.14, 
                0.87
            ], 
            "translation": [
                -5.25, 
                5, 
                4
            ]
        }, 
        "fixed": {
            "rotation": [
                90, 
                45, 
                -90
            ], 
            "scale": [
                1.7, 
                1.7, 
                1.7
            ], 
            "translation": [
                -4.75, 
                2.75, 
                -1.75
            ]
        }, 
        "ground": {
            "translation": [
                0, 
                0, 
                -2.75
            ], 
            "scale": [
                1.7, 
                1.7, 
                1.7
            ]
        }
    }
}