{
    "textures": {
        "0": "gci:items/common/all_in_one", 
        "particle": "gci:items/common/all_in_one"
    }, 
    "elements": [
        {
            "to": [
                8.54961, 
                8.63973, 
                9.553
            ], 
            "rotation": {
                "origin": [
                    8.03513, 
                    9.07431, 
                    -14.388
                ], 
                "angle": 0, 
                "axis": "y"
            }, 
            "from": [
                8.09771, 
                7.83573, 
                8.013
            ], 
            "faces": {
                "north": {
                    "rotation": 270, 
                    "uv": [
                        3.375, 
                        2.5, 
                        4.75, 
                        2.5
                    ], 
                    "texture": "#0"
                }, 
                "west": {
                    "rotation": 270, 
                    "uv": [
                        3.375, 
                        2.5, 
                        4.75, 
                        3.25
                    ], 
                    "texture": "#0"
                }, 
                "up": {
                    "rotation": 270, 
                    "uv": [
                        3.375, 
                        2.5, 
                        4.75, 
                        3.875
                    ], 
                    "texture": "#0"
                }, 
                "down": {
                    "rotation": 270, 
                    "uv": [
                        3.375, 
                        3.75, 
                        4.75, 
                        3.875
                    ], 
                    "texture": "#0"
                }, 
                "east": {
                    "rotation": 270, 
                    "uv": [
                        3.375, 
                        2.5, 
                        4.75, 
                        3.25
                    ], 
                    "texture": "#0"
                }, 
                "south": {
                    "rotation": 270, 
                    "uv": [
                        3.375, 
                        2.5, 
                        4.75, 
                        2.5
                    ], 
                    "texture": "#0"
                }
            }
        }
    ], 
    "display": {
        "thirdperson_righthand": {
            "translation": [
                -1.25, 
                -1.25, 
                -5.5
            ], 
            "scale": [
                1.7, 
                1.7, 
                1.7
            ]
        }, 
        "head": {
            "rotation": [
                0, 
                -139, 
                90
            ], 
            "scale": [
                1.36, 
                1.36, 
                1.36
            ], 
            "translation": [
                0.75, 
                6.5, 
                0.5
            ]
        }, 
        "thirdperson_lefthand": {
            "translation": [
                0, 
                -1.25, 
                -3.75
            ], 
            "scale": [
                1.7, 
                1.7, 
                1.7
            ]
        }, 
        "gui": {
            "rotation": [
                11, 
                16, 
                -16
            ], 
            "scale": [
                2.2, 
                2.24, 
                2.83
            ], 
            "translation": [
                -2, 
                0, 
                0
            ]
        }, 
        "firstperson_righthand": {
            "rotation": [
                1, 
                1, 
                0
            ], 
            "scale": [
                1.19, 
                1.14, 
                0.87
            ], 
            "translation": [
                -5.25, 
                5, 
                4
            ]
        }, 
        "firstperson_lefthand": {
            "rotation": [
                1, 
                1, 
                0
            ], 
            "scale": [
                1.19, 
                1.14, 
                0.87
            ], 
            "translation": [
                -5.25, 
                5, 
                4
            ]
        }, 
        "fixed": {
            "rotation": [
                90, 
                45, 
                -90
            ], 
            "scale": [
                1.7, 
                1.7, 
                1.7
            ], 
            "translation": [
                -4.75, 
                2.75, 
                -1.75
            ]
        }, 
        "ground": {
            "translation": [
                0, 
                0, 
                -2.75
            ], 
            "scale": [
                1.7, 
                1.7, 
                1.7
            ]
        }
    }
}