{
    "textures": {
        "0": "gci:items/common/mpz",
        "1": "gci:items/common/all_in_one",
        "particle": "gci:items/common/mpz"
    },
    "elements": [
        {
            "from": [
                7.72,
                5.72551,
                6.74472
            ],
            "to": [
                8.28,
                5.93551,
                8.69072
            ],
            "rotation": {
                "angle": 0,
                "axis": "y",
                "origin": [
                    8,
                    5.86619,
                    7.7484
                ]
            },
            "faces": {
                "north": {
                    "uv": [
                        8.66667,
                        0.66667,
                        9.66667,
                        2
                    ],
                    "rotation": 180,
                    "texture": "#0"
                },
                "east": {
                    "uv": [
                        8.66667,
                        0.66667,
                        9.66667,
                        2
                    ],
                    "rotation": 180,
                    "texture": "#0"
                },
                "south": {
                    "uv": [
                        8.66667,
                        0.66667,
                        9.66667,
                        2
                    ],
                    "rotation": 180,
                    "texture": "#0"
                },
                "west": {
                    "uv": [
                        8.66667,
                        0.66667,
                        9.66667,
                        2
                    ],
                    "rotation": 180,
                    "texture": "#0"
                },
                "up": {
                    "uv": [
                        8.66667,
                        0.66667,
                        9.66667,
                        2
                    ],
                    "rotation": 180,
                    "texture": "#0"
                },
                "down": {
                    "uv": [
                        8.66667,
                        0.66667,
                        9.66667,
                        2
                    ],
                    "rotation": 180,
                    "texture": "#0"
                }
            }
        },
        {
            "from": [
                7.72,
                5.874,
                6.89321
            ],
            "to": [
                8.28,
                6.084,
                8.69921
            ],
            "rotation": {
                "angle": 0,
                "axis": "y",
                "origin": [
                    8,
                    5.86619,
                    7.7484
                ]
            },
            "faces": {
                "north": {
                    "uv": [
                        8.66667,
                        0.66667,
                        9.66667,
                        2
                    ],
                    "rotation": 180,
                    "texture": "#0"
                },
                "east": {
                    "uv": [
                        8.66667,
                        0.66667,
                        9.66667,
                        2
                    ],
                    "rotation": 180,
                    "texture": "#0"
                },
                "south": {
                    "uv": [
                        8.66667,
                        0.66667,
                        9.66667,
                        2
                    ],
                    "rotation": 180,
                    "texture": "#0"
                },
                "west": {
                    "uv": [
                        8.66667,
                        0.66667,
                        9.66667,
                        2
                    ],
                    "rotation": 180,
                    "texture": "#0"
                },
                "up": {
                    "uv": [
                        8.66667,
                        0.66667,
                        9.66667,
                        2
                    ],
                    "rotation": 180,
                    "texture": "#0"
                },
                "down": {
                    "uv": [
                        8.66667,
                        0.66667,
                        9.66667,
                        2
                    ],
                    "rotation": 180,
                    "texture": "#0"
                }
            }
        },
        {
            "from": [
                7.72,
                5.2055,
                6.98968
            ],
            "to": [
                8.28,
                5.4155,
                7.19968
            ],
            "rotation": {
                "angle": 45,
                "axis": "x",
                "origin": [
                    8,
                    5.86619,
                    7.7484
                ]
            },
            "faces": {
                "north": {
                    "uv": [
                        8.66667,
                        0.66667,
                        9.66667,
                        2
                    ],
                    "rotation": 180,
                    "texture": "#0"
                },
                "east": {
                    "uv": [
                        8.66667,
                        0.66667,
                        9.66667,
                        2
                    ],
                    "rotation": 180,
                    "texture": "#0"
                },
                "south": {
                    "uv": [
                        8.66667,
                        0.66667,
                        9.66667,
                        2
                    ],
                    "rotation": 180,
                    "texture": "#0"
                },
                "west": {
                    "uv": [
                        8.66667,
                        0.66667,
                        9.66667,
                        2
                    ],
                    "rotation": 180,
                    "texture": "#0"
                },
                "up": {
                    "uv": [
                        8.66667,
                        0.66667,
                        9.66667,
                        2
                    ],
                    "rotation": 180,
                    "texture": "#0"
                },
                "down": {
                    "uv": [
                        8.66667,
                        0.66667,
                        9.66667,
                        2
                    ],
                    "rotation": 180,
                    "texture": "#0"
                }
            }
        },
        {
            "from": [
                7.72,
                5.75628,
                7.9164
            ],
            "to": [
                7.734,
                6.52628,
                8.3224
            ],
            "rotation": {
                "angle": 0,
                "axis": "y",
                "origin": [
                    8,
                    5.86619,
                    7.7484
                ]
            },
            "faces": {
                "north": {
                    "uv": [
                        8.66667,
                        0.66667,
                        9.66667,
                        2
                    ],
                    "rotation": 180,
                    "texture": "#0"
                },
                "east": {
                    "uv": [
                        8.66667,
                        0.66667,
                        9.66667,
                        2
                    ],
                    "rotation": 180,
                    "texture": "#0"
                },
                "south": {
                    "uv": [
                        8.66667,
                        0.66667,
                        9.66667,
                        2
                    ],
                    "rotation": 180,
                    "texture": "#0"
                },
                "west": {
                    "uv": [
                        8.66667,
                        0.66667,
                        9.66667,
                        2
                    ],
                    "rotation": 180,
                    "texture": "#0"
                },
                "up": {
                    "uv": [
                        8.66667,
                        0.66667,
                        9.66667,
                        2
                    ],
                    "rotation": 180,
                    "texture": "#0"
                },
                "down": {
                    "uv": [
                        8.66667,
                        0.66667,
                        9.66667,
                        2
                    ],
                    "rotation": 180,
                    "texture": "#0"
                }
            }
        },
        {
            "from": [
                8.266,
                5.75628,
                7.9164
            ],
            "to": [
                8.28,
                6.52628,
                8.3224
            ],
            "rotation": {
                "angle": 0,
                "axis": "y",
                "origin": [
                    8,
                    5.86619,
                    7.7484
                ]
            },
            "faces": {
                "north": {
                    "uv": [
                        8.66667,
                        0.66667,
                        9.66667,
                        2
                    ],
                    "rotation": 180,
                    "texture": "#0"
                },
                "east": {
                    "uv": [
                        8.66667,
                        0.66667,
                        9.66667,
                        2
                    ],
                    "rotation": 180,
                    "texture": "#0"
                },
                "south": {
                    "uv": [
                        8.66667,
                        0.66667,
                        9.66667,
                        2
                    ],
                    "rotation": 180,
                    "texture": "#0"
                },
                "west": {
                    "uv": [
                        8.66667,
                        0.66667,
                        9.66667,
                        2
                    ],
                    "rotation": 180,
                    "texture": "#0"
                },
                "up": {
                    "uv": [
                        8.66667,
                        0.66667,
                        9.66667,
                        2
                    ],
                    "rotation": 180,
                    "texture": "#0"
                },
                "down": {
                    "uv": [
                        8.66667,
                        0.66667,
                        9.66667,
                        2
                    ],
                    "rotation": 180,
                    "texture": "#0"
                }
            }
        },
        {
            "from": [
                7.72,
                6.51228,
                7.9164
            ],
            "to": [
                8.266,
                6.52628,
                8.3224
            ],
            "rotation": {
                "angle": 0,
                "axis": "y",
                "origin": [
                    8,
                    5.86619,
                    7.7484
                ]
            },
            "faces": {
                "north": {
                    "uv": [
                        8.66667,
                        0.66667,
                        9.66667,
                        2
                    ],
                    "rotation": 180,
                    "texture": "#0"
                },
                "east": {
                    "uv": [
                        8.66667,
                        0.66667,
                        9.66667,
                        2
                    ],
                    "rotation": 180,
                    "texture": "#0"
                },
                "south": {
                    "uv": [
                        8.66667,
                        0.66667,
                        9.66667,
                        2
                    ],
                    "rotation": 180,
                    "texture": "#0"
                },
                "west": {
                    "uv": [
                        8.66667,
                        0.66667,
                        9.66667,
                        2
                    ],
                    "rotation": 180,
                    "texture": "#0"
                },
                "up": {
                    "uv": [
                        8.66667,
                        0.66667,
                        9.66667,
                        2
                    ],
                    "rotation": 180,
                    "texture": "#0"
                },
                "down": {
                    "uv": [
                        8.66667,
                        0.66667,
                        9.66667,
                        2
                    ],
                    "rotation": 180,
                    "texture": "#0"
                }
            }
        },
        {
            "from": [
                7.72,
                5.84182,
                7.37194
            ],
            "to": [
                7.734,
                5.98182,
                7.77794
            ],
            "rotation": {
                "angle": 0,
                "axis": "y",
                "origin": [
                    8,
                    5.86619,
                    7.7484
                ]
            },
            "faces": {
                "north": {
                    "uv": [
                        8.66667,
                        0.66667,
                        9.66667,
                        2
                    ],
                    "rotation": 180,
                    "texture": "#0"
                },
                "east": {
                    "uv": [
                        8.66667,
                        0.66667,
                        9.66667,
                        2
                    ],
                    "rotation": 180,
                    "texture": "#0"
                },
                "south": {
                    "uv": [
                        8.66667,
                        0.66667,
                        9.66667,
                        2
                    ],
                    "rotation": 180,
                    "texture": "#0"
                },
                "west": {
                    "uv": [
                        8.66667,
                        0.66667,
                        9.66667,
                        2
                    ],
                    "rotation": 180,
                    "texture": "#0"
                },
                "up": {
                    "uv": [
                        8.66667,
                        0.66667,
                        9.66667,
                        2
                    ],
                    "rotation": 180,
                    "texture": "#0"
                },
                "down": {
                    "uv": [
                        8.66667,
                        0.66667,
                        9.66667,
                        2
                    ],
                    "rotation": 180,
                    "texture": "#0"
                }
            }
        },
        {
            "from": [
                8.266,
                5.84182,
                7.37194
            ],
            "to": [
                8.28,
                5.98182,
                7.77794
            ],
            "rotation": {
                "angle": 0,
                "axis": "y",
                "origin": [
                    8,
                    5.86619,
                    7.7484
                ]
            },
            "faces": {
                "north": {
                    "uv": [
                        8.66667,
                        0.66667,
                        9.66667,
                        2
                    ],
                    "rotation": 180,
                    "texture": "#0"
                },
                "east": {
                    "uv": [
                        8.66667,
                        0.66667,
                        9.66667,
                        2
                    ],
                    "rotation": 180,
                    "texture": "#0"
                },
                "south": {
                    "uv": [
                        8.66667,
                        0.66667,
                        9.66667,
                        2
                    ],
                    "rotation": 180,
                    "texture": "#0"
                },
                "west": {
                    "uv": [
                        8.66667,
                        0.66667,
                        9.66667,
                        2
                    ],
                    "rotation": 180,
                    "texture": "#0"
                },
                "up": {
                    "uv": [
                        8.66667,
                        0.66667,
                        9.66667,
                        2
                    ],
                    "rotation": 180,
                    "texture": "#0"
                },
                "down": {
                    "uv": [
                        8.66667,
                        0.66667,
                        9.66667,
                        2
                    ],
                    "rotation": 180,
                    "texture": "#0"
                }
            }
        },
        {
            "from": [
                8.266,
                5.68175,
                7.40044
            ],
            "to": [
                8.28,
                6.45175,
                7.82044
            ],
            "rotation": {
                "angle": 45,
                "axis": "x",
                "origin": [
                    8,
                    5.86619,
                    7.7484
                ]
            },
            "faces": {
                "north": {
                    "uv": [
                        8.66667,
                        0.66667,
                        9.66667,
                        2
                    ],
                    "rotation": 180,
                    "texture": "#0"
                },
                "east": {
                    "uv": [
                        8.66667,
                        0.66667,
                        9.66667,
                        2
                    ],
                    "rotation": 180,
                    "texture": "#0"
                },
                "south": {
                    "uv": [
                        8.66667,
                        0.66667,
                        9.66667,
                        2
                    ],
                    "rotation": 180,
                    "texture": "#0"
                },
                "west": {
                    "uv": [
                        8.66667,
                        0.66667,
                        9.66667,
                        2
                    ],
                    "rotation": 180,
                    "texture": "#0"
                },
                "up": {
                    "uv": [
                        8.66667,
                        0.66667,
                        9.66667,
                        2
                    ],
                    "rotation": 180,
                    "texture": "#0"
                },
                "down": {
                    "uv": [
                        8.66667,
                        0.66667,
                        9.66667,
                        2
                    ],
                    "rotation": 180,
                    "texture": "#0"
                }
            }
        },
        {
            "from": [
                7.72,
                5.68174,
                7.40043
            ],
            "to": [
                7.734,
                6.45174,
                7.82043
            ],
            "rotation": {
                "angle": 45,
                "axis": "x",
                "origin": [
                    7.454,
                    5.86618,
                    7.74839
                ]
            },
            "faces": {
                "north": {
                    "uv": [
                        8.66667,
                        0.66667,
                        9.66667,
                        2
                    ],
                    "rotation": 180,
                    "texture": "#0"
                },
                "east": {
                    "uv": [
                        8.66667,
                        0.66667,
                        9.66667,
                        2
                    ],
                    "rotation": 180,
                    "texture": "#0"
                },
                "south": {
                    "uv": [
                        8.66667,
                        0.66667,
                        9.66667,
                        2
                    ],
                    "rotation": 180,
                    "texture": "#0"
                },
                "west": {
                    "uv": [
                        8.66667,
                        0.66667,
                        9.66667,
                        2
                    ],
                    "rotation": 180,
                    "texture": "#0"
                },
                "up": {
                    "uv": [
                        8.66667,
                        0.66667,
                        9.66667,
                        2
                    ],
                    "rotation": 180,
                    "texture": "#0"
                },
                "down": {
                    "uv": [
                        8.66667,
                        0.66667,
                        9.66667,
                        2
                    ],
                    "rotation": 180,
                    "texture": "#0"
                }
            }
        },
        {
            "from": [
                7.74563,
                5.63886,
                6.74472
            ],
            "to": [
                7.85763,
                5.75086,
                8.69072
            ],
            "rotation": {
                "angle": -22.5,
                "axis": "z",
                "origin": [
                    8,
                    5.86619,
                    7.7484
                ]
            },
            "faces": {
                "north": {
                    "uv": [
                        8.66667,
                        0.66667,
                        9.66667,
                        2
                    ],
                    "rotation": 90,
                    "texture": "#0"
                },
                "east": {
                    "uv": [
                        8.66667,
                        0.66667,
                        9.66667,
                        2
                    ],
                    "rotation": 90,
                    "texture": "#0"
                },
                "south": {
                    "uv": [
                        8.66667,
                        0.66667,
                        9.66667,
                        2
                    ],
                    "rotation": 90,
                    "texture": "#0"
                },
                "west": {
                    "uv": [
                        8.66667,
                        0.66667,
                        9.66667,
                        2
                    ],
                    "rotation": 90,
                    "texture": "#0"
                },
                "up": {
                    "uv": [
                        8.66667,
                        0.66667,
                        9.66667,
                        2
                    ],
                    "rotation": 90,
                    "texture": "#0"
                },
                "down": {
                    "uv": [
                        8.66667,
                        0.66667,
                        9.66667,
                        2
                    ],
                    "rotation": 90,
                    "texture": "#0"
                }
            }
        },
        {
            "from": [
                7.72,
                5.75351,
                6.74472
            ],
            "to": [
                8.28,
                5.86551,
                8.69072
            ],
            "rotation": {
                "angle": 0,
                "axis": "y",
                "origin": [
                    8,
                    5.86619,
                    7.7484
                ]
            },
            "faces": {
                "north": {
                    "uv": [
                        8.66667,
                        0.66667,
                        9.66667,
                        2
                    ],
                    "rotation": 180,
                    "texture": "#0"
                },
                "east": {
                    "uv": [
                        8.66667,
                        0.66667,
                        9.66667,
                        2
                    ],
                    "rotation": 180,
                    "texture": "#0"
                },
                "south": {
                    "uv": [
                        8.66667,
                        0.66667,
                        9.66667,
                        2
                    ],
                    "rotation": 180,
                    "texture": "#0"
                },
                "west": {
                    "uv": [
                        8.66667,
                        0.66667,
                        9.66667,
                        2
                    ],
                    "rotation": 180,
                    "texture": "#0"
                },
                "up": {
                    "uv": [
                        8.66667,
                        0.66667,
                        9.66667,
                        2
                    ],
                    "rotation": 180,
                    "texture": "#0"
                },
                "down": {
                    "uv": [
                        8.66667,
                        0.66667,
                        9.66667,
                        2
                    ],
                    "rotation": 180,
                    "texture": "#0"
                }
            }
        },
        {
            "from": [
                7.678,
                5.61351,
                6.74472
            ],
            "to": [
                8.322,
                5.75351,
                8.69072
            ],
            "rotation": {
                "angle": 0,
                "axis": "y",
                "origin": [
                    8,
                    5.86619,
                    7.7484
                ]
            },
            "faces": {
                "north": {
                    "uv": [
                        8.66667,
                        0.66667,
                        9.66667,
                        2
                    ],
                    "rotation": 180,
                    "texture": "#0"
                },
                "east": {
                    "uv": [
                        6,
                        0.66667,
                        7,
                        2
                    ],
                    "rotation": 180,
                    "texture": "#0"
                },
                "south": {
                    "uv": [
                        8.66667,
                        0.66667,
                        9.66667,
                        2
                    ],
                    "rotation": 180,
                    "texture": "#0"
                },
                "west": {
                    "uv": [
                        6,
                        0.66667,
                        7,
                        2
                    ],
                    "rotation": 180,
                    "texture": "#0"
                },
                "up": {
                    "uv": [
                        8.66667,
                        0.66667,
                        9.66667,
                        2
                    ],
                    "rotation": 180,
                    "texture": "#0"
                },
                "down": {
                    "uv": [
                        0.33333,
                        1,
                        1.33333,
                        2.33333
                    ],
                    "rotation": 180,
                    "texture": "#0"
                }
            }
        },
        {
            "from": [
                8.14237,
                5.63886,
                6.74472
            ],
            "to": [
                8.25437,
                5.75086,
                8.69072
            ],
            "rotation": {
                "angle": 22.5,
                "axis": "z",
                "origin": [
                    8,
                    5.86619,
                    7.7484
                ]
            },
            "faces": {
                "north": {
                    "uv": [
                        8.66667,
                        0.66667,
                        9.66667,
                        2
                    ],
                    "rotation": 90,
                    "texture": "#0"
                },
                "east": {
                    "uv": [
                        8.66667,
                        0.66667,
                        9.66667,
                        2
                    ],
                    "rotation": 90,
                    "texture": "#0"
                },
                "south": {
                    "uv": [
                        8.66667,
                        0.66667,
                        9.66667,
                        2
                    ],
                    "rotation": 90,
                    "texture": "#0"
                },
                "west": {
                    "uv": [
                        8.66667,
                        0.66667,
                        9.66667,
                        2
                    ],
                    "rotation": 90,
                    "texture": "#0"
                },
                "up": {
                    "uv": [
                        8.66667,
                        0.66667,
                        9.66667,
                        2
                    ],
                    "rotation": 90,
                    "texture": "#0"
                },
                "down": {
                    "uv": [
                        8.66667,
                        0.66667,
                        9.66667,
                        2
                    ],
                    "rotation": 90,
                    "texture": "#0"
                }
            }
        },
        {
            "from": [
                7.968,
                6.26471,
                8.09992
            ],
            "to": [
                8.046,
                6.34271,
                8.09992
            ],
            "rotation": {
                "angle": 0,
                "axis": "y",
                "origin": [
                    8,
                    5.86619,
                    7.7484
                ]
            },
            "faces": {
                "north": {
                    "uv": [
                        5.66667,
                        14.33333,
                        6.66667,
                        15.66667
                    ],
                    "rotation": 90,
                    "texture": "#0"
                },
                "east": {
                    "uv": [
                        5.66667,
                        14.33333,
                        6.66667,
                        15.66667
                    ],
                    "rotation": 90,
                    "texture": "#0"
                },
                "south": {
                    "uv": [
                        5.66667,
                        14.33333,
                        6.66667,
                        15.66667
                    ],
                    "rotation": 90,
                    "texture": "#0"
                },
                "west": {
                    "uv": [
                        5.66667,
                        14.33333,
                        6.66667,
                        15.66667
                    ],
                    "rotation": 90,
                    "texture": "#0"
                },
                "up": {
                    "uv": [
                        5.66667,
                        14.33333,
                        6.66667,
                        15.66667
                    ],
                    "rotation": 90,
                    "texture": "#0"
                },
                "down": {
                    "uv": [
                        5.66667,
                        14.33333,
                        6.66667,
                        15.66667
                    ],
                    "rotation": 90,
                    "texture": "#0"
                }
            }
        },
        {
            "from": [
                7.58,
                5.56605,
                8.28472
            ],
            "to": [
                8.42,
                5.67805,
                8.55072
            ],
            "rotation": {
                "angle": 0,
                "axis": "y",
                "origin": [
                    8,
                    5.86619,
                    7.7484
                ]
            },
            "faces": {
                "north": {
                    "uv": [
                        0.66667,
                        0.66667,
                        1.66667,
                        2
                    ],
                    "rotation": 180,
                    "texture": "#0"
                },
                "east": {
                    "uv": [
                        0.66667,
                        0.66667,
                        1.66667,
                        2
                    ],
                    "rotation": 180,
                    "texture": "#0"
                },
                "south": {
                    "uv": [
                        0.66667,
                        0.66667,
                        1.66667,
                        2
                    ],
                    "rotation": 180,
                    "texture": "#0"
                },
                "west": {
                    "uv": [
                        0.66667,
                        0.66667,
                        1.66667,
                        2
                    ],
                    "rotation": 180,
                    "texture": "#0"
                },
                "up": {
                    "uv": [
                        0.66667,
                        0.66667,
                        1.66667,
                        2
                    ],
                    "rotation": 180,
                    "texture": "#0"
                },
                "down": {
                    "uv": [
                        0.66667,
                        0.66667,
                        1.66667,
                        2
                    ],
                    "rotation": 180,
                    "texture": "#0"
                }
            }
        },
        {
            "from": [
                7.58,
                6.03383,
                8.33831
            ],
            "to": [
                8.42,
                6.29983,
                8.45031
            ],
            "rotation": {
                "angle": 45,
                "axis": "x",
                "origin": [
                    8,
                    5.86619,
                    7.7484
                ]
            },
            "faces": {
                "north": {
                    "uv": [
                        0.66667,
                        0.66667,
                        1.66667,
                        2
                    ],
                    "rotation": 90,
                    "texture": "#0"
                },
                "east": {
                    "uv": [
                        0.66667,
                        0.66667,
                        1.66667,
                        2
                    ],
                    "rotation": 90,
                    "texture": "#0"
                },
                "south": {
                    "uv": [
                        0.66667,
                        0.66667,
                        1.66667,
                        2
                    ],
                    "rotation": 90,
                    "texture": "#0"
                },
                "west": {
                    "uv": [
                        0.66667,
                        0.66667,
                        1.66667,
                        2
                    ],
                    "rotation": 90,
                    "texture": "#0"
                },
                "up": {
                    "uv": [
                        0.66667,
                        0.66667,
                        1.66667,
                        2
                    ],
                    "rotation": 90,
                    "texture": "#0"
                },
                "down": {
                    "uv": [
                        0.66667,
                        0.66667,
                        1.66667,
                        2
                    ],
                    "rotation": 90,
                    "texture": "#0"
                }
            }
        },
        {
            "from": [
                7.58,
                5.08727,
                7.99304
            ],
            "to": [
                8.42,
                5.35327,
                8.10504
            ],
            "rotation": {
                "angle": -45,
                "axis": "x",
                "origin": [
                    8,
                    5.86619,
                    7.7484
                ]
            },
            "faces": {
                "north": {
                    "uv": [
                        0.66667,
                        0.66667,
                        1.66667,
                        2
                    ],
                    "rotation": 90,
                    "texture": "#0"
                },
                "east": {
                    "uv": [
                        0.66667,
                        0.66667,
                        1.66667,
                        2
                    ],
                    "rotation": 90,
                    "texture": "#0"
                },
                "south": {
                    "uv": [
                        0.66667,
                        0.66667,
                        1.66667,
                        2
                    ],
                    "rotation": 90,
                    "texture": "#0"
                },
                "west": {
                    "uv": [
                        0.66667,
                        0.66667,
                        1.66667,
                        2
                    ],
                    "rotation": 90,
                    "texture": "#0"
                },
                "up": {
                    "uv": [
                        0.66667,
                        0.66667,
                        1.66667,
                        2
                    ],
                    "rotation": 90,
                    "texture": "#0"
                },
                "down": {
                    "uv": [
                        0.66667,
                        0.66667,
                        1.66667,
                        2
                    ],
                    "rotation": 90,
                    "texture": "#0"
                }
            }
        },
        {
            "from": [
                7.58,
                5.48905,
                8.36172
            ],
            "to": [
                8.42,
                5.75505,
                8.47372
            ],
            "rotation": {
                "angle": 0,
                "axis": "y",
                "origin": [
                    8,
                    5.86619,
                    7.7484
                ]
            },
            "faces": {
                "north": {
                    "uv": [
                        0.66667,
                        0.66667,
                        1.66667,
                        2
                    ],
                    "rotation": 90,
                    "texture": "#0"
                },
                "east": {
                    "uv": [
                        0.66667,
                        0.66667,
                        1.66667,
                        2
                    ],
                    "rotation": 90,
                    "texture": "#0"
                },
                "south": {
                    "uv": [
                        0.66667,
                        0.66667,
                        1.66667,
                        2
                    ],
                    "rotation": 90,
                    "texture": "#0"
                },
                "west": {
                    "uv": [
                        0.66667,
                        0.66667,
                        1.66667,
                        2
                    ],
                    "rotation": 90,
                    "texture": "#0"
                },
                "up": {
                    "uv": [
                        0.66667,
                        0.66667,
                        1.66667,
                        2
                    ],
                    "rotation": 90,
                    "texture": "#0"
                },
                "down": {
                    "uv": [
                        0.66667,
                        0.66667,
                        1.66667,
                        2
                    ],
                    "rotation": 90,
                    "texture": "#0"
                }
            }
        },
        {
            "from": [
                7.58,
                6.07722,
                7.00309
            ],
            "to": [
                8.42,
                6.34322,
                7.11509
            ],
            "rotation": {
                "angle": -45,
                "axis": "x",
                "origin": [
                    8,
                    5.86619,
                    7.7484
                ]
            },
            "faces": {
                "north": {
                    "uv": [
                        0.66667,
                        0.66667,
                        1.66667,
                        2
                    ],
                    "rotation": 90,
                    "texture": "#0"
                },
                "east": {
                    "uv": [
                        0.66667,
                        0.66667,
                        1.66667,
                        2
                    ],
                    "rotation": 90,
                    "texture": "#0"
                },
                "south": {
                    "uv": [
                        0.66667,
                        0.66667,
                        1.66667,
                        2
                    ],
                    "rotation": 90,
                    "texture": "#0"
                },
                "west": {
                    "uv": [
                        0.66667,
                        0.66667,
                        1.66667,
                        2
                    ],
                    "rotation": 90,
                    "texture": "#0"
                },
                "up": {
                    "uv": [
                        0.66667,
                        0.66667,
                        1.66667,
                        2
                    ],
                    "rotation": 90,
                    "texture": "#0"
                },
                "down": {
                    "uv": [
                        0.66667,
                        0.66667,
                        1.66667,
                        2
                    ],
                    "rotation": 90,
                    "texture": "#0"
                }
            }
        },
        {
            "from": [
                7.58,
                5.56605,
                6.88472
            ],
            "to": [
                8.42,
                5.67805,
                7.15072
            ],
            "rotation": {
                "angle": 0,
                "axis": "y",
                "origin": [
                    8,
                    5.86619,
                    7.7484
                ]
            },
            "faces": {
                "north": {
                    "uv": [
                        0.66667,
                        0.66667,
                        1.66667,
                        2
                    ],
                    "rotation": 180,
                    "texture": "#0"
                },
                "east": {
                    "uv": [
                        0.66667,
                        0.66667,
                        1.66667,
                        2
                    ],
                    "rotation": 180,
                    "texture": "#0"
                },
                "south": {
                    "uv": [
                        0.66667,
                        0.66667,
                        1.66667,
                        2
                    ],
                    "rotation": 180,
                    "texture": "#0"
                },
                "west": {
                    "uv": [
                        0.66667,
                        0.66667,
                        1.66667,
                        2
                    ],
                    "rotation": 180,
                    "texture": "#0"
                },
                "up": {
                    "uv": [
                        0.66667,
                        0.66667,
                        1.66667,
                        2
                    ],
                    "rotation": 180,
                    "texture": "#0"
                },
                "down": {
                    "uv": [
                        0.66667,
                        0.66667,
                        1.66667,
                        2
                    ],
                    "rotation": 180,
                    "texture": "#0"
                }
            }
        },
        {
            "from": [
                7.58,
                5.04389,
                7.34836
            ],
            "to": [
                8.42,
                5.30989,
                7.46036
            ],
            "rotation": {
                "angle": 45,
                "axis": "x",
                "origin": [
                    8,
                    5.86619,
                    7.7484
                ]
            },
            "faces": {
                "north": {
                    "uv": [
                        0.66667,
                        0.66667,
                        1.66667,
                        2
                    ],
                    "rotation": 90,
                    "texture": "#0"
                },
                "east": {
                    "uv": [
                        0.66667,
                        0.66667,
                        1.66667,
                        2
                    ],
                    "rotation": 90,
                    "texture": "#0"
                },
                "south": {
                    "uv": [
                        0.66667,
                        0.66667,
                        1.66667,
                        2
                    ],
                    "rotation": 90,
                    "texture": "#0"
                },
                "west": {
                    "uv": [
                        0.66667,
                        0.66667,
                        1.66667,
                        2
                    ],
                    "rotation": 90,
                    "texture": "#0"
                },
                "up": {
                    "uv": [
                        0.66667,
                        0.66667,
                        1.66667,
                        2
                    ],
                    "rotation": 90,
                    "texture": "#0"
                },
                "down": {
                    "uv": [
                        0.66667,
                        0.66667,
                        1.66667,
                        2
                    ],
                    "rotation": 90,
                    "texture": "#0"
                }
            }
        },
        {
            "from": [
                7.58,
                5.48905,
                6.96172
            ],
            "to": [
                8.42,
                5.75505,
                7.07372
            ],
            "rotation": {
                "angle": 0,
                "axis": "y",
                "origin": [
                    8,
                    5.86619,
                    7.7484
                ]
            },
            "faces": {
                "north": {
                    "uv": [
                        0.66667,
                        0.66667,
                        1.66667,
                        2
                    ],
                    "rotation": 90,
                    "texture": "#0"
                },
                "east": {
                    "uv": [
                        0.66667,
                        0.66667,
                        1.66667,
                        2
                    ],
                    "rotation": 90,
                    "texture": "#0"
                },
                "south": {
                    "uv": [
                        0.66667,
                        0.66667,
                        1.66667,
                        2
                    ],
                    "rotation": 90,
                    "texture": "#0"
                },
                "west": {
                    "uv": [
                        0.66667,
                        0.66667,
                        1.66667,
                        2
                    ],
                    "rotation": 90,
                    "texture": "#0"
                },
                "up": {
                    "uv": [
                        0.66667,
                        0.66667,
                        1.66667,
                        2
                    ],
                    "rotation": 90,
                    "texture": "#0"
                },
                "down": {
                    "uv": [
                        0.66667,
                        0.66667,
                        1.66667,
                        2
                    ],
                    "rotation": 90,
                    "texture": "#0"
                }
            }
        }
    ],
    "display": {
        "thirdperson_righthand": {
            "translation": [
                -1.25,
                4,
                0.25
            ]
        },
        "thirdperson_lefthand": {
            "translation": [
                -0.75,
                3.75,
                0.25
            ]
        },
        "firstperson_righthand": {
            "translation": [
                -13.75,
                8.25,
                3
            ]
        },
        "firstperson_lefthand": {
            "translation": [
                -13.5,
                8.25,
                3.25
            ]
        },
        "ground": {
            "translation": [
                -0.25,
                6.25,
                0
            ]
        },
        "gui": {
            "rotation": [
                -12,
                -54,
                -16
            ],
            "translation": [
                3.75,
                6.75,
                0
            ],
            "scale": [
                1.7,
                1.7,
                1.7
            ]
        },
        "head": {
            "rotation": [
                0,
                0,
                90
            ],
            "translation": [
                -3.5,
                7.5,
                0
            ]
        },
        "fixed": {
            "rotation": [
                90,
                45,
                -90
            ],
            "translation": [
                3.5,
                5,
                -0.75
            ],
            "scale": [
                1.5,
                1.5,
                1.5
            ]
        }
    }
}