{
	"credit": "Made with Blockbench",
	"textures": {
		"1": "gci:items/common/mpz",
		"particle": "gci:items/common/mpz"
	},
	"elements": [
		{
			"name": "hexadecagon",
			"from": [8.08135, 3.25086, 7.72427],
			"to": [8.36865, 3.90086, 8.07427],
			"rotation": {"angle": -22.5, "axis": "x", "origin": [8.325, 3.54461, 7.89927]},
			"faces": {
				"north": {"uv": [14.25, 8.83333, 15.20833, 9.95833], "rotation": 180, "texture": "#1"},
				"east": {"uv": [14.25, 8.83333, 15.20833, 9.95833], "rotation": 270, "texture": "#1"},
				"south": {"uv": [14.25, 8.83333, 15.20833, 9.95833], "texture": "#1"},
				"west": {"uv": [14.25, 8.83333, 15.20833, 9.95833], "rotation": 90, "texture": "#1"},
				"up": {"uv": [14.25, 8.83333, 15.20833, 9.95833], "rotation": 180, "texture": "#1"},
				"down": {"uv": [14.25, 8.83333, 15.20833, 9.95833], "texture": "#1"}
			}
		},
		{
			"name": "hexadecagon",
			"from": [7.94851, 2.94482, 8.06826],
			"to": [8.05149, 3.26045, 8.14326],
			"rotation": {"angle": 0, "axis": "y", "origin": [8, 2.91054, 8.42306]},
			"faces": {
				"north": {"uv": [3.46667, 3.33333, 4.33333, 4.53333], "rotation": 180, "texture": "#1"},
				"east": {"uv": [3.46667, 3.33333, 4.33333, 4.53333], "rotation": 270, "texture": "#1"},
				"south": {"uv": [3.46667, 3.33333, 4.33333, 4.53333], "texture": "#1"},
				"west": {"uv": [3.46667, 3.33333, 4.33333, 4.53333], "rotation": 90, "texture": "#1"},
				"up": {"uv": [3.46667, 3.33333, 4.33333, 4.53333], "rotation": 180, "texture": "#1"},
				"down": {"uv": [3.46667, 3.33333, 4.33333, 4.53333], "texture": "#1"}
			}
		},
		{
			"name": "hexadecagon",
			"from": [7.94851, 2.94482, 8.44326],
			"to": [8.05149, 3.26045, 8.51826],
			"rotation": {"angle": 0, "axis": "y", "origin": [8, 2.91054, 8.42306]},
			"faces": {
				"north": {"uv": [3.46667, 3.33333, 4.33333, 4.2], "rotation": 180, "texture": "#1"},
				"east": {"uv": [3.46667, 3.33333, 4.33333, 4.2], "rotation": 270, "texture": "#1"},
				"south": {"uv": [3.46667, 3.33333, 4.33333, 4.2], "texture": "#1"},
				"west": {"uv": [3.46667, 3.33333, 4.33333, 4.2], "rotation": 90, "texture": "#1"},
				"up": {"uv": [3.46667, 3.33333, 4.33333, 4.2], "rotation": 180, "texture": "#1"},
				"down": {"uv": [3.46667, 3.33333, 4.33333, 4.2], "texture": "#1"}
			}
		},
		{
			"name": "hexadecagon",
			"from": [7.94851, 3.01236, 8.10839],
			"to": [8.05149, 3.07799, 8.18339],
			"rotation": {"angle": -22.5, "axis": "x", "origin": [8, 2.91054, 8.42306]},
			"faces": {
				"north": {"uv": [3.46667, 3.33333, 4.33333, 4.2], "rotation": 180, "texture": "#1"},
				"east": {"uv": [3.46667, 3.33333, 4.33333, 4.2], "rotation": 270, "texture": "#1"},
				"south": {"uv": [3.46667, 3.33333, 4.33333, 4.2], "texture": "#1"},
				"west": {"uv": [3.46667, 3.33333, 4.33333, 4.2], "rotation": 90, "texture": "#1"},
				"up": {"uv": [3.46667, 3.33333, 4.33333, 4.2], "rotation": 180, "texture": "#1"},
				"down": {"uv": [3.46667, 3.33333, 4.33333, 4.2], "texture": "#1"}
			}
		},
		{
			"name": "hexadecagon",
			"from": [7.94851, 2.9844, 8.17131],
			"to": [8.05149, 3.12503, 8.24631],
			"rotation": {"angle": -45, "axis": "x", "origin": [8, 2.91054, 8.42306]},
			"faces": {
				"north": {"uv": [3.46667, 3.33333, 4.33333, 4.2], "rotation": 180, "texture": "#1"},
				"east": {"uv": [3.46667, 3.33333, 4.33333, 4.2], "rotation": 270, "texture": "#1"},
				"south": {"uv": [3.46667, 3.33333, 4.33333, 4.2], "texture": "#1"},
				"west": {"uv": [3.46667, 3.33333, 4.33333, 4.2], "rotation": 90, "texture": "#1"},
				"up": {"uv": [3.46667, 3.33333, 4.33333, 4.2], "rotation": 180, "texture": "#1"},
				"down": {"uv": [3.46667, 3.33333, 4.33333, 4.2], "texture": "#1"}
			}
		},
		{
			"name": "hexadecagon",
			"from": [7.94851, 2.70622, 8.25848],
			"to": [8.05149, 2.78122, 8.3991],
			"rotation": {"angle": 22.5, "axis": "x", "origin": [8, 2.91054, 8.42306]},
			"faces": {
				"north": {"uv": [3.46667, 3.33333, 4.33333, 4.2], "texture": "#1"},
				"east": {"uv": [3.46667, 3.33333, 4.33333, 4.2], "texture": "#1"},
				"south": {"uv": [3.46667, 3.33333, 4.33333, 4.2], "texture": "#1"},
				"west": {"uv": [3.46667, 3.33333, 4.33333, 4.2], "texture": "#1"},
				"up": {"uv": [3.46667, 3.33333, 4.33333, 4.2], "texture": "#1"},
				"down": {"uv": [3.46667, 3.33333, 4.33333, 4.2], "texture": "#1"}
			}
		},
		{
			"name": "hexadecagon",
			"from": [7.94851, 2.73094, 8.32274],
			"to": [8.05149, 2.80594, 8.65086],
			"rotation": {"angle": 0, "axis": "y", "origin": [8, 2.91054, 8.42306]},
			"faces": {
				"north": {"uv": [3.46667, 3.33333, 4.33333, 4.2], "texture": "#1"},
				"east": {"uv": [3.46667, 3.33333, 4.33333, 4.2], "texture": "#1"},
				"south": {"uv": [3.46667, 3.33333, 4.33333, 4.2], "texture": "#1"},
				"west": {"uv": [3.46667, 3.33333, 4.33333, 4.2], "texture": "#1"},
				"up": {"uv": [3.46667, 3.33333, 4.33333, 4.2], "texture": "#1"},
				"down": {"uv": [3.46667, 3.33333, 4.33333, 4.2], "texture": "#1"}
			}
		},
		{
			"name": "hexadecagon",
			"from": [7.94851, 2.62246, 8.45715],
			"to": [8.05149, 2.69746, 8.78527],
			"rotation": {"angle": -45, "axis": "x", "origin": [8, 2.91054, 8.42306]},
			"faces": {
				"north": {"uv": [3.46667, 3.33333, 4.33333, 4.2], "texture": "#1"},
				"east": {"uv": [3.46667, 3.33333, 4.33333, 4.2], "texture": "#1"},
				"south": {"uv": [3.46667, 3.33333, 4.33333, 4.2], "texture": "#1"},
				"west": {"uv": [3.46667, 3.33333, 4.33333, 4.2], "texture": "#1"},
				"up": {"uv": [3.46667, 3.33333, 4.33333, 4.2], "texture": "#1"},
				"down": {"uv": [3.46667, 3.33333, 4.33333, 4.2], "texture": "#1"}
			}
		},
		{
			"name": "hexadecagon",
			"from": [7.94851, 2.86746, 8.3365],
			"to": [8.05149, 2.94246, 8.51462],
			"rotation": {"angle": -45, "axis": "x", "origin": [8, 2.91054, 8.42306]},
			"faces": {
				"north": {"uv": [3.46667, 3.33333, 4.33333, 4.2], "texture": "#1"},
				"east": {"uv": [3.46667, 3.33333, 4.33333, 4.2], "texture": "#1"},
				"south": {"uv": [3.46667, 3.33333, 4.33333, 4.2], "texture": "#1"},
				"west": {"uv": [3.46667, 3.33333, 4.33333, 4.2], "texture": "#1"},
				"up": {"uv": [3.46667, 3.33333, 4.33333, 4.2], "texture": "#1"},
				"down": {"uv": [3.46667, 3.33333, 4.33333, 4.2], "texture": "#1"}
			}
		},
		{
			"name": "hexadecagon",
			"from": [7.83135, 3.45625, 7.85],
			"to": [8.16865, 4.34375, 8.25],
			"rotation": {"angle": 0, "axis": "y", "origin": [8, 3.95, 11.6]},
			"faces": {
				"north": {"uv": [5.91667, 3.5, 6.875, 4.625], "rotation": 180, "texture": "#1"},
				"east": {"uv": [5.91667, 3.5, 6.875, 4.625], "rotation": 270, "texture": "#1"},
				"south": {"uv": [5.91667, 3.5, 6.875, 4.625], "texture": "#1"},
				"west": {"uv": [5.91667, 3.5, 6.875, 4.625], "rotation": 90, "texture": "#1"},
				"up": {"uv": [5.91667, 3.5, 6.875, 4.625], "rotation": 180, "texture": "#1"},
				"down": {"uv": [5.91667, 3.5, 6.875, 4.625], "texture": "#1"}
			}
		},
		{
			"name": "hexadecagon",
			"from": [7.83135, 3.9171, 8.38567],
			"to": [8.16865, 4.1671, 8.52317],
			"rotation": {"angle": -22.5, "axis": "x", "origin": [8, 4.0921, 8.45442]},
			"faces": {
				"north": {"uv": [5.91667, 3.5, 6.875, 4.625], "rotation": 180, "texture": "#1"},
				"east": {"uv": [5.91667, 3.5, 6.875, 4.625], "rotation": 180, "texture": "#1"},
				"south": {"uv": [5.91667, 3.5, 6.875, 4.625], "rotation": 180, "texture": "#1"},
				"west": {"uv": [5.91667, 3.5, 6.875, 4.625], "rotation": 180, "texture": "#1"},
				"up": {"uv": [5.91667, 3.5, 6.875, 4.625], "texture": "#1"},
				"down": {"uv": [5.91667, 3.5, 6.875, 4.625], "texture": "#1"}
			}
		},
		{
			"name": "hexadecagon",
			"from": [7.93135, 3.9171, 8.38567],
			"to": [8.06865, 4.0671, 8.77317],
			"rotation": {"angle": -22.5, "axis": "x", "origin": [8, 3.9921, 8.45442]},
			"faces": {
				"north": {"uv": [3.46667, 3.33333, 4.33333, 4.2], "rotation": 180, "texture": "#1"},
				"east": {"uv": [3.46667, 3.33333, 4.33333, 4.2], "rotation": 180, "texture": "#1"},
				"south": {"uv": [3.46667, 3.33333, 4.33333, 4.2], "rotation": 180, "texture": "#1"},
				"west": {"uv": [3.46667, 3.33333, 4.33333, 4.2], "rotation": 180, "texture": "#1"},
				"up": {"uv": [3.46667, 3.33333, 4.33333, 4.2], "texture": "#1"},
				"down": {"uv": [3.46667, 3.33333, 4.33333, 4.2], "texture": "#1"}
			}
		},
		{
			"name": "hexadecagon",
			"from": [7.93135, 4.07144, 8.70444],
			"to": [8.06865, 4.22144, 8.84194],
			"rotation": {"angle": -45, "axis": "x", "origin": [8, 4.14644, 8.77319]},
			"faces": {
				"north": {"uv": [3.46667, 3.33333, 4.33333, 4.2], "rotation": 180, "texture": "#1"},
				"east": {"uv": [3.46667, 3.33333, 4.33333, 4.2], "rotation": 180, "texture": "#1"},
				"south": {"uv": [3.46667, 3.33333, 4.33333, 4.2], "rotation": 180, "texture": "#1"},
				"west": {"uv": [3.46667, 3.33333, 4.33333, 4.2], "rotation": 180, "texture": "#1"},
				"up": {"uv": [3.46667, 3.33333, 4.33333, 4.2], "texture": "#1"},
				"down": {"uv": [3.46667, 3.33333, 4.33333, 4.2], "texture": "#1"}
			}
		},
		{
			"name": "hexadecagon",
			"from": [7.83135, 4.0671, 8.18567],
			"to": [8.16865, 4.3171, 8.32317],
			"rotation": {"angle": -45, "axis": "x", "origin": [8, 4.2421, 8.25442]},
			"faces": {
				"north": {"uv": [5.91667, 3.5, 6.875, 4.625], "rotation": 180, "texture": "#1"},
				"east": {"uv": [5.91667, 3.5, 6.875, 4.625], "rotation": 180, "texture": "#1"},
				"south": {"uv": [5.91667, 3.5, 6.875, 4.625], "rotation": 180, "texture": "#1"},
				"west": {"uv": [5.91667, 3.5, 6.875, 4.625], "rotation": 180, "texture": "#1"},
				"up": {"uv": [5.91667, 3.5, 6.875, 4.625], "texture": "#1"},
				"down": {"uv": [5.91667, 3.5, 6.875, 4.625], "texture": "#1"}
			}
		},
		{
			"name": "hexadecagon",
			"from": [7.83135, 4.0671, 7.77683],
			"to": [8.16865, 4.3171, 7.91433],
			"rotation": {"angle": 45, "axis": "x", "origin": [8, 4.2421, 7.84558]},
			"faces": {
				"north": {"uv": [6.875, 3.5, 5.91667, 4.625], "rotation": 180, "texture": "#1"},
				"east": {"uv": [6.875, 3.5, 5.91667, 4.625], "rotation": 180, "texture": "#1"},
				"south": {"uv": [6.875, 3.5, 5.91667, 4.625], "rotation": 180, "texture": "#1"},
				"west": {"uv": [6.875, 3.5, 5.91667, 4.625], "rotation": 180, "texture": "#1"},
				"up": {"uv": [5.91667, 4.625, 6.875, 3.5], "texture": "#1"},
				"down": {"uv": [5.91667, 4.625, 6.875, 3.5], "texture": "#1"}
			}
		},
		{
			"name": "hexadecagon",
			"from": [7.73135, 3.70625, 7.6],
			"to": [8.26865, 4.19375, 8.45],
			"rotation": {"angle": 0, "axis": "y", "origin": [8, 3.7, 11.7]},
			"faces": {
				"north": {"uv": [5.91667, 3.5, 6.875, 4.625], "rotation": 180, "texture": "#1"},
				"east": {"uv": [5.91667, 3.5, 6.875, 4.625], "rotation": 270, "texture": "#1"},
				"south": {"uv": [5.91667, 3.5, 6.875, 4.625], "texture": "#1"},
				"west": {"uv": [5.91667, 3.5, 6.875, 4.625], "rotation": 90, "texture": "#1"},
				"up": {"uv": [5.91667, 3.5, 6.875, 4.625], "rotation": 180, "texture": "#1"},
				"down": {"uv": [5.91667, 3.5, 6.875, 4.625], "texture": "#1"}
			}
		},
		{
			"name": "hexadecagon",
			"from": [7.63135, 3.20625, 7.85],
			"to": [8.36865, 3.89375, 8.7],
			"rotation": {"angle": 0, "axis": "y", "origin": [8, 3.7, 11.7]},
			"faces": {
				"north": {"uv": [14.25, 8.83333, 15.20833, 9.95833], "rotation": 180, "texture": "#1"},
				"east": {"uv": [14.25, 8.83333, 15.20833, 9.95833], "rotation": 270, "texture": "#1"},
				"south": {"uv": [14.25, 8.83333, 15.20833, 9.95833], "texture": "#1"},
				"west": {"uv": [14.25, 8.83333, 15.20833, 9.95833], "rotation": 90, "texture": "#1"},
				"up": {"uv": [14.25, 8.83333, 15.20833, 9.95833], "rotation": 180, "texture": "#1"},
				"down": {"uv": [14.25, 8.83333, 15.20833, 9.95833], "texture": "#1"}
			}
		},
		{
			"name": "hexadecagon",
			"from": [7.63135, 2.87323, 8.45717],
			"to": [8.36865, 3.66073, 9.05717],
			"rotation": {"angle": 22.5, "axis": "x", "origin": [8, 3.31698, 9.25717]},
			"faces": {
				"north": {"uv": [14.25, 8.83333, 15.20833, 9.95833], "rotation": 180, "texture": "#1"},
				"east": {"uv": [14.25, 8.83333, 15.20833, 9.95833], "rotation": 270, "texture": "#1"},
				"south": {"uv": [14.25, 8.83333, 15.20833, 9.95833], "texture": "#1"},
				"west": {"uv": [14.25, 8.83333, 15.20833, 9.95833], "rotation": 90, "texture": "#1"},
				"up": {"uv": [14.25, 8.83333, 15.20833, 9.95833], "rotation": 180, "texture": "#1"},
				"down": {"uv": [14.25, 8.83333, 15.20833, 9.95833], "texture": "#1"}
			}
		},
		{
			"name": "hexadecagon",
			"from": [7.73135, 2.60235, 9.08281],
			"to": [8.26865, 3.70235, 9.87031],
			"rotation": {"angle": -45, "axis": "x", "origin": [8, 2.90235, 9.52656]},
			"faces": {
				"north": {"uv": [14.25, 8.83333, 15.20833, 9.95833], "rotation": 180, "texture": "#1"},
				"east": {"uv": [14.25, 8.83333, 15.20833, 9.95833], "rotation": 180, "texture": "#1"},
				"south": {"uv": [14.25, 8.83333, 15.20833, 9.95833], "rotation": 180, "texture": "#1"},
				"west": {"uv": [14.25, 8.83333, 15.20833, 9.95833], "rotation": 180, "texture": "#1"},
				"up": {"uv": [14.25, 8.83333, 15.20833, 9.95833], "texture": "#1"},
				"down": {"uv": [14.25, 8.83333, 15.20833, 9.95833], "texture": "#1"}
			}
		},
		{
			"name": "hexadecagon",
			"from": [7.7114, 2.49377, 9.02068],
			"to": [8.2887, 3.49377, 9.60818],
			"rotation": {"angle": -45, "axis": "x", "origin": [8, 3.04377, 9.31443]},
			"faces": {
				"north": {"uv": [3.25, 13.75, 4.83333, 15.33333], "rotation": 180, "texture": "#1"},
				"east": {"uv": [3.25, 13.75, 4.83333, 15.33333], "rotation": 180, "texture": "#1"},
				"south": {"uv": [3.25, 13.75, 4.83333, 15.33333], "rotation": 180, "texture": "#1"},
				"west": {"uv": [3.25, 13.75, 4.83333, 15.33333], "rotation": 180, "texture": "#1"},
				"up": {"uv": [3.25, 13.75, 4.83333, 15.33333], "texture": "#1"},
				"down": {"uv": [3.25, 13.75, 4.83333, 15.33333], "texture": "#1"}
			}
		},
		{
			"name": "hexadecagon",
			"from": [7.73135, 2.51263, 9.52657],
			"to": [8.26865, 2.86263, 10.31407],
			"rotation": {"angle": -22.5, "axis": "x", "origin": [8, 2.06263, 9.97032]},
			"faces": {
				"north": {"uv": [14.25, 8.83333, 15.20833, 9.95833], "rotation": 180, "texture": "#1"},
				"east": {"uv": [14.25, 8.83333, 15.20833, 9.95833], "rotation": 180, "texture": "#1"},
				"south": {"uv": [14.25, 8.83333, 15.20833, 9.95833], "rotation": 180, "texture": "#1"},
				"west": {"uv": [14.25, 8.83333, 15.20833, 9.95833], "rotation": 180, "texture": "#1"},
				"up": {"uv": [14.25, 8.83333, 15.20833, 9.95833], "texture": "#1"},
				"down": {"uv": [14.25, 8.83333, 15.20833, 9.95833], "texture": "#1"}
			}
		},
		{
			"name": "hexadecagon",
			"from": [7.7114, 2.52638, 9.62912],
			"to": [8.2887, 2.82638, 10.21662],
			"rotation": {"angle": -22.5, "axis": "x", "origin": [7.98005, 2.07638, 9.97287]},
			"faces": {
				"north": {"uv": [3.25, 13.75, 4.83333, 15.33333], "rotation": 180, "texture": "#1"},
				"east": {"uv": [3.25, 13.75, 4.83333, 15.33333], "rotation": 180, "texture": "#1"},
				"south": {"uv": [3.25, 13.75, 4.83333, 15.33333], "rotation": 180, "texture": "#1"},
				"west": {"uv": [3.25, 13.75, 4.83333, 15.33333], "rotation": 180, "texture": "#1"},
				"up": {"uv": [3.25, 13.75, 4.83333, 15.33333], "texture": "#1"},
				"down": {"uv": [3.25, 13.75, 4.83333, 15.33333], "texture": "#1"}
			}
		},
		{
			"name": "hexadecagon",
			"from": [7.73135, 2.25993, 9.4282],
			"to": [8.26865, 2.60993, 10.1157],
			"rotation": {"angle": 0, "axis": "y", "origin": [8, 1.80993, 9.77195]},
			"faces": {
				"north": {"uv": [14.25, 8.83333, 15.20833, 9.95833], "rotation": 180, "texture": "#1"},
				"east": {"uv": [14.25, 8.83333, 15.20833, 9.95833], "rotation": 180, "texture": "#1"},
				"south": {"uv": [14.25, 8.83333, 15.20833, 9.95833], "rotation": 180, "texture": "#1"},
				"west": {"uv": [14.25, 8.83333, 15.20833, 9.95833], "rotation": 180, "texture": "#1"},
				"up": {"uv": [14.25, 8.83333, 15.20833, 9.95833], "texture": "#1"},
				"down": {"uv": [14.25, 8.83333, 15.20833, 9.95833], "texture": "#1"}
			}
		},
		{
			"name": "hexadecagon",
			"from": [7.63135, 2.25993, 9.3282],
			"to": [8.36865, 2.35993, 10.2157],
			"rotation": {"angle": 0, "axis": "y", "origin": [8, 1.80993, 9.77195]},
			"faces": {
				"north": {"uv": [14.25, 8.83333, 15.20833, 9.95833], "rotation": 180, "texture": "#1"},
				"east": {"uv": [14.25, 8.83333, 15.20833, 9.95833], "rotation": 180, "texture": "#1"},
				"south": {"uv": [14.25, 8.83333, 15.20833, 9.95833], "rotation": 180, "texture": "#1"},
				"west": {"uv": [14.25, 8.83333, 15.20833, 9.95833], "rotation": 180, "texture": "#1"},
				"up": {"uv": [14.25, 8.83333, 15.20833, 9.95833], "texture": "#1"},
				"down": {"uv": [14.25, 8.83333, 15.20833, 9.95833], "texture": "#1"}
			}
		},
		{
			"name": "hexadecagon",
			"from": [7.63135, 3.25321, 7.92461],
			"to": [8.36865, 3.94071, 8.69961],
			"rotation": {"angle": 0, "axis": "y", "origin": [8, 3.74696, 11.77461]},
			"faces": {
				"north": {"uv": [14.25, 8.83333, 15.20833, 9.95833], "rotation": 180, "texture": "#1"},
				"east": {"uv": [14.25, 8.83333, 15.20833, 9.95833], "rotation": 270, "texture": "#1"},
				"south": {"uv": [14.25, 8.83333, 15.20833, 9.95833], "texture": "#1"},
				"west": {"uv": [14.25, 8.83333, 15.20833, 9.95833], "rotation": 90, "texture": "#1"},
				"up": {"uv": [14.25, 8.83333, 15.20833, 9.95833], "rotation": 180, "texture": "#1"},
				"down": {"uv": [14.25, 8.83333, 15.20833, 9.95833], "texture": "#1"}
			}
		},
		{
			"name": "hexadecagon",
			"from": [7.63135, 3.25086, 7.72427],
			"to": [7.91865, 3.90086, 8.07427],
			"rotation": {"angle": -22.5, "axis": "x", "origin": [7.775, 3.54461, 7.89927]},
			"faces": {
				"north": {"uv": [14.25, 8.83333, 15.20833, 9.95833], "rotation": 180, "texture": "#1"},
				"east": {"uv": [14.25, 8.83333, 15.20833, 9.95833], "rotation": 270, "texture": "#1"},
				"south": {"uv": [14.25, 8.83333, 15.20833, 9.95833], "texture": "#1"},
				"west": {"uv": [14.25, 8.83333, 15.20833, 9.95833], "rotation": 90, "texture": "#1"},
				"up": {"uv": [14.25, 8.83333, 15.20833, 9.95833], "rotation": 180, "texture": "#1"},
				"down": {"uv": [14.25, 8.83333, 15.20833, 9.95833], "texture": "#1"}
			}
		},
		{
			"name": "hexadecagon",
			"from": [7.95027, 3.75, 3.6],
			"to": [8.04973, 3.85, 7.6],
			"rotation": {"angle": -45, "axis": "z", "origin": [8, 4, 3.7]},
			"faces": {
				"north": {"uv": [14.33333, 0.5, 14.58333, 0.75], "texture": "#1"},
				"east": {"uv": [14.33333, 0.5, 15.33333, 1.5], "texture": "#1"},
				"south": {"uv": [14.33333, 0.5, 14.58333, 0.75], "texture": "#1"},
				"west": {"uv": [14.33333, 0.5, 15.33333, 1.5], "texture": "#1"},
				"up": {"uv": [14.33333, 0.5, 15.33333, 1.5], "texture": "#1"},
				"down": {"uv": [14.33333, 0.5, 15.33333, 1.5], "texture": "#1"}
			}
		},
		{
			"name": "hexadecagon",
			"from": [7.95027, 3.75, 3.6],
			"to": [8.04973, 3.85, 7.6],
			"rotation": {"angle": -22.5, "axis": "z", "origin": [8, 4, 3.7]},
			"faces": {
				"north": {"uv": [14.33333, 0.5, 14.58333, 0.75], "texture": "#1"},
				"east": {"uv": [14.33333, 0.5, 15.33333, 1.5], "texture": "#1"},
				"south": {"uv": [14.33333, 0.5, 14.58333, 0.75], "texture": "#1"},
				"west": {"uv": [14.33333, 0.5, 15.33333, 1.5], "texture": "#1"},
				"up": {"uv": [14.33333, 0.5, 15.33333, 1.5], "texture": "#1"},
				"down": {"uv": [14.33333, 0.5, 15.33333, 1.5], "texture": "#1"}
			}
		},
		{
			"name": "hexadecagon",
			"from": [7.95027, 3.75, 3.6],
			"to": [8.04973, 3.85, 7.6],
			"rotation": {"angle": 0, "axis": "y", "origin": [8, 4, 3.7]},
			"faces": {
				"north": {"uv": [14.33333, 0.5, 14.58333, 0.75], "texture": "#1"},
				"east": {"uv": [14.33333, 0.5, 15.33333, 1.5], "texture": "#1"},
				"south": {"uv": [14.33333, 0.5, 14.58333, 0.75], "texture": "#1"},
				"west": {"uv": [14.33333, 0.5, 15.33333, 1.5], "texture": "#1"},
				"up": {"uv": [14.33333, 0.5, 15.33333, 1.5], "texture": "#1"},
				"down": {"uv": [14.33333, 0.5, 15.33333, 1.5], "texture": "#1"}
			}
		},
		{
			"name": "hexadecagon",
			"from": [7.95027, 3.75, 3.6],
			"to": [8.04973, 3.85, 7.6],
			"rotation": {"angle": 22.5, "axis": "z", "origin": [8, 4, 3.7]},
			"faces": {
				"north": {"uv": [14.33333, 0.5, 14.58333, 0.75], "texture": "#1"},
				"east": {"uv": [14.33333, 0.5, 15.33333, 1.5], "texture": "#1"},
				"south": {"uv": [14.33333, 0.5, 14.58333, 0.75], "texture": "#1"},
				"west": {"uv": [14.33333, 0.5, 15.33333, 1.5], "texture": "#1"},
				"up": {"uv": [14.33333, 0.5, 15.33333, 1.5], "texture": "#1"},
				"down": {"uv": [14.33333, 0.5, 15.33333, 1.5], "texture": "#1"}
			}
		},
		{
			"name": "hexadecagon",
			"from": [7.95027, 3.75, 3.6],
			"to": [8.04973, 3.85, 7.6],
			"rotation": {"angle": 45, "axis": "z", "origin": [8, 4, 3.7]},
			"faces": {
				"north": {"uv": [14.33333, 0.5, 14.58333, 0.75], "texture": "#1"},
				"east": {"uv": [14.33333, 0.5, 15.33333, 1.5], "texture": "#1"},
				"south": {"uv": [14.33333, 0.5, 14.58333, 0.75], "texture": "#1"},
				"west": {"uv": [14.33333, 0.5, 15.33333, 1.5], "texture": "#1"},
				"up": {"uv": [14.33333, 0.5, 15.33333, 1.5], "texture": "#1"},
				"down": {"uv": [14.33333, 0.5, 15.33333, 1.5], "texture": "#1"}
			}
		},
		{
			"name": "hexadecagon",
			"from": [7.95027, 4.15, 3.6],
			"to": [8.04973, 4.25, 7.6],
			"rotation": {"angle": -45, "axis": "z", "origin": [8, 4, 3.7]},
			"faces": {
				"north": {"uv": [14.33333, 0.5, 14.58333, 0.75], "texture": "#1"},
				"east": {"uv": [14.33333, 0.5, 15.33333, 1.5], "texture": "#1"},
				"south": {"uv": [14.33333, 0.5, 14.58333, 0.75], "texture": "#1"},
				"west": {"uv": [14.33333, 0.5, 15.33333, 1.5], "texture": "#1"},
				"up": {"uv": [14.33333, 0.5, 15.33333, 1.5], "texture": "#1"},
				"down": {"uv": [14.33333, 0.5, 15.33333, 1.5], "texture": "#1"}
			}
		},
		{
			"name": "hexadecagon",
			"from": [7.95027, 4.15, 3.6],
			"to": [8.04973, 4.25, 7.6],
			"rotation": {"angle": -22.5, "axis": "z", "origin": [8, 4, 3.7]},
			"faces": {
				"north": {"uv": [14.33333, 0.5, 14.58333, 0.75], "texture": "#1"},
				"east": {"uv": [14.33333, 0.5, 15.33333, 1.5], "texture": "#1"},
				"south": {"uv": [14.33333, 0.5, 14.58333, 0.75], "texture": "#1"},
				"west": {"uv": [14.33333, 0.5, 15.33333, 1.5], "texture": "#1"},
				"up": {"uv": [14.33333, 0.5, 15.33333, 1.5], "texture": "#1"},
				"down": {"uv": [14.33333, 0.5, 15.33333, 1.5], "texture": "#1"}
			}
		},
		{
			"name": "hexadecagon",
			"from": [7.95027, 4.15, 3.6],
			"to": [8.04973, 4.25, 7.6],
			"rotation": {"angle": 0, "axis": "y", "origin": [8, 4, 3.7]},
			"faces": {
				"north": {"uv": [14.33333, 0.5, 14.58333, 0.75], "texture": "#1"},
				"east": {"uv": [14.33333, 0.5, 15.33333, 1.5], "texture": "#1"},
				"south": {"uv": [14.33333, 0.5, 14.58333, 0.75], "texture": "#1"},
				"west": {"uv": [14.33333, 0.5, 15.33333, 1.5], "texture": "#1"},
				"up": {"uv": [14.33333, 0.5, 15.33333, 1.5], "texture": "#1"},
				"down": {"uv": [14.33333, 0.5, 15.33333, 1.5], "texture": "#1"}
			}
		},
		{
			"name": "hexadecagon",
			"from": [7.95027, 4.15, 3.6],
			"to": [8.04973, 4.25, 7.6],
			"rotation": {"angle": 22.5, "axis": "z", "origin": [8, 4, 3.7]},
			"faces": {
				"north": {"uv": [14.33333, 0.5, 14.58333, 0.75], "texture": "#1"},
				"east": {"uv": [14.33333, 0.5, 15.33333, 1.5], "texture": "#1"},
				"south": {"uv": [14.33333, 0.5, 14.58333, 0.75], "texture": "#1"},
				"west": {"uv": [14.33333, 0.5, 15.33333, 1.5], "texture": "#1"},
				"up": {"uv": [14.33333, 0.5, 15.33333, 1.5], "texture": "#1"},
				"down": {"uv": [14.33333, 0.5, 15.33333, 1.5], "texture": "#1"}
			}
		},
		{
			"name": "hexadecagon",
			"from": [7.95027, 4.15, 3.6],
			"to": [8.04973, 4.25, 7.6],
			"rotation": {"angle": 45, "axis": "z", "origin": [8, 4, 3.7]},
			"faces": {
				"north": {"uv": [14.33333, 0.5, 14.58333, 0.75], "texture": "#1"},
				"east": {"uv": [14.33333, 0.5, 15.33333, 1.5], "texture": "#1"},
				"south": {"uv": [14.33333, 0.5, 14.58333, 0.75], "texture": "#1"},
				"west": {"uv": [14.33333, 0.5, 15.33333, 1.5], "texture": "#1"},
				"up": {"uv": [14.33333, 0.5, 15.33333, 1.5], "texture": "#1"},
				"down": {"uv": [14.33333, 0.5, 15.33333, 1.5], "texture": "#1"}
			}
		},
		{
			"name": "hexadecagon",
			"from": [7.75, 3.95027, 3.6],
			"to": [7.85, 4.04973, 7.6],
			"rotation": {"angle": -22.5, "axis": "z", "origin": [8, 4, 3.7]},
			"faces": {
				"north": {"uv": [14.33333, 0.5, 14.58333, 0.75], "texture": "#1"},
				"east": {"uv": [14.33333, 0.5, 15.33333, 1.5], "texture": "#1"},
				"south": {"uv": [14.33333, 0.5, 14.58333, 0.75], "texture": "#1"},
				"west": {"uv": [14.33333, 0.5, 15.33333, 1.5], "texture": "#1"},
				"up": {"uv": [14.33333, 0.5, 15.33333, 1.5], "texture": "#1"},
				"down": {"uv": [14.33333, 0.5, 15.33333, 1.5], "texture": "#1"}
			}
		},
		{
			"name": "hexadecagon",
			"from": [7.75, 3.95027, 3.6],
			"to": [7.85, 4.04973, 7.6],
			"rotation": {"angle": 0, "axis": "y", "origin": [8, 4, 3.7]},
			"faces": {
				"north": {"uv": [14, 0.83333, 14.25, 1.08333], "texture": "#1"},
				"east": {"uv": [14, 0.83333, 15, 1.83333], "texture": "#1"},
				"south": {"uv": [14, 0.83333, 14.25, 1.08333], "texture": "#1"},
				"west": {"uv": [14, 0.83333, 15, 1.83333], "texture": "#1"},
				"up": {"uv": [14, 0.83333, 15, 1.83333], "texture": "#1"},
				"down": {"uv": [14, 0.83333, 15, 1.83333], "texture": "#1"}
			}
		},
		{
			"name": "hexadecagon",
			"from": [7.75, 3.95027, 3.6],
			"to": [7.85, 4.04973, 7.6],
			"rotation": {"angle": 22.5, "axis": "z", "origin": [8, 4, 3.7]},
			"faces": {
				"north": {"uv": [14.33333, 0.5, 14.58333, 0.75], "texture": "#1"},
				"east": {"uv": [14.33333, 0.5, 15.33333, 1.5], "texture": "#1"},
				"south": {"uv": [14.33333, 0.5, 14.58333, 0.75], "texture": "#1"},
				"west": {"uv": [14.33333, 0.5, 15.33333, 1.5], "texture": "#1"},
				"up": {"uv": [14.33333, 0.5, 15.33333, 1.5], "texture": "#1"},
				"down": {"uv": [14.33333, 0.5, 15.33333, 1.5], "texture": "#1"}
			}
		},
		{
			"name": "hexadecagon",
			"from": [8.15, 3.95027, 3.6],
			"to": [8.25, 4.04973, 7.6],
			"rotation": {"angle": -22.5, "axis": "z", "origin": [8, 4, 3.7]},
			"faces": {
				"north": {"uv": [14.33333, 0.5, 14.58333, 0.75], "texture": "#1"},
				"east": {"uv": [14.33333, 0.5, 15.33333, 1.5], "texture": "#1"},
				"south": {"uv": [14.33333, 0.5, 14.58333, 0.75], "texture": "#1"},
				"west": {"uv": [14.33333, 0.5, 15.33333, 1.5], "texture": "#1"},
				"up": {"uv": [14.33333, 0.5, 15.33333, 1.5], "texture": "#1"},
				"down": {"uv": [14.33333, 0.5, 15.33333, 1.5], "texture": "#1"}
			}
		},
		{
			"name": "hexadecagon",
			"from": [8.15, 3.95027, 3.6],
			"to": [8.25, 4.04973, 7.6],
			"rotation": {"angle": 0, "axis": "y", "origin": [8, 4, 3.7]},
			"faces": {
				"north": {"uv": [14.33333, 0.5, 14.58333, 0.75], "texture": "#1"},
				"east": {"uv": [14.33333, 0.5, 15.33333, 1.5], "texture": "#1"},
				"south": {"uv": [14.33333, 0.5, 14.58333, 0.75], "texture": "#1"},
				"west": {"uv": [14.33333, 0.5, 15.33333, 1.5], "texture": "#1"},
				"up": {"uv": [14.33333, 0.5, 15.33333, 1.5], "texture": "#1"},
				"down": {"uv": [14.33333, 0.5, 15.33333, 1.5], "texture": "#1"}
			}
		},
		{
			"name": "hexadecagon",
			"from": [8.15, 3.95027, 3.6],
			"to": [8.25, 4.04973, 7.6],
			"rotation": {"angle": 22.5, "axis": "z", "origin": [8, 4, 3.7]},
			"faces": {
				"north": {"uv": [14.33333, 0.5, 14.58333, 0.75], "texture": "#1"},
				"east": {"uv": [14.33333, 0.5, 15.33333, 1.5], "texture": "#1"},
				"south": {"uv": [14.33333, 0.5, 14.58333, 0.75], "texture": "#1"},
				"west": {"uv": [14.33333, 0.5, 15.33333, 1.5], "texture": "#1"},
				"up": {"uv": [14.33333, 0.5, 15.33333, 1.5], "texture": "#1"},
				"down": {"uv": [14.33333, 0.5, 15.33333, 1.5], "texture": "#1"}
			}
		},
		{
			"name": "hexadecagon",
			"from": [7.6886, 3.35839, 3.6],
			"to": [7.78806, 3.45839, 7.6],
			"rotation": {"angle": -45, "axis": "z", "origin": [7.73833, 3.60839, 3.7]},
			"faces": {
				"north": {"uv": [14.33333, 0.5, 14.58333, 0.75], "texture": "#1"},
				"east": {"uv": [14.33333, 0.5, 15.33333, 1.5], "texture": "#1"},
				"south": {"uv": [14.33333, 0.5, 14.58333, 0.75], "texture": "#1"},
				"west": {"uv": [14.33333, 0.5, 15.33333, 1.5], "texture": "#1"},
				"up": {"uv": [14.33333, 0.5, 15.33333, 1.5], "texture": "#1"},
				"down": {"uv": [14.33333, 0.5, 15.33333, 1.5], "texture": "#1"}
			}
		},
		{
			"name": "hexadecagon",
			"from": [7.6886, 3.35839, 3.6],
			"to": [7.78806, 3.45839, 7.6],
			"rotation": {"angle": -22.5, "axis": "z", "origin": [7.73833, 3.60839, 3.7]},
			"faces": {
				"north": {"uv": [14.33333, 0.5, 14.58333, 0.75], "texture": "#1"},
				"east": {"uv": [14.33333, 0.5, 15.33333, 1.5], "texture": "#1"},
				"south": {"uv": [14.33333, 0.5, 14.58333, 0.75], "texture": "#1"},
				"west": {"uv": [14.33333, 0.5, 15.33333, 1.5], "texture": "#1"},
				"up": {"uv": [14.33333, 0.5, 15.33333, 1.5], "texture": "#1"},
				"down": {"uv": [14.33333, 0.5, 15.33333, 1.5], "texture": "#1"}
			}
		},
		{
			"name": "hexadecagon",
			"from": [7.6886, 3.35839, 3.6],
			"to": [7.78806, 3.45839, 7.6],
			"rotation": {"angle": 0, "axis": "y", "origin": [7.73833, 3.60839, 3.7]},
			"faces": {
				"north": {"uv": [14.33333, 0.5, 14.58333, 0.75], "texture": "#1"},
				"east": {"uv": [14.33333, 0.5, 15.33333, 1.5], "texture": "#1"},
				"south": {"uv": [14.33333, 0.5, 14.58333, 0.75], "texture": "#1"},
				"west": {"uv": [14.33333, 0.5, 15.33333, 1.5], "texture": "#1"},
				"up": {"uv": [14.33333, 0.5, 15.33333, 1.5], "texture": "#1"},
				"down": {"uv": [14.33333, 0.5, 15.33333, 1.5], "texture": "#1"}
			}
		},
		{
			"name": "hexadecagon",
			"from": [7.6886, 3.35839, 3.6],
			"to": [7.78806, 3.45839, 7.6],
			"rotation": {"angle": 22.5, "axis": "z", "origin": [7.73833, 3.60839, 3.7]},
			"faces": {
				"north": {"uv": [14.33333, 0.5, 14.58333, 0.75], "texture": "#1"},
				"east": {"uv": [14.33333, 0.5, 15.33333, 1.5], "texture": "#1"},
				"south": {"uv": [14.33333, 0.5, 14.58333, 0.75], "texture": "#1"},
				"west": {"uv": [14.33333, 0.5, 15.33333, 1.5], "texture": "#1"},
				"up": {"uv": [14.33333, 0.5, 15.33333, 1.5], "texture": "#1"},
				"down": {"uv": [14.33333, 0.5, 15.33333, 1.5], "texture": "#1"}
			}
		},
		{
			"name": "hexadecagon",
			"from": [7.6886, 3.35839, 3.6],
			"to": [7.78806, 3.45839, 7.6],
			"rotation": {"angle": 45, "axis": "z", "origin": [7.73833, 3.60839, 3.7]},
			"faces": {
				"north": {"uv": [14.33333, 0.5, 14.58333, 0.75], "texture": "#1"},
				"east": {"uv": [14.33333, 0.5, 15.33333, 1.5], "texture": "#1"},
				"south": {"uv": [14.33333, 0.5, 14.58333, 0.75], "texture": "#1"},
				"west": {"uv": [14.33333, 0.5, 15.33333, 1.5], "texture": "#1"},
				"up": {"uv": [14.33333, 0.5, 15.33333, 1.5], "texture": "#1"},
				"down": {"uv": [14.33333, 0.5, 15.33333, 1.5], "texture": "#1"}
			}
		},
		{
			"name": "hexadecagon",
			"from": [7.6886, 3.75839, 3.6],
			"to": [7.78806, 3.85839, 7.6],
			"rotation": {"angle": -45, "axis": "z", "origin": [7.73833, 3.60839, 3.7]},
			"faces": {
				"north": {"uv": [14.33333, 0.5, 14.58333, 0.75], "texture": "#1"},
				"east": {"uv": [14.33333, 0.5, 15.33333, 1.5], "texture": "#1"},
				"south": {"uv": [14.33333, 0.5, 14.58333, 0.75], "texture": "#1"},
				"west": {"uv": [14.33333, 0.5, 15.33333, 1.5], "texture": "#1"},
				"up": {"uv": [14.33333, 0.5, 15.33333, 1.5], "texture": "#1"},
				"down": {"uv": [14.33333, 0.5, 15.33333, 1.5], "texture": "#1"}
			}
		},
		{
			"name": "hexadecagon",
			"from": [7.6886, 3.75839, 3.6],
			"to": [7.78806, 3.85839, 7.6],
			"rotation": {"angle": -22.5, "axis": "z", "origin": [7.73833, 3.60839, 3.7]},
			"faces": {
				"north": {"uv": [14.33333, 0.5, 14.58333, 0.75], "texture": "#1"},
				"east": {"uv": [14.33333, 0.5, 15.33333, 1.5], "texture": "#1"},
				"south": {"uv": [14.33333, 0.5, 14.58333, 0.75], "texture": "#1"},
				"west": {"uv": [14.33333, 0.5, 15.33333, 1.5], "texture": "#1"},
				"up": {"uv": [14.33333, 0.5, 15.33333, 1.5], "texture": "#1"},
				"down": {"uv": [14.33333, 0.5, 15.33333, 1.5], "texture": "#1"}
			}
		},
		{
			"name": "hexadecagon",
			"from": [7.6886, 3.75839, 3.6],
			"to": [7.78806, 3.85839, 7.6],
			"rotation": {"angle": 0, "axis": "y", "origin": [7.73833, 3.60839, 3.7]},
			"faces": {
				"north": {"uv": [14.33333, 0.5, 14.58333, 0.75], "texture": "#1"},
				"east": {"uv": [14.33333, 0.5, 15.33333, 1.5], "texture": "#1"},
				"south": {"uv": [14.33333, 0.5, 14.58333, 0.75], "texture": "#1"},
				"west": {"uv": [14.33333, 0.5, 15.33333, 1.5], "texture": "#1"},
				"up": {"uv": [14.33333, 0.5, 15.33333, 1.5], "texture": "#1"},
				"down": {"uv": [14.33333, 0.5, 15.33333, 1.5], "texture": "#1"}
			}
		},
		{
			"name": "hexadecagon",
			"from": [7.6886, 3.75839, 3.6],
			"to": [7.78806, 3.85839, 7.6],
			"rotation": {"angle": 22.5, "axis": "z", "origin": [7.73833, 3.60839, 3.7]},
			"faces": {
				"north": {"uv": [14.33333, 0.5, 14.58333, 0.75], "texture": "#1"},
				"east": {"uv": [14.33333, 0.5, 15.33333, 1.5], "texture": "#1"},
				"south": {"uv": [14.33333, 0.5, 14.58333, 0.75], "texture": "#1"},
				"west": {"uv": [14.33333, 0.5, 15.33333, 1.5], "texture": "#1"},
				"up": {"uv": [14.33333, 0.5, 15.33333, 1.5], "texture": "#1"},
				"down": {"uv": [14.33333, 0.5, 15.33333, 1.5], "texture": "#1"}
			}
		},
		{
			"name": "hexadecagon",
			"from": [7.6886, 3.75839, 3.6],
			"to": [7.78806, 3.85839, 7.6],
			"rotation": {"angle": 45, "axis": "z", "origin": [7.73833, 3.60839, 3.7]},
			"faces": {
				"north": {"uv": [14.33333, 0.5, 14.58333, 0.75], "texture": "#1"},
				"east": {"uv": [14.33333, 0.5, 15.33333, 1.5], "texture": "#1"},
				"south": {"uv": [14.33333, 0.5, 14.58333, 0.75], "texture": "#1"},
				"west": {"uv": [14.33333, 0.5, 15.33333, 1.5], "texture": "#1"},
				"up": {"uv": [14.33333, 0.5, 15.33333, 1.5], "texture": "#1"},
				"down": {"uv": [14.33333, 0.5, 15.33333, 1.5], "texture": "#1"}
			}
		},
		{
			"name": "hexadecagon",
			"from": [7.48833, 3.55866, 3.6],
			"to": [7.58833, 3.65811, 7.6],
			"rotation": {"angle": -22.5, "axis": "z", "origin": [7.73833, 3.60839, 3.7]},
			"faces": {
				"north": {"uv": [14.33333, 0.5, 14.58333, 0.75], "texture": "#1"},
				"east": {"uv": [14.33333, 0.5, 15.33333, 1.5], "texture": "#1"},
				"south": {"uv": [14.33333, 0.5, 14.58333, 0.75], "texture": "#1"},
				"west": {"uv": [14.33333, 0.5, 15.33333, 1.5], "texture": "#1"},
				"up": {"uv": [14.33333, 0.5, 15.33333, 1.5], "texture": "#1"},
				"down": {"uv": [14.33333, 0.5, 15.33333, 1.5], "texture": "#1"}
			}
		},
		{
			"name": "hexadecagon",
			"from": [7.48833, 3.55866, 3.6],
			"to": [7.58833, 3.65811, 7.6],
			"rotation": {"angle": 0, "axis": "y", "origin": [7.73833, 3.60839, 3.7]},
			"faces": {
				"north": {"uv": [14.33333, 0.5, 14.58333, 0.75], "texture": "#1"},
				"east": {"uv": [14.33333, 0.5, 15.33333, 1.5], "texture": "#1"},
				"south": {"uv": [14.33333, 0.5, 14.58333, 0.75], "texture": "#1"},
				"west": {"uv": [14.33333, 0.5, 15.33333, 1.5], "texture": "#1"},
				"up": {"uv": [14.33333, 0.5, 15.33333, 1.5], "texture": "#1"},
				"down": {"uv": [14.33333, 0.5, 15.33333, 1.5], "texture": "#1"}
			}
		},
		{
			"name": "hexadecagon",
			"from": [7.48833, 3.55866, 3.6],
			"to": [7.58833, 3.65811, 7.6],
			"rotation": {"angle": 22.5, "axis": "z", "origin": [7.73833, 3.60839, 3.7]},
			"faces": {
				"north": {"uv": [14.33333, 0.5, 14.58333, 0.75], "texture": "#1"},
				"east": {"uv": [14.33333, 0.5, 15.33333, 1.5], "texture": "#1"},
				"south": {"uv": [14.33333, 0.5, 14.58333, 0.75], "texture": "#1"},
				"west": {"uv": [14.33333, 0.5, 15.33333, 1.5], "texture": "#1"},
				"up": {"uv": [14.33333, 0.5, 15.33333, 1.5], "texture": "#1"},
				"down": {"uv": [14.33333, 0.5, 15.33333, 1.5], "texture": "#1"}
			}
		},
		{
			"name": "hexadecagon",
			"from": [7.88833, 3.55866, 3.6],
			"to": [7.98833, 3.65811, 7.6],
			"rotation": {"angle": -22.5, "axis": "z", "origin": [7.73833, 3.60839, 3.7]},
			"faces": {
				"north": {"uv": [14.33333, 0.5, 14.58333, 0.75], "texture": "#1"},
				"east": {"uv": [14.33333, 0.5, 15.33333, 1.5], "texture": "#1"},
				"south": {"uv": [14.33333, 0.5, 14.58333, 0.75], "texture": "#1"},
				"west": {"uv": [14.33333, 0.5, 15.33333, 1.5], "texture": "#1"},
				"up": {"uv": [14.33333, 0.5, 15.33333, 1.5], "texture": "#1"},
				"down": {"uv": [14.33333, 0.5, 15.33333, 1.5], "texture": "#1"}
			}
		},
		{
			"name": "hexadecagon",
			"from": [7.88833, 3.55866, 3.6],
			"to": [8.08833, 3.75811, 7.6],
			"rotation": {"angle": 0, "axis": "y", "origin": [7.73833, 3.60839, 3.7]},
			"faces": {
				"north": {"uv": [14.33333, 0.5, 14.58333, 0.75], "texture": "#1"},
				"east": {"uv": [14.33333, 0.5, 15.33333, 1.5], "texture": "#1"},
				"south": {"uv": [14.33333, 0.5, 14.58333, 0.75], "texture": "#1"},
				"west": {"uv": [14.33333, 0.5, 15.33333, 1.5], "texture": "#1"},
				"up": {"uv": [14.33333, 0.5, 15.33333, 1.5], "texture": "#1"},
				"down": {"uv": [14.33333, 0.5, 15.33333, 1.5], "texture": "#1"}
			}
		},
		{
			"name": "hexadecagon",
			"from": [7.88833, 3.55866, 3.6],
			"to": [7.98833, 3.65811, 7.6],
			"rotation": {"angle": 22.5, "axis": "z", "origin": [7.73833, 3.60839, 3.7]},
			"faces": {
				"north": {"uv": [14.33333, 0.5, 14.58333, 0.75], "texture": "#1"},
				"east": {"uv": [14.33333, 0.5, 15.33333, 1.5], "texture": "#1"},
				"south": {"uv": [14.33333, 0.5, 14.58333, 0.75], "texture": "#1"},
				"west": {"uv": [14.33333, 0.5, 15.33333, 1.5], "texture": "#1"},
				"up": {"uv": [14.33333, 0.5, 15.33333, 1.5], "texture": "#1"},
				"down": {"uv": [14.33333, 0.5, 15.33333, 1.5], "texture": "#1"}
			}
		},
		{
			"name": "hexadecagon",
			"from": [8.21194, 3.35839, 3.6],
			"to": [8.3114, 3.45839, 7.6],
			"rotation": {"angle": -45, "axis": "z", "origin": [8.26167, 3.60839, 3.7]},
			"faces": {
				"north": {"uv": [14.33333, 0.5, 14.58333, 0.75], "texture": "#1"},
				"east": {"uv": [14.33333, 0.5, 15.33333, 1.5], "texture": "#1"},
				"south": {"uv": [14.33333, 0.5, 14.58333, 0.75], "texture": "#1"},
				"west": {"uv": [14.33333, 0.5, 15.33333, 1.5], "texture": "#1"},
				"up": {"uv": [14.33333, 0.5, 15.33333, 1.5], "texture": "#1"},
				"down": {"uv": [14.33333, 0.5, 15.33333, 1.5], "texture": "#1"}
			}
		},
		{
			"name": "hexadecagon",
			"from": [8.21194, 3.35839, 3.6],
			"to": [8.3114, 3.45839, 7.6],
			"rotation": {"angle": -22.5, "axis": "z", "origin": [8.26167, 3.60839, 3.7]},
			"faces": {
				"north": {"uv": [14.33333, 0.5, 14.58333, 0.75], "texture": "#1"},
				"east": {"uv": [14.33333, 0.5, 15.33333, 1.5], "texture": "#1"},
				"south": {"uv": [14.33333, 0.5, 14.58333, 0.75], "texture": "#1"},
				"west": {"uv": [14.33333, 0.5, 15.33333, 1.5], "texture": "#1"},
				"up": {"uv": [14.33333, 0.5, 15.33333, 1.5], "texture": "#1"},
				"down": {"uv": [14.33333, 0.5, 15.33333, 1.5], "texture": "#1"}
			}
		},
		{
			"name": "hexadecagon",
			"from": [8.21194, 3.35839, 3.6],
			"to": [8.3114, 3.45839, 7.6],
			"rotation": {"angle": 0, "axis": "y", "origin": [8.26167, 3.60839, 3.7]},
			"faces": {
				"north": {"uv": [14.33333, 0.5, 14.58333, 0.75], "texture": "#1"},
				"east": {"uv": [14.33333, 0.5, 15.33333, 1.5], "texture": "#1"},
				"south": {"uv": [14.33333, 0.5, 14.58333, 0.75], "texture": "#1"},
				"west": {"uv": [14.33333, 0.5, 15.33333, 1.5], "texture": "#1"},
				"up": {"uv": [14.33333, 0.5, 15.33333, 1.5], "texture": "#1"},
				"down": {"uv": [14.33333, 0.5, 15.33333, 1.5], "texture": "#1"}
			}
		},
		{
			"name": "hexadecagon",
			"from": [8.21194, 3.35839, 3.6],
			"to": [8.3114, 3.45839, 7.6],
			"rotation": {"angle": 22.5, "axis": "z", "origin": [8.26167, 3.60839, 3.7]},
			"faces": {
				"north": {"uv": [14.33333, 0.5, 14.58333, 0.75], "texture": "#1"},
				"east": {"uv": [14.33333, 0.5, 15.33333, 1.5], "texture": "#1"},
				"south": {"uv": [14.33333, 0.5, 14.58333, 0.75], "texture": "#1"},
				"west": {"uv": [14.33333, 0.5, 15.33333, 1.5], "texture": "#1"},
				"up": {"uv": [14.33333, 0.5, 15.33333, 1.5], "texture": "#1"},
				"down": {"uv": [14.33333, 0.5, 15.33333, 1.5], "texture": "#1"}
			}
		},
		{
			"name": "hexadecagon",
			"from": [8.21194, 3.35839, 3.6],
			"to": [8.3114, 3.45839, 7.6],
			"rotation": {"angle": 45, "axis": "z", "origin": [8.26167, 3.60839, 3.7]},
			"faces": {
				"north": {"uv": [14.33333, 0.5, 14.58333, 0.75], "texture": "#1"},
				"east": {"uv": [14.33333, 0.5, 15.33333, 1.5], "texture": "#1"},
				"south": {"uv": [14.33333, 0.5, 14.58333, 0.75], "texture": "#1"},
				"west": {"uv": [14.33333, 0.5, 15.33333, 1.5], "texture": "#1"},
				"up": {"uv": [14.33333, 0.5, 15.33333, 1.5], "texture": "#1"},
				"down": {"uv": [14.33333, 0.5, 15.33333, 1.5], "texture": "#1"}
			}
		},
		{
			"name": "hexadecagon",
			"from": [8.21194, 3.75839, 3.6],
			"to": [8.3114, 3.85839, 7.6],
			"rotation": {"angle": -45, "axis": "z", "origin": [8.26167, 3.60839, 3.7]},
			"faces": {
				"north": {"uv": [14.33333, 0.5, 14.58333, 0.75], "texture": "#1"},
				"east": {"uv": [14.33333, 0.5, 15.33333, 1.5], "texture": "#1"},
				"south": {"uv": [14.33333, 0.5, 14.58333, 0.75], "texture": "#1"},
				"west": {"uv": [14.33333, 0.5, 15.33333, 1.5], "texture": "#1"},
				"up": {"uv": [14.33333, 0.5, 15.33333, 1.5], "texture": "#1"},
				"down": {"uv": [14.33333, 0.5, 15.33333, 1.5], "texture": "#1"}
			}
		},
		{
			"name": "hexadecagon",
			"from": [8.21194, 3.75839, 3.6],
			"to": [8.3114, 3.85839, 7.6],
			"rotation": {"angle": -22.5, "axis": "z", "origin": [8.26167, 3.60839, 3.7]},
			"faces": {
				"north": {"uv": [14.33333, 0.5, 14.58333, 0.75], "texture": "#1"},
				"east": {"uv": [14.33333, 0.5, 15.33333, 1.5], "texture": "#1"},
				"south": {"uv": [14.33333, 0.5, 14.58333, 0.75], "texture": "#1"},
				"west": {"uv": [14.33333, 0.5, 15.33333, 1.5], "texture": "#1"},
				"up": {"uv": [14.33333, 0.5, 15.33333, 1.5], "texture": "#1"},
				"down": {"uv": [14.33333, 0.5, 15.33333, 1.5], "texture": "#1"}
			}
		},
		{
			"name": "hexadecagon",
			"from": [8.21194, 3.75839, 3.6],
			"to": [8.3114, 3.85839, 7.6],
			"rotation": {"angle": 0, "axis": "y", "origin": [8.26167, 3.60839, 3.7]},
			"faces": {
				"north": {"uv": [14.33333, 0.5, 14.58333, 0.75], "texture": "#1"},
				"east": {"uv": [14.33333, 0.5, 15.33333, 1.5], "texture": "#1"},
				"south": {"uv": [14.33333, 0.5, 14.58333, 0.75], "texture": "#1"},
				"west": {"uv": [14.33333, 0.5, 15.33333, 1.5], "texture": "#1"},
				"up": {"uv": [14.33333, 0.5, 15.33333, 1.5], "texture": "#1"},
				"down": {"uv": [14.33333, 0.5, 15.33333, 1.5], "texture": "#1"}
			}
		},
		{
			"name": "hexadecagon",
			"from": [8.21194, 3.75839, 3.6],
			"to": [8.3114, 3.85839, 7.6],
			"rotation": {"angle": 22.5, "axis": "z", "origin": [8.26167, 3.60839, 3.7]},
			"faces": {
				"north": {"uv": [14.33333, 0.5, 14.58333, 0.75], "texture": "#1"},
				"east": {"uv": [14.33333, 0.5, 15.33333, 1.5], "texture": "#1"},
				"south": {"uv": [14.33333, 0.5, 14.58333, 0.75], "texture": "#1"},
				"west": {"uv": [14.33333, 0.5, 15.33333, 1.5], "texture": "#1"},
				"up": {"uv": [14.33333, 0.5, 15.33333, 1.5], "texture": "#1"},
				"down": {"uv": [14.33333, 0.5, 15.33333, 1.5], "texture": "#1"}
			}
		},
		{
			"name": "hexadecagon",
			"from": [8.21194, 3.75839, 3.6],
			"to": [8.3114, 3.85839, 7.6],
			"rotation": {"angle": 45, "axis": "z", "origin": [8.26167, 3.60839, 3.7]},
			"faces": {
				"north": {"uv": [14.33333, 0.5, 14.58333, 0.75], "texture": "#1"},
				"east": {"uv": [14.33333, 0.5, 15.33333, 1.5], "texture": "#1"},
				"south": {"uv": [14.33333, 0.5, 14.58333, 0.75], "texture": "#1"},
				"west": {"uv": [14.33333, 0.5, 15.33333, 1.5], "texture": "#1"},
				"up": {"uv": [14.33333, 0.5, 15.33333, 1.5], "texture": "#1"},
				"down": {"uv": [14.33333, 0.5, 15.33333, 1.5], "texture": "#1"}
			}
		},
		{
			"name": "hexadecagon",
			"from": [7.91167, 3.55866, 3.6],
			"to": [8.11167, 3.65811, 7.6],
			"rotation": {"angle": -22.5, "axis": "z", "origin": [8.26167, 3.60839, 3.7]},
			"faces": {
				"north": {"uv": [14.33333, 0.5, 14.58333, 0.75], "texture": "#1"},
				"east": {"uv": [14.33333, 0.5, 15.33333, 1.5], "texture": "#1"},
				"south": {"uv": [14.33333, 0.5, 14.58333, 0.75], "texture": "#1"},
				"west": {"uv": [14.33333, 0.5, 15.33333, 1.5], "texture": "#1"},
				"up": {"uv": [14.33333, 0.5, 15.33333, 1.5], "texture": "#1"},
				"down": {"uv": [14.33333, 0.5, 15.33333, 1.5], "texture": "#1"}
			}
		},
		{
			"name": "hexadecagon",
			"from": [7.91167, 3.5, 3.6],
			"to": [8.11167, 3.7, 7.6],
			"rotation": {"angle": 0, "axis": "y", "origin": [8.01167, 3.65866, 3.7]},
			"faces": {
				"north": {"uv": [14.33333, 0.5, 14.58333, 0.75], "texture": "#1"},
				"east": {"uv": [14.33333, 0.5, 15.33333, 1.5], "texture": "#1"},
				"south": {"uv": [14.33333, 0.5, 14.58333, 0.75], "texture": "#1"},
				"west": {"uv": [14.33333, 0.5, 15.33333, 1.5], "texture": "#1"},
				"up": {"uv": [14.33333, 0.5, 15.33333, 1.5], "texture": "#1"},
				"down": {"uv": [14.33333, 0.5, 15.33333, 1.5], "texture": "#1"}
			}
		},
		{
			"name": "hexadecagon",
			"from": [8.01167, 3.55866, 3.6],
			"to": [8.11167, 3.65811, 7.6],
			"rotation": {"angle": 22.5, "axis": "z", "origin": [8.26167, 3.60839, 3.7]},
			"faces": {
				"north": {"uv": [14.33333, 0.5, 14.58333, 0.75], "texture": "#1"},
				"east": {"uv": [14.33333, 0.5, 15.33333, 1.5], "texture": "#1"},
				"south": {"uv": [14.33333, 0.5, 14.58333, 0.75], "texture": "#1"},
				"west": {"uv": [14.33333, 0.5, 15.33333, 1.5], "texture": "#1"},
				"up": {"uv": [14.33333, 0.5, 15.33333, 1.5], "texture": "#1"},
				"down": {"uv": [14.33333, 0.5, 15.33333, 1.5], "texture": "#1"}
			}
		},
		{
			"name": "hexadecagon",
			"from": [8.41167, 3.55866, 3.6],
			"to": [8.51167, 3.65811, 7.6],
			"rotation": {"angle": -22.5, "axis": "z", "origin": [8.26167, 3.60839, 3.7]},
			"faces": {
				"north": {"uv": [14.33333, 0.5, 14.58333, 0.75], "texture": "#1"},
				"east": {"uv": [14.33333, 0.5, 15.33333, 1.5], "texture": "#1"},
				"south": {"uv": [14.33333, 0.5, 14.58333, 0.75], "texture": "#1"},
				"west": {"uv": [14.33333, 0.5, 15.33333, 1.5], "texture": "#1"},
				"up": {"uv": [14.33333, 0.5, 15.33333, 1.5], "texture": "#1"},
				"down": {"uv": [14.33333, 0.5, 15.33333, 1.5], "texture": "#1"}
			}
		},
		{
			"name": "hexadecagon",
			"from": [8.41167, 3.55866, 3.6],
			"to": [8.51167, 3.65811, 7.6],
			"rotation": {"angle": 0, "axis": "y", "origin": [8.26167, 3.60839, 3.7]},
			"faces": {
				"north": {"uv": [14.33333, 0.5, 14.58333, 0.75], "texture": "#1"},
				"east": {"uv": [14.33333, 0.5, 15.33333, 1.5], "texture": "#1"},
				"south": {"uv": [14.33333, 0.5, 14.58333, 0.75], "texture": "#1"},
				"west": {"uv": [14.33333, 0.5, 15.33333, 1.5], "texture": "#1"},
				"up": {"uv": [14.33333, 0.5, 15.33333, 1.5], "texture": "#1"},
				"down": {"uv": [14.33333, 0.5, 15.33333, 1.5], "texture": "#1"}
			}
		},
		{
			"name": "hexadecagon",
			"from": [8.41167, 3.55866, 3.6],
			"to": [8.51167, 3.65811, 7.6],
			"rotation": {"angle": 22.5, "axis": "z", "origin": [8.26167, 3.60839, 3.7]},
			"faces": {
				"north": {"uv": [14.33333, 0.5, 14.58333, 0.75], "texture": "#1"},
				"east": {"uv": [14.33333, 0.5, 15.33333, 1.5], "texture": "#1"},
				"south": {"uv": [14.33333, 0.5, 14.58333, 0.75], "texture": "#1"},
				"west": {"uv": [14.33333, 0.5, 15.33333, 1.5], "texture": "#1"},
				"up": {"uv": [14.33333, 0.5, 15.33333, 1.5], "texture": "#1"},
				"down": {"uv": [14.33333, 0.5, 15.33333, 1.5], "texture": "#1"}
			}
		},
		{
			"name": "hexadecagon",
			"from": [7.97669, 3.58281, 3.65],
			"to": [8.02331, 3.81719, 7.9],
			"rotation": {"angle": -45, "axis": "z", "origin": [8, 3.7, 7.4]},
			"faces": {
				"north": {"uv": [0.5, 3.58333, 0.75, 3.83333], "rotation": 180, "texture": "#1"},
				"east": {"uv": [0.5, 3.58333, 1.5, 4.58333], "rotation": 270, "texture": "#1"},
				"south": {"uv": [0.5, 3.58333, 0.75, 3.83333], "texture": "#1"},
				"west": {"uv": [0.5, 3.58333, 1.5, 4.58333], "rotation": 90, "texture": "#1"},
				"up": {"uv": [0.5, 3.58333, 1.5, 4.58333], "rotation": 180, "texture": "#1"},
				"down": {"uv": [0.5, 3.58333, 1.5, 4.58333], "texture": "#1"}
			}
		},
		{
			"name": "hexadecagon",
			"from": [7.97669, 3.58281, 3.65],
			"to": [8.02331, 3.81719, 7.9],
			"rotation": {"angle": -22.5, "axis": "z", "origin": [8, 3.7, 7.4]},
			"faces": {
				"north": {"uv": [0.5, 3.58333, 0.75, 3.83333], "rotation": 180, "texture": "#1"},
				"east": {"uv": [0.5, 3.58333, 1.5, 4.58333], "rotation": 270, "texture": "#1"},
				"south": {"uv": [0.5, 3.58333, 0.75, 3.83333], "texture": "#1"},
				"west": {"uv": [0.5, 3.58333, 1.5, 4.58333], "rotation": 90, "texture": "#1"},
				"up": {"uv": [0.5, 3.58333, 1.5, 4.58333], "rotation": 180, "texture": "#1"},
				"down": {"uv": [0.5, 3.58333, 1.5, 4.58333], "texture": "#1"}
			}
		},
		{
			"name": "hexadecagon",
			"from": [7.97669, 3.58281, 3.65],
			"to": [8.02331, 3.81719, 7.9],
			"rotation": {"angle": 0, "axis": "y", "origin": [8, 3.7, 7.4]},
			"faces": {
				"north": {"uv": [0.5, 3.58333, 0.75, 3.83333], "rotation": 180, "texture": "#1"},
				"east": {"uv": [0.5, 3.58333, 1.5, 4.58333], "rotation": 270, "texture": "#1"},
				"south": {"uv": [0.5, 3.58333, 0.75, 3.83333], "texture": "#1"},
				"west": {"uv": [0.5, 3.58333, 1.5, 4.58333], "rotation": 90, "texture": "#1"},
				"up": {"uv": [0.5, 3.58333, 1.5, 4.58333], "rotation": 180, "texture": "#1"},
				"down": {"uv": [0.5, 3.58333, 1.5, 4.58333], "texture": "#1"}
			}
		},
		{
			"name": "hexadecagon",
			"from": [7.97669, 3.58281, 3.65],
			"to": [8.02331, 3.81719, 7.9],
			"rotation": {"angle": 22.5, "axis": "z", "origin": [8, 3.7, 7.4]},
			"faces": {
				"north": {"uv": [0.5, 3.58333, 0.75, 3.83333], "rotation": 180, "texture": "#1"},
				"east": {"uv": [0.5, 3.58333, 1.5, 4.58333], "rotation": 270, "texture": "#1"},
				"south": {"uv": [0.5, 3.58333, 0.75, 3.83333], "texture": "#1"},
				"west": {"uv": [0.5, 3.58333, 1.5, 4.58333], "rotation": 90, "texture": "#1"},
				"up": {"uv": [0.5, 3.58333, 1.5, 4.58333], "rotation": 180, "texture": "#1"},
				"down": {"uv": [0.5, 3.58333, 1.5, 4.58333], "texture": "#1"}
			}
		},
		{
			"name": "hexadecagon",
			"from": [7.97669, 3.58281, 3.65],
			"to": [8.02331, 3.81719, 7.9],
			"rotation": {"angle": 45, "axis": "z", "origin": [8, 3.7, 7.4]},
			"faces": {
				"north": {"uv": [0.5, 3.58333, 0.75, 3.83333], "rotation": 180, "texture": "#1"},
				"east": {"uv": [0.5, 3.58333, 1.5, 4.58333], "rotation": 270, "texture": "#1"},
				"south": {"uv": [0.5, 3.58333, 0.75, 3.83333], "texture": "#1"},
				"west": {"uv": [0.5, 3.58333, 1.5, 4.58333], "rotation": 90, "texture": "#1"},
				"up": {"uv": [0.5, 3.58333, 1.5, 4.58333], "rotation": 180, "texture": "#1"},
				"down": {"uv": [0.5, 3.58333, 1.5, 4.58333], "texture": "#1"}
			}
		},
		{
			"name": "hexadecagon",
			"from": [7.88281, 3.67669, 3.65],
			"to": [8.11719, 3.72331, 7.9],
			"rotation": {"angle": -22.5, "axis": "z", "origin": [8, 3.7, 7.4]},
			"faces": {
				"north": {"uv": [0.5, 3.58333, 0.75, 3.83333], "rotation": 180, "texture": "#1"},
				"east": {"uv": [0.5, 3.58333, 1.5, 4.58333], "rotation": 270, "texture": "#1"},
				"south": {"uv": [0.5, 3.58333, 0.75, 3.83333], "texture": "#1"},
				"west": {"uv": [0.5, 3.58333, 1.5, 4.58333], "rotation": 90, "texture": "#1"},
				"up": {"uv": [0.5, 3.58333, 1.5, 4.58333], "rotation": 180, "texture": "#1"},
				"down": {"uv": [0.5, 3.58333, 1.5, 4.58333], "texture": "#1"}
			}
		},
		{
			"name": "hexadecagon",
			"from": [7.88281, 3.67669, 3.65],
			"to": [8.11719, 3.72331, 7.9],
			"rotation": {"angle": 0, "axis": "y", "origin": [8, 3.7, 7.4]},
			"faces": {
				"north": {"uv": [0.5, 3.58333, 0.75, 3.83333], "rotation": 180, "texture": "#1"},
				"east": {"uv": [0.5, 3.58333, 1.5, 4.58333], "rotation": 270, "texture": "#1"},
				"south": {"uv": [0.5, 3.58333, 0.75, 3.83333], "texture": "#1"},
				"west": {"uv": [0.5, 3.58333, 1.5, 4.58333], "rotation": 90, "texture": "#1"},
				"up": {"uv": [0.5, 3.58333, 1.5, 4.58333], "rotation": 180, "texture": "#1"},
				"down": {"uv": [0.5, 3.58333, 1.5, 4.58333], "texture": "#1"}
			}
		},
		{
			"name": "hexadecagon",
			"from": [7.88281, 3.67669, 3.65],
			"to": [8.11719, 3.72331, 7.9],
			"rotation": {"angle": 22.5, "axis": "z", "origin": [8, 3.7, 7.4]},
			"faces": {
				"north": {"uv": [0.5, 3.58333, 0.75, 3.83333], "rotation": 180, "texture": "#1"},
				"east": {"uv": [0.5, 3.58333, 1.5, 4.58333], "rotation": 270, "texture": "#1"},
				"south": {"uv": [0.5, 3.58333, 0.75, 3.83333], "texture": "#1"},
				"west": {"uv": [0.5, 3.58333, 1.5, 4.58333], "rotation": 90, "texture": "#1"},
				"up": {"uv": [0.5, 3.58333, 1.5, 4.58333], "rotation": 180, "texture": "#1"},
				"down": {"uv": [0.5, 3.58333, 1.5, 4.58333], "texture": "#1"}
			}
		},
		{
			"name": "hexadecagon",
			"from": [7.42929, 3.05475, 3.6],
			"to": [7.52875, 3.23475, 7.6],
			"rotation": {"angle": -22.5, "axis": "z", "origin": [9.57902, 2.80475, 3.7]},
			"faces": {
				"north": {"uv": [14.33333, 0.5, 14.58333, 0.75], "texture": "#1"},
				"east": {"uv": [14.33333, 0.5, 15.33333, 1.5], "texture": "#1"},
				"south": {"uv": [14.33333, 0.5, 14.58333, 0.75], "texture": "#1"},
				"west": {"uv": [14.33333, 0.5, 15.33333, 1.5], "texture": "#1"},
				"up": {"uv": [14.33333, 0.5, 15.33333, 1.5], "texture": "#1"},
				"down": {"uv": [14.33333, 0.5, 15.33333, 1.5], "texture": "#1"}
			}
		},
		{
			"name": "hexadecagon",
			"from": [8.18128, 3.83251, 3.6],
			"to": [8.28074, 4.01251, 7.6],
			"rotation": {"angle": 22.5, "axis": "z", "origin": [8.23101, 3.92251, 3.7]},
			"faces": {
				"north": {"uv": [14.33333, 0.5, 14.58333, 0.75], "texture": "#1"},
				"east": {"uv": [14.33333, 0.5, 15.33333, 1.5], "texture": "#1"},
				"south": {"uv": [14.33333, 0.5, 14.58333, 0.75], "texture": "#1"},
				"west": {"uv": [14.33333, 0.5, 15.33333, 1.5], "texture": "#1"},
				"up": {"uv": [14.33333, 0.5, 15.33333, 1.5], "texture": "#1"},
				"down": {"uv": [14.33333, 0.5, 15.33333, 1.5], "texture": "#1"}
			}
		}
	],
	"display": {
		"thirdperson_righthand": {
			"translation": [0, 6.25, -0.75],
			"scale": [1.25, 1.25, 1.25]
		},
		"thirdperson_lefthand": {
			"translation": [0, 6.25, -0.75],
			"scale": [1.25, 1.25, 1.25]
		},
		"firstperson_righthand": {
			"translation": [-4.5, 9, 5.5]
		},
		"firstperson_lefthand": {
			"translation": [-4.5, 9, 5.5]
		},
		"ground": {
			"translation": [0, 4.25, 0],
			"scale": [1.25, 1.25, 1.25]
		},
		"gui": {
			"rotation": [90, 45, -90],
			"translation": [8.25, 5.25, 0],
			"scale": [2, 2, 2]
		},
		"fixed": {
			"rotation": [90, 45, -90],
			"translation": [4.5, 3, 0],
			"scale": [1.2, 1.2, 1.2]
		}
	},
	"groups": [
		{
			"name": "neko-arc skin",
			"origin": [8, 8, 8],
			"color": 0,
			"children": [
				0,
				1,
				2,
				3,
				4,
				5,
				6,
				7,
				8,
				9,
				10,
				11,
				12,
				13,
				14,
				15,
				16,
				17,
				18,
				19,
				20,
				21,
				22,
				23,
				24,
				25,
				{
					"name": "barrel",
					"origin": [8.23101, 3.92251, 3.7],
					"color": 0,
					"children": [26, 27, 28, 29, 30, 31, 32, 33, 34, 35, 36, 37, 38, 39, 40, 41, 42, 43, 44, 45, 46, 47, 48, 49, 50, 51, 52, 53, 54, 55, 56, 57, 58, 59, 60, 61, 62, 63, 64, 65, 66, 67, 68, 69, 70, 71, 72, 73, 74, 75, 76, 77, 78, 79, 80, 81, 82, 83]
				},
				{
					"name": "group",
					"origin": [8, 8, 8],
					"color": 0,
					"children": []
				}
			]
		}
	]
}