{
	"credit": "Made with Blockbench",
	"textures": {
		"0": "gci:items/common/mpz",
		"particle": "gci:items/common/mpz"
	},
	"elements": [
		{
			"from": [7.64768, 0.74164, 8.3],
			"to": [8.35232, 3.89396, 9.4],
			"rotation": {"angle": 0, "axis": "y", "origin": [8.14579, 6.06893, 0.27904]},
			"faces": {
				"north": {"uv": [5.66667, 3, 7.5, 4.66667], "rotation": 180, "texture": "#0"},
				"east": {"uv": [5.66667, 3, 7.5, 4.66667], "rotation": 180, "texture": "#0"},
				"south": {"uv": [5.66667, 3, 7.5, 4.66667], "rotation": 180, "texture": "#0"},
				"west": {"uv": [5.66667, 3, 7.5, 4.66667], "rotation": 180, "texture": "#0"},
				"up": {"uv": [5.66667, 3, 7.5, 4.66667], "rotation": 180, "texture": "#0"},
				"down": {"uv": [5.66667, 3, 7.5, 4.66667], "rotation": 180, "texture": "#0"}
			}
		},
		{
			"from": [7.62268, 0.74164, 8.275],
			"to": [8.37732, 0.84164, 9.425],
			"rotation": {"angle": 0, "axis": "y", "origin": [8.14579, 6.06893, 0.27904]},
			"faces": {
				"north": {"uv": [5.66667, 3, 7.5, 4.66667], "rotation": 180, "texture": "#0"},
				"east": {"uv": [5.66667, 3, 7.5, 4.66667], "rotation": 180, "texture": "#0"},
				"south": {"uv": [5.66667, 3, 7.5, 4.66667], "rotation": 180, "texture": "#0"},
				"west": {"uv": [5.66667, 3, 7.5, 4.66667], "rotation": 180, "texture": "#0"},
				"up": {"uv": [5.66667, 3, 7.5, 4.66667], "rotation": 180, "texture": "#0"},
				"down": {"uv": [5.66667, 3, 7.5, 4.66667], "rotation": 180, "texture": "#0"}
			}
		}
	],
	"display": {
		"thirdperson_righthand": {
			"translation": [0, 3.25, 3.75]
		},
		"thirdperson_lefthand": {
			"translation": [0, 3.25, 3.75]
		},
		"firstperson_righthand": {
			"translation": [-5.25, 5.5, 6]
		},
		"firstperson_lefthand": {
			"translation": [-6, 6, 6.5]
		},
		"ground": {
			"translation": [0, 4.25, 0]
		},
		"gui": {
			"rotation": [90, 45, -90],
			"translation": [2.75, 2.75, 0],
			"scale": [1.6, 1.6, 1.6]
		},
		"fixed": {
			"rotation": [90, 45, -90],
			"translation": [1.75, 3, -1]
		}
	}
}