{
	"credit": "Made with Blockbench",
	"textures": {
		"0": "gci:items/common/mpz",
		"particle": "gci:items/common/mpz"
	},
	"elements": [
		{
			"from": [5.09426, 5.80652, 4.143],
			"to": [5.16626, 5.82852, 8.393],
			"rotation": {"angle": 0, "axis": "y", "origin": [5.09451, 5.76953, 6.15932]},
			"faces": {
				"north": {"uv": [3.66667, 3.33333, 4.33333, 4.33333], "rotation": 180, "texture": "#0"},
				"east": {"uv": [3.66667, 3.33333, 4.33333, 4.33333], "rotation": 180, "texture": "#0"},
				"south": {"uv": [3.66667, 3.33333, 4.33333, 4.33333], "rotation": 180, "texture": "#0"},
				"west": {"uv": [3.66667, 3.33333, 4.33333, 4.33333], "rotation": 180, "texture": "#0"},
				"up": {"uv": [3.66667, 3.33333, 4.33333, 4.33333], "rotation": 180, "texture": "#0"},
				"down": {"uv": [3.66667, 3.33333, 4.33333, 4.33333], "rotation": 180, "texture": "#0"}
			}
		},
		{
			"from": [5.0823, 5.77764, 4.143],
			"to": [5.1543, 5.82964, 8.393],
			"rotation": {"angle": -22.5, "axis": "z", "origin": [5.10216, 5.78801, 6.15932]},
			"faces": {
				"north": {"uv": [3.66667, 3.33333, 4.33333, 4.33333], "rotation": 180, "texture": "#0"},
				"east": {"uv": [3.66667, 3.33333, 4.33333, 4.33333], "rotation": 180, "texture": "#0"},
				"south": {"uv": [3.66667, 3.33333, 4.33333, 4.33333], "rotation": 180, "texture": "#0"},
				"west": {"uv": [3.66667, 3.33333, 4.33333, 4.33333], "rotation": 180, "texture": "#0"},
				"up": {"uv": [3.66667, 3.33333, 4.33333, 4.33333], "rotation": 180, "texture": "#0"},
				"down": {"uv": [3.66667, 3.33333, 4.33333, 4.33333], "rotation": 180, "texture": "#0"}
			}
		},
		{
			"from": [5.08937, 5.73345, 4.143],
			"to": [5.16137, 5.79545, 8.393],
			"rotation": {"angle": -45, "axis": "z", "origin": [5.10923, 5.79508, 6.15932]},
			"faces": {
				"north": {"uv": [3.66667, 3.33333, 4.33333, 4.33333], "rotation": 180, "texture": "#0"},
				"east": {"uv": [3.66667, 3.33333, 4.33333, 4.33333], "rotation": 180, "texture": "#0"},
				"south": {"uv": [3.66667, 3.33333, 4.33333, 4.33333], "rotation": 180, "texture": "#0"},
				"west": {"uv": [3.66667, 3.33333, 4.33333, 4.33333], "rotation": 180, "texture": "#0"},
				"up": {"uv": [3.66667, 3.33333, 4.33333, 4.33333], "rotation": 180, "texture": "#0"},
				"down": {"uv": [3.66667, 3.33333, 4.33333, 4.33333], "rotation": 180, "texture": "#0"}
			}
		},
		{
			"from": [5.00025, 5.72333, 4.143],
			"to": [5.07225, 5.79533, 8.393],
			"rotation": {"angle": 22.5, "axis": "z", "origin": [5.10923, 5.79508, 6.15932]},
			"faces": {
				"north": {"uv": [3.66667, 3.33333, 4.33333, 4.33333], "rotation": 90, "texture": "#0"},
				"east": {"uv": [3.66667, 3.33333, 4.33333, 4.33333], "rotation": 90, "texture": "#0"},
				"south": {"uv": [3.66667, 3.33333, 4.33333, 4.33333], "rotation": 90, "texture": "#0"},
				"west": {"uv": [3.66667, 3.33333, 4.33333, 4.33333], "rotation": 90, "texture": "#0"},
				"up": {"uv": [3.66667, 3.33333, 4.33333, 4.33333], "rotation": 90, "texture": "#0"},
				"down": {"uv": [3.66667, 3.33333, 4.33333, 4.33333], "rotation": 90, "texture": "#0"}
			}
		},
		{
			"from": [4.964, 5.68708, 4.143],
			"to": [5.036, 5.75908, 8.393],
			"rotation": {"angle": 0, "axis": "y", "origin": [4.90889, 5.84994, 6.15932]},
			"faces": {
				"north": {"uv": [3.66667, 3.33333, 4.33333, 4.33333], "rotation": 90, "texture": "#0"},
				"east": {"uv": [3.66667, 3.33333, 4.33333, 4.33333], "rotation": 90, "texture": "#0"},
				"south": {"uv": [3.66667, 3.33333, 4.33333, 4.33333], "rotation": 90, "texture": "#0"},
				"west": {"uv": [3.66667, 3.33333, 4.33333, 4.33333], "rotation": 90, "texture": "#0"},
				"up": {"uv": [3.66667, 3.33333, 4.33333, 4.33333], "rotation": 90, "texture": "#0"},
				"down": {"uv": [3.66667, 3.33333, 4.33333, 4.33333], "rotation": 90, "texture": "#0"}
			}
		},
		{
			"from": [4.95013, 5.72057, 4.143],
			"to": [5.02213, 5.79257, 8.393],
			"rotation": {"angle": -22.5, "axis": "z", "origin": [4.90889, 5.84994, 6.15932]},
			"faces": {
				"north": {"uv": [3.66667, 3.33333, 4.33333, 4.33333], "rotation": 90, "texture": "#0"},
				"east": {"uv": [3.66667, 3.33333, 4.33333, 4.33333], "rotation": 90, "texture": "#0"},
				"south": {"uv": [3.66667, 3.33333, 4.33333, 4.33333], "rotation": 90, "texture": "#0"},
				"west": {"uv": [3.66667, 3.33333, 4.33333, 4.33333], "rotation": 90, "texture": "#0"},
				"up": {"uv": [3.66667, 3.33333, 4.33333, 4.33333], "rotation": 90, "texture": "#0"},
				"down": {"uv": [3.66667, 3.33333, 4.33333, 4.33333], "rotation": 90, "texture": "#0"}
			}
		},
		{
			"from": [4.93157, 5.73913, 4.143],
			"to": [4.99357, 5.81113, 8.393],
			"rotation": {"angle": -45, "axis": "z", "origin": [4.91596, 5.84287, 6.15932]},
			"faces": {
				"north": {"uv": [3.66667, 3.33333, 4.33333, 4.33333], "rotation": 90, "texture": "#0"},
				"east": {"uv": [3.66667, 3.33333, 4.33333, 4.33333], "rotation": 90, "texture": "#0"},
				"south": {"uv": [3.66667, 3.33333, 4.33333, 4.33333], "rotation": 90, "texture": "#0"},
				"west": {"uv": [3.66667, 3.33333, 4.33333, 4.33333], "rotation": 90, "texture": "#0"},
				"up": {"uv": [3.66667, 3.33333, 4.33333, 4.33333], "rotation": 90, "texture": "#0"},
				"down": {"uv": [3.66667, 3.33333, 4.33333, 4.33333], "rotation": 90, "texture": "#0"}
			}
		},
		{
			"from": [4.82609, 5.78875, 4.143],
			"to": [4.89809, 5.84075, 8.393],
			"rotation": {"angle": 22.5, "axis": "z", "origin": [4.91596, 5.84287, 6.15932]},
			"faces": {
				"north": {"uv": [3.66667, 3.33333, 4.33333, 4.33333], "texture": "#0"},
				"east": {"uv": [3.66667, 3.33333, 4.33333, 4.33333], "texture": "#0"},
				"south": {"uv": [3.66667, 3.33333, 4.33333, 4.33333], "texture": "#0"},
				"west": {"uv": [3.66667, 3.33333, 4.33333, 4.33333], "texture": "#0"},
				"up": {"uv": [3.66667, 3.33333, 4.33333, 4.33333], "texture": "#0"},
				"down": {"uv": [3.66667, 3.33333, 4.33333, 4.33333], "texture": "#0"}
			}
		},
		{
			"from": [4.86486, 5.76856, 4.143],
			"to": [4.93686, 5.82056, 8.393],
			"rotation": {"angle": -22.5, "axis": "z", "origin": [5, 5.87676, 6.268]},
			"faces": {
				"north": {"uv": [3.66667, 3.33333, 4.33333, 4.33333], "texture": "#0"},
				"east": {"uv": [3.66667, 3.33333, 4.33333, 4.33333], "texture": "#0"},
				"south": {"uv": [3.66667, 3.33333, 4.33333, 4.33333], "texture": "#0"},
				"west": {"uv": [3.66667, 3.33333, 4.33333, 4.33333], "texture": "#0"},
				"up": {"uv": [3.66667, 3.33333, 4.33333, 4.33333], "texture": "#0"},
				"down": {"uv": [3.66667, 3.33333, 4.33333, 4.33333], "texture": "#0"}
			}
		},
		{
			"from": [4.89636, 5.90811, 4.143],
			"to": [4.95836, 5.98011, 8.393],
			"rotation": {"angle": 45, "axis": "z", "origin": [5, 5.87676, 6.268]},
			"faces": {
				"north": {"uv": [3.66667, 3.33333, 4.33333, 4.33333], "rotation": 90, "texture": "#0"},
				"east": {"uv": [3.66667, 3.33333, 4.33333, 4.33333], "rotation": 90, "texture": "#0"},
				"south": {"uv": [3.66667, 3.33333, 4.33333, 4.33333], "rotation": 90, "texture": "#0"},
				"west": {"uv": [3.66667, 3.33333, 4.33333, 4.33333], "rotation": 90, "texture": "#0"},
				"up": {"uv": [3.66667, 3.33333, 4.33333, 4.33333], "rotation": 90, "texture": "#0"},
				"down": {"uv": [3.66667, 3.33333, 4.33333, 4.33333], "rotation": 90, "texture": "#0"}
			}
		},
		{
			"from": [4.92198, 5.88431, 4.143],
			"to": [4.99398, 5.95631, 8.393],
			"rotation": {"angle": 22.5, "axis": "z", "origin": [5, 5.87676, 6.268]},
			"faces": {
				"north": {"uv": [3.66667, 3.33333, 4.33333, 4.33333], "rotation": 270, "texture": "#0"},
				"east": {"uv": [3.66667, 3.33333, 4.33333, 4.33333], "rotation": 270, "texture": "#0"},
				"south": {"uv": [3.66667, 3.33333, 4.33333, 4.33333], "rotation": 270, "texture": "#0"},
				"west": {"uv": [3.66667, 3.33333, 4.33333, 4.33333], "rotation": 270, "texture": "#0"},
				"up": {"uv": [3.66667, 3.33333, 4.33333, 4.33333], "rotation": 270, "texture": "#0"},
				"down": {"uv": [3.66667, 3.33333, 4.33333, 4.33333], "rotation": 270, "texture": "#0"}
			}
		},
		{
			"from": [4.964, 5.87595, 4.143],
			"to": [5.036, 5.94795, 8.393],
			"rotation": {"angle": 0, "axis": "y", "origin": [5, 5.87676, 6.268]},
			"faces": {
				"north": {"uv": [3.66667, 3.33333, 4.33333, 4.33333], "rotation": 270, "texture": "#0"},
				"east": {"uv": [3.66667, 3.33333, 4.33333, 4.33333], "rotation": 270, "texture": "#0"},
				"south": {"uv": [3.66667, 3.33333, 4.33333, 4.33333], "rotation": 270, "texture": "#0"},
				"west": {"uv": [3.66667, 3.33333, 4.33333, 4.33333], "rotation": 270, "texture": "#0"},
				"up": {"uv": [3.66667, 3.33333, 4.33333, 4.33333], "rotation": 270, "texture": "#0"},
				"down": {"uv": [3.66667, 3.33333, 4.33333, 4.33333], "rotation": 270, "texture": "#0"}
			}
		},
		{
			"from": [5.00602, 5.88431, 4.143],
			"to": [5.07802, 5.95631, 8.393],
			"rotation": {"angle": -22.5, "axis": "z", "origin": [5, 5.87676, 6.268]},
			"faces": {
				"north": {"uv": [3.66667, 3.33333, 4.33333, 4.33333], "rotation": 270, "texture": "#0"},
				"east": {"uv": [3.66667, 3.33333, 4.33333, 4.33333], "rotation": 270, "texture": "#0"},
				"south": {"uv": [3.66667, 3.33333, 4.33333, 4.33333], "rotation": 270, "texture": "#0"},
				"west": {"uv": [3.66667, 3.33333, 4.33333, 4.33333], "rotation": 270, "texture": "#0"},
				"up": {"uv": [3.66667, 3.33333, 4.33333, 4.33333], "rotation": 270, "texture": "#0"},
				"down": {"uv": [3.66667, 3.33333, 4.33333, 4.33333], "rotation": 270, "texture": "#0"}
			}
		},
		{
			"from": [5.03135, 5.77313, 4.143],
			"to": [5.10335, 5.83513, 8.393],
			"rotation": {"angle": 45, "axis": "z", "origin": [5, 5.87676, 6.268]},
			"faces": {
				"north": {"uv": [3.66667, 3.33333, 4.33333, 4.33333], "texture": "#0"},
				"east": {"uv": [3.66667, 3.33333, 4.33333, 4.33333], "texture": "#0"},
				"south": {"uv": [3.66667, 3.33333, 4.33333, 4.33333], "texture": "#0"},
				"west": {"uv": [3.66667, 3.33333, 4.33333, 4.33333], "texture": "#0"},
				"up": {"uv": [3.66667, 3.33333, 4.33333, 4.33333], "texture": "#0"},
				"down": {"uv": [3.66667, 3.33333, 4.33333, 4.33333], "texture": "#0"}
			}
		},
		{
			"from": [5.06314, 5.76856, 4.143],
			"to": [5.13514, 5.82056, 8.393],
			"rotation": {"angle": 22.5, "axis": "z", "origin": [5, 5.87676, 6.268]},
			"faces": {
				"north": {"uv": [3.66667, 3.33333, 4.33333, 4.33333], "rotation": 180, "texture": "#0"},
				"east": {"uv": [3.66667, 3.33333, 4.33333, 4.33333], "rotation": 180, "texture": "#0"},
				"south": {"uv": [3.66667, 3.33333, 4.33333, 4.33333], "rotation": 180, "texture": "#0"},
				"west": {"uv": [3.66667, 3.33333, 4.33333, 4.33333], "rotation": 180, "texture": "#0"},
				"up": {"uv": [3.66667, 3.33333, 4.33333, 4.33333], "rotation": 180, "texture": "#0"},
				"down": {"uv": [3.66667, 3.33333, 4.33333, 4.33333], "rotation": 180, "texture": "#0"}
			}
		},
		{
			"from": [4.83374, 5.80652, 4.143],
			"to": [4.90574, 5.82852, 8.393],
			"rotation": {"angle": 0, "axis": "y", "origin": [4.92361, 5.82439, 6.15932]},
			"faces": {
				"north": {"uv": [3.66667, 3.33333, 4.33333, 4.33333], "texture": "#0"},
				"east": {"uv": [3.66667, 3.33333, 4.33333, 4.33333], "texture": "#0"},
				"south": {"uv": [3.66667, 3.33333, 4.33333, 4.33333], "texture": "#0"},
				"west": {"uv": [3.66667, 3.33333, 4.33333, 4.33333], "texture": "#0"},
				"up": {"uv": [3.66667, 3.33333, 4.33333, 4.33333], "texture": "#0"},
				"down": {"uv": [3.66667, 3.33333, 4.33333, 4.33333], "texture": "#0"}
			}
		},
		{
			"from": [4.90657, 5.90168, 5.453],
			"to": [5.12417, 5.98168, 7.033],
			"rotation": {"angle": 0, "axis": "y", "origin": [4.86643, 5.71781, -3.75753]},
			"faces": {
				"north": {"uv": [8.66667, 11.33333, 9.33333, 12.33333], "rotation": 270, "texture": "#0"},
				"east": {"uv": [8.66667, 11.33333, 9.33333, 12.33333], "rotation": 270, "texture": "#0"},
				"south": {"uv": [8.66667, 11.33333, 9.33333, 12.33333], "rotation": 270, "texture": "#0"},
				"west": {"uv": [8.66667, 11.33333, 9.33333, 12.33333], "rotation": 270, "texture": "#0"},
				"up": {"uv": [8.66667, 11.33333, 9.33333, 12.33333], "rotation": 270, "texture": "#0"},
				"down": {"uv": [8.66667, 11.33333, 9.33333, 12.33333], "rotation": 270, "texture": "#0"}
			}
		},
		{
			"from": [5.08417, 5.78854, 5.453],
			"to": [5.20417, 5.94854, 7.033],
			"rotation": {"angle": 45, "axis": "z", "origin": [5.12417, 5.86854, 5.273]},
			"faces": {
				"north": {"uv": [8.66667, 11.33333, 9.33333, 12.33333], "rotation": 180, "texture": "#0"},
				"east": {"uv": [8.66667, 11.33333, 9.33333, 12.33333], "rotation": 180, "texture": "#0"},
				"south": {"uv": [8.66667, 11.33333, 9.33333, 12.33333], "rotation": 180, "texture": "#0"},
				"west": {"uv": [8.66667, 11.33333, 9.33333, 12.33333], "rotation": 180, "texture": "#0"},
				"up": {"uv": [8.66667, 11.33333, 9.33333, 12.33333], "rotation": 180, "texture": "#0"},
				"down": {"uv": [8.66667, 11.33333, 9.33333, 12.33333], "rotation": 180, "texture": "#0"}
			}
		},
		{
			"from": [5.1173, 5.60854, 5.453],
			"to": [5.2373, 5.86854, 7.033],
			"rotation": {"angle": 0, "axis": "z", "origin": [5.1773, 5.78854, 6.393]},
			"faces": {
				"north": {"uv": [8.66667, 11.33333, 9.33333, 12.33333], "rotation": 180, "texture": "#0"},
				"east": {"uv": [8.66667, 11.33333, 9.33333, 12.33333], "rotation": 180, "texture": "#0"},
				"south": {"uv": [8.66667, 11.33333, 9.33333, 12.33333], "rotation": 180, "texture": "#0"},
				"west": {"uv": [8.66667, 11.33333, 9.33333, 12.33333], "rotation": 180, "texture": "#0"},
				"up": {"uv": [8.66667, 11.33333, 9.33333, 12.33333], "rotation": 180, "texture": "#0"},
				"down": {"uv": [8.66667, 11.33333, 9.33333, 12.33333], "rotation": 180, "texture": "#0"}
			}
		},
		{
			"from": [4.72258, 5.69553, 7.30108],
			"to": [5.27738, 5.84553, 7.77808],
			"rotation": {"angle": -22.5, "axis": "x", "origin": [4.99998, 5.77053, 7.33958]},
			"faces": {
				"north": {"uv": [1, 3.33333, 1.66667, 4.33333], "rotation": 270, "texture": "#0"},
				"east": {"uv": [1, 3.33333, 1.66667, 4.33333], "rotation": 270, "texture": "#0"},
				"south": {"uv": [1, 3.33333, 1.66667, 4.33333], "rotation": 270, "texture": "#0"},
				"west": {"uv": [1, 3.33333, 1.66667, 4.33333], "rotation": 270, "texture": "#0"},
				"up": {"uv": [1, 3.33333, 1.66667, 4.33333], "rotation": 270, "texture": "#0"},
				"down": {"uv": [1, 3.33333, 1.66667, 4.33333], "rotation": 270, "texture": "#0"}
			}
		},
		{
			"from": [4.864, 5.89905, 6.693],
			"to": [5.136, 5.99905, 8.293],
			"rotation": {"angle": 0, "axis": "y", "origin": [4.81383, 5.66922, -4.89516]},
			"faces": {
				"north": {"uv": [1, 3.33333, 1.66667, 4.33333], "rotation": 270, "texture": "#0"},
				"east": {"uv": [1, 3.33333, 1.66667, 4.33333], "rotation": 270, "texture": "#0"},
				"south": {"uv": [1, 3.33333, 1.66667, 4.33333], "rotation": 270, "texture": "#0"},
				"west": {"uv": [1, 3.33333, 1.66667, 4.33333], "rotation": 270, "texture": "#0"},
				"up": {"uv": [1, 3.33333, 1.66667, 4.33333], "rotation": 270, "texture": "#0"},
				"down": {"uv": [1, 3.33333, 1.66667, 4.33333], "rotation": 270, "texture": "#0"}
			}
		},
		{
			"from": [4.864, 5.89905, 4.193],
			"to": [5.136, 5.99905, 5.493],
			"rotation": {"angle": 0, "axis": "y", "origin": [4.81383, 5.66922, -4.89516]},
			"faces": {
				"north": {"uv": [1, 3.33333, 1.66667, 4.33333], "rotation": 270, "texture": "#0"},
				"east": {"uv": [1, 3.33333, 1.66667, 4.33333], "rotation": 270, "texture": "#0"},
				"south": {"uv": [1, 3.33333, 1.66667, 4.33333], "rotation": 270, "texture": "#0"},
				"west": {"uv": [1, 3.33333, 1.66667, 4.33333], "rotation": 270, "texture": "#0"},
				"up": {"uv": [1, 3.33333, 1.66667, 4.33333], "rotation": 270, "texture": "#0"},
				"down": {"uv": [1, 3.33333, 1.66667, 4.33333], "rotation": 270, "texture": "#0"}
			}
		},
		{
			"from": [4.864, 5.89905, 5.493],
			"to": [5.036, 5.99905, 6.693],
			"rotation": {"angle": 0, "axis": "y", "origin": [4.81383, 5.66922, -4.89516]},
			"faces": {
				"north": {"uv": [1, 3.33333, 1.66667, 4.33333], "rotation": 270, "texture": "#0"},
				"east": {"uv": [1, 3.33333, 1.66667, 4.33333], "rotation": 270, "texture": "#0"},
				"south": {"uv": [1, 3.33333, 1.66667, 4.33333], "rotation": 270, "texture": "#0"},
				"west": {"uv": [1, 3.33333, 1.66667, 4.33333], "rotation": 270, "texture": "#0"},
				"up": {"uv": [1, 3.33333, 1.66667, 4.33333], "rotation": 270, "texture": "#0"},
				"down": {"uv": [1, 3.33333, 1.66667, 4.33333], "rotation": 270, "texture": "#0"}
			}
		},
		{
			"from": [4.939, 5.449, 4.243],
			"to": [5.061, 5.649, 8.393],
			"rotation": {"angle": 0, "axis": "y", "origin": [4.81383, 5.96922, -4.89516]},
			"faces": {
				"north": {"uv": [1, 3.33333, 1.66667, 4.33333], "rotation": 270, "texture": "#0"},
				"east": {"uv": [1, 3.33333, 1.66667, 4.33333], "rotation": 270, "texture": "#0"},
				"south": {"uv": [1, 3.33333, 1.66667, 4.33333], "rotation": 270, "texture": "#0"},
				"west": {"uv": [1, 3.33333, 1.66667, 4.33333], "rotation": 270, "texture": "#0"},
				"up": {"uv": [1, 3.33333, 1.66667, 4.33333], "rotation": 270, "texture": "#0"},
				"down": {"uv": [1, 3.33333, 1.66667, 4.33333], "rotation": 270, "texture": "#0"}
			}
		},
		{
			"from": [4.86194, 5.46433, 4.243],
			"to": [4.96194, 5.56433, 8.393],
			"rotation": {"angle": -22.5, "axis": "z", "origin": [4.91194, 5.51433, 6.418]},
			"faces": {
				"north": {"uv": [1, 3.33333, 1.66667, 4.33333], "rotation": 270, "texture": "#0"},
				"east": {"uv": [1, 3.33333, 1.66667, 4.33333], "rotation": 270, "texture": "#0"},
				"south": {"uv": [1, 3.33333, 1.66667, 4.33333], "rotation": 270, "texture": "#0"},
				"west": {"uv": [1, 3.33333, 1.66667, 4.33333], "rotation": 270, "texture": "#0"},
				"up": {"uv": [1, 3.33333, 1.66667, 4.33333], "rotation": 270, "texture": "#0"},
				"down": {"uv": [1, 3.33333, 1.66667, 4.33333], "rotation": 270, "texture": "#0"}
			}
		},
		{
			"from": [4.82367, 5.5026, 4.243],
			"to": [5.02367, 5.6026, 8.393],
			"rotation": {"angle": 22.5, "axis": "z", "origin": [4.87367, 5.5526, 6.418]},
			"faces": {
				"north": {"uv": [1, 3.33333, 1.66667, 4.33333], "texture": "#0"},
				"east": {"uv": [1, 3.33333, 1.66667, 4.33333], "texture": "#0"},
				"south": {"uv": [1, 3.33333, 1.66667, 4.33333], "texture": "#0"},
				"west": {"uv": [1, 3.33333, 1.66667, 4.33333], "texture": "#0"},
				"up": {"uv": [1, 3.33333, 1.66667, 4.33333], "texture": "#0"},
				"down": {"uv": [1, 3.33333, 1.66667, 4.33333], "texture": "#0"}
			}
		},
		{
			"from": [4.96755, 5.50846, 4.243],
			"to": [5.16755, 5.60846, 8.393],
			"rotation": {"angle": -22.5, "axis": "z", "origin": [5.10719, 5.53346, 6.418]},
			"faces": {
				"north": {"uv": [1, 3.33333, 1.66667, 4.33333], "rotation": 180, "texture": "#0"},
				"east": {"uv": [1, 3.33333, 1.66667, 4.33333], "rotation": 180, "texture": "#0"},
				"south": {"uv": [1, 3.33333, 1.66667, 4.33333], "rotation": 180, "texture": "#0"},
				"west": {"uv": [1, 3.33333, 1.66667, 4.33333], "rotation": 180, "texture": "#0"},
				"up": {"uv": [1, 3.33333, 1.66667, 4.33333], "rotation": 180, "texture": "#0"},
				"down": {"uv": [1, 3.33333, 1.66667, 4.33333], "rotation": 180, "texture": "#0"}
			}
		},
		{
			"from": [4.99166, 5.57966, 4.243],
			"to": [5.19166, 5.67966, 8.393],
			"rotation": {"angle": 0, "axis": "y", "origin": [5.1313, 5.60466, 6.418]},
			"faces": {
				"north": {"uv": [1, 3.33333, 1.66667, 4.33333], "rotation": 180, "texture": "#0"},
				"east": {"uv": [1, 3.33333, 1.66667, 4.33333], "rotation": 180, "texture": "#0"},
				"south": {"uv": [1, 3.33333, 1.66667, 4.33333], "rotation": 180, "texture": "#0"},
				"west": {"uv": [1, 3.33333, 1.66667, 4.33333], "rotation": 180, "texture": "#0"},
				"up": {"uv": [1, 3.33333, 1.66667, 4.33333], "rotation": 180, "texture": "#0"},
				"down": {"uv": [1, 3.33333, 1.66667, 4.33333], "rotation": 180, "texture": "#0"}
			}
		},
		{
			"from": [4.80834, 5.57966, 4.243],
			"to": [5.00834, 5.67966, 8.393],
			"rotation": {"angle": 0, "axis": "y", "origin": [4.85834, 5.62966, 6.418]},
			"faces": {
				"north": {"uv": [1, 3.33333, 1.66667, 4.33333], "texture": "#0"},
				"east": {"uv": [1, 3.33333, 1.66667, 4.33333], "texture": "#0"},
				"south": {"uv": [1, 3.33333, 1.66667, 4.33333], "texture": "#0"},
				"west": {"uv": [1, 3.33333, 1.66667, 4.33333], "texture": "#0"},
				"up": {"uv": [1, 3.33333, 1.66667, 4.33333], "texture": "#0"},
				"down": {"uv": [1, 3.33333, 1.66667, 4.33333], "texture": "#0"}
			}
		},
		{
			"from": [5.03219, 5.47311, 4.243],
			"to": [5.13219, 5.57311, 8.393],
			"rotation": {"angle": 22.5, "axis": "z", "origin": [5.10719, 5.53346, 6.418]},
			"faces": {
				"north": {"uv": [1, 3.33333, 1.66667, 4.33333], "rotation": 270, "texture": "#0"},
				"east": {"uv": [1, 3.33333, 1.66667, 4.33333], "rotation": 270, "texture": "#0"},
				"south": {"uv": [1, 3.33333, 1.66667, 4.33333], "rotation": 270, "texture": "#0"},
				"west": {"uv": [1, 3.33333, 1.66667, 4.33333], "rotation": 270, "texture": "#0"},
				"up": {"uv": [1, 3.33333, 1.66667, 4.33333], "rotation": 270, "texture": "#0"},
				"down": {"uv": [1, 3.33333, 1.66667, 4.33333], "rotation": 270, "texture": "#0"}
			}
		},
		{
			"from": [4.72258, 5.63763, 4.193],
			"to": [5.27738, 5.73763, 8.493],
			"rotation": {"angle": 0, "axis": "y", "origin": [4.85858, 6.21263, 6.393]},
			"faces": {
				"north": {"uv": [1, 3.33333, 1.66667, 4.33333], "rotation": 270, "texture": "#0"},
				"east": {"uv": [1, 3.33333, 1.66667, 4.33333], "rotation": 270, "texture": "#0"},
				"south": {"uv": [1, 3.33333, 1.66667, 4.33333], "rotation": 270, "texture": "#0"},
				"west": {"uv": [1, 3.33333, 1.66667, 4.33333], "rotation": 270, "texture": "#0"},
				"up": {"uv": [1, 3.33333, 1.66667, 4.33333], "rotation": 270, "texture": "#0"},
				"down": {"uv": [1, 3.33333, 1.66667, 4.33333], "rotation": 270, "texture": "#0"}
			}
		},
		{
			"from": [4.764, 5.80763, 4.193],
			"to": [4.964, 5.95763, 8.293],
			"rotation": {"angle": 45, "axis": "z", "origin": [4.864, 5.85763, 6.393]},
			"faces": {
				"north": {"uv": [1, 3.33333, 1.66667, 4.33333], "rotation": 270, "texture": "#0"},
				"east": {"uv": [1, 3.33333, 1.66667, 4.33333], "rotation": 270, "texture": "#0"},
				"south": {"uv": [1, 3.33333, 1.66667, 4.33333], "rotation": 270, "texture": "#0"},
				"west": {"uv": [1, 3.33333, 1.66667, 4.33333], "rotation": 270, "texture": "#0"},
				"up": {"uv": [1, 3.33333, 1.66667, 4.33333], "rotation": 270, "texture": "#0"},
				"down": {"uv": [1, 3.33333, 1.66667, 4.33333], "rotation": 270, "texture": "#0"}
			}
		},
		{
			"from": [5.086, 5.75763, 6.693],
			"to": [5.236, 5.95763, 8.293],
			"rotation": {"angle": 45, "axis": "z", "origin": [5.136, 5.85763, 6.393]},
			"faces": {
				"north": {"uv": [1, 3.33333, 1.66667, 4.33333], "rotation": 180, "texture": "#0"},
				"east": {"uv": [1, 3.33333, 1.66667, 4.33333], "rotation": 180, "texture": "#0"},
				"south": {"uv": [1, 3.33333, 1.66667, 4.33333], "rotation": 180, "texture": "#0"},
				"west": {"uv": [1, 3.33333, 1.66667, 4.33333], "rotation": 180, "texture": "#0"},
				"up": {"uv": [1, 3.33333, 1.66667, 4.33333], "rotation": 180, "texture": "#0"},
				"down": {"uv": [1, 3.33333, 1.66667, 4.33333], "rotation": 180, "texture": "#0"}
			}
		},
		{
			"from": [5.086, 5.75763, 4.193],
			"to": [5.236, 5.95763, 5.493],
			"rotation": {"angle": 45, "axis": "z", "origin": [5.136, 5.85763, 6.393]},
			"faces": {
				"north": {"uv": [1, 3.33333, 1.66667, 4.33333], "rotation": 180, "texture": "#0"},
				"east": {"uv": [1, 3.33333, 1.66667, 4.33333], "rotation": 180, "texture": "#0"},
				"south": {"uv": [1, 3.33333, 1.66667, 4.33333], "rotation": 180, "texture": "#0"},
				"west": {"uv": [1, 3.33333, 1.66667, 4.33333], "rotation": 180, "texture": "#0"},
				"up": {"uv": [1, 3.33333, 1.66667, 4.33333], "rotation": 180, "texture": "#0"},
				"down": {"uv": [1, 3.33333, 1.66667, 4.33333], "rotation": 180, "texture": "#0"}
			}
		},
		{
			"from": [4.72258, 5.68763, 4.193],
			"to": [4.87258, 5.85763, 8.393],
			"rotation": {"angle": 0, "axis": "y", "origin": [4.79758, 5.88763, 6.393]},
			"faces": {
				"north": {"uv": [1, 3.33333, 1.66667, 4.33333], "rotation": 180, "texture": "#0"},
				"east": {"uv": [1, 3.33333, 1.66667, 4.33333], "rotation": 180, "texture": "#0"},
				"south": {"uv": [1, 3.33333, 1.66667, 4.33333], "rotation": 180, "texture": "#0"},
				"west": {"uv": [1, 3.33333, 1.66667, 4.33333], "rotation": 180, "texture": "#0"},
				"up": {"uv": [1, 3.33333, 1.66667, 4.33333], "rotation": 180, "texture": "#0"},
				"down": {"uv": [1, 3.33333, 1.66667, 4.33333], "rotation": 180, "texture": "#0"}
			}
		},
		{
			"from": [5.12742, 5.68763, 6.693],
			"to": [5.27742, 5.85763, 8.393],
			"rotation": {"angle": 0, "axis": "y", "origin": [5.20242, 5.88763, 6.393]},
			"faces": {
				"north": {"uv": [1, 3.33333, 1.66667, 4.33333], "rotation": 180, "texture": "#0"},
				"east": {"uv": [1, 3.33333, 1.66667, 4.33333], "rotation": 180, "texture": "#0"},
				"south": {"uv": [1, 3.33333, 1.66667, 4.33333], "rotation": 180, "texture": "#0"},
				"west": {"uv": [1, 3.33333, 1.66667, 4.33333], "rotation": 180, "texture": "#0"},
				"up": {"uv": [1, 3.33333, 1.66667, 4.33333], "rotation": 180, "texture": "#0"},
				"down": {"uv": [1, 3.33333, 1.66667, 4.33333], "rotation": 180, "texture": "#0"}
			}
		},
		{
			"from": [5.12742, 5.68763, 4.193],
			"to": [5.27742, 5.85763, 5.493],
			"rotation": {"angle": 0, "axis": "y", "origin": [5.20242, 5.88763, 6.393]},
			"faces": {
				"north": {"uv": [1, 3.33333, 1.66667, 4.33333], "rotation": 180, "texture": "#0"},
				"east": {"uv": [1, 3.33333, 1.66667, 4.33333], "rotation": 180, "texture": "#0"},
				"south": {"uv": [1, 3.33333, 1.66667, 4.33333], "rotation": 180, "texture": "#0"},
				"west": {"uv": [1, 3.33333, 1.66667, 4.33333], "rotation": 180, "texture": "#0"},
				"up": {"uv": [1, 3.33333, 1.66667, 4.33333], "rotation": 180, "texture": "#0"},
				"down": {"uv": [1, 3.33333, 1.66667, 4.33333], "rotation": 180, "texture": "#0"}
			}
		},
		{
			"from": [4.72258, 5.59555, 4.20452],
			"to": [5.27738, 5.69555, 4.40452],
			"rotation": {"angle": 22.5, "axis": "x", "origin": [4.99998, 5.64555, 4.30452]},
			"faces": {
				"north": {"uv": [1, 3.33333, 1.66667, 4.33333], "rotation": 270, "texture": "#0"},
				"east": {"uv": [1, 3.33333, 1.66667, 4.33333], "rotation": 270, "texture": "#0"},
				"south": {"uv": [1, 3.33333, 1.66667, 4.33333], "rotation": 270, "texture": "#0"},
				"west": {"uv": [1, 3.33333, 1.66667, 4.33333], "rotation": 270, "texture": "#0"},
				"up": {"uv": [1, 3.33333, 1.66667, 4.33333], "rotation": 270, "texture": "#0"},
				"down": {"uv": [1, 3.33333, 1.66667, 4.33333], "rotation": 270, "texture": "#0"}
			}
		},
		{
			"from": [4.72258, 6.02774, 4.57107],
			"to": [5.27738, 6.12774, 4.67107],
			"rotation": {"angle": 45, "axis": "x", "origin": [4.99998, 6.07774, 3.92107]},
			"faces": {
				"north": {"uv": [1, 3.33333, 1.66667, 4.33333], "rotation": 270, "texture": "#0"},
				"east": {"uv": [1, 3.33333, 1.66667, 4.33333], "rotation": 270, "texture": "#0"},
				"south": {"uv": [1, 3.33333, 1.66667, 4.33333], "rotation": 270, "texture": "#0"},
				"west": {"uv": [1, 3.33333, 1.66667, 4.33333], "rotation": 270, "texture": "#0"},
				"up": {"uv": [1, 3.33333, 1.66667, 4.33333], "rotation": 270, "texture": "#0"},
				"down": {"uv": [1, 3.33333, 1.66667, 4.33333], "rotation": 270, "texture": "#0"}
			}
		},
		{
			"from": [4.72258, 5.51206, 4.41604],
			"to": [5.27738, 5.66206, 8.49304],
			"rotation": {"angle": 0, "axis": "y", "origin": [4.99998, 6.26206, 3.76604]},
			"faces": {
				"north": {"uv": [1, 3.33333, 1.66667, 4.33333], "rotation": 270, "texture": "#0"},
				"east": {"uv": [1, 3.33333, 1.66667, 4.33333], "rotation": 270, "texture": "#0"},
				"south": {"uv": [1, 3.33333, 1.66667, 4.33333], "rotation": 270, "texture": "#0"},
				"west": {"uv": [1, 3.33333, 1.66667, 4.33333], "rotation": 270, "texture": "#0"},
				"up": {"uv": [1, 3.33333, 1.66667, 4.33333], "rotation": 270, "texture": "#0"},
				"down": {"uv": [1, 3.33333, 1.66667, 4.33333], "rotation": 270, "texture": "#0"}
			}
		},
		{
			"from": [4.72258, 5.65763, 7.716],
			"to": [5.27738, 6.00763, 8.393],
			"rotation": {"angle": 0, "axis": "y", "origin": [4.99998, 5.60763, 3.766]},
			"faces": {
				"north": {"uv": [1, 3.33333, 1.66667, 4.33333], "rotation": 270, "texture": "#0"},
				"east": {"uv": [1, 3.33333, 1.66667, 4.33333], "rotation": 270, "texture": "#0"},
				"south": {"uv": [1, 3.33333, 1.66667, 4.33333], "rotation": 270, "texture": "#0"},
				"west": {"uv": [1, 3.33333, 1.66667, 4.33333], "rotation": 270, "texture": "#0"},
				"up": {"uv": [1, 3.33333, 1.66667, 4.33333], "rotation": 270, "texture": "#0"},
				"down": {"uv": [1, 3.33333, 1.66667, 4.33333], "rotation": 270, "texture": "#0"}
			}
		},
		{
			"from": [4.72258, 5.63531, 8.41652],
			"to": [5.27738, 6.01231, 8.56652],
			"rotation": {"angle": -22.5, "axis": "x", "origin": [4.99998, 5.57381, 8.49152]},
			"faces": {
				"north": {"uv": [1, 3.33333, 1.66667, 4.33333], "rotation": 270, "texture": "#0"},
				"east": {"uv": [1, 3.33333, 1.66667, 4.33333], "rotation": 270, "texture": "#0"},
				"south": {"uv": [1, 3.33333, 1.66667, 4.33333], "rotation": 270, "texture": "#0"},
				"west": {"uv": [1, 3.33333, 1.66667, 4.33333], "rotation": 270, "texture": "#0"},
				"up": {"uv": [1, 3.33333, 1.66667, 4.33333], "rotation": 270, "texture": "#0"},
				"down": {"uv": [1, 3.33333, 1.66667, 4.33333], "rotation": 270, "texture": "#0"}
			}
		},
		{
			"from": [4.72258, 5.51233, 8.38727],
			"to": [5.27738, 5.65933, 8.53727],
			"rotation": {"angle": 0, "axis": "x", "origin": [4.99998, 5.50083, 8.46227]},
			"faces": {
				"north": {"uv": [1, 3.33333, 1.66667, 4.33333], "rotation": 270, "texture": "#0"},
				"east": {"uv": [1, 3.33333, 1.66667, 4.33333], "rotation": 270, "texture": "#0"},
				"south": {"uv": [1, 3.33333, 1.66667, 4.33333], "rotation": 270, "texture": "#0"},
				"west": {"uv": [1, 3.33333, 1.66667, 4.33333], "rotation": 270, "texture": "#0"},
				"up": {"uv": [1, 3.33333, 1.66667, 4.33333], "rotation": 270, "texture": "#0"},
				"down": {"uv": [1, 3.33333, 1.66667, 4.33333], "rotation": 270, "texture": "#0"}
			}
		},
		{
			"from": [4.7476, 4.45206, 6.684],
			"to": [5.2524, 5.62906, 7.584],
			"rotation": {"angle": -22.5, "axis": "x", "origin": [5, 5.04056, 7.134]},
			"faces": {
				"north": {"uv": [1, 3.66667, 1.66667, 4.66667], "rotation": 270, "texture": "#0"},
				"east": {"uv": [1, 3.66667, 1.66667, 4.66667], "rotation": 270, "texture": "#0"},
				"south": {"uv": [1, 3.66667, 1.66667, 4.66667], "rotation": 270, "texture": "#0"},
				"west": {"uv": [1, 3.66667, 1.66667, 4.66667], "rotation": 270, "texture": "#0"},
				"up": {"uv": [1, 3.66667, 1.66667, 4.66667], "rotation": 270, "texture": "#0"},
				"down": {"uv": [1, 3.66667, 1.66667, 4.66667], "rotation": 270, "texture": "#0"}
			}
		},
		{
			"from": [4.7476, 4.32465, 6.94346],
			"to": [5.2524, 5.10165, 7.74346],
			"rotation": {"angle": 0, "axis": "y", "origin": [5, 6.51315, 7.69346]},
			"faces": {
				"north": {"uv": [1, 3.66667, 1.66667, 4.66667], "rotation": 270, "texture": "#0"},
				"east": {"uv": [1, 3.66667, 1.66667, 4.66667], "rotation": 270, "texture": "#0"},
				"south": {"uv": [1, 3.66667, 1.66667, 4.66667], "rotation": 270, "texture": "#0"},
				"west": {"uv": [1, 3.66667, 1.66667, 4.66667], "rotation": 270, "texture": "#0"},
				"up": {"uv": [1, 3.66667, 1.66667, 4.66667], "rotation": 270, "texture": "#0"},
				"down": {"uv": [1, 3.66667, 1.66667, 4.66667], "rotation": 270, "texture": "#0"}
			}
		},
		{
			"from": [4.7476, 4.40597, 7.6523],
			"to": [5.2524, 4.98297, 8.1523],
			"rotation": {"angle": -22.5, "axis": "x", "origin": [5, 4.59447, 7.9023]},
			"faces": {
				"north": {"uv": [1, 3.66667, 1.66667, 4.66667], "rotation": 270, "texture": "#0"},
				"east": {"uv": [1, 3.66667, 1.66667, 4.66667], "rotation": 270, "texture": "#0"},
				"south": {"uv": [1, 3.66667, 1.66667, 4.66667], "rotation": 270, "texture": "#0"},
				"west": {"uv": [1, 3.66667, 1.66667, 4.66667], "rotation": 270, "texture": "#0"},
				"up": {"uv": [1, 3.66667, 1.66667, 4.66667], "rotation": 270, "texture": "#0"},
				"down": {"uv": [1, 3.66667, 1.66667, 4.66667], "rotation": 270, "texture": "#0"}
			}
		},
		{
			"from": [4.7476, 5.11986, 7.11857],
			"to": [5.2524, 5.39686, 8.01857],
			"rotation": {"angle": 22.5, "axis": "x", "origin": [5, 5.25836, 7.76857]},
			"faces": {
				"north": {"uv": [1, 3.66667, 1.66667, 4.66667], "rotation": 270, "texture": "#0"},
				"east": {"uv": [1, 3.66667, 1.66667, 4.66667], "rotation": 270, "texture": "#0"},
				"south": {"uv": [1, 3.66667, 1.66667, 4.66667], "rotation": 270, "texture": "#0"},
				"west": {"uv": [1, 3.66667, 1.66667, 4.66667], "rotation": 270, "texture": "#0"},
				"up": {"uv": [1, 3.66667, 1.66667, 4.66667], "rotation": 270, "texture": "#0"},
				"down": {"uv": [1, 3.66667, 1.66667, 4.66667], "rotation": 270, "texture": "#0"}
			}
		},
		{
			"from": [4.7476, 4.94907, 7.08459],
			"to": [5.2524, 5.32607, 7.98459],
			"rotation": {"angle": 0, "axis": "y", "origin": [5, 5.18757, 7.03459]},
			"faces": {
				"north": {"uv": [1, 3.66667, 1.66667, 4.66667], "rotation": 270, "texture": "#0"},
				"east": {"uv": [1, 3.66667, 1.66667, 4.66667], "rotation": 270, "texture": "#0"},
				"south": {"uv": [1, 3.66667, 1.66667, 4.66667], "rotation": 270, "texture": "#0"},
				"west": {"uv": [1, 3.66667, 1.66667, 4.66667], "rotation": 270, "texture": "#0"},
				"up": {"uv": [1, 3.66667, 1.66667, 4.66667], "rotation": 270, "texture": "#0"},
				"down": {"uv": [1, 3.66667, 1.66667, 4.66667], "rotation": 270, "texture": "#0"}
			}
		},
		{
			"from": [4.7476, 6.05352, 7.71174],
			"to": [5.2524, 6.55352, 8.08874],
			"rotation": {"angle": -22.5, "axis": "x", "origin": [5, 6.30352, 9.95024]},
			"faces": {
				"north": {"uv": [1, 3.66667, 1.66667, 4.66667], "rotation": 270, "texture": "#0"},
				"east": {"uv": [1, 3.66667, 1.66667, 4.66667], "rotation": 270, "texture": "#0"},
				"south": {"uv": [1, 3.66667, 1.66667, 4.66667], "rotation": 270, "texture": "#0"},
				"west": {"uv": [1, 3.66667, 1.66667, 4.66667], "rotation": 270, "texture": "#0"},
				"up": {"uv": [1, 3.66667, 1.66667, 4.66667], "rotation": 270, "texture": "#0"},
				"down": {"uv": [1, 3.66667, 1.66667, 4.66667], "rotation": 270, "texture": "#0"}
			}
		},
		{
			"from": [4.7476, 5.26464, 7.61531],
			"to": [5.2524, 5.54164, 8.11531],
			"rotation": {"angle": 45, "axis": "x", "origin": [5, 5.40314, 7.86531]},
			"faces": {
				"north": {"uv": [1, 3.66667, 1.66667, 4.66667], "rotation": 270, "texture": "#0"},
				"east": {"uv": [1, 3.66667, 1.66667, 4.66667], "rotation": 270, "texture": "#0"},
				"south": {"uv": [1, 3.66667, 1.66667, 4.66667], "rotation": 270, "texture": "#0"},
				"west": {"uv": [1, 3.66667, 1.66667, 4.66667], "rotation": 270, "texture": "#0"},
				"up": {"uv": [1, 3.66667, 1.66667, 4.66667], "rotation": 270, "texture": "#0"},
				"down": {"uv": [1, 3.66667, 1.66667, 4.66667], "rotation": 270, "texture": "#0"}
			}
		},
		{
			"from": [4.7476, 5.48535, 8.35127],
			"to": [5.2524, 5.55235, 8.45127],
			"rotation": {"angle": 0, "axis": "y", "origin": [5, 5.52385, 7.75127]},
			"faces": {
				"north": {"uv": [1, 3.66667, 1.66667, 4.66667], "rotation": 270, "texture": "#0"},
				"east": {"uv": [1, 3.66667, 1.66667, 4.66667], "rotation": 270, "texture": "#0"},
				"south": {"uv": [1, 3.66667, 1.66667, 4.66667], "rotation": 270, "texture": "#0"},
				"west": {"uv": [1, 3.66667, 1.66667, 4.66667], "rotation": 270, "texture": "#0"},
				"up": {"uv": [1, 3.66667, 1.66667, 4.66667], "rotation": 270, "texture": "#0"},
				"down": {"uv": [1, 3.66667, 1.66667, 4.66667], "rotation": 270, "texture": "#0"}
			}
		},
		{
			"from": [4.7476, 5.39348, 8.22948],
			"to": [5.2524, 5.59348, 8.40648],
			"rotation": {"angle": -45, "axis": "x", "origin": [5, 5.49348, 8.31798]},
			"faces": {
				"north": {"uv": [1, 3.66667, 1.66667, 4.66667], "rotation": 270, "texture": "#0"},
				"east": {"uv": [1, 3.66667, 1.66667, 4.66667], "rotation": 270, "texture": "#0"},
				"south": {"uv": [1, 3.66667, 1.66667, 4.66667], "rotation": 270, "texture": "#0"},
				"west": {"uv": [1, 3.66667, 1.66667, 4.66667], "rotation": 270, "texture": "#0"},
				"up": {"uv": [1, 3.66667, 1.66667, 4.66667], "rotation": 270, "texture": "#0"},
				"down": {"uv": [1, 3.66667, 1.66667, 4.66667], "rotation": 270, "texture": "#0"}
			}
		},
		{
			"from": [4.7476, 5.41206, 4.91604],
			"to": [5.2524, 5.51206, 8.29304],
			"rotation": {"angle": 0, "axis": "y", "origin": [4.99998, 6.56206, 3.76604]},
			"faces": {
				"north": {"uv": [1, 3.66667, 1.66667, 4.66667], "rotation": 270, "texture": "#0"},
				"east": {"uv": [1, 3.66667, 1.66667, 4.66667], "rotation": 270, "texture": "#0"},
				"south": {"uv": [1, 3.66667, 1.66667, 4.66667], "rotation": 270, "texture": "#0"},
				"west": {"uv": [1, 3.66667, 1.66667, 4.66667], "rotation": 270, "texture": "#0"},
				"up": {"uv": [1, 3.66667, 1.66667, 4.66667], "rotation": 270, "texture": "#0"},
				"down": {"uv": [1, 3.66667, 1.66667, 4.66667], "rotation": 270, "texture": "#0"}
			}
		},
		{
			"from": [4.94456, 5.26383, 4.91604],
			"to": [5.04456, 5.36383, 8.19304],
			"rotation": {"angle": 45, "axis": "z", "origin": [4.96956, 5.58883, 6.75454]},
			"faces": {
				"north": {"uv": [1, 3.66667, 1.66667, 4.66667], "rotation": 270, "texture": "#0"},
				"east": {"uv": [1, 3.66667, 1.66667, 4.66667], "rotation": 270, "texture": "#0"},
				"south": {"uv": [1, 3.66667, 1.66667, 4.66667], "rotation": 270, "texture": "#0"},
				"west": {"uv": [1, 3.66667, 1.66667, 4.66667], "rotation": 270, "texture": "#0"},
				"up": {"uv": [1, 3.66667, 1.66667, 4.66667], "rotation": 270, "texture": "#0"},
				"down": {"uv": [1, 3.66667, 1.66667, 4.66667], "rotation": 270, "texture": "#0"}
			}
		},
		{
			"from": [4.81831, 5.34135, 4.91604],
			"to": [5.18131, 5.44135, 6.89304],
			"rotation": {"angle": 0, "axis": "y", "origin": [5.07069, 7.59135, 3.76604]},
			"faces": {
				"north": {"uv": [1, 3.66667, 1.66667, 4.66667], "rotation": 270, "texture": "#0"},
				"east": {"uv": [1, 3.66667, 1.66667, 4.66667], "rotation": 270, "texture": "#0"},
				"south": {"uv": [1, 3.66667, 1.66667, 4.66667], "rotation": 270, "texture": "#0"},
				"west": {"uv": [1, 3.66667, 1.66667, 4.66667], "rotation": 270, "texture": "#0"},
				"up": {"uv": [1, 3.66667, 1.66667, 4.66667], "rotation": 270, "texture": "#0"},
				"down": {"uv": [1, 3.66667, 1.66667, 4.66667], "rotation": 270, "texture": "#0"}
			}
		},
		{
			"from": [4.79331, 5.3517, 4.91604],
			"to": [4.89331, 5.4517, 8.19304],
			"rotation": {"angle": 45, "axis": "z", "origin": [4.81831, 5.3767, 6.75454]},
			"faces": {
				"north": {"uv": [1, 3.66667, 1.66667, 4.66667], "rotation": 270, "texture": "#0"},
				"east": {"uv": [1, 3.66667, 1.66667, 4.66667], "rotation": 270, "texture": "#0"},
				"south": {"uv": [1, 3.66667, 1.66667, 4.66667], "rotation": 270, "texture": "#0"},
				"west": {"uv": [1, 3.66667, 1.66667, 4.66667], "rotation": 270, "texture": "#0"},
				"up": {"uv": [1, 3.66667, 1.66667, 4.66667], "rotation": 270, "texture": "#0"},
				"down": {"uv": [1, 3.66667, 1.66667, 4.66667], "rotation": 270, "texture": "#0"}
			}
		},
		{
			"from": [4.7476, 4.9566, 6.40965],
			"to": [5.2524, 5.2366, 6.55965],
			"rotation": {"angle": 45, "axis": "x", "origin": [5, 4.98657, 6.50965]},
			"faces": {
				"north": {"uv": [1, 3.66667, 1.66667, 4.66667], "rotation": 270, "texture": "#0"},
				"east": {"uv": [1, 3.66667, 1.66667, 4.66667], "rotation": 270, "texture": "#0"},
				"south": {"uv": [1, 3.66667, 1.66667, 4.66667], "rotation": 270, "texture": "#0"},
				"west": {"uv": [1, 3.66667, 1.66667, 4.66667], "rotation": 270, "texture": "#0"},
				"up": {"uv": [1, 3.66667, 1.66667, 4.66667], "rotation": 270, "texture": "#0"},
				"down": {"uv": [1, 3.66667, 1.66667, 4.66667], "rotation": 270, "texture": "#0"}
			}
		},
		{
			"from": [4.7476, 4.93609, 6.41775],
			"to": [5.2524, 5.03609, 6.61775],
			"rotation": {"angle": 0, "axis": "y", "origin": [5, 5.57459, 6.51775]},
			"faces": {
				"north": {"uv": [1, 3.66667, 1.66667, 4.66667], "rotation": 270, "texture": "#0"},
				"east": {"uv": [1, 3.66667, 1.66667, 4.66667], "rotation": 270, "texture": "#0"},
				"south": {"uv": [1, 3.66667, 1.66667, 4.66667], "rotation": 270, "texture": "#0"},
				"west": {"uv": [1, 3.66667, 1.66667, 4.66667], "rotation": 270, "texture": "#0"},
				"up": {"uv": [1, 3.66667, 1.66667, 4.66667], "rotation": 270, "texture": "#0"},
				"down": {"uv": [1, 3.66667, 1.66667, 4.66667], "rotation": 270, "texture": "#0"}
			}
		},
		{
			"from": [4.7476, 4.85575, 6.42166],
			"to": [5.2524, 5.05575, 6.52166],
			"rotation": {"angle": 22.5, "axis": "x", "origin": [5, 4.90575, 6.62166]},
			"faces": {
				"north": {"uv": [1, 3.66667, 1.66667, 4.66667], "rotation": 270, "texture": "#0"},
				"east": {"uv": [1, 3.66667, 1.66667, 4.66667], "rotation": 270, "texture": "#0"},
				"south": {"uv": [1, 3.66667, 1.66667, 4.66667], "rotation": 270, "texture": "#0"},
				"west": {"uv": [1, 3.66667, 1.66667, 4.66667], "rotation": 270, "texture": "#0"},
				"up": {"uv": [1, 3.66667, 1.66667, 4.66667], "rotation": 270, "texture": "#0"},
				"down": {"uv": [1, 3.66667, 1.66667, 4.66667], "rotation": 270, "texture": "#0"}
			}
		},
		{
			"from": [4.91831, 4.94135, 5.81604],
			"to": [5.08131, 4.98135, 6.89304],
			"rotation": {"angle": 0, "axis": "y", "origin": [5.07069, 7.59135, 3.76604]},
			"faces": {
				"north": {"uv": [1, 3.66667, 1.66667, 4.66667], "rotation": 270, "texture": "#0"},
				"east": {"uv": [1, 3.66667, 1.66667, 4.66667], "rotation": 270, "texture": "#0"},
				"south": {"uv": [1, 3.66667, 1.66667, 4.66667], "rotation": 270, "texture": "#0"},
				"west": {"uv": [1, 3.66667, 1.66667, 4.66667], "rotation": 270, "texture": "#0"},
				"up": {"uv": [1, 3.66667, 1.66667, 4.66667], "rotation": 270, "texture": "#0"},
				"down": {"uv": [1, 3.66667, 1.66667, 4.66667], "rotation": 270, "texture": "#0"}
			}
		},
		{
			"from": [4.91831, 5.10267, 5.79802],
			"to": [5.08131, 5.14267, 5.86802],
			"rotation": {"angle": 22.5, "axis": "x", "origin": [4.99981, 5.15267, 5.43652]},
			"faces": {
				"north": {"uv": [1, 3.66667, 1.66667, 4.66667], "rotation": 270, "texture": "#0"},
				"east": {"uv": [1, 3.66667, 1.66667, 4.66667], "rotation": 270, "texture": "#0"},
				"south": {"uv": [1, 3.66667, 1.66667, 4.66667], "rotation": 270, "texture": "#0"},
				"west": {"uv": [1, 3.66667, 1.66667, 4.66667], "rotation": 270, "texture": "#0"},
				"up": {"uv": [1, 3.66667, 1.66667, 4.66667], "rotation": 270, "texture": "#0"},
				"down": {"uv": [1, 3.66667, 1.66667, 4.66667], "rotation": 270, "texture": "#0"}
			}
		},
		{
			"from": [4.91831, 4.97642, 5.70137],
			"to": [5.08131, 5.01642, 5.77137],
			"rotation": {"angle": 45, "axis": "x", "origin": [4.99981, 4.99642, 5.75137]},
			"faces": {
				"north": {"uv": [1, 3.66667, 1.66667, 4.66667], "rotation": 270, "texture": "#0"},
				"east": {"uv": [1, 3.66667, 1.66667, 4.66667], "rotation": 270, "texture": "#0"},
				"south": {"uv": [1, 3.66667, 1.66667, 4.66667], "rotation": 270, "texture": "#0"},
				"west": {"uv": [1, 3.66667, 1.66667, 4.66667], "rotation": 270, "texture": "#0"},
				"up": {"uv": [1, 3.66667, 1.66667, 4.66667], "rotation": 270, "texture": "#0"},
				"down": {"uv": [1, 3.66667, 1.66667, 4.66667], "rotation": 270, "texture": "#0"}
			}
		},
		{
			"from": [4.91831, 5.02262, 5.68696],
			"to": [5.08131, 5.09262, 5.72696],
			"rotation": {"angle": -22.5, "axis": "x", "origin": [4.99981, 5.05762, 5.70696]},
			"faces": {
				"north": {"uv": [1, 3.66667, 1.66667, 4.66667], "rotation": 270, "texture": "#0"},
				"east": {"uv": [1, 3.66667, 1.66667, 4.66667], "rotation": 270, "texture": "#0"},
				"south": {"uv": [1, 3.66667, 1.66667, 4.66667], "rotation": 270, "texture": "#0"},
				"west": {"uv": [1, 3.66667, 1.66667, 4.66667], "rotation": 270, "texture": "#0"},
				"up": {"uv": [1, 3.66667, 1.66667, 4.66667], "rotation": 270, "texture": "#0"},
				"down": {"uv": [1, 3.66667, 1.66667, 4.66667], "rotation": 270, "texture": "#0"}
			}
		},
		{
			"from": [4.91831, 5.19545, 5.67844],
			"to": [5.08131, 5.29545, 5.71844],
			"rotation": {"angle": -22.5, "axis": "x", "origin": [4.99981, 5.23045, 5.49844]},
			"faces": {
				"north": {"uv": [1, 3.66667, 1.66667, 4.66667], "rotation": 270, "texture": "#0"},
				"east": {"uv": [1, 3.66667, 1.66667, 4.66667], "rotation": 270, "texture": "#0"},
				"south": {"uv": [1, 3.66667, 1.66667, 4.66667], "rotation": 270, "texture": "#0"},
				"west": {"uv": [1, 3.66667, 1.66667, 4.66667], "rotation": 270, "texture": "#0"},
				"up": {"uv": [1, 3.66667, 1.66667, 4.66667], "rotation": 270, "texture": "#0"},
				"down": {"uv": [1, 3.66667, 1.66667, 4.66667], "rotation": 270, "texture": "#0"}
			}
		},
		{
			"from": [4.91831, 5.27199, 5.68696],
			"to": [5.08131, 5.37199, 5.72696],
			"rotation": {"angle": 22.5, "axis": "x", "origin": [4.99981, 5.30699, 5.70696]},
			"faces": {
				"north": {"uv": [1, 3.66667, 1.66667, 4.66667], "rotation": 270, "texture": "#0"},
				"east": {"uv": [1, 3.66667, 1.66667, 4.66667], "rotation": 270, "texture": "#0"},
				"south": {"uv": [1, 3.66667, 1.66667, 4.66667], "rotation": 270, "texture": "#0"},
				"west": {"uv": [1, 3.66667, 1.66667, 4.66667], "rotation": 270, "texture": "#0"},
				"up": {"uv": [1, 3.66667, 1.66667, 4.66667], "rotation": 270, "texture": "#0"},
				"down": {"uv": [1, 3.66667, 1.66667, 4.66667], "rotation": 270, "texture": "#0"}
			}
		},
		{
			"from": [4.91831, 5.0823, 5.67509],
			"to": [5.08131, 5.3823, 5.71509],
			"rotation": {"angle": 0, "axis": "x", "origin": [4.99981, 5.1173, 5.69509]},
			"faces": {
				"north": {"uv": [1, 3.66667, 1.66667, 4.66667], "rotation": 270, "texture": "#0"},
				"east": {"uv": [1, 3.66667, 1.66667, 4.66667], "rotation": 270, "texture": "#0"},
				"south": {"uv": [1, 3.66667, 1.66667, 4.66667], "rotation": 270, "texture": "#0"},
				"west": {"uv": [1, 3.66667, 1.66667, 4.66667], "rotation": 270, "texture": "#0"},
				"up": {"uv": [1, 3.66667, 1.66667, 4.66667], "rotation": 270, "texture": "#0"},
				"down": {"uv": [1, 3.66667, 1.66667, 4.66667], "rotation": 270, "texture": "#0"}
			}
		},
		{
			"from": [4.7476, 5.09263, 6.4743],
			"to": [5.2524, 5.26963, 6.6743],
			"rotation": {"angle": 0, "axis": "x", "origin": [5, 4.08113, 6.1243]},
			"faces": {
				"north": {"uv": [1, 3.66667, 1.66667, 4.66667], "rotation": 270, "texture": "#0"},
				"east": {"uv": [1, 3.66667, 1.66667, 4.66667], "rotation": 270, "texture": "#0"},
				"south": {"uv": [1, 3.66667, 1.66667, 4.66667], "rotation": 270, "texture": "#0"},
				"west": {"uv": [1, 3.66667, 1.66667, 4.66667], "rotation": 270, "texture": "#0"},
				"up": {"uv": [1, 3.66667, 1.66667, 4.66667], "rotation": 270, "texture": "#0"},
				"down": {"uv": [1, 3.66667, 1.66667, 4.66667], "rotation": 270, "texture": "#0"}
			}
		},
		{
			"from": [4.7476, 5.19159, 6.43889],
			"to": [5.2524, 5.66859, 6.59189],
			"rotation": {"angle": -45, "axis": "x", "origin": [5, 5.33009, 6.53889]},
			"faces": {
				"north": {"uv": [1, 3.66667, 1.66667, 4.66667], "rotation": 270, "texture": "#0"},
				"east": {"uv": [1, 3.66667, 1.66667, 4.66667], "rotation": 270, "texture": "#0"},
				"south": {"uv": [1, 3.66667, 1.66667, 4.66667], "rotation": 270, "texture": "#0"},
				"west": {"uv": [1, 3.66667, 1.66667, 4.66667], "rotation": 270, "texture": "#0"},
				"up": {"uv": [1, 3.66667, 1.66667, 4.66667], "rotation": 270, "texture": "#0"},
				"down": {"uv": [1, 3.66667, 1.66667, 4.66667], "rotation": 270, "texture": "#0"}
			}
		},
		{
			"from": [4.7476, 4.94011, 6.47158],
			"to": [5.2524, 5.04011, 6.67158],
			"rotation": {"angle": -22.5, "axis": "x", "origin": [5, 4.99011, 6.57158]},
			"faces": {
				"north": {"uv": [1, 3.66667, 1.66667, 4.66667], "rotation": 270, "texture": "#0"},
				"east": {"uv": [1, 3.66667, 1.66667, 4.66667], "rotation": 270, "texture": "#0"},
				"south": {"uv": [1, 3.66667, 1.66667, 4.66667], "rotation": 270, "texture": "#0"},
				"west": {"uv": [1, 3.66667, 1.66667, 4.66667], "rotation": 270, "texture": "#0"},
				"up": {"uv": [1, 3.66667, 1.66667, 4.66667], "rotation": 270, "texture": "#0"},
				"down": {"uv": [1, 3.66667, 1.66667, 4.66667], "rotation": 270, "texture": "#0"}
			}
		},
		{
			"from": [4.7476, 4.89782, 6.51014],
			"to": [5.2524, 5.09782, 6.71014],
			"rotation": {"angle": 0, "axis": "x", "origin": [5, 4.99782, 6.61014]},
			"faces": {
				"north": {"uv": [1, 3.66667, 1.66667, 4.66667], "rotation": 270, "texture": "#0"},
				"east": {"uv": [1, 3.66667, 1.66667, 4.66667], "rotation": 270, "texture": "#0"},
				"south": {"uv": [1, 3.66667, 1.66667, 4.66667], "rotation": 270, "texture": "#0"},
				"west": {"uv": [1, 3.66667, 1.66667, 4.66667], "rotation": 270, "texture": "#0"},
				"up": {"uv": [1, 3.66667, 1.66667, 4.66667], "rotation": 270, "texture": "#0"},
				"down": {"uv": [1, 3.66667, 1.66667, 4.66667], "rotation": 270, "texture": "#0"}
			}
		},
		{
			"from": [4.95808, 5.08495, 6.25678],
			"to": [5.04192, 5.56655, 6.47918],
			"rotation": {"angle": -45, "axis": "x", "origin": [5, 5.29575, 6.33678]},
			"faces": {
				"north": {"uv": [6.33333, 3.33333, 7, 4.33333], "rotation": 270, "texture": "#0"},
				"east": {"uv": [6.33333, 3.33333, 7, 4.33333], "rotation": 270, "texture": "#0"},
				"south": {"uv": [6.33333, 3.33333, 7, 4.33333], "rotation": 270, "texture": "#0"},
				"west": {"uv": [6.33333, 3.33333, 7, 4.33333], "rotation": 270, "texture": "#0"},
				"up": {"uv": [6.33333, 3.33333, 7, 4.33333], "rotation": 270, "texture": "#0"},
				"down": {"uv": [6.33333, 3.33333, 7, 4.33333], "rotation": 270, "texture": "#0"}
			}
		},
		{
			"from": [4.95808, 5.00578, 6.28511],
			"to": [5.04192, 5.24738, 6.64511],
			"rotation": {"angle": 0, "axis": "y", "origin": [5, 4.29658, 6.00511]},
			"faces": {
				"north": {"uv": [6.33333, 3.33333, 7, 4.33333], "rotation": 270, "texture": "#0"},
				"east": {"uv": [6.33333, 3.33333, 7, 4.33333], "rotation": 270, "texture": "#0"},
				"south": {"uv": [6.33333, 3.33333, 7, 4.33333], "rotation": 270, "texture": "#0"},
				"west": {"uv": [6.33333, 3.33333, 7, 4.33333], "rotation": 270, "texture": "#0"},
				"up": {"uv": [6.33333, 3.33333, 7, 4.33333], "rotation": 270, "texture": "#0"},
				"down": {"uv": [6.33333, 3.33333, 7, 4.33333], "rotation": 270, "texture": "#0"}
			}
		},
		{
			"from": [4.95808, 4.99695, 6.23339],
			"to": [5.04192, 5.22095, 6.35339],
			"rotation": {"angle": 45, "axis": "x", "origin": [5, 5.02093, 6.31339]},
			"faces": {
				"north": {"uv": [6.33333, 3.33333, 7, 4.33333], "rotation": 270, "texture": "#0"},
				"east": {"uv": [6.33333, 3.33333, 7, 4.33333], "rotation": 270, "texture": "#0"},
				"south": {"uv": [6.33333, 3.33333, 7, 4.33333], "rotation": 270, "texture": "#0"},
				"west": {"uv": [6.33333, 3.33333, 7, 4.33333], "rotation": 270, "texture": "#0"},
				"up": {"uv": [6.33333, 3.33333, 7, 4.33333], "rotation": 270, "texture": "#0"},
				"down": {"uv": [6.33333, 3.33333, 7, 4.33333], "rotation": 270, "texture": "#0"}
			}
		},
		{
			"from": [4.95808, 4.98054, 6.23987],
			"to": [5.04192, 5.06054, 6.59987],
			"rotation": {"angle": 0, "axis": "y", "origin": [5, 5.49134, 6.31987]},
			"faces": {
				"north": {"uv": [6.33333, 3.33333, 7, 4.33333], "rotation": 270, "texture": "#0"},
				"east": {"uv": [6.33333, 3.33333, 7, 4.33333], "rotation": 270, "texture": "#0"},
				"south": {"uv": [6.33333, 3.33333, 7, 4.33333], "rotation": 270, "texture": "#0"},
				"west": {"uv": [6.33333, 3.33333, 7, 4.33333], "rotation": 270, "texture": "#0"},
				"up": {"uv": [6.33333, 3.33333, 7, 4.33333], "rotation": 270, "texture": "#0"},
				"down": {"uv": [6.33333, 3.33333, 7, 4.33333], "rotation": 270, "texture": "#0"}
			}
		},
		{
			"from": [4.7374, 4.51797, 6.75817],
			"to": [5.2617, 5.27727, 7.56817],
			"rotation": {"angle": -22.5, "axis": "x", "origin": [5, 5.04762, 7.16317]},
			"faces": {
				"north": {"uv": [3.66667, 8.66667, 4.33333, 9.66667], "rotation": 270, "texture": "#0"},
				"east": {"uv": [3.66667, 8.66667, 4.33333, 9.66667], "rotation": 270, "texture": "#0"},
				"south": {"uv": [3.66667, 8.66667, 4.33333, 9.66667], "rotation": 270, "texture": "#0"},
				"west": {"uv": [3.66667, 8.66667, 4.33333, 9.66667], "rotation": 270, "texture": "#0"},
				"up": {"uv": [3.66667, 8.66667, 4.33333, 9.66667], "rotation": 270, "texture": "#0"},
				"down": {"uv": [3.66667, 8.66667, 4.33333, 9.66667], "rotation": 270, "texture": "#0"}
			}
		},
		{
			"from": [4.7374, 5.21948, 6.4676],
			"to": [5.2617, 5.57878, 6.5776],
			"rotation": {"angle": -22.5, "axis": "x", "origin": [5, 5.74913, 6.8726]},
			"faces": {
				"north": {"uv": [3.66667, 8.66667, 4.33333, 9.66667], "rotation": 270, "texture": "#0"},
				"east": {"uv": [3.66667, 8.66667, 4.33333, 9.66667], "rotation": 270, "texture": "#0"},
				"south": {"uv": [3.66667, 8.66667, 4.33333, 9.66667], "rotation": 270, "texture": "#0"},
				"west": {"uv": [3.66667, 8.66667, 4.33333, 9.66667], "rotation": 270, "texture": "#0"},
				"up": {"uv": [3.66667, 8.66667, 4.33333, 9.66667], "rotation": 270, "texture": "#0"},
				"down": {"uv": [3.66667, 8.66667, 4.33333, 9.66667], "rotation": 270, "texture": "#0"}
			}
		},
		{
			"from": [4.7374, 5.26157, 6.56922],
			"to": [5.2617, 5.42087, 6.67922],
			"rotation": {"angle": -22.5, "axis": "x", "origin": [5, 5.79122, 6.97422]},
			"faces": {
				"north": {"uv": [3.66667, 8.66667, 4.33333, 9.66667], "rotation": 270, "texture": "#0"},
				"east": {"uv": [3.66667, 8.66667, 4.33333, 9.66667], "rotation": 270, "texture": "#0"},
				"south": {"uv": [3.66667, 8.66667, 4.33333, 9.66667], "rotation": 270, "texture": "#0"},
				"west": {"uv": [3.66667, 8.66667, 4.33333, 9.66667], "rotation": 270, "texture": "#0"},
				"up": {"uv": [3.66667, 8.66667, 4.33333, 9.66667], "rotation": 270, "texture": "#0"},
				"down": {"uv": [3.66667, 8.66667, 4.33333, 9.66667], "rotation": 270, "texture": "#0"}
			}
		},
		{
			"from": [4.7374, 4.51797, 6.75817],
			"to": [5.2617, 5.07727, 7.06817],
			"rotation": {"angle": -22.5, "axis": "x", "origin": [5, 5.04762, 7.16317]},
			"faces": {
				"north": {"uv": [3.66667, 8.66667, 4.33333, 9.66667], "rotation": 270, "texture": "#0"},
				"east": {"uv": [3.66667, 8.66667, 4.33333, 9.66667], "rotation": 270, "texture": "#0"},
				"south": {"uv": [3.66667, 8.66667, 4.33333, 9.66667], "rotation": 270, "texture": "#0"},
				"west": {"uv": [3.66667, 8.66667, 4.33333, 9.66667], "rotation": 270, "texture": "#0"},
				"up": {"uv": [3.66667, 8.66667, 4.33333, 9.66667], "rotation": 270, "texture": "#0"},
				"down": {"uv": [3.66667, 8.66667, 4.33333, 9.66667], "rotation": 270, "texture": "#0"}
			}
		},
		{
			"from": [4.7374, 4.4033, 6.99168],
			"to": [5.2617, 5.1026, 7.71168],
			"rotation": {"angle": 0, "axis": "y", "origin": [5, 6.37295, 7.66668]},
			"faces": {
				"north": {"uv": [3.66667, 8.66667, 4.33333, 9.66667], "rotation": 270, "texture": "#0"},
				"east": {"uv": [3.66667, 8.66667, 4.33333, 9.66667], "rotation": 270, "texture": "#0"},
				"south": {"uv": [3.66667, 8.66667, 4.33333, 9.66667], "rotation": 270, "texture": "#0"},
				"west": {"uv": [3.66667, 8.66667, 4.33333, 9.66667], "rotation": 270, "texture": "#0"},
				"up": {"uv": [3.66667, 8.66667, 4.33333, 9.66667], "rotation": 270, "texture": "#0"},
				"down": {"uv": [3.66667, 8.66667, 4.33333, 9.66667], "rotation": 270, "texture": "#0"}
			}
		},
		{
			"from": [4.7374, 4.47649, 7.62964],
			"to": [5.2617, 4.99579, 8.07964],
			"rotation": {"angle": -22.5, "axis": "x", "origin": [5, 4.64614, 7.85464]},
			"faces": {
				"north": {"uv": [3.66667, 8.66667, 4.33333, 9.66667], "rotation": 270, "texture": "#0"},
				"east": {"uv": [3.66667, 8.66667, 4.33333, 9.66667], "rotation": 270, "texture": "#0"},
				"south": {"uv": [3.66667, 8.66667, 4.33333, 9.66667], "rotation": 270, "texture": "#0"},
				"west": {"uv": [3.66667, 8.66667, 4.33333, 9.66667], "rotation": 270, "texture": "#0"},
				"up": {"uv": [3.66667, 8.66667, 4.33333, 9.66667], "rotation": 270, "texture": "#0"},
				"down": {"uv": [3.66667, 8.66667, 4.33333, 9.66667], "rotation": 270, "texture": "#0"}
			}
		},
		{
			"from": [4.7374, 4.96528, 6.8187],
			"to": [5.2617, 5.30458, 7.9287],
			"rotation": {"angle": 0, "axis": "y", "origin": [5, 5.17993, 7.0737]},
			"faces": {
				"north": {"uv": [3.66667, 8.66667, 4.33333, 9.66667], "rotation": 270, "texture": "#0"},
				"east": {"uv": [3.66667, 8.66667, 4.33333, 9.66667], "rotation": 270, "texture": "#0"},
				"south": {"uv": [3.66667, 8.66667, 4.33333, 9.66667], "rotation": 270, "texture": "#0"},
				"west": {"uv": [3.66667, 8.66667, 4.33333, 9.66667], "rotation": 270, "texture": "#0"},
				"up": {"uv": [3.66667, 8.66667, 4.33333, 9.66667], "rotation": 270, "texture": "#0"},
				"down": {"uv": [3.66667, 8.66667, 4.33333, 9.66667], "rotation": 270, "texture": "#0"}
			}
		},
		{
			"from": [4.7374, 5.2493, 7.99635],
			"to": [5.2617, 5.4986, 8.04635],
			"rotation": {"angle": 45, "axis": "x", "origin": [5, 5.37395, 7.82135]},
			"faces": {
				"north": {"uv": [3.66667, 8.66667, 4.33333, 9.66667], "rotation": 270, "texture": "#0"},
				"east": {"uv": [3.66667, 8.66667, 4.33333, 9.66667], "rotation": 270, "texture": "#0"},
				"south": {"uv": [3.66667, 8.66667, 4.33333, 9.66667], "rotation": 270, "texture": "#0"},
				"west": {"uv": [3.66667, 8.66667, 4.33333, 9.66667], "rotation": 270, "texture": "#0"},
				"up": {"uv": [3.66667, 8.66667, 4.33333, 9.66667], "rotation": 270, "texture": "#0"},
				"down": {"uv": [3.66667, 8.66667, 4.33333, 9.66667], "rotation": 270, "texture": "#0"}
			}
		},
		{
			"from": [4.7374, 5.11899, 7.64928],
			"to": [5.2617, 5.44829, 7.95928],
			"rotation": {"angle": 22.5, "axis": "x", "origin": [5, 5.24364, 7.73428]},
			"faces": {
				"north": {"uv": [3.66667, 8.66667, 4.33333, 9.66667], "rotation": 270, "texture": "#0"},
				"east": {"uv": [3.66667, 8.66667, 4.33333, 9.66667], "rotation": 270, "texture": "#0"},
				"south": {"uv": [3.66667, 8.66667, 4.33333, 9.66667], "rotation": 270, "texture": "#0"},
				"west": {"uv": [3.66667, 8.66667, 4.33333, 9.66667], "rotation": 270, "texture": "#0"},
				"up": {"uv": [3.66667, 8.66667, 4.33333, 9.66667], "rotation": 270, "texture": "#0"},
				"down": {"uv": [3.66667, 8.66667, 4.33333, 9.66667], "rotation": 270, "texture": "#0"}
			}
		},
		{
			"from": [4.7374, 5.28885, 6.66524],
			"to": [5.2617, 5.47885, 8.07454],
			"rotation": {"angle": 0, "axis": "y", "origin": [4.99998, 6.32385, 3.83024]},
			"faces": {
				"north": {"uv": [3.66667, 8.66667, 4.33333, 9.66667], "rotation": 270, "texture": "#0"},
				"east": {"uv": [3.66667, 8.66667, 4.33333, 9.66667], "rotation": 270, "texture": "#0"},
				"south": {"uv": [3.66667, 8.66667, 4.33333, 9.66667], "rotation": 270, "texture": "#0"},
				"west": {"uv": [3.66667, 8.66667, 4.33333, 9.66667], "rotation": 270, "texture": "#0"},
				"up": {"uv": [3.66667, 8.66667, 4.33333, 9.66667], "rotation": 270, "texture": "#0"},
				"down": {"uv": [3.66667, 8.66667, 4.33333, 9.66667], "rotation": 270, "texture": "#0"}
			}
		},
		{
			"from": [4.7216, 5.58763, 7.593],
			"to": [5.2784, 5.75763, 7.623],
			"rotation": {"angle": 0, "axis": "y", "origin": [5.20242, 5.88763, 6.393]},
			"faces": {
				"north": {"uv": [6, 3.33333, 6.66667, 4.33333], "rotation": 180, "texture": "#0"},
				"east": {"uv": [6, 3.33333, 6.66667, 4.33333], "rotation": 180, "texture": "#0"},
				"south": {"uv": [6, 3.33333, 6.66667, 4.33333], "rotation": 180, "texture": "#0"},
				"west": {"uv": [6, 3.33333, 6.66667, 4.33333], "rotation": 180, "texture": "#0"},
				"up": {"uv": [6, 3.33333, 6.66667, 4.33333], "rotation": 180, "texture": "#0"},
				"down": {"uv": [6, 3.33333, 6.66667, 4.33333], "rotation": 180, "texture": "#0"}
			}
		},
		{
			"from": [4.7216, 5.74922, 7.58075],
			"to": [5.2784, 5.81922, 7.61075],
			"rotation": {"angle": -22.5, "axis": "x", "origin": [5, 5.78422, 7.59575]},
			"faces": {
				"north": {"uv": [6, 3.33333, 6.66667, 4.33333], "rotation": 180, "texture": "#0"},
				"east": {"uv": [6, 3.33333, 6.66667, 4.33333], "rotation": 180, "texture": "#0"},
				"south": {"uv": [6, 3.33333, 6.66667, 4.33333], "rotation": 180, "texture": "#0"},
				"west": {"uv": [6, 3.33333, 6.66667, 4.33333], "rotation": 180, "texture": "#0"},
				"up": {"uv": [6, 3.33333, 6.66667, 4.33333], "rotation": 180, "texture": "#0"},
				"down": {"uv": [6, 3.33333, 6.66667, 4.33333], "rotation": 180, "texture": "#0"}
			}
		},
		{
			"from": [4.7216, 5.52603, 7.58075],
			"to": [5.2784, 5.59603, 7.61075],
			"rotation": {"angle": 22.5, "axis": "x", "origin": [5, 5.56103, 7.59575]},
			"faces": {
				"north": {"uv": [6, 3.33333, 6.66667, 4.33333], "rotation": 180, "texture": "#0"},
				"east": {"uv": [6, 3.33333, 6.66667, 4.33333], "rotation": 180, "texture": "#0"},
				"south": {"uv": [6, 3.33333, 6.66667, 4.33333], "rotation": 180, "texture": "#0"},
				"west": {"uv": [6, 3.33333, 6.66667, 4.33333], "rotation": 180, "texture": "#0"},
				"up": {"uv": [6, 3.33333, 6.66667, 4.33333], "rotation": 180, "texture": "#0"},
				"down": {"uv": [6, 3.33333, 6.66667, 4.33333], "rotation": 180, "texture": "#0"}
			}
		},
		{
			"from": [4.7216, 5.58763, 7.493],
			"to": [5.2784, 5.75763, 7.523],
			"rotation": {"angle": 0, "axis": "y", "origin": [5.20242, 5.88763, 6.293]},
			"faces": {
				"north": {"uv": [6, 3.33333, 6.66667, 4.33333], "rotation": 180, "texture": "#0"},
				"east": {"uv": [6, 3.33333, 6.66667, 4.33333], "rotation": 180, "texture": "#0"},
				"south": {"uv": [6, 3.33333, 6.66667, 4.33333], "rotation": 180, "texture": "#0"},
				"west": {"uv": [6, 3.33333, 6.66667, 4.33333], "rotation": 180, "texture": "#0"},
				"up": {"uv": [6, 3.33333, 6.66667, 4.33333], "rotation": 180, "texture": "#0"},
				"down": {"uv": [6, 3.33333, 6.66667, 4.33333], "rotation": 180, "texture": "#0"}
			}
		},
		{
			"from": [4.7216, 5.74922, 7.48075],
			"to": [5.2784, 5.81922, 7.51075],
			"rotation": {"angle": -22.5, "axis": "x", "origin": [5, 5.78422, 7.49575]},
			"faces": {
				"north": {"uv": [6, 3.33333, 6.66667, 4.33333], "rotation": 180, "texture": "#0"},
				"east": {"uv": [6, 3.33333, 6.66667, 4.33333], "rotation": 180, "texture": "#0"},
				"south": {"uv": [6, 3.33333, 6.66667, 4.33333], "rotation": 180, "texture": "#0"},
				"west": {"uv": [6, 3.33333, 6.66667, 4.33333], "rotation": 180, "texture": "#0"},
				"up": {"uv": [6, 3.33333, 6.66667, 4.33333], "rotation": 180, "texture": "#0"},
				"down": {"uv": [6, 3.33333, 6.66667, 4.33333], "rotation": 180, "texture": "#0"}
			}
		},
		{
			"from": [4.7216, 5.52603, 7.48075],
			"to": [5.2784, 5.59603, 7.51075],
			"rotation": {"angle": 22.5, "axis": "x", "origin": [5, 5.56103, 7.49575]},
			"faces": {
				"north": {"uv": [6, 3.33333, 6.66667, 4.33333], "rotation": 180, "texture": "#0"},
				"east": {"uv": [6, 3.33333, 6.66667, 4.33333], "rotation": 180, "texture": "#0"},
				"south": {"uv": [6, 3.33333, 6.66667, 4.33333], "rotation": 180, "texture": "#0"},
				"west": {"uv": [6, 3.33333, 6.66667, 4.33333], "rotation": 180, "texture": "#0"},
				"up": {"uv": [6, 3.33333, 6.66667, 4.33333], "rotation": 180, "texture": "#0"},
				"down": {"uv": [6, 3.33333, 6.66667, 4.33333], "rotation": 180, "texture": "#0"}
			}
		},
		{
			"from": [4.7216, 5.58763, 7.393],
			"to": [5.2784, 5.75763, 7.423],
			"rotation": {"angle": 0, "axis": "y", "origin": [5.20242, 5.88763, 6.193]},
			"faces": {
				"north": {"uv": [6, 3.33333, 6.66667, 4.33333], "rotation": 180, "texture": "#0"},
				"east": {"uv": [6, 3.33333, 6.66667, 4.33333], "rotation": 180, "texture": "#0"},
				"south": {"uv": [6, 3.33333, 6.66667, 4.33333], "rotation": 180, "texture": "#0"},
				"west": {"uv": [6, 3.33333, 6.66667, 4.33333], "rotation": 180, "texture": "#0"},
				"up": {"uv": [6, 3.33333, 6.66667, 4.33333], "rotation": 180, "texture": "#0"},
				"down": {"uv": [6, 3.33333, 6.66667, 4.33333], "rotation": 180, "texture": "#0"}
			}
		},
		{
			"from": [4.7216, 5.74922, 7.38075],
			"to": [5.2784, 5.81922, 7.41075],
			"rotation": {"angle": -22.5, "axis": "x", "origin": [5, 5.78422, 7.39575]},
			"faces": {
				"north": {"uv": [6, 3.33333, 6.66667, 4.33333], "rotation": 180, "texture": "#0"},
				"east": {"uv": [6, 3.33333, 6.66667, 4.33333], "rotation": 180, "texture": "#0"},
				"south": {"uv": [6, 3.33333, 6.66667, 4.33333], "rotation": 180, "texture": "#0"},
				"west": {"uv": [6, 3.33333, 6.66667, 4.33333], "rotation": 180, "texture": "#0"},
				"up": {"uv": [6, 3.33333, 6.66667, 4.33333], "rotation": 180, "texture": "#0"},
				"down": {"uv": [6, 3.33333, 6.66667, 4.33333], "rotation": 180, "texture": "#0"}
			}
		},
		{
			"from": [4.7216, 5.52603, 7.38075],
			"to": [5.2784, 5.59603, 7.41075],
			"rotation": {"angle": 22.5, "axis": "x", "origin": [5, 5.56103, 7.39575]},
			"faces": {
				"north": {"uv": [6, 3.33333, 6.66667, 4.33333], "rotation": 180, "texture": "#0"},
				"east": {"uv": [6, 3.33333, 6.66667, 4.33333], "rotation": 180, "texture": "#0"},
				"south": {"uv": [6, 3.33333, 6.66667, 4.33333], "rotation": 180, "texture": "#0"},
				"west": {"uv": [6, 3.33333, 6.66667, 4.33333], "rotation": 180, "texture": "#0"},
				"up": {"uv": [6, 3.33333, 6.66667, 4.33333], "rotation": 180, "texture": "#0"},
				"down": {"uv": [6, 3.33333, 6.66667, 4.33333], "rotation": 180, "texture": "#0"}
			}
		},
		{
			"from": [4.7216, 5.58763, 7.293],
			"to": [5.2784, 5.75763, 7.323],
			"rotation": {"angle": 0, "axis": "y", "origin": [5.20242, 5.88763, 6.093]},
			"faces": {
				"north": {"uv": [6, 3.33333, 6.66667, 4.33333], "rotation": 180, "texture": "#0"},
				"east": {"uv": [6, 3.33333, 6.66667, 4.33333], "rotation": 180, "texture": "#0"},
				"south": {"uv": [6, 3.33333, 6.66667, 4.33333], "rotation": 180, "texture": "#0"},
				"west": {"uv": [6, 3.33333, 6.66667, 4.33333], "rotation": 180, "texture": "#0"},
				"up": {"uv": [6, 3.33333, 6.66667, 4.33333], "rotation": 180, "texture": "#0"},
				"down": {"uv": [6, 3.33333, 6.66667, 4.33333], "rotation": 180, "texture": "#0"}
			}
		},
		{
			"from": [4.7216, 5.74922, 7.28075],
			"to": [5.2784, 5.81922, 7.31075],
			"rotation": {"angle": -22.5, "axis": "x", "origin": [5, 5.78422, 7.29575]},
			"faces": {
				"north": {"uv": [6, 3.33333, 6.66667, 4.33333], "rotation": 180, "texture": "#0"},
				"east": {"uv": [6, 3.33333, 6.66667, 4.33333], "rotation": 180, "texture": "#0"},
				"south": {"uv": [6, 3.33333, 6.66667, 4.33333], "rotation": 180, "texture": "#0"},
				"west": {"uv": [6, 3.33333, 6.66667, 4.33333], "rotation": 180, "texture": "#0"},
				"up": {"uv": [6, 3.33333, 6.66667, 4.33333], "rotation": 180, "texture": "#0"},
				"down": {"uv": [6, 3.33333, 6.66667, 4.33333], "rotation": 180, "texture": "#0"}
			}
		},
		{
			"from": [4.7216, 5.52603, 7.28075],
			"to": [5.2784, 5.59603, 7.31075],
			"rotation": {"angle": 22.5, "axis": "x", "origin": [5, 5.56103, 7.29575]},
			"faces": {
				"north": {"uv": [6, 3.33333, 6.66667, 4.33333], "rotation": 180, "texture": "#0"},
				"east": {"uv": [6, 3.33333, 6.66667, 4.33333], "rotation": 180, "texture": "#0"},
				"south": {"uv": [6, 3.33333, 6.66667, 4.33333], "rotation": 180, "texture": "#0"},
				"west": {"uv": [6, 3.33333, 6.66667, 4.33333], "rotation": 180, "texture": "#0"},
				"up": {"uv": [6, 3.33333, 6.66667, 4.33333], "rotation": 180, "texture": "#0"},
				"down": {"uv": [6, 3.33333, 6.66667, 4.33333], "rotation": 180, "texture": "#0"}
			}
		},
		{
			"from": [4.7216, 5.58763, 7.193],
			"to": [5.2784, 5.75763, 7.223],
			"rotation": {"angle": 0, "axis": "y", "origin": [5.20242, 5.88763, 5.993]},
			"faces": {
				"north": {"uv": [6, 3.33333, 6.66667, 4.33333], "rotation": 180, "texture": "#0"},
				"east": {"uv": [6, 3.33333, 6.66667, 4.33333], "rotation": 180, "texture": "#0"},
				"south": {"uv": [6, 3.33333, 6.66667, 4.33333], "rotation": 180, "texture": "#0"},
				"west": {"uv": [6, 3.33333, 6.66667, 4.33333], "rotation": 180, "texture": "#0"},
				"up": {"uv": [6, 3.33333, 6.66667, 4.33333], "rotation": 180, "texture": "#0"},
				"down": {"uv": [6, 3.33333, 6.66667, 4.33333], "rotation": 180, "texture": "#0"}
			}
		},
		{
			"from": [4.7216, 5.74922, 7.18075],
			"to": [5.2784, 5.81922, 7.21075],
			"rotation": {"angle": -22.5, "axis": "x", "origin": [5, 5.78422, 7.19575]},
			"faces": {
				"north": {"uv": [6, 3.33333, 6.66667, 4.33333], "rotation": 180, "texture": "#0"},
				"east": {"uv": [6, 3.33333, 6.66667, 4.33333], "rotation": 180, "texture": "#0"},
				"south": {"uv": [6, 3.33333, 6.66667, 4.33333], "rotation": 180, "texture": "#0"},
				"west": {"uv": [6, 3.33333, 6.66667, 4.33333], "rotation": 180, "texture": "#0"},
				"up": {"uv": [6, 3.33333, 6.66667, 4.33333], "rotation": 180, "texture": "#0"},
				"down": {"uv": [6, 3.33333, 6.66667, 4.33333], "rotation": 180, "texture": "#0"}
			}
		},
		{
			"from": [4.7216, 5.52603, 7.18075],
			"to": [5.2784, 5.59603, 7.21075],
			"rotation": {"angle": 22.5, "axis": "x", "origin": [5, 5.56103, 7.19575]},
			"faces": {
				"north": {"uv": [6, 3.33333, 6.66667, 4.33333], "rotation": 180, "texture": "#0"},
				"east": {"uv": [6, 3.33333, 6.66667, 4.33333], "rotation": 180, "texture": "#0"},
				"south": {"uv": [6, 3.33333, 6.66667, 4.33333], "rotation": 180, "texture": "#0"},
				"west": {"uv": [6, 3.33333, 6.66667, 4.33333], "rotation": 180, "texture": "#0"},
				"up": {"uv": [6, 3.33333, 6.66667, 4.33333], "rotation": 180, "texture": "#0"},
				"down": {"uv": [6, 3.33333, 6.66667, 4.33333], "rotation": 180, "texture": "#0"}
			}
		},
		{
			"from": [4.7216, 5.58763, 8.093],
			"to": [5.2784, 5.75763, 8.123],
			"rotation": {"angle": 0, "axis": "y", "origin": [5.20242, 5.88763, 6.893]},
			"faces": {
				"north": {"uv": [6, 3.33333, 6.66667, 4.33333], "rotation": 180, "texture": "#0"},
				"east": {"uv": [6, 3.33333, 6.66667, 4.33333], "rotation": 180, "texture": "#0"},
				"south": {"uv": [6, 3.33333, 6.66667, 4.33333], "rotation": 180, "texture": "#0"},
				"west": {"uv": [6, 3.33333, 6.66667, 4.33333], "rotation": 180, "texture": "#0"},
				"up": {"uv": [6, 3.33333, 6.66667, 4.33333], "rotation": 180, "texture": "#0"},
				"down": {"uv": [6, 3.33333, 6.66667, 4.33333], "rotation": 180, "texture": "#0"}
			}
		},
		{
			"from": [4.7216, 5.74922, 8.08075],
			"to": [5.2784, 5.81922, 8.11075],
			"rotation": {"angle": -22.5, "axis": "x", "origin": [5, 5.78422, 8.09575]},
			"faces": {
				"north": {"uv": [6, 3.33333, 6.66667, 4.33333], "rotation": 180, "texture": "#0"},
				"east": {"uv": [6, 3.33333, 6.66667, 4.33333], "rotation": 180, "texture": "#0"},
				"south": {"uv": [6, 3.33333, 6.66667, 4.33333], "rotation": 180, "texture": "#0"},
				"west": {"uv": [6, 3.33333, 6.66667, 4.33333], "rotation": 180, "texture": "#0"},
				"up": {"uv": [6, 3.33333, 6.66667, 4.33333], "rotation": 180, "texture": "#0"},
				"down": {"uv": [6, 3.33333, 6.66667, 4.33333], "rotation": 180, "texture": "#0"}
			}
		},
		{
			"from": [4.7216, 5.52603, 8.08075],
			"to": [5.2784, 5.59603, 8.11075],
			"rotation": {"angle": 22.5, "axis": "x", "origin": [5, 5.56103, 8.09575]},
			"faces": {
				"north": {"uv": [6, 3.33333, 6.66667, 4.33333], "rotation": 180, "texture": "#0"},
				"east": {"uv": [6, 3.33333, 6.66667, 4.33333], "rotation": 180, "texture": "#0"},
				"south": {"uv": [6, 3.33333, 6.66667, 4.33333], "rotation": 180, "texture": "#0"},
				"west": {"uv": [6, 3.33333, 6.66667, 4.33333], "rotation": 180, "texture": "#0"},
				"up": {"uv": [6, 3.33333, 6.66667, 4.33333], "rotation": 180, "texture": "#0"},
				"down": {"uv": [6, 3.33333, 6.66667, 4.33333], "rotation": 180, "texture": "#0"}
			}
		},
		{
			"from": [4.7216, 5.58763, 7.993],
			"to": [5.2784, 5.75763, 8.023],
			"rotation": {"angle": 0, "axis": "y", "origin": [5.20242, 5.88763, 6.793]},
			"faces": {
				"north": {"uv": [6, 3.33333, 6.66667, 4.33333], "rotation": 180, "texture": "#0"},
				"east": {"uv": [6, 3.33333, 6.66667, 4.33333], "rotation": 180, "texture": "#0"},
				"south": {"uv": [6, 3.33333, 6.66667, 4.33333], "rotation": 180, "texture": "#0"},
				"west": {"uv": [6, 3.33333, 6.66667, 4.33333], "rotation": 180, "texture": "#0"},
				"up": {"uv": [6, 3.33333, 6.66667, 4.33333], "rotation": 180, "texture": "#0"},
				"down": {"uv": [6, 3.33333, 6.66667, 4.33333], "rotation": 180, "texture": "#0"}
			}
		},
		{
			"from": [4.7216, 5.74922, 7.98075],
			"to": [5.2784, 5.81922, 8.01075],
			"rotation": {"angle": -22.5, "axis": "x", "origin": [5, 5.78422, 7.99575]},
			"faces": {
				"north": {"uv": [6, 3.33333, 6.66667, 4.33333], "rotation": 180, "texture": "#0"},
				"east": {"uv": [6, 3.33333, 6.66667, 4.33333], "rotation": 180, "texture": "#0"},
				"south": {"uv": [6, 3.33333, 6.66667, 4.33333], "rotation": 180, "texture": "#0"},
				"west": {"uv": [6, 3.33333, 6.66667, 4.33333], "rotation": 180, "texture": "#0"},
				"up": {"uv": [6, 3.33333, 6.66667, 4.33333], "rotation": 180, "texture": "#0"},
				"down": {"uv": [6, 3.33333, 6.66667, 4.33333], "rotation": 180, "texture": "#0"}
			}
		},
		{
			"from": [4.7216, 5.52603, 7.98075],
			"to": [5.2784, 5.59603, 8.01075],
			"rotation": {"angle": 22.5, "axis": "x", "origin": [5, 5.56103, 7.99575]},
			"faces": {
				"north": {"uv": [6, 3.33333, 6.66667, 4.33333], "rotation": 180, "texture": "#0"},
				"east": {"uv": [6, 3.33333, 6.66667, 4.33333], "rotation": 180, "texture": "#0"},
				"south": {"uv": [6, 3.33333, 6.66667, 4.33333], "rotation": 180, "texture": "#0"},
				"west": {"uv": [6, 3.33333, 6.66667, 4.33333], "rotation": 180, "texture": "#0"},
				"up": {"uv": [6, 3.33333, 6.66667, 4.33333], "rotation": 180, "texture": "#0"},
				"down": {"uv": [6, 3.33333, 6.66667, 4.33333], "rotation": 180, "texture": "#0"}
			}
		},
		{
			"from": [4.7216, 5.58763, 7.893],
			"to": [5.2784, 5.75763, 7.923],
			"rotation": {"angle": 0, "axis": "y", "origin": [5.20242, 5.88763, 6.693]},
			"faces": {
				"north": {"uv": [6, 3.33333, 6.66667, 4.33333], "rotation": 180, "texture": "#0"},
				"east": {"uv": [6, 3.33333, 6.66667, 4.33333], "rotation": 180, "texture": "#0"},
				"south": {"uv": [6, 3.33333, 6.66667, 4.33333], "rotation": 180, "texture": "#0"},
				"west": {"uv": [6, 3.33333, 6.66667, 4.33333], "rotation": 180, "texture": "#0"},
				"up": {"uv": [6, 3.33333, 6.66667, 4.33333], "rotation": 180, "texture": "#0"},
				"down": {"uv": [6, 3.33333, 6.66667, 4.33333], "rotation": 180, "texture": "#0"}
			}
		},
		{
			"from": [4.7216, 5.74922, 7.88075],
			"to": [5.2784, 5.81922, 7.91075],
			"rotation": {"angle": -22.5, "axis": "x", "origin": [5, 5.78422, 7.89575]},
			"faces": {
				"north": {"uv": [6, 3.33333, 6.66667, 4.33333], "rotation": 180, "texture": "#0"},
				"east": {"uv": [6, 3.33333, 6.66667, 4.33333], "rotation": 180, "texture": "#0"},
				"south": {"uv": [6, 3.33333, 6.66667, 4.33333], "rotation": 180, "texture": "#0"},
				"west": {"uv": [6, 3.33333, 6.66667, 4.33333], "rotation": 180, "texture": "#0"},
				"up": {"uv": [6, 3.33333, 6.66667, 4.33333], "rotation": 180, "texture": "#0"},
				"down": {"uv": [6, 3.33333, 6.66667, 4.33333], "rotation": 180, "texture": "#0"}
			}
		},
		{
			"from": [4.7216, 5.52603, 7.88075],
			"to": [5.2784, 5.59603, 7.91075],
			"rotation": {"angle": 22.5, "axis": "x", "origin": [5, 5.56103, 7.89575]},
			"faces": {
				"north": {"uv": [6, 3.33333, 6.66667, 4.33333], "rotation": 180, "texture": "#0"},
				"east": {"uv": [6, 3.33333, 6.66667, 4.33333], "rotation": 180, "texture": "#0"},
				"south": {"uv": [6, 3.33333, 6.66667, 4.33333], "rotation": 180, "texture": "#0"},
				"west": {"uv": [6, 3.33333, 6.66667, 4.33333], "rotation": 180, "texture": "#0"},
				"up": {"uv": [6, 3.33333, 6.66667, 4.33333], "rotation": 180, "texture": "#0"},
				"down": {"uv": [6, 3.33333, 6.66667, 4.33333], "rotation": 180, "texture": "#0"}
			}
		},
		{
			"from": [4.7216, 5.58763, 7.793],
			"to": [5.2784, 5.75763, 7.823],
			"rotation": {"angle": 0, "axis": "y", "origin": [5.20242, 5.88763, 6.593]},
			"faces": {
				"north": {"uv": [6, 3.33333, 6.66667, 4.33333], "rotation": 180, "texture": "#0"},
				"east": {"uv": [6, 3.33333, 6.66667, 4.33333], "rotation": 180, "texture": "#0"},
				"south": {"uv": [6, 3.33333, 6.66667, 4.33333], "rotation": 180, "texture": "#0"},
				"west": {"uv": [6, 3.33333, 6.66667, 4.33333], "rotation": 180, "texture": "#0"},
				"up": {"uv": [6, 3.33333, 6.66667, 4.33333], "rotation": 180, "texture": "#0"},
				"down": {"uv": [6, 3.33333, 6.66667, 4.33333], "rotation": 180, "texture": "#0"}
			}
		},
		{
			"from": [4.7216, 5.74922, 7.78075],
			"to": [5.2784, 5.81922, 7.81075],
			"rotation": {"angle": -22.5, "axis": "x", "origin": [5, 5.78422, 7.79575]},
			"faces": {
				"north": {"uv": [6, 3.33333, 6.66667, 4.33333], "rotation": 180, "texture": "#0"},
				"east": {"uv": [6, 3.33333, 6.66667, 4.33333], "rotation": 180, "texture": "#0"},
				"south": {"uv": [6, 3.33333, 6.66667, 4.33333], "rotation": 180, "texture": "#0"},
				"west": {"uv": [6, 3.33333, 6.66667, 4.33333], "rotation": 180, "texture": "#0"},
				"up": {"uv": [6, 3.33333, 6.66667, 4.33333], "rotation": 180, "texture": "#0"},
				"down": {"uv": [6, 3.33333, 6.66667, 4.33333], "rotation": 180, "texture": "#0"}
			}
		},
		{
			"from": [4.7216, 5.52603, 7.78075],
			"to": [5.2784, 5.59603, 7.81075],
			"rotation": {"angle": 22.5, "axis": "x", "origin": [5, 5.56103, 7.79575]},
			"faces": {
				"north": {"uv": [6, 3.33333, 6.66667, 4.33333], "rotation": 180, "texture": "#0"},
				"east": {"uv": [6, 3.33333, 6.66667, 4.33333], "rotation": 180, "texture": "#0"},
				"south": {"uv": [6, 3.33333, 6.66667, 4.33333], "rotation": 180, "texture": "#0"},
				"west": {"uv": [6, 3.33333, 6.66667, 4.33333], "rotation": 180, "texture": "#0"},
				"up": {"uv": [6, 3.33333, 6.66667, 4.33333], "rotation": 180, "texture": "#0"},
				"down": {"uv": [6, 3.33333, 6.66667, 4.33333], "rotation": 180, "texture": "#0"}
			}
		},
		{
			"from": [4.7216, 5.58763, 7.693],
			"to": [5.2784, 5.75763, 7.723],
			"rotation": {"angle": 0, "axis": "y", "origin": [5.20242, 5.88763, 6.493]},
			"faces": {
				"north": {"uv": [6, 3.33333, 6.66667, 4.33333], "rotation": 180, "texture": "#0"},
				"east": {"uv": [6, 3.33333, 6.66667, 4.33333], "rotation": 180, "texture": "#0"},
				"south": {"uv": [6, 3.33333, 6.66667, 4.33333], "rotation": 180, "texture": "#0"},
				"west": {"uv": [6, 3.33333, 6.66667, 4.33333], "rotation": 180, "texture": "#0"},
				"up": {"uv": [6, 3.33333, 6.66667, 4.33333], "rotation": 180, "texture": "#0"},
				"down": {"uv": [6, 3.33333, 6.66667, 4.33333], "rotation": 180, "texture": "#0"}
			}
		},
		{
			"from": [4.7216, 5.74922, 7.68075],
			"to": [5.2784, 5.81922, 7.71075],
			"rotation": {"angle": -22.5, "axis": "x", "origin": [5, 5.78422, 7.69575]},
			"faces": {
				"north": {"uv": [6, 3.33333, 6.66667, 4.33333], "rotation": 180, "texture": "#0"},
				"east": {"uv": [6, 3.33333, 6.66667, 4.33333], "rotation": 180, "texture": "#0"},
				"south": {"uv": [6, 3.33333, 6.66667, 4.33333], "rotation": 180, "texture": "#0"},
				"west": {"uv": [6, 3.33333, 6.66667, 4.33333], "rotation": 180, "texture": "#0"},
				"up": {"uv": [6, 3.33333, 6.66667, 4.33333], "rotation": 180, "texture": "#0"},
				"down": {"uv": [6, 3.33333, 6.66667, 4.33333], "rotation": 180, "texture": "#0"}
			}
		},
		{
			"from": [4.7216, 5.52603, 7.68075],
			"to": [5.2784, 5.59603, 7.71075],
			"rotation": {"angle": 22.5, "axis": "x", "origin": [5, 5.56103, 7.69575]},
			"faces": {
				"north": {"uv": [6, 3.33333, 6.66667, 4.33333], "rotation": 180, "texture": "#0"},
				"east": {"uv": [6, 3.33333, 6.66667, 4.33333], "rotation": 180, "texture": "#0"},
				"south": {"uv": [6, 3.33333, 6.66667, 4.33333], "rotation": 180, "texture": "#0"},
				"west": {"uv": [6, 3.33333, 6.66667, 4.33333], "rotation": 180, "texture": "#0"},
				"up": {"uv": [6, 3.33333, 6.66667, 4.33333], "rotation": 180, "texture": "#0"},
				"down": {"uv": [6, 3.33333, 6.66667, 4.33333], "rotation": 180, "texture": "#0"}
			}
		},
		{
			"from": [4.964, 5.999, 4.493],
			"to": [5.036, 6.099, 4.593],
			"rotation": {"angle": 0, "axis": "y", "origin": [4.81383, 5.66922, -4.79516]},
			"faces": {
				"north": {"uv": [6.33333, 3.33333, 7, 4.33333], "rotation": 270, "texture": "#0"},
				"east": {"uv": [6.33333, 3.33333, 7, 4.33333], "rotation": 270, "texture": "#0"},
				"south": {"uv": [6.33333, 3.33333, 7, 4.33333], "rotation": 270, "texture": "#0"},
				"west": {"uv": [6.33333, 3.33333, 7, 4.33333], "rotation": 270, "texture": "#0"},
				"up": {"uv": [6.33333, 3.33333, 7, 4.33333], "rotation": 270, "texture": "#0"},
				"down": {"uv": [6.33333, 3.33333, 7, 4.33333], "rotation": 270, "texture": "#0"}
			}
		},
		{
			"from": [4.964, 5.90758, 4.37229],
			"to": [5.036, 6.00758, 4.57229],
			"rotation": {"angle": -45, "axis": "x", "origin": [5, 5.95758, 4.42229]},
			"faces": {
				"north": {"uv": [6.33333, 3.33333, 7, 4.33333], "rotation": 270, "texture": "#0"},
				"east": {"uv": [6.33333, 3.33333, 7, 4.33333], "rotation": 270, "texture": "#0"},
				"south": {"uv": [6.33333, 3.33333, 7, 4.33333], "rotation": 270, "texture": "#0"},
				"west": {"uv": [6.33333, 3.33333, 7, 4.33333], "rotation": 270, "texture": "#0"},
				"up": {"uv": [6.33333, 3.33333, 7, 4.33333], "rotation": 270, "texture": "#0"},
				"down": {"uv": [6.33333, 3.33333, 7, 4.33333], "rotation": 270, "texture": "#0"}
			}
		},
		{
			"from": [4.964, 5.94293, 4.52835],
			"to": [5.036, 6.04293, 4.72835],
			"rotation": {"angle": 45, "axis": "x", "origin": [5, 5.99293, 4.62835]},
			"faces": {
				"north": {"uv": [6.33333, 3.33333, 7, 4.33333], "rotation": 270, "texture": "#0"},
				"east": {"uv": [6.33333, 3.33333, 7, 4.33333], "rotation": 270, "texture": "#0"},
				"south": {"uv": [6.33333, 3.33333, 7, 4.33333], "rotation": 270, "texture": "#0"},
				"west": {"uv": [6.33333, 3.33333, 7, 4.33333], "rotation": 270, "texture": "#0"},
				"up": {"uv": [6.33333, 3.33333, 7, 4.33333], "rotation": 270, "texture": "#0"},
				"down": {"uv": [6.33333, 3.33333, 7, 4.33333], "rotation": 270, "texture": "#0"}
			}
		},
		{
			"from": [4.892, 5.999, 8.093],
			"to": [4.964, 6.099, 8.193],
			"rotation": {"angle": 0, "axis": "y", "origin": [4.74183, 5.66922, -1.19516]},
			"faces": {
				"north": {"uv": [6.33333, 3.33333, 7, 4.33333], "rotation": 270, "texture": "#0"},
				"east": {"uv": [6.33333, 3.33333, 7, 4.33333], "rotation": 270, "texture": "#0"},
				"south": {"uv": [6.33333, 3.33333, 7, 4.33333], "rotation": 270, "texture": "#0"},
				"west": {"uv": [6.33333, 3.33333, 7, 4.33333], "rotation": 270, "texture": "#0"},
				"up": {"uv": [6.33333, 3.33333, 7, 4.33333], "rotation": 270, "texture": "#0"},
				"down": {"uv": [6.33333, 3.33333, 7, 4.33333], "rotation": 270, "texture": "#0"}
			}
		},
		{
			"from": [4.892, 5.90758, 7.97229],
			"to": [4.964, 6.00758, 8.17229],
			"rotation": {"angle": -45, "axis": "x", "origin": [4.928, 5.95758, 8.02229]},
			"faces": {
				"north": {"uv": [6.33333, 3.33333, 7, 4.33333], "rotation": 270, "texture": "#0"},
				"east": {"uv": [6.33333, 3.33333, 7, 4.33333], "rotation": 270, "texture": "#0"},
				"south": {"uv": [6.33333, 3.33333, 7, 4.33333], "rotation": 270, "texture": "#0"},
				"west": {"uv": [6.33333, 3.33333, 7, 4.33333], "rotation": 270, "texture": "#0"},
				"up": {"uv": [6.33333, 3.33333, 7, 4.33333], "rotation": 270, "texture": "#0"},
				"down": {"uv": [6.33333, 3.33333, 7, 4.33333], "rotation": 270, "texture": "#0"}
			}
		},
		{
			"from": [4.892, 5.94293, 8.12835],
			"to": [4.964, 6.04293, 8.32835],
			"rotation": {"angle": 45, "axis": "x", "origin": [4.928, 5.99293, 8.22835]},
			"faces": {
				"north": {"uv": [6.33333, 3.33333, 7, 4.33333], "rotation": 270, "texture": "#0"},
				"east": {"uv": [6.33333, 3.33333, 7, 4.33333], "rotation": 270, "texture": "#0"},
				"south": {"uv": [6.33333, 3.33333, 7, 4.33333], "rotation": 270, "texture": "#0"},
				"west": {"uv": [6.33333, 3.33333, 7, 4.33333], "rotation": 270, "texture": "#0"},
				"up": {"uv": [6.33333, 3.33333, 7, 4.33333], "rotation": 270, "texture": "#0"},
				"down": {"uv": [6.33333, 3.33333, 7, 4.33333], "rotation": 270, "texture": "#0"}
			}
		},
		{
			"from": [5.036, 5.999, 8.093],
			"to": [5.108, 6.099, 8.193],
			"rotation": {"angle": 0, "axis": "y", "origin": [4.88583, 5.66922, -1.19516]},
			"faces": {
				"north": {"uv": [6.33333, 3.33333, 7, 4.33333], "rotation": 270, "texture": "#0"},
				"east": {"uv": [6.33333, 3.33333, 7, 4.33333], "rotation": 270, "texture": "#0"},
				"south": {"uv": [6.33333, 3.33333, 7, 4.33333], "rotation": 270, "texture": "#0"},
				"west": {"uv": [6.33333, 3.33333, 7, 4.33333], "rotation": 270, "texture": "#0"},
				"up": {"uv": [6.33333, 3.33333, 7, 4.33333], "rotation": 270, "texture": "#0"},
				"down": {"uv": [6.33333, 3.33333, 7, 4.33333], "rotation": 270, "texture": "#0"}
			}
		},
		{
			"from": [5.036, 5.90758, 7.97229],
			"to": [5.108, 6.00758, 8.17229],
			"rotation": {"angle": -45, "axis": "x", "origin": [5.072, 5.95758, 8.02229]},
			"faces": {
				"north": {"uv": [6.33333, 3.33333, 7, 4.33333], "rotation": 270, "texture": "#0"},
				"east": {"uv": [6.33333, 3.33333, 7, 4.33333], "rotation": 270, "texture": "#0"},
				"south": {"uv": [6.33333, 3.33333, 7, 4.33333], "rotation": 270, "texture": "#0"},
				"west": {"uv": [6.33333, 3.33333, 7, 4.33333], "rotation": 270, "texture": "#0"},
				"up": {"uv": [6.33333, 3.33333, 7, 4.33333], "rotation": 270, "texture": "#0"},
				"down": {"uv": [6.33333, 3.33333, 7, 4.33333], "rotation": 270, "texture": "#0"}
			}
		},
		{
			"from": [5.036, 5.94293, 8.12835],
			"to": [5.108, 6.04293, 8.32835],
			"rotation": {"angle": 45, "axis": "x", "origin": [5.072, 5.99293, 8.22835]},
			"faces": {
				"north": {"uv": [6.33333, 3.33333, 7, 4.33333], "rotation": 270, "texture": "#0"},
				"east": {"uv": [6.33333, 3.33333, 7, 4.33333], "rotation": 270, "texture": "#0"},
				"south": {"uv": [6.33333, 3.33333, 7, 4.33333], "rotation": 270, "texture": "#0"},
				"west": {"uv": [6.33333, 3.33333, 7, 4.33333], "rotation": 270, "texture": "#0"},
				"up": {"uv": [6.33333, 3.33333, 7, 4.33333], "rotation": 270, "texture": "#0"},
				"down": {"uv": [6.33333, 3.33333, 7, 4.33333], "rotation": 270, "texture": "#0"}
			}
		}
	],
	"display": {
		"thirdperson_righthand": {
			"translation": [4, 4.5, 2],
			"scale": [1.3, 1.7, 1]
		},
		"thirdperson_lefthand": {
			"translation": [-4, 4.5, 2],
			"scale": [1.3, 1.7, 1]
		},
		"firstperson_righthand": {
			"translation": [-1.25, 9, 6.75],
			"scale": [1.3, 1.7, 1]
		},
		"firstperson_lefthand": {
			"translation": [-9.25, 9, 6.75],
			"scale": [1.3, 1.7, 1]
		},
		"ground": {
			"translation": [3.25, 5.25, 2.75],
			"scale": [1.3, 1.7, 1]
		},
		"gui": {
			"rotation": [90, 45, -90],
			"translation": [8.25, 4.5, 0],
			"scale": [2.6, 3.4, 2]
		},
		"fixed": {
			"rotation": [90, 45, -90],
			"translation": [5.75, 2.5, -5.75],
			"scale": [1.45, 2.05, 1.5]
		}
	},
	"groups": [
		{
			"name": "base",
			"origin": [8, 8, 8],
			"color": 0,
			"children": [
				{
					"name": "barrel",
					"origin": [8, 8, 8],
					"color": 0,
					"children": [0, 1, 2, 3, 4, 5, 6, 7, 8, 9, 10, 11, 12, 13, 14, 15]
				},
				{
					"name": "chassis",
					"origin": [8, 8, 8],
					"color": 0,
					"children": [
						{
							"name": "top",
							"origin": [4.99998, 5.75083, 8.66227],
							"color": 0,
							"children": [
								{
									"name": "group",
									"origin": [5.1773, 5.78854, 6.393],
									"color": 0,
									"children": [16, 17, 18]
								},
								19,
								20,
								21,
								22,
								23,
								24,
								25,
								26,
								27,
								28,
								29,
								30,
								31,
								32,
								33,
								34,
								35,
								36,
								37,
								38,
								39,
								40,
								41,
								42
							]
						},
						{
							"name": "bottom",
							"origin": [4.81831, 5.3767, 6.75454],
							"color": 0,
							"children": [
								43,
								44,
								45,
								46,
								47,
								48,
								49,
								50,
								51,
								52,
								53,
								54,
								55,
								56,
								57,
								58,
								{
									"name": "group",
									"origin": [8, 8, 8],
									"color": 0,
									"children": [59, 60, 61, 62, 63, 64, 65]
								},
								{
									"name": "group",
									"origin": [8, 8, 8],
									"color": 0,
									"children": [66, 67, 68, 69]
								}
							]
						}
					]
				},
				{
					"name": "trigger",
					"origin": [8, 8, 8],
					"color": 0,
					"children": [70, 71, 72, 73]
				},
				{
					"name": "patch",
					"origin": [8, 8, 8],
					"color": 0,
					"children": [74, 75, 76, 77, 78, 79, 80, 81, 82, 83]
				},
				{
					"name": "ribs",
					"origin": [8, 8, 8],
					"color": 0,
					"children": [84, 85, 86, 87, 88, 89, 90, 91, 92, 93, 94, 95, 96, 97, 98, 99, 100, 101, 102, 103, 104, 105, 106, 107, 108, 109, 110, 111, 112, 113]
				},
				{
					"name": "sight",
					"origin": [8, 8, 8],
					"color": 0,
					"children": [
						{
							"name": "group",
							"origin": [5, 5.99293, 4.62835],
							"color": 0,
							"children": [114, 115, 116]
						},
						{
							"name": "group",
							"origin": [8, 8, 8],
							"color": 0,
							"children": [117, 118, 119, 120, 121, 122]
						}
					]
				}
			]
		}
	]
}