{
    "textures": {
        "0": "gci:items/common/mpz",
        "particle": "gci:items/common/mpz"
    },
    "elements": [
        {
            "from": [
                4.77284,
                3.26219,
                7.05949
            ],
            "to": [
                5.22716,
                4.96149,
                7.77949
            ],
            "rotation": {
                "angle": 0,
                "axis": "y",
                "origin": [
                    5,
                    5.23184,
                    7.73449
                ]
            },
            "faces": {
                "north": {
                    "uv": [
                        6.33333,
                        3.33333,
                        7,
                        4.33333
                    ],
                    "rotation": 270,
                    "texture": "#0"
                },
                "east": {
                    "uv": [
                        6.33333,
                        3.33333,
                        7,
                        4.33333
                    ],
                    "rotation": 270,
                    "texture": "#0"
                },
                "south": {
                    "uv": [
                        6.33333,
                        3.33333,
                        7,
                        4.33333
                    ],
                    "rotation": 270,
                    "texture": "#0"
                },
                "west": {
                    "uv": [
                        6.33333,
                        3.33333,
                        7,
                        4.33333
                    ],
                    "rotation": 270,
                    "texture": "#0"
                },
                "up": {
                    "uv": [
                        6.33333,
                        3.33333,
                        7,
                        4.33333
                    ],
                    "rotation": 270,
                    "texture": "#0"
                },
                "down": {
                    "uv": [
                        6.33333,
                        3.33333,
                        7,
                        4.33333
                    ],
                    "rotation": 270,
                    "texture": "#0"
                }
            }
        },
        {
            "from": [
                4.77284,
                3.76219,
                7.05949
            ],
            "to": [
                5.22716,
                4.71149,
                8.02949
            ],
            "rotation": {
                "angle": 0,
                "axis": "y",
                "origin": [
                    5,
                    5.23184,
                    7.73449
                ]
            },
            "faces": {
                "north": {
                    "uv": [
                        6.33333,
                        3.33333,
                        7,
                        4.33333
                    ],
                    "rotation": 270,
                    "texture": "#0"
                },
                "east": {
                    "uv": [
                        6.33333,
                        3.33333,
                        7,
                        4.33333
                    ],
                    "rotation": 270,
                    "texture": "#0"
                },
                "south": {
                    "uv": [
                        6.33333,
                        3.33333,
                        7,
                        4.33333
                    ],
                    "rotation": 270,
                    "texture": "#0"
                },
                "west": {
                    "uv": [
                        6.33333,
                        3.33333,
                        7,
                        4.33333
                    ],
                    "rotation": 270,
                    "texture": "#0"
                },
                "up": {
                    "uv": [
                        6.33333,
                        3.33333,
                        7,
                        4.33333
                    ],
                    "rotation": 270,
                    "texture": "#0"
                },
                "down": {
                    "uv": [
                        6.33333,
                        3.33333,
                        7,
                        4.33333
                    ],
                    "rotation": 270,
                    "texture": "#0"
                }
            }
        },
        {
            "from": [
                4.77284,
                3.26219,
                6.85949
            ],
            "to": [
                5.22716,
                3.33219,
                7.67949
            ],
            "rotation": {
                "angle": 0,
                "axis": "y",
                "origin": [
                    5,
                    5.23184,
                    7.73449
                ]
            },
            "faces": {
                "north": {
                    "uv": [
                        6.33333,
                        3.33333,
                        7,
                        4.33333
                    ],
                    "rotation": 270,
                    "texture": "#0"
                },
                "east": {
                    "uv": [
                        6.33333,
                        3.33333,
                        7,
                        4.33333
                    ],
                    "rotation": 270,
                    "texture": "#0"
                },
                "south": {
                    "uv": [
                        6.33333,
                        3.33333,
                        7,
                        4.33333
                    ],
                    "rotation": 270,
                    "texture": "#0"
                },
                "west": {
                    "uv": [
                        6.33333,
                        3.33333,
                        7,
                        4.33333
                    ],
                    "rotation": 270,
                    "texture": "#0"
                },
                "up": {
                    "uv": [
                        6.33333,
                        3.33333,
                        7,
                        4.33333
                    ],
                    "rotation": 270,
                    "texture": "#0"
                },
                "down": {
                    "uv": [
                        6.33333,
                        3.33333,
                        7,
                        4.33333
                    ],
                    "rotation": 270,
                    "texture": "#0"
                }
            }
        },
        {
            "from": [
                4.77284,
                3.41658,
                8.2848
            ],
            "to": [
                5.22716,
                3.53658,
                8.3548
            ],
            "rotation": {
                "angle": 22.5,
                "axis": "x",
                "origin": [
                    5,
                    3.82658,
                    8.3198
                ]
            },
            "faces": {
                "north": {
                    "uv": [
                        6.33333,
                        3.33333,
                        7,
                        4.33333
                    ],
                    "rotation": 270,
                    "texture": "#0"
                },
                "east": {
                    "uv": [
                        6.33333,
                        3.33333,
                        7,
                        4.33333
                    ],
                    "rotation": 270,
                    "texture": "#0"
                },
                "south": {
                    "uv": [
                        6.33333,
                        3.33333,
                        7,
                        4.33333
                    ],
                    "rotation": 270,
                    "texture": "#0"
                },
                "west": {
                    "uv": [
                        6.33333,
                        3.33333,
                        7,
                        4.33333
                    ],
                    "rotation": 270,
                    "texture": "#0"
                },
                "up": {
                    "uv": [
                        6.33333,
                        3.33333,
                        7,
                        4.33333
                    ],
                    "rotation": 270,
                    "texture": "#0"
                },
                "down": {
                    "uv": [
                        6.33333,
                        3.33333,
                        7,
                        4.33333
                    ],
                    "rotation": 270,
                    "texture": "#0"
                }
            }
        },
        {
            "from": [
                4.77284,
                3.33538,
                7.69744
            ],
            "to": [
                5.22716,
                4.85468,
                8.14744
            ],
            "rotation": {
                "angle": -22.5,
                "axis": "x",
                "origin": [
                    5,
                    3.50503,
                    7.92244
                ]
            },
            "faces": {
                "north": {
                    "uv": [
                        6.33333,
                        3.33333,
                        7,
                        4.33333
                    ],
                    "rotation": 270,
                    "texture": "#0"
                },
                "east": {
                    "uv": [
                        6.33333,
                        3.33333,
                        7,
                        4.33333
                    ],
                    "rotation": 270,
                    "texture": "#0"
                },
                "south": {
                    "uv": [
                        6.33333,
                        3.33333,
                        7,
                        4.33333
                    ],
                    "rotation": 270,
                    "texture": "#0"
                },
                "west": {
                    "uv": [
                        6.33333,
                        3.33333,
                        7,
                        4.33333
                    ],
                    "rotation": 270,
                    "texture": "#0"
                },
                "up": {
                    "uv": [
                        6.33333,
                        3.33333,
                        7,
                        4.33333
                    ],
                    "rotation": 270,
                    "texture": "#0"
                },
                "down": {
                    "uv": [
                        6.33333,
                        3.33333,
                        7,
                        4.33333
                    ],
                    "rotation": 270,
                    "texture": "#0"
                }
            }
        },
        {
            "from": [
                4.87284,
                3.23971,
                8.16647
            ],
            "to": [
                5.12716,
                3.27971,
                8.21647
            ],
            "rotation": {
                "angle": -22.5,
                "axis": "x",
                "origin": [
                    5,
                    3.40936,
                    7.69147
                ]
            },
            "faces": {
                "north": {
                    "uv": [
                        6.33333,
                        3.33333,
                        7,
                        4.33333
                    ],
                    "rotation": 270,
                    "texture": "#0"
                },
                "east": {
                    "uv": [
                        6.33333,
                        3.33333,
                        7,
                        4.33333
                    ],
                    "rotation": 270,
                    "texture": "#0"
                },
                "south": {
                    "uv": [
                        6.33333,
                        3.33333,
                        7,
                        4.33333
                    ],
                    "rotation": 270,
                    "texture": "#0"
                },
                "west": {
                    "uv": [
                        6.33333,
                        3.33333,
                        7,
                        4.33333
                    ],
                    "rotation": 270,
                    "texture": "#0"
                },
                "up": {
                    "uv": [
                        6.33333,
                        3.33333,
                        7,
                        4.33333
                    ],
                    "rotation": 270,
                    "texture": "#0"
                },
                "down": {
                    "uv": [
                        6.33333,
                        3.33333,
                        7,
                        4.33333
                    ],
                    "rotation": 270,
                    "texture": "#0"
                }
            }
        },
        {
            "from": [
                4.77284,
                3.26219,
                7.05949
            ],
            "to": [
                5.22716,
                4.96149,
                7.77949
            ],
            "rotation": {
                "angle": 0,
                "axis": "y",
                "origin": [
                    5,
                    5.23184,
                    7.73449
                ]
            },
            "faces": {
                "north": {
                    "uv": [
                        6.33333,
                        3.33333,
                        7,
                        4.33333
                    ],
                    "rotation": 270,
                    "texture": "#0"
                },
                "east": {
                    "uv": [
                        6.33333,
                        3.33333,
                        7,
                        4.33333
                    ],
                    "rotation": 270,
                    "texture": "#0"
                },
                "south": {
                    "uv": [
                        6.33333,
                        3.33333,
                        7,
                        4.33333
                    ],
                    "rotation": 270,
                    "texture": "#0"
                },
                "west": {
                    "uv": [
                        6.33333,
                        3.33333,
                        7,
                        4.33333
                    ],
                    "rotation": 270,
                    "texture": "#0"
                },
                "up": {
                    "uv": [
                        6.33333,
                        3.33333,
                        7,
                        4.33333
                    ],
                    "rotation": 270,
                    "texture": "#0"
                },
                "down": {
                    "uv": [
                        6.33333,
                        3.33333,
                        7,
                        4.33333
                    ],
                    "rotation": 270,
                    "texture": "#0"
                }
            }
        },
        {
            "from": [
                4.77284,
                3.76219,
                7.05949
            ],
            "to": [
                5.22716,
                4.71149,
                8.02949
            ],
            "rotation": {
                "angle": 0,
                "axis": "y",
                "origin": [
                    5,
                    5.23184,
                    7.73449
                ]
            },
            "faces": {
                "north": {
                    "uv": [
                        6.33333,
                        3.33333,
                        7,
                        4.33333
                    ],
                    "rotation": 270,
                    "texture": "#0"
                },
                "east": {
                    "uv": [
                        6.33333,
                        3.33333,
                        7,
                        4.33333
                    ],
                    "rotation": 270,
                    "texture": "#0"
                },
                "south": {
                    "uv": [
                        6.33333,
                        3.33333,
                        7,
                        4.33333
                    ],
                    "rotation": 270,
                    "texture": "#0"
                },
                "west": {
                    "uv": [
                        6.33333,
                        3.33333,
                        7,
                        4.33333
                    ],
                    "rotation": 270,
                    "texture": "#0"
                },
                "up": {
                    "uv": [
                        6.33333,
                        3.33333,
                        7,
                        4.33333
                    ],
                    "rotation": 270,
                    "texture": "#0"
                },
                "down": {
                    "uv": [
                        6.33333,
                        3.33333,
                        7,
                        4.33333
                    ],
                    "rotation": 270,
                    "texture": "#0"
                }
            }
        },
        {
            "from": [
                4.77284,
                3.26219,
                6.85949
            ],
            "to": [
                5.22716,
                3.33219,
                7.67949
            ],
            "rotation": {
                "angle": 0,
                "axis": "y",
                "origin": [
                    5,
                    5.23184,
                    7.73449
                ]
            },
            "faces": {
                "north": {
                    "uv": [
                        6.33333,
                        3.33333,
                        7,
                        4.33333
                    ],
                    "rotation": 270,
                    "texture": "#0"
                },
                "east": {
                    "uv": [
                        6.33333,
                        3.33333,
                        7,
                        4.33333
                    ],
                    "rotation": 270,
                    "texture": "#0"
                },
                "south": {
                    "uv": [
                        6.33333,
                        3.33333,
                        7,
                        4.33333
                    ],
                    "rotation": 270,
                    "texture": "#0"
                },
                "west": {
                    "uv": [
                        6.33333,
                        3.33333,
                        7,
                        4.33333
                    ],
                    "rotation": 270,
                    "texture": "#0"
                },
                "up": {
                    "uv": [
                        6.33333,
                        3.33333,
                        7,
                        4.33333
                    ],
                    "rotation": 270,
                    "texture": "#0"
                },
                "down": {
                    "uv": [
                        6.33333,
                        3.33333,
                        7,
                        4.33333
                    ],
                    "rotation": 270,
                    "texture": "#0"
                }
            }
        },
        {
            "from": [
                4.77284,
                3.41658,
                8.2848
            ],
            "to": [
                5.22716,
                3.53658,
                8.3548
            ],
            "rotation": {
                "angle": 22.5,
                "axis": "x",
                "origin": [
                    5,
                    3.82658,
                    8.3198
                ]
            },
            "faces": {
                "north": {
                    "uv": [
                        6.33333,
                        3.33333,
                        7,
                        4.33333
                    ],
                    "rotation": 270,
                    "texture": "#0"
                },
                "east": {
                    "uv": [
                        6.33333,
                        3.33333,
                        7,
                        4.33333
                    ],
                    "rotation": 270,
                    "texture": "#0"
                },
                "south": {
                    "uv": [
                        6.33333,
                        3.33333,
                        7,
                        4.33333
                    ],
                    "rotation": 270,
                    "texture": "#0"
                },
                "west": {
                    "uv": [
                        6.33333,
                        3.33333,
                        7,
                        4.33333
                    ],
                    "rotation": 270,
                    "texture": "#0"
                },
                "up": {
                    "uv": [
                        6.33333,
                        3.33333,
                        7,
                        4.33333
                    ],
                    "rotation": 270,
                    "texture": "#0"
                },
                "down": {
                    "uv": [
                        6.33333,
                        3.33333,
                        7,
                        4.33333
                    ],
                    "rotation": 270,
                    "texture": "#0"
                }
            }
        },
        {
            "from": [
                4.77284,
                3.33538,
                7.69744
            ],
            "to": [
                5.22716,
                4.85468,
                8.14744
            ],
            "rotation": {
                "angle": -22.5,
                "axis": "x",
                "origin": [
                    5,
                    3.50503,
                    7.92244
                ]
            },
            "faces": {
                "north": {
                    "uv": [
                        6.33333,
                        3.33333,
                        7,
                        4.33333
                    ],
                    "rotation": 270,
                    "texture": "#0"
                },
                "east": {
                    "uv": [
                        6.33333,
                        3.33333,
                        7,
                        4.33333
                    ],
                    "rotation": 270,
                    "texture": "#0"
                },
                "south": {
                    "uv": [
                        6.33333,
                        3.33333,
                        7,
                        4.33333
                    ],
                    "rotation": 270,
                    "texture": "#0"
                },
                "west": {
                    "uv": [
                        6.33333,
                        3.33333,
                        7,
                        4.33333
                    ],
                    "rotation": 270,
                    "texture": "#0"
                },
                "up": {
                    "uv": [
                        6.33333,
                        3.33333,
                        7,
                        4.33333
                    ],
                    "rotation": 270,
                    "texture": "#0"
                },
                "down": {
                    "uv": [
                        6.33333,
                        3.33333,
                        7,
                        4.33333
                    ],
                    "rotation": 270,
                    "texture": "#0"
                }
            }
        },
        {
            "from": [
                4.87284,
                3.23971,
                8.16647
            ],
            "to": [
                5.12716,
                3.27971,
                8.21647
            ],
            "rotation": {
                "angle": -22.5,
                "axis": "x",
                "origin": [
                    5,
                    3.40936,
                    7.69147
                ]
            },
            "faces": {
                "north": {
                    "uv": [
                        6.33333,
                        3.33333,
                        7,
                        4.33333
                    ],
                    "rotation": 270,
                    "texture": "#0"
                },
                "east": {
                    "uv": [
                        6.33333,
                        3.33333,
                        7,
                        4.33333
                    ],
                    "rotation": 270,
                    "texture": "#0"
                },
                "south": {
                    "uv": [
                        6.33333,
                        3.33333,
                        7,
                        4.33333
                    ],
                    "rotation": 270,
                    "texture": "#0"
                },
                "west": {
                    "uv": [
                        6.33333,
                        3.33333,
                        7,
                        4.33333
                    ],
                    "rotation": 270,
                    "texture": "#0"
                },
                "up": {
                    "uv": [
                        6.33333,
                        3.33333,
                        7,
                        4.33333
                    ],
                    "rotation": 270,
                    "texture": "#0"
                },
                "down": {
                    "uv": [
                        6.33333,
                        3.33333,
                        7,
                        4.33333
                    ],
                    "rotation": 270,
                    "texture": "#0"
                }
            }
        },
        {
            "from": [
                4.87284,
                3.44779,
                8.51839
            ],
            "to": [
                5.12716,
                3.48279,
                8.55339
            ],
            "rotation": {
                "angle": 22.5,
                "axis": "x",
                "origin": [
                    5,
                    4.35779,
                    8.25339
                ]
            },
            "faces": {
                "north": {
                    "uv": [
                        6.33333,
                        3.33333,
                        7,
                        4.33333
                    ],
                    "rotation": 270,
                    "texture": "#0"
                },
                "east": {
                    "uv": [
                        6.33333,
                        3.33333,
                        7,
                        4.33333
                    ],
                    "rotation": 270,
                    "texture": "#0"
                },
                "south": {
                    "uv": [
                        6.33333,
                        3.33333,
                        7,
                        4.33333
                    ],
                    "rotation": 270,
                    "texture": "#0"
                },
                "west": {
                    "uv": [
                        6.33333,
                        3.33333,
                        7,
                        4.33333
                    ],
                    "rotation": 270,
                    "texture": "#0"
                },
                "up": {
                    "uv": [
                        6.33333,
                        3.33333,
                        7,
                        4.33333
                    ],
                    "rotation": 270,
                    "texture": "#0"
                },
                "down": {
                    "uv": [
                        6.33333,
                        3.33333,
                        7,
                        4.33333
                    ],
                    "rotation": 270,
                    "texture": "#0"
                }
            }
        },
        {
            "from": [
                4.87284,
                3.39819,
                8.42678
            ],
            "to": [
                5.12716,
                3.43319,
                8.46178
            ],
            "rotation": {
                "angle": 22.5,
                "axis": "x",
                "origin": [
                    5,
                    4.20819,
                    8.26178
                ]
            },
            "faces": {
                "north": {
                    "uv": [
                        6.33333,
                        3.33333,
                        7,
                        4.33333
                    ],
                    "rotation": 270,
                    "texture": "#0"
                },
                "east": {
                    "uv": [
                        6.33333,
                        3.33333,
                        7,
                        4.33333
                    ],
                    "rotation": 270,
                    "texture": "#0"
                },
                "south": {
                    "uv": [
                        6.33333,
                        3.33333,
                        7,
                        4.33333
                    ],
                    "rotation": 270,
                    "texture": "#0"
                },
                "west": {
                    "uv": [
                        6.33333,
                        3.33333,
                        7,
                        4.33333
                    ],
                    "rotation": 270,
                    "texture": "#0"
                },
                "up": {
                    "uv": [
                        6.33333,
                        3.33333,
                        7,
                        4.33333
                    ],
                    "rotation": 270,
                    "texture": "#0"
                },
                "down": {
                    "uv": [
                        6.33333,
                        3.33333,
                        7,
                        4.33333
                    ],
                    "rotation": 270,
                    "texture": "#0"
                }
            }
        },
        {
            "from": [
                4.87284,
                3.37164,
                8.41931
            ],
            "to": [
                5.12716,
                3.40664,
                8.45431
            ],
            "rotation": {
                "angle": 22.5,
                "axis": "x",
                "origin": [
                    5,
                    4.28164,
                    8.25431
                ]
            },
            "faces": {
                "north": {
                    "uv": [
                        6.33333,
                        3.33333,
                        7,
                        4.33333
                    ],
                    "rotation": 270,
                    "texture": "#0"
                },
                "east": {
                    "uv": [
                        6.33333,
                        3.33333,
                        7,
                        4.33333
                    ],
                    "rotation": 270,
                    "texture": "#0"
                },
                "south": {
                    "uv": [
                        6.33333,
                        3.33333,
                        7,
                        4.33333
                    ],
                    "rotation": 270,
                    "texture": "#0"
                },
                "west": {
                    "uv": [
                        6.33333,
                        3.33333,
                        7,
                        4.33333
                    ],
                    "rotation": 270,
                    "texture": "#0"
                },
                "up": {
                    "uv": [
                        6.33333,
                        3.33333,
                        7,
                        4.33333
                    ],
                    "rotation": 270,
                    "texture": "#0"
                },
                "down": {
                    "uv": [
                        6.33333,
                        3.33333,
                        7,
                        4.33333
                    ],
                    "rotation": 270,
                    "texture": "#0"
                }
            }
        },
        {
            "from": [
                4.87284,
                3.47511,
                8.35815
            ],
            "to": [
                5.12716,
                3.51011,
                8.39315
            ],
            "rotation": {
                "angle": 22.5,
                "axis": "x",
                "origin": [
                    5,
                    4.28511,
                    7.89315
                ]
            },
            "faces": {
                "north": {
                    "uv": [
                        6.33333,
                        3.33333,
                        7,
                        4.33333
                    ],
                    "rotation": 270,
                    "texture": "#0"
                },
                "east": {
                    "uv": [
                        6.33333,
                        3.33333,
                        7,
                        4.33333
                    ],
                    "rotation": 270,
                    "texture": "#0"
                },
                "south": {
                    "uv": [
                        6.33333,
                        3.33333,
                        7,
                        4.33333
                    ],
                    "rotation": 270,
                    "texture": "#0"
                },
                "west": {
                    "uv": [
                        6.33333,
                        3.33333,
                        7,
                        4.33333
                    ],
                    "rotation": 270,
                    "texture": "#0"
                },
                "up": {
                    "uv": [
                        6.33333,
                        3.33333,
                        7,
                        4.33333
                    ],
                    "rotation": 270,
                    "texture": "#0"
                },
                "down": {
                    "uv": [
                        6.33333,
                        3.33333,
                        7,
                        4.33333
                    ],
                    "rotation": 270,
                    "texture": "#0"
                }
            }
        },
        {
            "from": [
                4.87284,
                3.44856,
                8.35069
            ],
            "to": [
                5.12716,
                3.48356,
                8.38569
            ],
            "rotation": {
                "angle": 22.5,
                "axis": "x",
                "origin": [
                    5,
                    4.35856,
                    7.88569
                ]
            },
            "faces": {
                "north": {
                    "uv": [
                        6.33333,
                        3.33333,
                        7,
                        4.33333
                    ],
                    "rotation": 270,
                    "texture": "#0"
                },
                "east": {
                    "uv": [
                        6.33333,
                        3.33333,
                        7,
                        4.33333
                    ],
                    "rotation": 270,
                    "texture": "#0"
                },
                "south": {
                    "uv": [
                        6.33333,
                        3.33333,
                        7,
                        4.33333
                    ],
                    "rotation": 270,
                    "texture": "#0"
                },
                "west": {
                    "uv": [
                        6.33333,
                        3.33333,
                        7,
                        4.33333
                    ],
                    "rotation": 270,
                    "texture": "#0"
                },
                "up": {
                    "uv": [
                        6.33333,
                        3.33333,
                        7,
                        4.33333
                    ],
                    "rotation": 270,
                    "texture": "#0"
                },
                "down": {
                    "uv": [
                        6.33333,
                        3.33333,
                        7,
                        4.33333
                    ],
                    "rotation": 270,
                    "texture": "#0"
                }
            }
        },
        {
            "from": [
                4.87284,
                3.39896,
                8.25908
            ],
            "to": [
                5.12716,
                3.43396,
                8.29408
            ],
            "rotation": {
                "angle": 22.5,
                "axis": "x",
                "origin": [
                    5,
                    4.20896,
                    7.89408
                ]
            },
            "faces": {
                "north": {
                    "uv": [
                        6.33333,
                        3.33333,
                        7,
                        4.33333
                    ],
                    "rotation": 270,
                    "texture": "#0"
                },
                "east": {
                    "uv": [
                        6.33333,
                        3.33333,
                        7,
                        4.33333
                    ],
                    "rotation": 270,
                    "texture": "#0"
                },
                "south": {
                    "uv": [
                        6.33333,
                        3.33333,
                        7,
                        4.33333
                    ],
                    "rotation": 270,
                    "texture": "#0"
                },
                "west": {
                    "uv": [
                        6.33333,
                        3.33333,
                        7,
                        4.33333
                    ],
                    "rotation": 270,
                    "texture": "#0"
                },
                "up": {
                    "uv": [
                        6.33333,
                        3.33333,
                        7,
                        4.33333
                    ],
                    "rotation": 270,
                    "texture": "#0"
                },
                "down": {
                    "uv": [
                        6.33333,
                        3.33333,
                        7,
                        4.33333
                    ],
                    "rotation": 270,
                    "texture": "#0"
                }
            }
        },
        {
            "from": [
                4.87284,
                3.3724,
                8.25162
            ],
            "to": [
                5.12716,
                3.4074,
                8.28662
            ],
            "rotation": {
                "angle": 22.5,
                "axis": "x",
                "origin": [
                    5,
                    4.2824,
                    7.88662
                ]
            },
            "faces": {
                "north": {
                    "uv": [
                        6.33333,
                        3.33333,
                        7,
                        4.33333
                    ],
                    "rotation": 270,
                    "texture": "#0"
                },
                "east": {
                    "uv": [
                        6.33333,
                        3.33333,
                        7,
                        4.33333
                    ],
                    "rotation": 270,
                    "texture": "#0"
                },
                "south": {
                    "uv": [
                        6.33333,
                        3.33333,
                        7,
                        4.33333
                    ],
                    "rotation": 270,
                    "texture": "#0"
                },
                "west": {
                    "uv": [
                        6.33333,
                        3.33333,
                        7,
                        4.33333
                    ],
                    "rotation": 270,
                    "texture": "#0"
                },
                "up": {
                    "uv": [
                        6.33333,
                        3.33333,
                        7,
                        4.33333
                    ],
                    "rotation": 270,
                    "texture": "#0"
                },
                "down": {
                    "uv": [
                        6.33333,
                        3.33333,
                        7,
                        4.33333
                    ],
                    "rotation": 270,
                    "texture": "#0"
                }
            }
        },
        {
            "from": [
                4.77284,
                3.26219,
                7.05949
            ],
            "to": [
                5.22716,
                4.96149,
                7.77949
            ],
            "rotation": {
                "angle": 0,
                "axis": "y",
                "origin": [
                    5,
                    5.23184,
                    7.73449
                ]
            },
            "faces": {
                "north": {
                    "uv": [
                        6.33333,
                        3.33333,
                        7,
                        4.33333
                    ],
                    "rotation": 270,
                    "texture": "#0"
                },
                "east": {
                    "uv": [
                        6.33333,
                        3.33333,
                        7,
                        4.33333
                    ],
                    "rotation": 270,
                    "texture": "#0"
                },
                "south": {
                    "uv": [
                        6.33333,
                        3.33333,
                        7,
                        4.33333
                    ],
                    "rotation": 270,
                    "texture": "#0"
                },
                "west": {
                    "uv": [
                        6.33333,
                        3.33333,
                        7,
                        4.33333
                    ],
                    "rotation": 270,
                    "texture": "#0"
                },
                "up": {
                    "uv": [
                        6.33333,
                        3.33333,
                        7,
                        4.33333
                    ],
                    "rotation": 270,
                    "texture": "#0"
                },
                "down": {
                    "uv": [
                        6.33333,
                        3.33333,
                        7,
                        4.33333
                    ],
                    "rotation": 270,
                    "texture": "#0"
                }
            }
        },
        {
            "from": [
                4.77284,
                3.76219,
                7.05949
            ],
            "to": [
                5.22716,
                4.71149,
                8.02949
            ],
            "rotation": {
                "angle": 0,
                "axis": "y",
                "origin": [
                    5,
                    5.23184,
                    7.73449
                ]
            },
            "faces": {
                "north": {
                    "uv": [
                        6.33333,
                        3.33333,
                        7,
                        4.33333
                    ],
                    "rotation": 270,
                    "texture": "#0"
                },
                "east": {
                    "uv": [
                        6.33333,
                        3.33333,
                        7,
                        4.33333
                    ],
                    "rotation": 270,
                    "texture": "#0"
                },
                "south": {
                    "uv": [
                        6.33333,
                        3.33333,
                        7,
                        4.33333
                    ],
                    "rotation": 270,
                    "texture": "#0"
                },
                "west": {
                    "uv": [
                        6.33333,
                        3.33333,
                        7,
                        4.33333
                    ],
                    "rotation": 270,
                    "texture": "#0"
                },
                "up": {
                    "uv": [
                        6.33333,
                        3.33333,
                        7,
                        4.33333
                    ],
                    "rotation": 270,
                    "texture": "#0"
                },
                "down": {
                    "uv": [
                        6.33333,
                        3.33333,
                        7,
                        4.33333
                    ],
                    "rotation": 270,
                    "texture": "#0"
                }
            }
        },
        {
            "from": [
                4.77284,
                3.26219,
                6.85949
            ],
            "to": [
                5.22716,
                3.33219,
                7.67949
            ],
            "rotation": {
                "angle": 0,
                "axis": "y",
                "origin": [
                    5,
                    5.23184,
                    7.73449
                ]
            },
            "faces": {
                "north": {
                    "uv": [
                        6.33333,
                        3.33333,
                        7,
                        4.33333
                    ],
                    "rotation": 270,
                    "texture": "#0"
                },
                "east": {
                    "uv": [
                        6.33333,
                        3.33333,
                        7,
                        4.33333
                    ],
                    "rotation": 270,
                    "texture": "#0"
                },
                "south": {
                    "uv": [
                        6.33333,
                        3.33333,
                        7,
                        4.33333
                    ],
                    "rotation": 270,
                    "texture": "#0"
                },
                "west": {
                    "uv": [
                        6.33333,
                        3.33333,
                        7,
                        4.33333
                    ],
                    "rotation": 270,
                    "texture": "#0"
                },
                "up": {
                    "uv": [
                        6.33333,
                        3.33333,
                        7,
                        4.33333
                    ],
                    "rotation": 270,
                    "texture": "#0"
                },
                "down": {
                    "uv": [
                        6.33333,
                        3.33333,
                        7,
                        4.33333
                    ],
                    "rotation": 270,
                    "texture": "#0"
                }
            }
        },
        {
            "from": [
                4.77284,
                3.41658,
                8.2848
            ],
            "to": [
                5.22716,
                3.53658,
                8.3548
            ],
            "rotation": {
                "angle": 22.5,
                "axis": "x",
                "origin": [
                    5,
                    3.82658,
                    8.3198
                ]
            },
            "faces": {
                "north": {
                    "uv": [
                        6.33333,
                        3.33333,
                        7,
                        4.33333
                    ],
                    "rotation": 270,
                    "texture": "#0"
                },
                "east": {
                    "uv": [
                        6.33333,
                        3.33333,
                        7,
                        4.33333
                    ],
                    "rotation": 270,
                    "texture": "#0"
                },
                "south": {
                    "uv": [
                        6.33333,
                        3.33333,
                        7,
                        4.33333
                    ],
                    "rotation": 270,
                    "texture": "#0"
                },
                "west": {
                    "uv": [
                        6.33333,
                        3.33333,
                        7,
                        4.33333
                    ],
                    "rotation": 270,
                    "texture": "#0"
                },
                "up": {
                    "uv": [
                        6.33333,
                        3.33333,
                        7,
                        4.33333
                    ],
                    "rotation": 270,
                    "texture": "#0"
                },
                "down": {
                    "uv": [
                        6.33333,
                        3.33333,
                        7,
                        4.33333
                    ],
                    "rotation": 270,
                    "texture": "#0"
                }
            }
        },
        {
            "from": [
                4.77284,
                3.33538,
                7.69744
            ],
            "to": [
                5.22716,
                4.85468,
                8.14744
            ],
            "rotation": {
                "angle": -22.5,
                "axis": "x",
                "origin": [
                    5,
                    3.50503,
                    7.92244
                ]
            },
            "faces": {
                "north": {
                    "uv": [
                        6.33333,
                        3.33333,
                        7,
                        4.33333
                    ],
                    "rotation": 270,
                    "texture": "#0"
                },
                "east": {
                    "uv": [
                        6.33333,
                        3.33333,
                        7,
                        4.33333
                    ],
                    "rotation": 270,
                    "texture": "#0"
                },
                "south": {
                    "uv": [
                        6.33333,
                        3.33333,
                        7,
                        4.33333
                    ],
                    "rotation": 270,
                    "texture": "#0"
                },
                "west": {
                    "uv": [
                        6.33333,
                        3.33333,
                        7,
                        4.33333
                    ],
                    "rotation": 270,
                    "texture": "#0"
                },
                "up": {
                    "uv": [
                        6.33333,
                        3.33333,
                        7,
                        4.33333
                    ],
                    "rotation": 270,
                    "texture": "#0"
                },
                "down": {
                    "uv": [
                        6.33333,
                        3.33333,
                        7,
                        4.33333
                    ],
                    "rotation": 270,
                    "texture": "#0"
                }
            }
        },
        {
            "from": [
                4.87284,
                3.23971,
                8.16647
            ],
            "to": [
                5.12716,
                3.27971,
                8.21647
            ],
            "rotation": {
                "angle": -22.5,
                "axis": "x",
                "origin": [
                    5,
                    3.40936,
                    7.69147
                ]
            },
            "faces": {
                "north": {
                    "uv": [
                        6.33333,
                        3.33333,
                        7,
                        4.33333
                    ],
                    "rotation": 270,
                    "texture": "#0"
                },
                "east": {
                    "uv": [
                        6.33333,
                        3.33333,
                        7,
                        4.33333
                    ],
                    "rotation": 270,
                    "texture": "#0"
                },
                "south": {
                    "uv": [
                        6.33333,
                        3.33333,
                        7,
                        4.33333
                    ],
                    "rotation": 270,
                    "texture": "#0"
                },
                "west": {
                    "uv": [
                        6.33333,
                        3.33333,
                        7,
                        4.33333
                    ],
                    "rotation": 270,
                    "texture": "#0"
                },
                "up": {
                    "uv": [
                        6.33333,
                        3.33333,
                        7,
                        4.33333
                    ],
                    "rotation": 270,
                    "texture": "#0"
                },
                "down": {
                    "uv": [
                        6.33333,
                        3.33333,
                        7,
                        4.33333
                    ],
                    "rotation": 270,
                    "texture": "#0"
                }
            }
        },
        {
            "from": [
                4.87284,
                3.47434,
                8.52585
            ],
            "to": [
                5.12716,
                3.50934,
                8.56085
            ],
            "rotation": {
                "angle": 22.5,
                "axis": "x",
                "origin": [
                    5,
                    4.28434,
                    8.26085
                ]
            },
            "faces": {
                "north": {
                    "uv": [
                        6.33333,
                        3.33333,
                        7,
                        4.33333
                    ],
                    "rotation": 270,
                    "texture": "#0"
                },
                "east": {
                    "uv": [
                        6.33333,
                        3.33333,
                        7,
                        4.33333
                    ],
                    "rotation": 270,
                    "texture": "#0"
                },
                "south": {
                    "uv": [
                        6.33333,
                        3.33333,
                        7,
                        4.33333
                    ],
                    "rotation": 270,
                    "texture": "#0"
                },
                "west": {
                    "uv": [
                        6.33333,
                        3.33333,
                        7,
                        4.33333
                    ],
                    "rotation": 270,
                    "texture": "#0"
                },
                "up": {
                    "uv": [
                        6.33333,
                        3.33333,
                        7,
                        4.33333
                    ],
                    "rotation": 270,
                    "texture": "#0"
                },
                "down": {
                    "uv": [
                        6.33333,
                        3.33333,
                        7,
                        4.33333
                    ],
                    "rotation": 270,
                    "texture": "#0"
                }
            }
        },
        {
            "from": [
                4.87284,
                3.44779,
                8.51839
            ],
            "to": [
                5.12716,
                3.48279,
                8.55339
            ],
            "rotation": {
                "angle": 22.5,
                "axis": "x",
                "origin": [
                    5,
                    4.35779,
                    8.25339
                ]
            },
            "faces": {
                "north": {
                    "uv": [
                        6.33333,
                        3.33333,
                        7,
                        4.33333
                    ],
                    "rotation": 270,
                    "texture": "#0"
                },
                "east": {
                    "uv": [
                        6.33333,
                        3.33333,
                        7,
                        4.33333
                    ],
                    "rotation": 270,
                    "texture": "#0"
                },
                "south": {
                    "uv": [
                        6.33333,
                        3.33333,
                        7,
                        4.33333
                    ],
                    "rotation": 270,
                    "texture": "#0"
                },
                "west": {
                    "uv": [
                        6.33333,
                        3.33333,
                        7,
                        4.33333
                    ],
                    "rotation": 270,
                    "texture": "#0"
                },
                "up": {
                    "uv": [
                        6.33333,
                        3.33333,
                        7,
                        4.33333
                    ],
                    "rotation": 270,
                    "texture": "#0"
                },
                "down": {
                    "uv": [
                        6.33333,
                        3.33333,
                        7,
                        4.33333
                    ],
                    "rotation": 270,
                    "texture": "#0"
                }
            }
        },
        {
            "from": [
                4.87284,
                3.39819,
                8.42678
            ],
            "to": [
                5.12716,
                3.43319,
                8.46178
            ],
            "rotation": {
                "angle": 22.5,
                "axis": "x",
                "origin": [
                    5,
                    4.20819,
                    8.26178
                ]
            },
            "faces": {
                "north": {
                    "uv": [
                        6.33333,
                        3.33333,
                        7,
                        4.33333
                    ],
                    "rotation": 270,
                    "texture": "#0"
                },
                "east": {
                    "uv": [
                        6.33333,
                        3.33333,
                        7,
                        4.33333
                    ],
                    "rotation": 270,
                    "texture": "#0"
                },
                "south": {
                    "uv": [
                        6.33333,
                        3.33333,
                        7,
                        4.33333
                    ],
                    "rotation": 270,
                    "texture": "#0"
                },
                "west": {
                    "uv": [
                        6.33333,
                        3.33333,
                        7,
                        4.33333
                    ],
                    "rotation": 270,
                    "texture": "#0"
                },
                "up": {
                    "uv": [
                        6.33333,
                        3.33333,
                        7,
                        4.33333
                    ],
                    "rotation": 270,
                    "texture": "#0"
                },
                "down": {
                    "uv": [
                        6.33333,
                        3.33333,
                        7,
                        4.33333
                    ],
                    "rotation": 270,
                    "texture": "#0"
                }
            }
        },
        {
            "from": [
                4.87284,
                3.37164,
                8.41931
            ],
            "to": [
                5.12716,
                3.40664,
                8.45431
            ],
            "rotation": {
                "angle": 22.5,
                "axis": "x",
                "origin": [
                    5,
                    4.28164,
                    8.25431
                ]
            },
            "faces": {
                "north": {
                    "uv": [
                        6.33333,
                        3.33333,
                        7,
                        4.33333
                    ],
                    "rotation": 270,
                    "texture": "#0"
                },
                "east": {
                    "uv": [
                        6.33333,
                        3.33333,
                        7,
                        4.33333
                    ],
                    "rotation": 270,
                    "texture": "#0"
                },
                "south": {
                    "uv": [
                        6.33333,
                        3.33333,
                        7,
                        4.33333
                    ],
                    "rotation": 270,
                    "texture": "#0"
                },
                "west": {
                    "uv": [
                        6.33333,
                        3.33333,
                        7,
                        4.33333
                    ],
                    "rotation": 270,
                    "texture": "#0"
                },
                "up": {
                    "uv": [
                        6.33333,
                        3.33333,
                        7,
                        4.33333
                    ],
                    "rotation": 270,
                    "texture": "#0"
                },
                "down": {
                    "uv": [
                        6.33333,
                        3.33333,
                        7,
                        4.33333
                    ],
                    "rotation": 270,
                    "texture": "#0"
                }
            }
        },
        {
            "from": [
                4.87284,
                3.47511,
                8.35815
            ],
            "to": [
                5.12716,
                3.51011,
                8.39315
            ],
            "rotation": {
                "angle": 22.5,
                "axis": "x",
                "origin": [
                    5,
                    4.28511,
                    7.89315
                ]
            },
            "faces": {
                "north": {
                    "uv": [
                        6.33333,
                        3.33333,
                        7,
                        4.33333
                    ],
                    "rotation": 270,
                    "texture": "#0"
                },
                "east": {
                    "uv": [
                        6.33333,
                        3.33333,
                        7,
                        4.33333
                    ],
                    "rotation": 270,
                    "texture": "#0"
                },
                "south": {
                    "uv": [
                        6.33333,
                        3.33333,
                        7,
                        4.33333
                    ],
                    "rotation": 270,
                    "texture": "#0"
                },
                "west": {
                    "uv": [
                        6.33333,
                        3.33333,
                        7,
                        4.33333
                    ],
                    "rotation": 270,
                    "texture": "#0"
                },
                "up": {
                    "uv": [
                        6.33333,
                        3.33333,
                        7,
                        4.33333
                    ],
                    "rotation": 270,
                    "texture": "#0"
                },
                "down": {
                    "uv": [
                        6.33333,
                        3.33333,
                        7,
                        4.33333
                    ],
                    "rotation": 270,
                    "texture": "#0"
                }
            }
        },
        {
            "from": [
                4.87284,
                3.44856,
                8.35069
            ],
            "to": [
                5.12716,
                3.48356,
                8.38569
            ],
            "rotation": {
                "angle": 22.5,
                "axis": "x",
                "origin": [
                    5,
                    4.35856,
                    7.88569
                ]
            },
            "faces": {
                "north": {
                    "uv": [
                        6.33333,
                        3.33333,
                        7,
                        4.33333
                    ],
                    "rotation": 270,
                    "texture": "#0"
                },
                "east": {
                    "uv": [
                        6.33333,
                        3.33333,
                        7,
                        4.33333
                    ],
                    "rotation": 270,
                    "texture": "#0"
                },
                "south": {
                    "uv": [
                        6.33333,
                        3.33333,
                        7,
                        4.33333
                    ],
                    "rotation": 270,
                    "texture": "#0"
                },
                "west": {
                    "uv": [
                        6.33333,
                        3.33333,
                        7,
                        4.33333
                    ],
                    "rotation": 270,
                    "texture": "#0"
                },
                "up": {
                    "uv": [
                        6.33333,
                        3.33333,
                        7,
                        4.33333
                    ],
                    "rotation": 270,
                    "texture": "#0"
                },
                "down": {
                    "uv": [
                        6.33333,
                        3.33333,
                        7,
                        4.33333
                    ],
                    "rotation": 270,
                    "texture": "#0"
                }
            }
        },
        {
            "from": [
                4.87284,
                3.39896,
                8.25908
            ],
            "to": [
                5.12716,
                3.43396,
                8.29408
            ],
            "rotation": {
                "angle": 22.5,
                "axis": "x",
                "origin": [
                    5,
                    4.20896,
                    7.89408
                ]
            },
            "faces": {
                "north": {
                    "uv": [
                        6.33333,
                        3.33333,
                        7,
                        4.33333
                    ],
                    "rotation": 270,
                    "texture": "#0"
                },
                "east": {
                    "uv": [
                        6.33333,
                        3.33333,
                        7,
                        4.33333
                    ],
                    "rotation": 270,
                    "texture": "#0"
                },
                "south": {
                    "uv": [
                        6.33333,
                        3.33333,
                        7,
                        4.33333
                    ],
                    "rotation": 270,
                    "texture": "#0"
                },
                "west": {
                    "uv": [
                        6.33333,
                        3.33333,
                        7,
                        4.33333
                    ],
                    "rotation": 270,
                    "texture": "#0"
                },
                "up": {
                    "uv": [
                        6.33333,
                        3.33333,
                        7,
                        4.33333
                    ],
                    "rotation": 270,
                    "texture": "#0"
                },
                "down": {
                    "uv": [
                        6.33333,
                        3.33333,
                        7,
                        4.33333
                    ],
                    "rotation": 270,
                    "texture": "#0"
                }
            }
        },
        {
            "from": [
                4.87284,
                3.3724,
                8.25162
            ],
            "to": [
                5.12716,
                3.4074,
                8.28662
            ],
            "rotation": {
                "angle": 22.5,
                "axis": "x",
                "origin": [
                    5,
                    4.2824,
                    7.88662
                ]
            },
            "faces": {
                "north": {
                    "uv": [
                        6.33333,
                        3.33333,
                        7,
                        4.33333
                    ],
                    "rotation": 270,
                    "texture": "#0"
                },
                "east": {
                    "uv": [
                        6.33333,
                        3.33333,
                        7,
                        4.33333
                    ],
                    "rotation": 270,
                    "texture": "#0"
                },
                "south": {
                    "uv": [
                        6.33333,
                        3.33333,
                        7,
                        4.33333
                    ],
                    "rotation": 270,
                    "texture": "#0"
                },
                "west": {
                    "uv": [
                        6.33333,
                        3.33333,
                        7,
                        4.33333
                    ],
                    "rotation": 270,
                    "texture": "#0"
                },
                "up": {
                    "uv": [
                        6.33333,
                        3.33333,
                        7,
                        4.33333
                    ],
                    "rotation": 270,
                    "texture": "#0"
                },
                "down": {
                    "uv": [
                        6.33333,
                        3.33333,
                        7,
                        4.33333
                    ],
                    "rotation": 270,
                    "texture": "#0"
                }
            }
        }
    ],
    "display": {
        "thirdperson_righthand": {
            "translation": [
                4,
                4.75,
                2
            ],
            "scale": [
                1.3,
                1.7,
                1
            ]
        },
        "thirdperson_lefthand": {
            "translation": [
                -4,
                4.5,
                2
            ],
            "scale": [
                1.3,
                1.7,
                1
            ]
        },
        "firstperson_righthand": {
            "translation": [
                -1.25,
                9,
                6.75
            ],
            "scale": [
                1.3,
                1.7,
                1
            ]
        },
        "firstperson_lefthand": {
            "translation": [
                -9.25,
                9,
                6.75
            ],
            "scale": [
                1.3,
                1.7,
                1
            ]
        },
        "ground": {
            "translation": [
                3.25,
                5.25,
                2.75
            ],
            "scale": [
                1.3,
                1.7,
                1
            ]
        },
        "gui": {
            "rotation": [
                90,
                45,
                -90
            ],
            "translation": [
                8.25,
                4.5,
                0
            ],
            "scale": [
                2.6,
                3.4,
                2
            ]
        },
        "fixed": {
            "rotation": [
                90,
                45,
                -90
            ],
            "translation": [
                4.5,
                2.5,
                -4.75
            ],
            "scale": [
                1.45,
                2.05,
                1.5
            ]
        }
    }
}