{
    "textures": {
        "0": "gci:items/common/mpz",
        "1": "gci:items/common/all_in_one",
        "particle": "gci:items/common/mpz"
    },
    "elements": [
        {
            "from": [
                3.93733,
                2.2069,
                -5.5319
            ],
            "to": [
                4.06983,
                2.4069,
                -1.2319
            ],
            "rotation": {
                "angle": 0,
                "axis": "y",
                "origin": [
                    3.96983,
                    2.5194,
                    -2.2819
                ]
            },
            "faces": {
                "north": {
                    "uv": [
                        3,
                        5,
                        4.66667,
                        3
                    ],
                    "texture": "#0"
                },
                "east": {
                    "uv": [
                        3,
                        5,
                        4.66667,
                        3
                    ],
                    "texture": "#0"
                },
                "south": {
                    "uv": [
                        3,
                        5,
                        4.66667,
                        3
                    ],
                    "texture": "#0"
                },
                "west": {
                    "uv": [
                        3,
                        5,
                        4.66667,
                        3
                    ],
                    "texture": "#0"
                },
                "up": {
                    "uv": [
                        3,
                        5,
                        4.66667,
                        3
                    ],
                    "texture": "#0"
                },
                "down": {
                    "uv": [
                        3,
                        5,
                        4.66667,
                        3
                    ],
                    "texture": "#0"
                }
            }
        },
        {
            "from": [
                3.93733,
                2.0069,
                -3.3319
            ],
            "to": [
                4.06983,
                2.2069,
                -1.2319
            ],
            "rotation": {
                "angle": 0,
                "axis": "y",
                "origin": [
                    3.96983,
                    2.3194,
                    -2.2819
                ]
            },
            "faces": {
                "north": {
                    "uv": [
                        13.66667,
                        2,
                        15.33333,
                        0
                    ],
                    "texture": "#0"
                },
                "east": {
                    "uv": [
                        13.66667,
                        2,
                        15.33333,
                        0
                    ],
                    "texture": "#0"
                },
                "south": {
                    "uv": [
                        13.66667,
                        2,
                        15.33333,
                        0
                    ],
                    "texture": "#0"
                },
                "west": {
                    "uv": [
                        13.66667,
                        2,
                        15.33333,
                        0
                    ],
                    "texture": "#0"
                },
                "up": {
                    "uv": [
                        13.66667,
                        2,
                        15.33333,
                        0
                    ],
                    "texture": "#0"
                },
                "down": {
                    "uv": [
                        13.66667,
                        2,
                        15.33333,
                        0
                    ],
                    "texture": "#0"
                }
            }
        },
        {
            "from": [
                3.93733,
                1.8069,
                -5.5319
            ],
            "to": [
                4.06983,
                2.0069,
                -1.2319
            ],
            "rotation": {
                "angle": 0,
                "axis": "y",
                "origin": [
                    3.96983,
                    2.1194,
                    -2.2819
                ]
            },
            "faces": {
                "north": {
                    "uv": [
                        3,
                        5,
                        4.66667,
                        3
                    ],
                    "texture": "#0"
                },
                "east": {
                    "uv": [
                        3,
                        5,
                        4.66667,
                        3
                    ],
                    "texture": "#0"
                },
                "south": {
                    "uv": [
                        3,
                        5,
                        4.66667,
                        3
                    ],
                    "texture": "#0"
                },
                "west": {
                    "uv": [
                        3,
                        5,
                        4.66667,
                        3
                    ],
                    "texture": "#0"
                },
                "up": {
                    "uv": [
                        3,
                        5,
                        4.66667,
                        3
                    ],
                    "texture": "#0"
                },
                "down": {
                    "uv": [
                        3,
                        5,
                        4.66667,
                        3
                    ],
                    "texture": "#0"
                }
            }
        },
        {
            "from": [
                3.95483,
                2.0069,
                -5.7319
            ],
            "to": [
                4.05483,
                2.2069,
                -3.3319
            ],
            "rotation": {
                "angle": 0,
                "axis": "y",
                "origin": [
                    3.96983,
                    2.3194,
                    -2.2819
                ]
            },
            "faces": {
                "north": {
                    "uv": [
                        6,
                        4.66667,
                        7.66667,
                        2.66667
                    ],
                    "texture": "#0"
                },
                "east": {
                    "uv": [
                        6,
                        4.66667,
                        7.66667,
                        2.66667
                    ],
                    "texture": "#0"
                },
                "south": {
                    "uv": [
                        6,
                        4.66667,
                        7.66667,
                        2.66667
                    ],
                    "texture": "#0"
                },
                "west": {
                    "uv": [
                        6,
                        4.66667,
                        7.66667,
                        2.66667
                    ],
                    "texture": "#0"
                },
                "up": {
                    "uv": [
                        6,
                        4.66667,
                        7.66667,
                        2.66667
                    ],
                    "texture": "#0"
                },
                "down": {
                    "uv": [
                        6,
                        4.66667,
                        7.66667,
                        2.66667
                    ],
                    "texture": "#0"
                }
            }
        },
        {
            "from": [
                3.93733,
                2.09971,
                -5.9708
            ],
            "to": [
                4.06983,
                2.29971,
                -5.4708
            ],
            "rotation": {
                "angle": -22.5,
                "axis": "x",
                "origin": [
                    4.00358,
                    2.19971,
                    -5.7708
                ]
            },
            "faces": {
                "north": {
                    "uv": [
                        3,
                        5,
                        4.66667,
                        3
                    ],
                    "texture": "#0"
                },
                "east": {
                    "uv": [
                        3,
                        5,
                        4.66667,
                        3
                    ],
                    "texture": "#0"
                },
                "south": {
                    "uv": [
                        3,
                        5,
                        4.66667,
                        3
                    ],
                    "texture": "#0"
                },
                "west": {
                    "uv": [
                        3,
                        5,
                        4.66667,
                        3
                    ],
                    "texture": "#0"
                },
                "up": {
                    "uv": [
                        3,
                        5,
                        4.66667,
                        3
                    ],
                    "texture": "#0"
                },
                "down": {
                    "uv": [
                        3,
                        5,
                        4.66667,
                        3
                    ],
                    "texture": "#0"
                }
            }
        },
        {
            "from": [
                3.93733,
                1.91409,
                -5.9708
            ],
            "to": [
                4.06983,
                2.11409,
                -5.4708
            ],
            "rotation": {
                "angle": 22.5,
                "axis": "x",
                "origin": [
                    4.00358,
                    2.01409,
                    -5.7708
                ]
            },
            "faces": {
                "north": {
                    "uv": [
                        3,
                        5,
                        4.66667,
                        3
                    ],
                    "texture": "#0"
                },
                "east": {
                    "uv": [
                        3,
                        5,
                        4.66667,
                        3
                    ],
                    "texture": "#0"
                },
                "south": {
                    "uv": [
                        3,
                        5,
                        4.66667,
                        3
                    ],
                    "texture": "#0"
                },
                "west": {
                    "uv": [
                        3,
                        5,
                        4.66667,
                        3
                    ],
                    "texture": "#0"
                },
                "up": {
                    "uv": [
                        3,
                        5,
                        4.66667,
                        3
                    ],
                    "texture": "#0"
                },
                "down": {
                    "uv": [
                        3,
                        5,
                        4.66667,
                        3
                    ],
                    "texture": "#0"
                }
            }
        },
        {
            "from": [
                3.93733,
                1.9006,
                -6.03643
            ],
            "to": [
                4.06983,
                2.0546,
                -5.88243
            ],
            "rotation": {
                "angle": -45,
                "axis": "x",
                "origin": [
                    4.00358,
                    2.0006,
                    -6.13243
                ]
            },
            "faces": {
                "north": {
                    "uv": [
                        3,
                        5,
                        4.66667,
                        3
                    ],
                    "texture": "#0"
                },
                "east": {
                    "uv": [
                        3,
                        5,
                        4.66667,
                        3
                    ],
                    "texture": "#0"
                },
                "south": {
                    "uv": [
                        3,
                        5,
                        4.66667,
                        3
                    ],
                    "texture": "#0"
                },
                "west": {
                    "uv": [
                        3,
                        5,
                        4.66667,
                        3
                    ],
                    "texture": "#0"
                },
                "up": {
                    "uv": [
                        3,
                        5,
                        4.66667,
                        3
                    ],
                    "texture": "#0"
                },
                "down": {
                    "uv": [
                        3,
                        5,
                        4.66667,
                        3
                    ],
                    "texture": "#0"
                }
            }
        },
        {
            "from": [
                3.83733,
                1.8069,
                -1.1319
            ],
            "to": [
                4.16983,
                2.3319,
                1.1681
            ],
            "rotation": {
                "angle": 0,
                "axis": "y",
                "origin": [
                    3.96983,
                    2.4194,
                    0.1181
                ]
            },
            "faces": {
                "north": {
                    "uv": [
                        5.66667,
                        2.33333,
                        7.33333,
                        0.33333
                    ],
                    "texture": "#0"
                },
                "east": {
                    "uv": [
                        5.66667,
                        2.33333,
                        7.33333,
                        0.33333
                    ],
                    "texture": "#0"
                },
                "south": {
                    "uv": [
                        5.66667,
                        2.33333,
                        7.33333,
                        0.33333
                    ],
                    "texture": "#0"
                },
                "west": {
                    "uv": [
                        5.66667,
                        2.33333,
                        7.33333,
                        0.33333
                    ],
                    "texture": "#0"
                },
                "up": {
                    "uv": [
                        5.66667,
                        2.33333,
                        7.33333,
                        0.33333
                    ],
                    "texture": "#0"
                },
                "down": {
                    "uv": [
                        5.66667,
                        2.33333,
                        7.33333,
                        0.33333
                    ],
                    "texture": "#0"
                }
            }
        },
        {
            "from": [
                3.85804,
                1.8069,
                1.1181
            ],
            "to": [
                3.95804,
                2.3319,
                1.2181
            ],
            "rotation": {
                "angle": -45,
                "axis": "y",
                "origin": [
                    3.90804,
                    2.0694,
                    1.1681
                ]
            },
            "faces": {
                "north": {
                    "uv": [
                        5.66667,
                        2.33333,
                        7.33333,
                        0.33333
                    ],
                    "texture": "#0"
                },
                "east": {
                    "uv": [
                        5.66667,
                        2.33333,
                        7.33333,
                        0.33333
                    ],
                    "texture": "#0"
                },
                "south": {
                    "uv": [
                        5.66667,
                        2.33333,
                        7.33333,
                        0.33333
                    ],
                    "texture": "#0"
                },
                "west": {
                    "uv": [
                        5.66667,
                        2.33333,
                        7.33333,
                        0.33333
                    ],
                    "texture": "#0"
                },
                "up": {
                    "uv": [
                        5.66667,
                        2.33333,
                        7.33333,
                        0.33333
                    ],
                    "texture": "#0"
                },
                "down": {
                    "uv": [
                        5.66667,
                        2.33333,
                        7.33333,
                        0.33333
                    ],
                    "texture": "#0"
                }
            }
        },
        {
            "from": [
                4.04912,
                1.8069,
                1.1181
            ],
            "to": [
                4.14912,
                2.3319,
                1.2181
            ],
            "rotation": {
                "angle": -45,
                "axis": "y",
                "origin": [
                    4.09912,
                    2.0694,
                    1.1681
                ]
            },
            "faces": {
                "north": {
                    "uv": [
                        5.66667,
                        2.33333,
                        7.33333,
                        0.33333
                    ],
                    "texture": "#0"
                },
                "east": {
                    "uv": [
                        5.66667,
                        2.33333,
                        7.33333,
                        0.33333
                    ],
                    "texture": "#0"
                },
                "south": {
                    "uv": [
                        5.66667,
                        2.33333,
                        7.33333,
                        0.33333
                    ],
                    "texture": "#0"
                },
                "west": {
                    "uv": [
                        5.66667,
                        2.33333,
                        7.33333,
                        0.33333
                    ],
                    "texture": "#0"
                },
                "up": {
                    "uv": [
                        5.66667,
                        2.33333,
                        7.33333,
                        0.33333
                    ],
                    "texture": "#0"
                },
                "down": {
                    "uv": [
                        5.66667,
                        2.33333,
                        7.33333,
                        0.33333
                    ],
                    "texture": "#0"
                }
            }
        },
        {
            "from": [
                4.03876,
                2.2569,
                -1.1319
            ],
            "to": [
                4.13876,
                2.3569,
                1.1681
            ],
            "rotation": {
                "angle": 45,
                "axis": "z",
                "origin": [
                    4.06376,
                    2.3319,
                    0.0181
                ]
            },
            "faces": {
                "north": {
                    "uv": [
                        5.66667,
                        2.33333,
                        7.33333,
                        0.33333
                    ],
                    "texture": "#0"
                },
                "east": {
                    "uv": [
                        5.66667,
                        2.33333,
                        7.33333,
                        0.33333
                    ],
                    "texture": "#0"
                },
                "south": {
                    "uv": [
                        5.66667,
                        2.33333,
                        7.33333,
                        0.33333
                    ],
                    "texture": "#0"
                },
                "west": {
                    "uv": [
                        5.66667,
                        2.33333,
                        7.33333,
                        0.33333
                    ],
                    "texture": "#0"
                },
                "up": {
                    "uv": [
                        5.66667,
                        2.33333,
                        7.33333,
                        0.33333
                    ],
                    "texture": "#0"
                },
                "down": {
                    "uv": [
                        5.66667,
                        2.33333,
                        7.33333,
                        0.33333
                    ],
                    "texture": "#0"
                }
            }
        },
        {
            "from": [
                3.90912,
                2.30261,
                -1.1319
            ],
            "to": [
                4.09912,
                2.40261,
                1.1681
            ],
            "rotation": {
                "angle": 0,
                "axis": "y",
                "origin": [
                    4.04912,
                    2.35261,
                    0.0181
                ]
            },
            "faces": {
                "north": {
                    "uv": [
                        5.66667,
                        2.33333,
                        7.33333,
                        0.33333
                    ],
                    "rotation": 180,
                    "texture": "#0"
                },
                "east": {
                    "uv": [
                        5.66667,
                        2.33333,
                        7.33333,
                        0.33333
                    ],
                    "rotation": 180,
                    "texture": "#0"
                },
                "south": {
                    "uv": [
                        5.66667,
                        2.33333,
                        7.33333,
                        0.33333
                    ],
                    "rotation": 180,
                    "texture": "#0"
                },
                "west": {
                    "uv": [
                        5.66667,
                        2.33333,
                        7.33333,
                        0.33333
                    ],
                    "rotation": 180,
                    "texture": "#0"
                },
                "up": {
                    "uv": [
                        5.66667,
                        2.33333,
                        7.33333,
                        0.33333
                    ],
                    "rotation": 180,
                    "texture": "#0"
                },
                "down": {
                    "uv": [
                        5.66667,
                        2.33333,
                        7.33333,
                        0.33333
                    ],
                    "rotation": 180,
                    "texture": "#0"
                }
            }
        },
        {
            "from": [
                3.90804,
                1.8069,
                1.13881
            ],
            "to": [
                4.09804,
                2.3319,
                1.23881
            ],
            "rotation": {
                "angle": 0,
                "axis": "y",
                "origin": [
                    4.04804,
                    2.2569,
                    0.08881
                ]
            },
            "faces": {
                "north": {
                    "uv": [
                        5.66667,
                        2.33333,
                        7.33333,
                        0.33333
                    ],
                    "rotation": 180,
                    "texture": "#0"
                },
                "east": {
                    "uv": [
                        5.66667,
                        2.33333,
                        7.33333,
                        0.33333
                    ],
                    "rotation": 180,
                    "texture": "#0"
                },
                "south": {
                    "uv": [
                        5.66667,
                        2.33333,
                        7.33333,
                        0.33333
                    ],
                    "rotation": 180,
                    "texture": "#0"
                },
                "west": {
                    "uv": [
                        5.66667,
                        2.33333,
                        7.33333,
                        0.33333
                    ],
                    "rotation": 180,
                    "texture": "#0"
                },
                "up": {
                    "uv": [
                        5.66667,
                        2.33333,
                        7.33333,
                        0.33333
                    ],
                    "rotation": 180,
                    "texture": "#0"
                },
                "down": {
                    "uv": [
                        5.66667,
                        2.33333,
                        7.33333,
                        0.33333
                    ],
                    "rotation": 180,
                    "texture": "#0"
                }
            }
        },
        {
            "from": [
                3.90912,
                2.2819,
                1.1181
            ],
            "to": [
                4.09912,
                2.3819,
                1.2181
            ],
            "rotation": {
                "angle": -45,
                "axis": "x",
                "origin": [
                    4.00412,
                    2.3319,
                    1.1681
                ]
            },
            "faces": {
                "north": {
                    "uv": [
                        5.66667,
                        2.33333,
                        7.33333,
                        0.33333
                    ],
                    "rotation": 180,
                    "texture": "#0"
                },
                "east": {
                    "uv": [
                        5.66667,
                        2.33333,
                        7.33333,
                        0.33333
                    ],
                    "rotation": 180,
                    "texture": "#0"
                },
                "south": {
                    "uv": [
                        5.66667,
                        2.33333,
                        7.33333,
                        0.33333
                    ],
                    "rotation": 180,
                    "texture": "#0"
                },
                "west": {
                    "uv": [
                        5.66667,
                        2.33333,
                        7.33333,
                        0.33333
                    ],
                    "rotation": 180,
                    "texture": "#0"
                },
                "up": {
                    "uv": [
                        5.66667,
                        2.33333,
                        7.33333,
                        0.33333
                    ],
                    "rotation": 180,
                    "texture": "#0"
                },
                "down": {
                    "uv": [
                        5.66667,
                        2.33333,
                        7.33333,
                        0.33333
                    ],
                    "rotation": 180,
                    "texture": "#0"
                }
            }
        },
        {
            "from": [
                3.68512,
                1.66661,
                -0.4359
            ],
            "to": [
                4.29112,
                2.92261,
                0.4961
            ],
            "rotation": {
                "angle": 0,
                "axis": "y",
                "origin": [
                    4.00412,
                    2.45261,
                    0.3501
                ]
            },
            "faces": {
                "north": {
                    "uv": [
                        7.33333,
                        0.33333,
                        5.66667,
                        2.33333
                    ],
                    "rotation": 90,
                    "texture": "#0"
                },
                "east": {
                    "uv": [
                        7.33333,
                        0.33333,
                        5.66667,
                        2.33333
                    ],
                    "rotation": 90,
                    "texture": "#0"
                },
                "south": {
                    "uv": [
                        7.33333,
                        0.33333,
                        5.66667,
                        2.33333
                    ],
                    "rotation": 90,
                    "texture": "#0"
                },
                "west": {
                    "uv": [
                        7.33333,
                        0.33333,
                        5.66667,
                        2.33333
                    ],
                    "rotation": 90,
                    "texture": "#0"
                },
                "up": {
                    "uv": [
                        7.33333,
                        0.33333,
                        5.66667,
                        2.33333
                    ],
                    "rotation": 90,
                    "texture": "#0"
                },
                "down": {
                    "uv": [
                        7.33333,
                        0.33333,
                        5.66667,
                        2.33333
                    ],
                    "rotation": 90,
                    "texture": "#0"
                }
            }
        },
        {
            "from": [
                3.65312,
                2.56261,
                -0.3719
            ],
            "to": [
                4.32312,
                2.66661,
                -0.2719
            ],
            "rotation": {
                "angle": 45,
                "axis": "x",
                "origin": [
                    3.98812,
                    2.56661,
                    -0.2739
                ]
            },
            "faces": {
                "north": {
                    "uv": [
                        7.33333,
                        3,
                        5.66667,
                        5
                    ],
                    "rotation": 90,
                    "texture": "#0"
                },
                "east": {
                    "uv": [
                        7.33333,
                        3,
                        5.66667,
                        5
                    ],
                    "rotation": 90,
                    "texture": "#0"
                },
                "south": {
                    "uv": [
                        7.33333,
                        3,
                        5.66667,
                        5
                    ],
                    "rotation": 90,
                    "texture": "#0"
                },
                "west": {
                    "uv": [
                        7.33333,
                        3,
                        5.66667,
                        5
                    ],
                    "rotation": 90,
                    "texture": "#0"
                },
                "up": {
                    "uv": [
                        7.33333,
                        3,
                        5.66667,
                        5
                    ],
                    "rotation": 90,
                    "texture": "#0"
                },
                "down": {
                    "uv": [
                        7.33333,
                        3,
                        5.66667,
                        5
                    ],
                    "rotation": 90,
                    "texture": "#0"
                }
            }
        },
        {
            "from": [
                3.65312,
                2.56261,
                0.2681
            ],
            "to": [
                4.32312,
                2.66661,
                0.3681
            ],
            "rotation": {
                "angle": 45,
                "axis": "x",
                "origin": [
                    3.98812,
                    2.56661,
                    0.3661
                ]
            },
            "faces": {
                "north": {
                    "uv": [
                        7.33333,
                        3,
                        5.66667,
                        5
                    ],
                    "rotation": 90,
                    "texture": "#0"
                },
                "east": {
                    "uv": [
                        7.33333,
                        3,
                        5.66667,
                        5
                    ],
                    "rotation": 90,
                    "texture": "#0"
                },
                "south": {
                    "uv": [
                        7.33333,
                        3,
                        5.66667,
                        5
                    ],
                    "rotation": 90,
                    "texture": "#0"
                },
                "west": {
                    "uv": [
                        7.33333,
                        3,
                        5.66667,
                        5
                    ],
                    "rotation": 90,
                    "texture": "#0"
                },
                "up": {
                    "uv": [
                        7.33333,
                        3,
                        5.66667,
                        5
                    ],
                    "rotation": 90,
                    "texture": "#0"
                },
                "down": {
                    "uv": [
                        7.33333,
                        3,
                        5.66667,
                        5
                    ],
                    "rotation": 90,
                    "texture": "#0"
                }
            }
        },
        {
            "from": [
                3.90804,
                1.7569,
                1.1181
            ],
            "to": [
                4.09804,
                1.8569,
                1.2181
            ],
            "rotation": {
                "angle": -45,
                "axis": "x",
                "origin": [
                    4.00304,
                    1.8069,
                    1.1681
                ]
            },
            "faces": {
                "north": {
                    "uv": [
                        5.66667,
                        2.33333,
                        7.33333,
                        0.33333
                    ],
                    "rotation": 180,
                    "texture": "#0"
                },
                "east": {
                    "uv": [
                        5.66667,
                        2.33333,
                        7.33333,
                        0.33333
                    ],
                    "rotation": 180,
                    "texture": "#0"
                },
                "south": {
                    "uv": [
                        5.66667,
                        2.33333,
                        7.33333,
                        0.33333
                    ],
                    "rotation": 180,
                    "texture": "#0"
                },
                "west": {
                    "uv": [
                        5.66667,
                        2.33333,
                        7.33333,
                        0.33333
                    ],
                    "rotation": 180,
                    "texture": "#0"
                },
                "up": {
                    "uv": [
                        5.66667,
                        2.33333,
                        7.33333,
                        0.33333
                    ],
                    "rotation": 180,
                    "texture": "#0"
                },
                "down": {
                    "uv": [
                        5.66667,
                        2.33333,
                        7.33333,
                        0.33333
                    ],
                    "rotation": 180,
                    "texture": "#0"
                }
            }
        },
        {
            "from": [
                3.90912,
                1.73619,
                -1.1319
            ],
            "to": [
                4.09912,
                1.83619,
                1.1681
            ],
            "rotation": {
                "angle": 0,
                "axis": "y",
                "origin": [
                    4.04912,
                    1.78619,
                    0.0181
                ]
            },
            "faces": {
                "north": {
                    "uv": [
                        5.66667,
                        2.33333,
                        7.33333,
                        0.33333
                    ],
                    "rotation": 180,
                    "texture": "#0"
                },
                "east": {
                    "uv": [
                        5.66667,
                        2.33333,
                        7.33333,
                        0.33333
                    ],
                    "rotation": 180,
                    "texture": "#0"
                },
                "south": {
                    "uv": [
                        5.66667,
                        2.33333,
                        7.33333,
                        0.33333
                    ],
                    "rotation": 180,
                    "texture": "#0"
                },
                "west": {
                    "uv": [
                        5.66667,
                        2.33333,
                        7.33333,
                        0.33333
                    ],
                    "rotation": 180,
                    "texture": "#0"
                },
                "up": {
                    "uv": [
                        5.66667,
                        2.33333,
                        7.33333,
                        0.33333
                    ],
                    "rotation": 180,
                    "texture": "#0"
                },
                "down": {
                    "uv": [
                        5.66667,
                        2.33333,
                        7.33333,
                        0.33333
                    ],
                    "rotation": 180,
                    "texture": "#0"
                }
            }
        },
        {
            "from": [
                3.84769,
                2.2569,
                -1.1319
            ],
            "to": [
                3.94769,
                2.3569,
                1.1681
            ],
            "rotation": {
                "angle": 45,
                "axis": "z",
                "origin": [
                    3.87269,
                    2.3319,
                    0.0181
                ]
            },
            "faces": {
                "north": {
                    "uv": [
                        5.66667,
                        2.33333,
                        7.33333,
                        0.33333
                    ],
                    "texture": "#0"
                },
                "east": {
                    "uv": [
                        5.66667,
                        2.33333,
                        7.33333,
                        0.33333
                    ],
                    "texture": "#0"
                },
                "south": {
                    "uv": [
                        5.66667,
                        2.33333,
                        7.33333,
                        0.33333
                    ],
                    "texture": "#0"
                },
                "west": {
                    "uv": [
                        5.66667,
                        2.33333,
                        7.33333,
                        0.33333
                    ],
                    "texture": "#0"
                },
                "up": {
                    "uv": [
                        5.66667,
                        2.33333,
                        7.33333,
                        0.33333
                    ],
                    "texture": "#0"
                },
                "down": {
                    "uv": [
                        5.66667,
                        2.33333,
                        7.33333,
                        0.33333
                    ],
                    "texture": "#0"
                }
            }
        },
        {
            "from": [
                3.84769,
                1.7319,
                -1.1319
            ],
            "to": [
                3.94769,
                1.8319,
                1.1681
            ],
            "rotation": {
                "angle": 45,
                "axis": "z",
                "origin": [
                    3.87269,
                    1.8069,
                    0.0181
                ]
            },
            "faces": {
                "north": {
                    "uv": [
                        5.66667,
                        2.33333,
                        7.33333,
                        0.33333
                    ],
                    "texture": "#0"
                },
                "east": {
                    "uv": [
                        5.66667,
                        2.33333,
                        7.33333,
                        0.33333
                    ],
                    "texture": "#0"
                },
                "south": {
                    "uv": [
                        5.66667,
                        2.33333,
                        7.33333,
                        0.33333
                    ],
                    "texture": "#0"
                },
                "west": {
                    "uv": [
                        5.66667,
                        2.33333,
                        7.33333,
                        0.33333
                    ],
                    "texture": "#0"
                },
                "up": {
                    "uv": [
                        5.66667,
                        2.33333,
                        7.33333,
                        0.33333
                    ],
                    "texture": "#0"
                },
                "down": {
                    "uv": [
                        5.66667,
                        2.33333,
                        7.33333,
                        0.33333
                    ],
                    "texture": "#0"
                }
            }
        },
        {
            "from": [
                4.03876,
                1.7319,
                -1.1319
            ],
            "to": [
                4.13876,
                1.8319,
                1.1681
            ],
            "rotation": {
                "angle": 45,
                "axis": "z",
                "origin": [
                    4.06376,
                    1.8069,
                    0.0181
                ]
            },
            "faces": {
                "north": {
                    "uv": [
                        5.66667,
                        2.33333,
                        7.33333,
                        0.33333
                    ],
                    "texture": "#0"
                },
                "east": {
                    "uv": [
                        5.66667,
                        2.33333,
                        7.33333,
                        0.33333
                    ],
                    "texture": "#0"
                },
                "south": {
                    "uv": [
                        5.66667,
                        2.33333,
                        7.33333,
                        0.33333
                    ],
                    "texture": "#0"
                },
                "west": {
                    "uv": [
                        5.66667,
                        2.33333,
                        7.33333,
                        0.33333
                    ],
                    "texture": "#0"
                },
                "up": {
                    "uv": [
                        5.66667,
                        2.33333,
                        7.33333,
                        0.33333
                    ],
                    "texture": "#0"
                },
                "down": {
                    "uv": [
                        5.66667,
                        2.33333,
                        7.33333,
                        0.33333
                    ],
                    "texture": "#0"
                }
            }
        },
        {
            "from": [
                3.73733,
                1.556,
                -1.2319
            ],
            "to": [
                4.26983,
                2.481,
                -1.1319
            ],
            "rotation": {
                "angle": 0,
                "axis": "y",
                "origin": [
                    3.96983,
                    2.5194,
                    -2.1819
                ]
            },
            "faces": {
                "north": {
                    "uv": [
                        5.66667,
                        2.33333,
                        7.33333,
                        0.33333
                    ],
                    "texture": "#0"
                },
                "east": {
                    "uv": [
                        5.66667,
                        2.33333,
                        7.33333,
                        0.33333
                    ],
                    "texture": "#0"
                },
                "south": {
                    "uv": [
                        5.66667,
                        2.33333,
                        7.33333,
                        0.33333
                    ],
                    "texture": "#0"
                },
                "west": {
                    "uv": [
                        5.66667,
                        2.33333,
                        7.33333,
                        0.33333
                    ],
                    "texture": "#0"
                },
                "up": {
                    "uv": [
                        5.66667,
                        2.33333,
                        7.33333,
                        0.33333
                    ],
                    "texture": "#0"
                },
                "down": {
                    "uv": [
                        5.66667,
                        2.33333,
                        7.33333,
                        0.33333
                    ],
                    "texture": "#0"
                }
            }
        },
        {
            "from": [
                3.73733,
                0.952,
                -1.2319
            ],
            "to": [
                4.26983,
                1.588,
                -1.1319
            ],
            "rotation": {
                "angle": 0,
                "axis": "y",
                "origin": [
                    3.96983,
                    1.9154,
                    -2.1819
                ]
            },
            "faces": {
                "north": {
                    "uv": [
                        5.66667,
                        2.33333,
                        7.33333,
                        0.33333
                    ],
                    "texture": "#0"
                },
                "east": {
                    "uv": [
                        5.66667,
                        2.33333,
                        7.33333,
                        0.33333
                    ],
                    "texture": "#0"
                },
                "south": {
                    "uv": [
                        5.66667,
                        2.33333,
                        7.33333,
                        0.33333
                    ],
                    "texture": "#0"
                },
                "west": {
                    "uv": [
                        5.66667,
                        2.33333,
                        7.33333,
                        0.33333
                    ],
                    "texture": "#0"
                },
                "up": {
                    "uv": [
                        5.66667,
                        2.33333,
                        7.33333,
                        0.33333
                    ],
                    "texture": "#0"
                },
                "down": {
                    "uv": [
                        5.66667,
                        2.33333,
                        7.33333,
                        0.33333
                    ],
                    "texture": "#0"
                }
            }
        }
    ],
    "display": {
        "thirdperson_righthand": {
            "translation": [
                4,
                5.5,
                -3.75
            ]
        },
        "thirdperson_lefthand": {
            "translation": [
                -4.25,
                5.5,
                -3.75
            ]
        },
        "firstperson_righthand": {
            "translation": [
                0,
                8.75,
                1.25
            ]
        },
        "firstperson_lefthand": {
            "translation": [
                -7.5,
                8.25,
                0.5
            ]
        },
        "ground": {
            "translation": [
                4.5,
                5,
                2.25
            ]
        },
        "gui": {
            "rotation": [
                54,
                40,
                -35
            ],
            "translation": [
                4.75,
                4.5,
                0
            ],
            "scale": [
                0.9,
                0.9,
                0.9
            ]
        },
        "head": {
            "rotation": [
                90,
                143,
                -91
            ],
            "translation": [
                -2.5,
                -9.25,
                -1.5
            ],
            "scale": [
                1.5,
                1.5,
                1.5
            ]
        },
        "fixed": {
            "rotation": [
                0,
                -90,
                0
            ],
            "translation": [
                -3,
                8,
                4.75
            ],
            "scale": [
                1.5,
                1.5,
                1.5
            ]
        }
    }
}