{
    "textures": {
        "8": "gci:items/common/mpz", 
        "3": "gci:items/gun_sar/texture4", 
        "particle": "gci:items/gun_sar/texture", 
        "6": "gci:items/common/all_in_one"
    }, 
    "elements": [
        {
            "to": [
                8.37704, 
                10.08292, 
                9.284
            ], 
            "rotation": {
                "origin": [
                    8.02004, 
                    10.00959, 
                    9.126
                ], 
                "angle": 0, 
                "axis": "y"
            }, 
            "from": [
                7.68904, 
                9.69892, 
                7.624
            ], 
            "faces": {
                "north": {
                    "rotation": 270, 
                    "uv": [
                        2.875, 
                        3, 
                        2.875, 
                        3.25
                    ], 
                    "texture": "#6"
                }, 
                "west": {
                    "rotation": 270, 
                    "uv": [
                        2.875, 
                        3, 
                        2.875, 
                        3.25
                    ], 
                    "texture": "#6"
                }, 
                "up": {
                    "rotation": 270, 
                    "uv": [
                        2.875, 
                        3, 
                        2.875, 
                        3.25
                    ], 
                    "texture": "#6"
                }, 
                "down": {
                    "rotation": 270, 
                    "uv": [
                        2.875, 
                        3, 
                        2.875, 
                        3.25
                    ], 
                    "texture": "#6"
                }, 
                "east": {
                    "rotation": 270, 
                    "uv": [
                        2.875, 
                        3, 
                        2.875, 
                        3.25
                    ], 
                    "texture": "#6"
                }, 
                "south": {
                    "rotation": 270, 
                    "uv": [
                        2.875, 
                        3, 
                        2.875, 
                        3.25
                    ], 
                    "texture": "#6"
                }
            }
        }, 
        {
            "to": [
                8.40904, 
                9.88892, 
                7.878
            ], 
            "rotation": {
                "origin": [
                    8.03304, 
                    9.82692, 
                    7.814
                ], 
                "angle": -45, 
                "axis": "x"
            }, 
            "from": [
                7.65704, 
                9.76492, 
                7.75
            ], 
            "faces": {
                "north": {
                    "uv": [
                        14.25, 
                        6.625, 
                        14.25, 
                        6.625
                    ], 
                    "texture": "#6"
                }, 
                "west": {
                    "uv": [
                        14.25, 
                        6.625, 
                        14.25, 
                        6.625
                    ], 
                    "texture": "#6"
                }, 
                "up": {
                    "uv": [
                        14.25, 
                        6.625, 
                        14.25, 
                        6.625
                    ], 
                    "texture": "#6"
                }, 
                "down": {
                    "uv": [
                        14.25, 
                        6.625, 
                        14.25, 
                        6.625
                    ], 
                    "texture": "#6"
                }, 
                "east": {
                    "uv": [
                        14.25, 
                        6.625, 
                        14.25, 
                        6.625
                    ], 
                    "texture": "#6"
                }, 
                "south": {
                    "uv": [
                        14.25, 
                        6.625, 
                        14.25, 
                        6.625
                    ], 
                    "texture": "#6"
                }
            }
        }, 
        {
            "to": [
                8.40904, 
                9.88892, 
                9.19
            ], 
            "rotation": {
                "origin": [
                    8.03304, 
                    9.82692, 
                    9.126
                ], 
                "angle": -45, 
                "axis": "x"
            }, 
            "from": [
                7.65704, 
                9.76492, 
                9.062
            ], 
            "faces": {
                "north": {
                    "uv": [
                        14.25, 
                        6.625, 
                        14.25, 
                        6.625
                    ], 
                    "texture": "#6"
                }, 
                "west": {
                    "uv": [
                        14.25, 
                        6.625, 
                        14.25, 
                        6.625
                    ], 
                    "texture": "#6"
                }, 
                "up": {
                    "uv": [
                        14.25, 
                        6.625, 
                        14.25, 
                        6.625
                    ], 
                    "texture": "#6"
                }, 
                "down": {
                    "uv": [
                        14.25, 
                        6.625, 
                        14.25, 
                        6.625
                    ], 
                    "texture": "#6"
                }, 
                "east": {
                    "uv": [
                        14.25, 
                        6.625, 
                        14.25, 
                        6.625
                    ], 
                    "texture": "#6"
                }, 
                "south": {
                    "uv": [
                        14.25, 
                        6.625, 
                        14.25, 
                        6.625
                    ], 
                    "texture": "#6"
                }
            }
        }, 
        {
            "to": [
                8.40904, 
                10.33692, 
                9.286
            ], 
            "rotation": {
                "origin": [
                    8.03304, 
                    10.27492, 
                    9.222
                ], 
                "angle": -45, 
                "axis": "x"
            }, 
            "from": [
                7.65704, 
                10.21292, 
                9.158
            ], 
            "faces": {
                "north": {
                    "uv": [
                        2.875, 
                        1, 
                        2.875, 
                        1.25
                    ], 
                    "texture": "#6"
                }, 
                "west": {
                    "uv": [
                        2.875, 
                        1, 
                        2.875, 
                        1.25
                    ], 
                    "texture": "#6"
                }, 
                "up": {
                    "uv": [
                        2.875, 
                        1, 
                        2.875, 
                        1.25
                    ], 
                    "texture": "#6"
                }, 
                "down": {
                    "uv": [
                        2.875, 
                        1, 
                        2.875, 
                        1.25
                    ], 
                    "texture": "#6"
                }, 
                "east": {
                    "uv": [
                        2.875, 
                        1, 
                        2.875, 
                        1.25
                    ], 
                    "texture": "#6"
                }, 
                "south": {
                    "uv": [
                        2.875, 
                        1, 
                        2.875, 
                        1.25
                    ], 
                    "texture": "#6"
                }
            }
        }, 
        {
            "to": [
                8.37704, 
                10.30692, 
                9.7
            ], 
            "rotation": {
                "origin": [
                    8.02004, 
                    10.45759, 
                    9.126
                ], 
                "angle": 0, 
                "axis": "y"
            }, 
            "from": [
                7.68904, 
                10.14692, 
                7.624
            ], 
            "faces": {
                "north": {
                    "rotation": 270, 
                    "uv": [
                        2.875, 
                        3, 
                        2.875, 
                        3.25
                    ], 
                    "texture": "#6"
                }, 
                "west": {
                    "rotation": 270, 
                    "uv": [
                        2.875, 
                        3, 
                        2.875, 
                        3.25
                    ], 
                    "texture": "#6"
                }, 
                "up": {
                    "rotation": 270, 
                    "uv": [
                        2.875, 
                        3, 
                        2.875, 
                        3.25
                    ], 
                    "texture": "#6"
                }, 
                "down": {
                    "rotation": 270, 
                    "uv": [
                        2.875, 
                        3, 
                        2.875, 
                        3.25
                    ], 
                    "texture": "#6"
                }, 
                "east": {
                    "rotation": 270, 
                    "uv": [
                        2.875, 
                        3, 
                        2.875, 
                        3.25
                    ], 
                    "texture": "#6"
                }, 
                "south": {
                    "rotation": 270, 
                    "uv": [
                        2.875, 
                        3, 
                        2.875, 
                        3.25
                    ], 
                    "texture": "#6"
                }
            }
        }, 
        {
            "to": [
                8.08904, 
                10.40692, 
                8.472
            ], 
            "rotation": {
                "origin": [
                    8.03304, 
                    10.37092, 
                    8.416
                ], 
                "angle": -45, 
                "axis": "y"
            }, 
            "from": [
                7.97704, 
                10.30692, 
                8.36
            ], 
            "faces": {
                "north": {
                    "rotation": 270, 
                    "uv": [
                        4.25, 
                        3.125, 
                        4.25, 
                        3.375
                    ], 
                    "texture": "#6"
                }, 
                "west": {
                    "rotation": 270, 
                    "uv": [
                        4.25, 
                        3.125, 
                        4.25, 
                        3.375
                    ], 
                    "texture": "#6"
                }, 
                "up": {
                    "rotation": 270, 
                    "uv": [
                        4.25, 
                        3.125, 
                        4.25, 
                        3.375
                    ], 
                    "texture": "#6"
                }, 
                "down": {
                    "rotation": 270, 
                    "uv": [
                        4.25, 
                        3.125, 
                        4.25, 
                        3.375
                    ], 
                    "texture": "#6"
                }, 
                "east": {
                    "rotation": 270, 
                    "uv": [
                        4.25, 
                        3.125, 
                        4.25, 
                        3.375
                    ], 
                    "texture": "#6"
                }, 
                "south": {
                    "rotation": 270, 
                    "uv": [
                        4.25, 
                        3.125, 
                        4.25, 
                        3.375
                    ], 
                    "texture": "#6"
                }
            }
        }, 
        {
            "to": [
                8.51518, 
                10.40292, 
                8.59153
            ], 
            "rotation": {
                "origin": [
                    8.06318, 
                    10.33892, 
                    8.56753
                ], 
                "angle": 45, 
                "axis": "y"
            }, 
            "from": [
                7.78318, 
                10.30692, 
                8.28753
            ], 
            "faces": {
                "north": {
                    "rotation": 270, 
                    "uv": [
                        14.25, 
                        6.625, 
                        14.25, 
                        6.625
                    ], 
                    "texture": "#6"
                }, 
                "west": {
                    "rotation": 270, 
                    "uv": [
                        14.25, 
                        6.625, 
                        14.25, 
                        6.625
                    ], 
                    "texture": "#6"
                }, 
                "up": {
                    "rotation": 270, 
                    "uv": [
                        14.25, 
                        6.625, 
                        14.25, 
                        6.625
                    ], 
                    "texture": "#6"
                }, 
                "down": {
                    "rotation": 270, 
                    "uv": [
                        14.25, 
                        6.625, 
                        14.25, 
                        6.625
                    ], 
                    "texture": "#6"
                }, 
                "east": {
                    "rotation": 270, 
                    "uv": [
                        14.25, 
                        6.625, 
                        14.25, 
                        6.625
                    ], 
                    "texture": "#6"
                }, 
                "south": {
                    "rotation": 270, 
                    "uv": [
                        14.25, 
                        6.625, 
                        14.25, 
                        6.625
                    ], 
                    "texture": "#6"
                }
            }
        }, 
        {
            "to": [
                8.39948, 
                10.40292, 
                8.56821
            ], 
            "rotation": {
                "origin": [
                    8.03348, 
                    10.35492, 
                    8.41621
                ], 
                "angle": 0, 
                "axis": "y"
            }, 
            "from": [
                7.66748, 
                10.30692, 
                8.26421
            ], 
            "faces": {
                "north": {
                    "rotation": 270, 
                    "uv": [
                        14.25, 
                        6.625, 
                        14.25, 
                        6.625
                    ], 
                    "texture": "#6"
                }, 
                "west": {
                    "rotation": 270, 
                    "uv": [
                        14.25, 
                        6.625, 
                        14.25, 
                        6.625
                    ], 
                    "texture": "#6"
                }, 
                "up": {
                    "rotation": 270, 
                    "uv": [
                        14.25, 
                        6.625, 
                        14.25, 
                        6.625
                    ], 
                    "texture": "#6"
                }, 
                "down": {
                    "rotation": 270, 
                    "uv": [
                        14.25, 
                        6.625, 
                        14.25, 
                        6.625
                    ], 
                    "texture": "#6"
                }, 
                "east": {
                    "rotation": 270, 
                    "uv": [
                        14.25, 
                        6.625, 
                        14.25, 
                        6.625
                    ], 
                    "texture": "#6"
                }, 
                "south": {
                    "rotation": 270, 
                    "uv": [
                        14.25, 
                        6.625, 
                        14.25, 
                        6.625
                    ], 
                    "texture": "#6"
                }
            }
        }, 
        {
            "to": [
                8.18548, 
                10.40292, 
                8.78221
            ], 
            "rotation": {
                "origin": [
                    8.03348, 
                    10.35492, 
                    8.41621
                ], 
                "angle": 45, 
                "axis": "y"
            }, 
            "from": [
                7.88148, 
                10.30692, 
                8.05021
            ], 
            "faces": {
                "north": {
                    "uv": [
                        14.25, 
                        6.625, 
                        14.25, 
                        6.625
                    ], 
                    "texture": "#6"
                }, 
                "west": {
                    "uv": [
                        14.25, 
                        6.625, 
                        14.25, 
                        6.625
                    ], 
                    "texture": "#6"
                }, 
                "up": {
                    "uv": [
                        14.25, 
                        6.625, 
                        14.25, 
                        6.625
                    ], 
                    "texture": "#6"
                }, 
                "down": {
                    "uv": [
                        14.25, 
                        6.625, 
                        14.25, 
                        6.625
                    ], 
                    "texture": "#6"
                }, 
                "east": {
                    "uv": [
                        14.25, 
                        6.625, 
                        14.25, 
                        6.625
                    ], 
                    "texture": "#6"
                }, 
                "south": {
                    "uv": [
                        14.25, 
                        6.625, 
                        14.25, 
                        6.625
                    ], 
                    "texture": "#6"
                }
            }
        }, 
        {
            "to": [
                8.18548, 
                10.40292, 
                8.78221
            ], 
            "rotation": {
                "origin": [
                    8.03348, 
                    10.35492, 
                    8.41621
                ], 
                "angle": 0, 
                "axis": "y"
            }, 
            "from": [
                7.88148, 
                10.30692, 
                8.05021
            ], 
            "faces": {
                "north": {
                    "uv": [
                        14.25, 
                        6.625, 
                        14.25, 
                        6.625
                    ], 
                    "texture": "#6"
                }, 
                "west": {
                    "uv": [
                        14.25, 
                        6.625, 
                        14.25, 
                        6.625
                    ], 
                    "texture": "#6"
                }, 
                "up": {
                    "uv": [
                        14.25, 
                        6.625, 
                        14.25, 
                        6.625
                    ], 
                    "texture": "#6"
                }, 
                "down": {
                    "uv": [
                        14.25, 
                        6.625, 
                        14.25, 
                        6.625
                    ], 
                    "texture": "#6"
                }, 
                "east": {
                    "uv": [
                        14.25, 
                        6.625, 
                        14.25, 
                        6.625
                    ], 
                    "texture": "#6"
                }, 
                "south": {
                    "uv": [
                        14.25, 
                        6.625, 
                        14.25, 
                        6.625
                    ], 
                    "texture": "#6"
                }
            }
        }, 
        {
            "to": [
                8.2426, 
                10.36889, 
                8.004
            ], 
            "rotation": {
                "origin": [
                    8.33964, 
                    10.65058, 
                    7.862
                ], 
                "angle": 22.5, 
                "axis": "z"
            }, 
            "from": [
                8.0026, 
                10.32089, 
                7.72
            ], 
            "faces": {
                "north": {
                    "rotation": 90, 
                    "uv": [
                        2.875, 
                        3, 
                        2.875, 
                        3.25
                    ], 
                    "texture": "#6"
                }, 
                "west": {
                    "rotation": 90, 
                    "uv": [
                        2.875, 
                        3, 
                        2.875, 
                        3.25
                    ], 
                    "texture": "#6"
                }, 
                "up": {
                    "rotation": 90, 
                    "uv": [
                        2.875, 
                        3, 
                        2.875, 
                        3.25
                    ], 
                    "texture": "#6"
                }, 
                "down": {
                    "rotation": 90, 
                    "uv": [
                        2.875, 
                        3, 
                        2.875, 
                        3.25
                    ], 
                    "texture": "#6"
                }, 
                "east": {
                    "rotation": 90, 
                    "uv": [
                        2.875, 
                        3, 
                        2.875, 
                        3.25
                    ], 
                    "texture": "#6"
                }, 
                "south": {
                    "rotation": 90, 
                    "uv": [
                        2.875, 
                        3, 
                        2.875, 
                        3.25
                    ], 
                    "texture": "#6"
                }
            }
        }, 
        {
            "to": [
                8.38069, 
                11.02432, 
                8.004
            ], 
            "rotation": {
                "origin": [
                    8.02369, 
                    10.61499, 
                    9.19
                ], 
                "angle": 0, 
                "axis": "y"
            }, 
            "from": [
                7.69269, 
                10.97632, 
                7.72
            ], 
            "faces": {
                "north": {
                    "rotation": 270, 
                    "uv": [
                        2.875, 
                        3, 
                        2.875, 
                        3.25
                    ], 
                    "texture": "#6"
                }, 
                "west": {
                    "rotation": 270, 
                    "uv": [
                        2.875, 
                        3, 
                        2.875, 
                        3.25
                    ], 
                    "texture": "#6"
                }, 
                "up": {
                    "rotation": 270, 
                    "uv": [
                        2.875, 
                        3, 
                        2.875, 
                        3.25
                    ], 
                    "texture": "#6"
                }, 
                "down": {
                    "rotation": 270, 
                    "uv": [
                        2.875, 
                        3, 
                        2.875, 
                        3.25
                    ], 
                    "texture": "#6"
                }, 
                "east": {
                    "rotation": 270, 
                    "uv": [
                        2.875, 
                        3, 
                        2.875, 
                        3.25
                    ], 
                    "texture": "#6"
                }, 
                "south": {
                    "rotation": 270, 
                    "uv": [
                        2.875, 
                        3, 
                        2.875, 
                        3.25
                    ], 
                    "texture": "#6"
                }
            }
        }, 
        {
            "to": [
                8.07474, 
                10.70432, 
                7.848
            ], 
            "rotation": {
                "origin": [
                    8.37569, 
                    10.90299, 
                    9.19
                ], 
                "angle": 0, 
                "axis": "y"
            }, 
            "from": [
                7.99474, 
                10.62432, 
                7.848
            ], 
            "faces": {
                "north": {
                    "uv": [
                        8.75, 
                        7, 
                        8.75, 
                        7.125
                    ], 
                    "texture": "#6"
                }, 
                "west": {
                    "uv": [
                        8.75, 
                        7, 
                        8.75, 
                        7.125
                    ], 
                    "texture": "#6"
                }, 
                "up": {
                    "uv": [
                        8.75, 
                        7, 
                        8.75, 
                        7.125
                    ], 
                    "texture": "#6"
                }, 
                "down": {
                    "uv": [
                        8.75, 
                        7, 
                        8.75, 
                        7.125
                    ], 
                    "texture": "#6"
                }, 
                "east": {
                    "uv": [
                        8.75, 
                        7, 
                        8.75, 
                        7.125
                    ], 
                    "texture": "#6"
                }, 
                "south": {
                    "uv": [
                        8.75, 
                        7, 
                        8.75, 
                        7.125
                    ], 
                    "texture": "#6"
                }
            }
        }, 
        {
            "to": [
                7.78147, 
                10.25525, 
                8.004
            ], 
            "rotation": {
                "origin": [
                    7.87247, 
                    9.87792, 
                    9.19
                ], 
                "angle": -22.5, 
                "axis": "z"
            }, 
            "from": [
                7.54147, 
                10.20725, 
                7.72
            ], 
            "faces": {
                "north": {
                    "rotation": 270, 
                    "uv": [
                        2.875, 
                        3, 
                        2.875, 
                        3.25
                    ], 
                    "texture": "#6"
                }, 
                "west": {
                    "rotation": 270, 
                    "uv": [
                        2.875, 
                        3, 
                        2.875, 
                        3.25
                    ], 
                    "texture": "#6"
                }, 
                "up": {
                    "rotation": 270, 
                    "uv": [
                        2.875, 
                        3, 
                        2.875, 
                        3.25
                    ], 
                    "texture": "#6"
                }, 
                "down": {
                    "rotation": 270, 
                    "uv": [
                        2.875, 
                        3, 
                        2.875, 
                        3.25
                    ], 
                    "texture": "#6"
                }, 
                "east": {
                    "rotation": 270, 
                    "uv": [
                        2.875, 
                        3, 
                        2.875, 
                        3.25
                    ], 
                    "texture": "#6"
                }, 
                "south": {
                    "rotation": 270, 
                    "uv": [
                        2.875, 
                        3, 
                        2.875, 
                        3.25
                    ], 
                    "texture": "#6"
                }
            }
        }, 
        {
            "to": [
                7.64885, 
                10.80258, 
                8.004
            ], 
            "rotation": {
                "origin": [
                    7.67742, 
                    10.5943, 
                    7.862
                ], 
                "angle": 0, 
                "axis": "y"
            }, 
            "from": [
                7.60085, 
                10.56258, 
                7.72
            ], 
            "faces": {
                "north": {
                    "uv": [
                        2.875, 
                        3, 
                        2.875, 
                        3.25
                    ], 
                    "texture": "#6"
                }, 
                "west": {
                    "rotation": 180, 
                    "uv": [
                        2.875, 
                        3, 
                        2.875, 
                        3.25
                    ], 
                    "texture": "#6"
                }, 
                "up": {
                    "rotation": 180, 
                    "uv": [
                        2.875, 
                        3, 
                        2.875, 
                        3.25
                    ], 
                    "texture": "#6"
                }, 
                "down": {
                    "rotation": 180, 
                    "uv": [
                        2.875, 
                        3, 
                        2.875, 
                        3.25
                    ], 
                    "texture": "#6"
                }, 
                "east": {
                    "rotation": 180, 
                    "uv": [
                        2.875, 
                        3, 
                        2.875, 
                        3.25
                    ], 
                    "texture": "#6"
                }, 
                "south": {
                    "rotation": 180, 
                    "uv": [
                        2.875, 
                        3, 
                        2.875, 
                        3.25
                    ], 
                    "texture": "#6"
                }
            }
        }, 
        {
            "to": [
                8.468, 
                10.80258, 
                8.004
            ], 
            "rotation": {
                "origin": [
                    8.33964, 
                    10.68258, 
                    7.862
                ], 
                "angle": 0, 
                "axis": "y"
            }, 
            "from": [
                8.42, 
                10.56258, 
                7.72
            ], 
            "faces": {
                "north": {
                    "rotation": 180, 
                    "uv": [
                        2.875, 
                        3, 
                        2.875, 
                        3.25
                    ], 
                    "texture": "#6"
                }, 
                "west": {
                    "uv": [
                        2.875, 
                        3, 
                        2.875, 
                        3.25
                    ], 
                    "texture": "#6"
                }, 
                "up": {
                    "uv": [
                        2.875, 
                        3, 
                        2.875, 
                        3.25
                    ], 
                    "texture": "#6"
                }, 
                "down": {
                    "uv": [
                        2.875, 
                        3, 
                        2.875, 
                        3.25
                    ], 
                    "texture": "#6"
                }, 
                "east": {
                    "uv": [
                        2.875, 
                        3, 
                        2.875, 
                        3.25
                    ], 
                    "texture": "#6"
                }, 
                "south": {
                    "uv": [
                        2.875, 
                        3, 
                        2.875, 
                        3.25
                    ], 
                    "texture": "#6"
                }
            }
        }, 
        {
            "to": [
                8.37704, 
                10.35492, 
                8.004
            ], 
            "rotation": {
                "origin": [
                    8.02004, 
                    9.91359, 
                    9.19
                ], 
                "angle": 0, 
                "axis": "y"
            }, 
            "from": [
                7.68904, 
                10.24292, 
                7.72
            ], 
            "faces": {
                "north": {
                    "rotation": 270, 
                    "uv": [
                        2.875, 
                        3, 
                        2.875, 
                        3.25
                    ], 
                    "texture": "#6"
                }, 
                "west": {
                    "rotation": 270, 
                    "uv": [
                        2.875, 
                        3, 
                        2.875, 
                        3.25
                    ], 
                    "texture": "#6"
                }, 
                "up": {
                    "rotation": 270, 
                    "uv": [
                        2.875, 
                        3, 
                        2.875, 
                        3.25
                    ], 
                    "texture": "#6"
                }, 
                "down": {
                    "rotation": 270, 
                    "uv": [
                        2.875, 
                        3, 
                        2.875, 
                        3.25
                    ], 
                    "texture": "#6"
                }, 
                "east": {
                    "rotation": 270, 
                    "uv": [
                        2.875, 
                        3, 
                        2.875, 
                        3.25
                    ], 
                    "texture": "#6"
                }, 
                "south": {
                    "rotation": 270, 
                    "uv": [
                        2.875, 
                        3, 
                        2.875, 
                        3.25
                    ], 
                    "texture": "#6"
                }
            }
        }, 
        {
            "to": [
                8.37704, 
                10.45092, 
                9.7
            ], 
            "rotation": {
                "origin": [
                    8.02004, 
                    9.97759, 
                    10.886
                ], 
                "angle": 0, 
                "axis": "y"
            }, 
            "from": [
                7.68904, 
                10.30692, 
                9.256
            ], 
            "faces": {
                "north": {
                    "rotation": 270, 
                    "uv": [
                        2.875, 
                        3, 
                        2.875, 
                        3.25
                    ], 
                    "texture": "#6"
                }, 
                "west": {
                    "rotation": 270, 
                    "uv": [
                        2.875, 
                        3, 
                        2.875, 
                        3.25
                    ], 
                    "texture": "#6"
                }, 
                "up": {
                    "rotation": 270, 
                    "uv": [
                        2.875, 
                        3, 
                        2.875, 
                        3.25
                    ], 
                    "texture": "#6"
                }, 
                "down": {
                    "rotation": 270, 
                    "uv": [
                        2.875, 
                        3, 
                        2.875, 
                        3.25
                    ], 
                    "texture": "#6"
                }, 
                "east": {
                    "rotation": 270, 
                    "uv": [
                        2.875, 
                        3, 
                        2.875, 
                        3.25
                    ], 
                    "texture": "#6"
                }, 
                "south": {
                    "rotation": 270, 
                    "uv": [
                        2.875, 
                        3, 
                        2.875, 
                        3.25
                    ], 
                    "texture": "#6"
                }
            }
        }, 
        {
            "to": [
                8.37704, 
                10.35448, 
                9.37518
            ], 
            "rotation": {
                "origin": [
                    8.02004, 
                    9.88115, 
                    10.20918
                ], 
                "angle": 0, 
                "axis": "y"
            }, 
            "from": [
                7.68904, 
                10.21048, 
                8.80318
            ], 
            "faces": {
                "north": {
                    "rotation": 270, 
                    "uv": [
                        2.875, 
                        3, 
                        2.875, 
                        3.25
                    ], 
                    "texture": "#6"
                }, 
                "west": {
                    "rotation": 270, 
                    "uv": [
                        2.875, 
                        3, 
                        2.875, 
                        3.25
                    ], 
                    "texture": "#6"
                }, 
                "up": {
                    "rotation": 270, 
                    "uv": [
                        2.875, 
                        3, 
                        2.875, 
                        3.25
                    ], 
                    "texture": "#6"
                }, 
                "down": {
                    "rotation": 270, 
                    "uv": [
                        2.875, 
                        3, 
                        2.875, 
                        3.25
                    ], 
                    "texture": "#6"
                }, 
                "east": {
                    "rotation": 270, 
                    "uv": [
                        2.875, 
                        3, 
                        2.875, 
                        3.25
                    ], 
                    "texture": "#6"
                }, 
                "south": {
                    "rotation": 270, 
                    "uv": [
                        2.875, 
                        3, 
                        2.875, 
                        3.25
                    ], 
                    "texture": "#6"
                }
            }
        }, 
        {
            "to": [
                8.37704, 
                10.94081, 
                9.34686
            ], 
            "rotation": {
                "origin": [
                    8.02004, 
                    10.46748, 
                    10.53286
                ], 
                "angle": -22.5, 
                "axis": "x"
            }, 
            "from": [
                7.68904, 
                10.79681, 
                9.09486
            ], 
            "faces": {
                "north": {
                    "rotation": 270, 
                    "uv": [
                        2.875, 
                        3, 
                        2.875, 
                        3.25
                    ], 
                    "texture": "#6"
                }, 
                "west": {
                    "rotation": 270, 
                    "uv": [
                        2.875, 
                        3, 
                        2.875, 
                        3.25
                    ], 
                    "texture": "#6"
                }, 
                "up": {
                    "rotation": 270, 
                    "uv": [
                        2.875, 
                        3, 
                        2.875, 
                        3.25
                    ], 
                    "texture": "#6"
                }, 
                "down": {
                    "rotation": 270, 
                    "uv": [
                        2.875, 
                        3, 
                        2.875, 
                        3.25
                    ], 
                    "texture": "#6"
                }, 
                "east": {
                    "rotation": 270, 
                    "uv": [
                        2.875, 
                        3, 
                        2.875, 
                        3.25
                    ], 
                    "texture": "#6"
                }, 
                "south": {
                    "rotation": 270, 
                    "uv": [
                        2.875, 
                        3, 
                        2.875, 
                        3.25
                    ], 
                    "texture": "#6"
                }
            }
        }, 
        {
            "to": [
                7.80194, 
                10.99622, 
                8.004
            ], 
            "rotation": {
                "origin": [
                    7.79394, 
                    11.16422, 
                    7.862
                ], 
                "angle": -22.5, 
                "axis": "z"
            }, 
            "from": [
                7.75394, 
                10.75622, 
                7.72
            ], 
            "faces": {
                "north": {
                    "rotation": 180, 
                    "uv": [
                        2.875, 
                        3, 
                        2.875, 
                        3.25
                    ], 
                    "texture": "#6"
                }, 
                "west": {
                    "uv": [
                        2.875, 
                        3, 
                        2.875, 
                        3.25
                    ], 
                    "texture": "#6"
                }, 
                "up": {
                    "uv": [
                        2.875, 
                        3, 
                        2.875, 
                        3.25
                    ], 
                    "texture": "#6"
                }, 
                "down": {
                    "uv": [
                        2.875, 
                        3, 
                        2.875, 
                        3.25
                    ], 
                    "texture": "#6"
                }, 
                "east": {
                    "uv": [
                        2.875, 
                        3, 
                        2.875, 
                        3.25
                    ], 
                    "texture": "#6"
                }, 
                "south": {
                    "uv": [
                        2.875, 
                        3, 
                        2.875, 
                        3.25
                    ], 
                    "texture": "#6"
                }
            }
        }, 
        {
            "to": [
                8.50415, 
                10.62084, 
                8.004
            ], 
            "rotation": {
                "origin": [
                    8.33964, 
                    10.68258, 
                    7.862
                ], 
                "angle": -22.5, 
                "axis": "z"
            }, 
            "from": [
                8.45615, 
                10.38084, 
                7.72
            ], 
            "faces": {
                "north": {
                    "uv": [
                        2.875, 
                        3, 
                        2.875, 
                        3.25
                    ], 
                    "texture": "#6"
                }, 
                "west": {
                    "rotation": 180, 
                    "uv": [
                        2.875, 
                        3, 
                        2.875, 
                        3.25
                    ], 
                    "texture": "#6"
                }, 
                "up": {
                    "rotation": 180, 
                    "uv": [
                        2.875, 
                        3, 
                        2.875, 
                        3.25
                    ], 
                    "texture": "#6"
                }, 
                "down": {
                    "rotation": 180, 
                    "uv": [
                        2.875, 
                        3, 
                        2.875, 
                        3.25
                    ], 
                    "texture": "#6"
                }, 
                "east": {
                    "rotation": 180, 
                    "uv": [
                        2.875, 
                        3, 
                        2.875, 
                        3.25
                    ], 
                    "texture": "#6"
                }, 
                "south": {
                    "rotation": 180, 
                    "uv": [
                        2.875, 
                        3, 
                        2.875, 
                        3.25
                    ], 
                    "texture": "#6"
                }
            }
        }, 
        {
            "to": [
                7.65516, 
                10.5943, 
                8.004
            ], 
            "rotation": {
                "origin": [
                    7.68373, 
                    10.56258, 
                    7.862
                ], 
                "angle": 22.5, 
                "axis": "z"
            }, 
            "from": [
                7.60716, 
                10.3543, 
                7.72
            ], 
            "faces": {
                "north": {
                    "rotation": 180, 
                    "uv": [
                        2.875, 
                        3, 
                        2.875, 
                        3.25
                    ], 
                    "texture": "#6"
                }, 
                "west": {
                    "uv": [
                        2.875, 
                        3, 
                        2.875, 
                        3.25
                    ], 
                    "texture": "#6"
                }, 
                "up": {
                    "uv": [
                        2.875, 
                        3, 
                        2.875, 
                        3.25
                    ], 
                    "texture": "#6"
                }, 
                "down": {
                    "uv": [
                        2.875, 
                        3, 
                        2.875, 
                        3.25
                    ], 
                    "texture": "#6"
                }, 
                "east": {
                    "uv": [
                        2.875, 
                        3, 
                        2.875, 
                        3.25
                    ], 
                    "texture": "#6"
                }, 
                "south": {
                    "uv": [
                        2.875, 
                        3, 
                        2.875, 
                        3.25
                    ], 
                    "texture": "#6"
                }
            }
        }, 
        {
            "to": [
                8.50415, 
                10.98433, 
                8.004
            ], 
            "rotation": {
                "origin": [
                    8.33964, 
                    10.68258, 
                    7.862
                ], 
                "angle": 22.5, 
                "axis": "z"
            }, 
            "from": [
                8.45615, 
                10.74433, 
                7.72
            ], 
            "faces": {
                "north": {
                    "uv": [
                        2.875, 
                        3, 
                        2.875, 
                        3.25
                    ], 
                    "texture": "#6"
                }, 
                "west": {
                    "rotation": 180, 
                    "uv": [
                        2.875, 
                        3, 
                        2.875, 
                        3.25
                    ], 
                    "texture": "#6"
                }, 
                "up": {
                    "rotation": 180, 
                    "uv": [
                        2.875, 
                        3, 
                        2.875, 
                        3.25
                    ], 
                    "texture": "#6"
                }, 
                "down": {
                    "rotation": 180, 
                    "uv": [
                        2.875, 
                        3, 
                        2.875, 
                        3.25
                    ], 
                    "texture": "#6"
                }, 
                "east": {
                    "rotation": 180, 
                    "uv": [
                        2.875, 
                        3, 
                        2.875, 
                        3.25
                    ], 
                    "texture": "#6"
                }, 
                "south": {
                    "rotation": 180, 
                    "uv": [
                        2.875, 
                        3, 
                        2.875, 
                        3.25
                    ], 
                    "texture": "#6"
                }
            }
        }, 
        {
            "to": [
                8.34504, 
                10.24292, 
                9.668
            ], 
            "rotation": {
                "origin": [
                    8.02004, 
                    10.39359, 
                    9.126
                ], 
                "angle": 0, 
                "axis": "y"
            }, 
            "from": [
                7.72104, 
                10.05092, 
                7.656
            ], 
            "faces": {
                "north": {
                    "rotation": 270, 
                    "uv": [
                        1.625, 
                        0.875, 
                        1.625, 
                        0.875
                    ], 
                    "texture": "#6"
                }, 
                "west": {
                    "rotation": 270, 
                    "uv": [
                        1.625, 
                        0.875, 
                        1.625, 
                        0.875
                    ], 
                    "texture": "#6"
                }, 
                "up": {
                    "rotation": 270, 
                    "uv": [
                        1.625, 
                        0.875, 
                        1.625, 
                        0.875
                    ], 
                    "texture": "#6"
                }, 
                "down": {
                    "rotation": 270, 
                    "uv": [
                        1.625, 
                        0.875, 
                        1.625, 
                        0.875
                    ], 
                    "texture": "#6"
                }, 
                "east": {
                    "rotation": 270, 
                    "uv": [
                        1.625, 
                        0.875, 
                        1.625, 
                        0.875
                    ], 
                    "texture": "#6"
                }, 
                "south": {
                    "rotation": 270, 
                    "uv": [
                        1.625, 
                        0.875, 
                        1.625, 
                        0.875
                    ], 
                    "texture": "#6"
                }
            }
        }
    ], 
    "display": {
        "thirdperson_righthand": {
            "rotation": [
                0, 
                -0.5, 
                4.5
            ], 
            "translation": [
                -0.75, 
                2, 
                1
            ]
        }, 
        "head": {
            "rotation": [
                0, 
                0, 
                90
            ], 
            "scale": [
                1.5, 
                1.5, 
                1.5
            ], 
            "translation": [
                -0.5, 
                9.25, 
                0
            ]
        }, 
        "thirdperson_lefthand": {
            "rotation": [
                0, 
                -0.5, 
                4.5
            ], 
            "translation": [
                -0.75, 
                2, 
                1
            ]
        }, 
        "gui": {
            "rotation": [
                23, 
                31, 
                -13
            ], 
            "scale": [
                1.4043, 
                1.49805, 
                1.39063
            ], 
            "translation": [
                1, 
                2.25, 
                0
            ]
        }, 
        "firstperson_righthand": {
            "rotation": [
                0, 
                5.25, 
                0.5
            ], 
            "translation": [
                -3.75, 
                5.5, 
                2.25
            ]
        }, 
        "firstperson_lefthand": {
            "rotation": [
                0, 
                5.25, 
                0.5
            ], 
            "translation": [
                -3.75, 
                5.5, 
                2.25
            ]
        }, 
        "fixed": {
            "rotation": [
                0, 
                -90, 
                0
            ], 
            "scale": [
                2, 
                2, 
                1.82227
            ], 
            "translation": [
                0, 
                2.25, 
                -2
            ]
        }, 
        "ground": {
            "rotation": [
                0, 
                0, 
                -90
            ], 
            "translation": [
                3.5, 
                -2.5, 
                0
            ]
        }
    }
}