{
    "textures": {
        "8": "gci:items/common/mpz", 
        "3": "gci:items/gun_sar/texture4", 
        "particle": "gci:items/gun_sar/texture", 
        "6": "gci:items/common/all_in_one"
    }, 
    "elements": [
        {
            "to": [
                8.11794, 
                5.8278, 
                -0.80868
            ], 
            "rotation": {
                "origin": [
                    7.98195, 
                    5.7993, 
                    -0.90836
                ], 
                "angle": 0, 
                "axis": "y"
            }, 
            "from": [
                7.94694, 
                5.7708, 
                -1.60668
            ], 
            "faces": {
                "north": {
                    "rotation": 180, 
                    "uv": [
                        9.5, 
                        5, 
                        11.547, 
                        7.047
                    ], 
                    "texture": "#8"
                }, 
                "west": {
                    "rotation": 180, 
                    "uv": [
                        9.5, 
                        5, 
                        11.547, 
                        7.047
                    ], 
                    "texture": "#8"
                }, 
                "up": {
                    "rotation": 90, 
                    "uv": [
                        9.5, 
                        5, 
                        11.547, 
                        7.047
                    ], 
                    "texture": "#8"
                }, 
                "down": {
                    "rotation": 270, 
                    "uv": [
                        9.5, 
                        5, 
                        11.547, 
                        7.047
                    ], 
                    "texture": "#8"
                }, 
                "east": {
                    "rotation": 180, 
                    "uv": [
                        9.5, 
                        5, 
                        11.547, 
                        7.047
                    ], 
                    "texture": "#8"
                }, 
                "south": {
                    "rotation": 180, 
                    "uv": [
                        9.5, 
                        5, 
                        11.547, 
                        7.047
                    ], 
                    "texture": "#8"
                }
            }
        }, 
        {
            "to": [
                8.14074, 
                5.88478, 
                -1.15068
            ], 
            "rotation": {
                "origin": [
                    7.98195, 
                    5.7993, 
                    -1.13636
                ], 
                "angle": 0, 
                "axis": "y"
            }, 
            "from": [
                7.92414, 
                5.82778, 
                -1.26468
            ], 
            "faces": {
                "north": {
                    "rotation": 180, 
                    "uv": [
                        9.5, 
                        5, 
                        11.547, 
                        7.047
                    ], 
                    "texture": "#8"
                }, 
                "west": {
                    "rotation": 180, 
                    "uv": [
                        9.5, 
                        5, 
                        11.547, 
                        7.047
                    ], 
                    "texture": "#8"
                }, 
                "up": {
                    "rotation": 90, 
                    "uv": [
                        9.5, 
                        5, 
                        11.547, 
                        7.047
                    ], 
                    "texture": "#8"
                }, 
                "down": {
                    "rotation": 270, 
                    "uv": [
                        9.5, 
                        5, 
                        11.547, 
                        7.047
                    ], 
                    "texture": "#8"
                }, 
                "east": {
                    "rotation": 180, 
                    "uv": [
                        9.5, 
                        5, 
                        11.547, 
                        7.047
                    ], 
                    "texture": "#8"
                }, 
                "south": {
                    "rotation": 180, 
                    "uv": [
                        9.5, 
                        5, 
                        11.547, 
                        7.047
                    ], 
                    "texture": "#8"
                }
            }
        }, 
        {
            "to": [
                8.14074, 
                5.41886, 
                -1.15068
            ], 
            "rotation": {
                "origin": [
                    7.98195, 
                    5.33338, 
                    -1.13636
                ], 
                "angle": 0, 
                "axis": "y"
            }, 
            "from": [
                7.92414, 
                5.36186, 
                -1.26468
            ], 
            "faces": {
                "north": {
                    "rotation": 180, 
                    "uv": [
                        9.5, 
                        5, 
                        11.547, 
                        7.047
                    ], 
                    "texture": "#8"
                }, 
                "west": {
                    "rotation": 180, 
                    "uv": [
                        9.5, 
                        5, 
                        11.547, 
                        7.047
                    ], 
                    "texture": "#8"
                }, 
                "up": {
                    "rotation": 90, 
                    "uv": [
                        9.5, 
                        5, 
                        11.547, 
                        7.047
                    ], 
                    "texture": "#8"
                }, 
                "down": {
                    "rotation": 270, 
                    "uv": [
                        9.5, 
                        5, 
                        11.547, 
                        7.047
                    ], 
                    "texture": "#8"
                }, 
                "east": {
                    "rotation": 180, 
                    "uv": [
                        9.5, 
                        5, 
                        11.547, 
                        7.047
                    ], 
                    "texture": "#8"
                }, 
                "south": {
                    "rotation": 180, 
                    "uv": [
                        9.5, 
                        5, 
                        11.547, 
                        7.047
                    ], 
                    "texture": "#8"
                }
            }
        }, 
        {
            "to": [
                8.2939, 
                5.73162, 
                -1.15068
            ], 
            "rotation": {
                "origin": [
                    8.32238, 
                    5.56713, 
                    -1.13636
                ], 
                "angle": 0, 
                "axis": "y"
            }, 
            "from": [
                8.2369, 
                5.51502, 
                -1.26468
            ], 
            "faces": {
                "north": {
                    "rotation": 270, 
                    "uv": [
                        9.5, 
                        5, 
                        11.547, 
                        7.047
                    ], 
                    "texture": "#8"
                }, 
                "west": {
                    "rotation": 270, 
                    "uv": [
                        9.5, 
                        5, 
                        11.547, 
                        7.047
                    ], 
                    "texture": "#8"
                }, 
                "up": {
                    "rotation": 180, 
                    "uv": [
                        9.5, 
                        5, 
                        11.547, 
                        7.047
                    ], 
                    "texture": "#8"
                }, 
                "down": {
                    "uv": [
                        9.5, 
                        5, 
                        11.547, 
                        7.047
                    ], 
                    "texture": "#8"
                }, 
                "east": {
                    "rotation": 270, 
                    "uv": [
                        9.5, 
                        5, 
                        11.547, 
                        7.047
                    ], 
                    "texture": "#8"
                }, 
                "south": {
                    "rotation": 270, 
                    "uv": [
                        9.5, 
                        5, 
                        11.547, 
                        7.047
                    ], 
                    "texture": "#8"
                }
            }
        }, 
        {
            "to": [
                7.82798, 
                5.73162, 
                -1.15068
            ], 
            "rotation": {
                "origin": [
                    7.85646, 
                    5.56713, 
                    -1.13636
                ], 
                "angle": 0, 
                "axis": "y"
            }, 
            "from": [
                7.77098, 
                5.51502, 
                -1.26468
            ], 
            "faces": {
                "north": {
                    "rotation": 270, 
                    "uv": [
                        9.5, 
                        5, 
                        11.547, 
                        7.047
                    ], 
                    "texture": "#8"
                }, 
                "west": {
                    "rotation": 270, 
                    "uv": [
                        9.5, 
                        5, 
                        11.547, 
                        7.047
                    ], 
                    "texture": "#8"
                }, 
                "up": {
                    "rotation": 180, 
                    "uv": [
                        9.5, 
                        5, 
                        11.547, 
                        7.047
                    ], 
                    "texture": "#8"
                }, 
                "down": {
                    "uv": [
                        9.5, 
                        5, 
                        11.547, 
                        7.047
                    ], 
                    "texture": "#8"
                }, 
                "east": {
                    "rotation": 270, 
                    "uv": [
                        9.5, 
                        5, 
                        11.547, 
                        7.047
                    ], 
                    "texture": "#8"
                }, 
                "south": {
                    "rotation": 270, 
                    "uv": [
                        9.5, 
                        5, 
                        11.547, 
                        7.047
                    ], 
                    "texture": "#8"
                }
            }
        }, 
        {
            "to": [
                8.03276, 
                5.7935, 
                -1.15068
            ], 
            "rotation": {
                "origin": [
                    7.86827, 
                    5.70802, 
                    -1.13636
                ], 
                "angle": 45, 
                "axis": "z"
            }, 
            "from": [
                7.81616, 
                5.7365, 
                -1.26468
            ], 
            "faces": {
                "north": {
                    "rotation": 180, 
                    "uv": [
                        9.5, 
                        5, 
                        11.547, 
                        7.047
                    ], 
                    "texture": "#8"
                }, 
                "west": {
                    "rotation": 180, 
                    "uv": [
                        9.5, 
                        5, 
                        11.547, 
                        7.047
                    ], 
                    "texture": "#8"
                }, 
                "up": {
                    "rotation": 90, 
                    "uv": [
                        9.5, 
                        5, 
                        11.547, 
                        7.047
                    ], 
                    "texture": "#8"
                }, 
                "down": {
                    "rotation": 270, 
                    "uv": [
                        9.5, 
                        5, 
                        11.547, 
                        7.047
                    ], 
                    "texture": "#8"
                }, 
                "east": {
                    "rotation": 180, 
                    "uv": [
                        9.5, 
                        5, 
                        11.547, 
                        7.047
                    ], 
                    "texture": "#8"
                }, 
                "south": {
                    "rotation": 180, 
                    "uv": [
                        9.5, 
                        5, 
                        11.547, 
                        7.047
                    ], 
                    "texture": "#8"
                }
            }
        }, 
        {
            "to": [
                8.36221, 
                5.46405, 
                -1.15068
            ], 
            "rotation": {
                "origin": [
                    8.19772, 
                    5.37857, 
                    -1.13636
                ], 
                "angle": 45, 
                "axis": "z"
            }, 
            "from": [
                8.14561, 
                5.40705, 
                -1.26468
            ], 
            "faces": {
                "north": {
                    "rotation": 180, 
                    "uv": [
                        9.5, 
                        5, 
                        11.547, 
                        7.047
                    ], 
                    "texture": "#8"
                }, 
                "west": {
                    "rotation": 180, 
                    "uv": [
                        9.5, 
                        5, 
                        11.547, 
                        7.047
                    ], 
                    "texture": "#8"
                }, 
                "up": {
                    "rotation": 90, 
                    "uv": [
                        9.5, 
                        5, 
                        11.547, 
                        7.047
                    ], 
                    "texture": "#8"
                }, 
                "down": {
                    "rotation": 270, 
                    "uv": [
                        9.5, 
                        5, 
                        11.547, 
                        7.047
                    ], 
                    "texture": "#8"
                }, 
                "east": {
                    "rotation": 180, 
                    "uv": [
                        9.5, 
                        5, 
                        11.547, 
                        7.047
                    ], 
                    "texture": "#8"
                }, 
                "south": {
                    "rotation": 180, 
                    "uv": [
                        9.5, 
                        5, 
                        11.547, 
                        7.047
                    ], 
                    "texture": "#8"
                }
            }
        }, 
        {
            "to": [
                8.28163, 
                5.87297, 
                -1.15068
            ], 
            "rotation": {
                "origin": [
                    8.11714, 
                    5.78749, 
                    -1.13636
                ], 
                "angle": -45, 
                "axis": "z"
            }, 
            "from": [
                8.06503, 
                5.81597, 
                -1.26468
            ], 
            "faces": {
                "north": {
                    "rotation": 180, 
                    "uv": [
                        9.5, 
                        5, 
                        11.547, 
                        7.047
                    ], 
                    "texture": "#8"
                }, 
                "west": {
                    "rotation": 180, 
                    "uv": [
                        9.5, 
                        5, 
                        11.547, 
                        7.047
                    ], 
                    "texture": "#8"
                }, 
                "up": {
                    "rotation": 90, 
                    "uv": [
                        9.5, 
                        5, 
                        11.547, 
                        7.047
                    ], 
                    "texture": "#8"
                }, 
                "down": {
                    "rotation": 270, 
                    "uv": [
                        9.5, 
                        5, 
                        11.547, 
                        7.047
                    ], 
                    "texture": "#8"
                }, 
                "east": {
                    "rotation": 180, 
                    "uv": [
                        9.5, 
                        5, 
                        11.547, 
                        7.047
                    ], 
                    "texture": "#8"
                }, 
                "south": {
                    "rotation": 180, 
                    "uv": [
                        9.5, 
                        5, 
                        11.547, 
                        7.047
                    ], 
                    "texture": "#8"
                }
            }
        }, 
        {
            "to": [
                7.95219, 
                5.54351, 
                -1.15068
            ], 
            "rotation": {
                "origin": [
                    7.7877, 
                    5.45803, 
                    -1.13636
                ], 
                "angle": -45, 
                "axis": "z"
            }, 
            "from": [
                7.73559, 
                5.48651, 
                -1.26468
            ], 
            "faces": {
                "north": {
                    "rotation": 180, 
                    "uv": [
                        9.5, 
                        5, 
                        11.547, 
                        7.047
                    ], 
                    "texture": "#8"
                }, 
                "west": {
                    "rotation": 180, 
                    "uv": [
                        9.5, 
                        5, 
                        11.547, 
                        7.047
                    ], 
                    "texture": "#8"
                }, 
                "up": {
                    "rotation": 90, 
                    "uv": [
                        9.5, 
                        5, 
                        11.547, 
                        7.047
                    ], 
                    "texture": "#8"
                }, 
                "down": {
                    "rotation": 270, 
                    "uv": [
                        9.5, 
                        5, 
                        11.547, 
                        7.047
                    ], 
                    "texture": "#8"
                }, 
                "east": {
                    "rotation": 180, 
                    "uv": [
                        9.5, 
                        5, 
                        11.547, 
                        7.047
                    ], 
                    "texture": "#8"
                }, 
                "south": {
                    "rotation": 180, 
                    "uv": [
                        9.5, 
                        5, 
                        11.547, 
                        7.047
                    ], 
                    "texture": "#8"
                }
            }
        }, 
        {
            "to": [
                8.00049, 
                5.75554, 
                -0.80868
            ], 
            "rotation": {
                "origin": [
                    7.88649, 
                    5.72704, 
                    -0.86568
                ], 
                "angle": 45, 
                "axis": "z"
            }, 
            "from": [
                7.82949, 
                5.69854, 
                -1.60668
            ], 
            "faces": {
                "north": {
                    "rotation": 180, 
                    "uv": [
                        9.5, 
                        5, 
                        11.547, 
                        7.047
                    ], 
                    "texture": "#8"
                }, 
                "west": {
                    "rotation": 180, 
                    "uv": [
                        9.5, 
                        5, 
                        11.547, 
                        7.047
                    ], 
                    "texture": "#8"
                }, 
                "up": {
                    "rotation": 90, 
                    "uv": [
                        9.5, 
                        5, 
                        11.547, 
                        7.047
                    ], 
                    "texture": "#8"
                }, 
                "down": {
                    "rotation": 270, 
                    "uv": [
                        9.5, 
                        5, 
                        11.547, 
                        7.047
                    ], 
                    "texture": "#8"
                }, 
                "east": {
                    "rotation": 180, 
                    "uv": [
                        9.5, 
                        5, 
                        11.547, 
                        7.047
                    ], 
                    "texture": "#8"
                }, 
                "south": {
                    "rotation": 180, 
                    "uv": [
                        9.5, 
                        5, 
                        11.547, 
                        7.047
                    ], 
                    "texture": "#8"
                }
            }
        }, 
        {
            "to": [
                7.88302, 
                5.70689, 
                -0.80868
            ], 
            "rotation": {
                "origin": [
                    8.21362, 
                    5.96729, 
                    -1.16208
                ], 
                "angle": 0, 
                "axis": "y"
            }, 
            "from": [
                7.82602, 
                5.53589, 
                -1.60668
            ], 
            "faces": {
                "north": {
                    "uv": [
                        9.5, 
                        5, 
                        11.547, 
                        7.047
                    ], 
                    "texture": "#8"
                }, 
                "west": {
                    "uv": [
                        9.5, 
                        5, 
                        11.547, 
                        7.047
                    ], 
                    "texture": "#8"
                }, 
                "up": {
                    "rotation": 270, 
                    "uv": [
                        9.5, 
                        5, 
                        11.547, 
                        7.047
                    ], 
                    "texture": "#8"
                }, 
                "down": {
                    "rotation": 90, 
                    "uv": [
                        9.5, 
                        5, 
                        11.547, 
                        7.047
                    ], 
                    "texture": "#8"
                }, 
                "east": {
                    "uv": [
                        9.5, 
                        5, 
                        11.547, 
                        7.047
                    ], 
                    "texture": "#8"
                }, 
                "south": {
                    "uv": [
                        9.5, 
                        5, 
                        11.547, 
                        7.047
                    ], 
                    "texture": "#8"
                }
            }
        }, 
        {
            "to": [
                7.95529, 
                5.58943, 
                -0.80868
            ], 
            "rotation": {
                "origin": [
                    7.92679, 
                    5.47543, 
                    -0.86568
                ], 
                "angle": 45, 
                "axis": "z"
            }, 
            "from": [
                7.89829, 
                5.41843, 
                -1.60668
            ], 
            "faces": {
                "north": {
                    "uv": [
                        9.5, 
                        5, 
                        11.547, 
                        7.047
                    ], 
                    "texture": "#8"
                }, 
                "west": {
                    "uv": [
                        9.5, 
                        5, 
                        11.547, 
                        7.047
                    ], 
                    "texture": "#8"
                }, 
                "up": {
                    "rotation": 270, 
                    "uv": [
                        9.5, 
                        5, 
                        11.547, 
                        7.047
                    ], 
                    "texture": "#8"
                }, 
                "down": {
                    "rotation": 90, 
                    "uv": [
                        9.5, 
                        5, 
                        11.547, 
                        7.047
                    ], 
                    "texture": "#8"
                }, 
                "east": {
                    "uv": [
                        9.5, 
                        5, 
                        11.547, 
                        7.047
                    ], 
                    "texture": "#8"
                }, 
                "south": {
                    "uv": [
                        9.5, 
                        5, 
                        11.547, 
                        7.047
                    ], 
                    "texture": "#8"
                }
            }
        }, 
        {
            "to": [
                8.2069, 
                5.84104, 
                -0.80868
            ], 
            "rotation": {
                "origin": [
                    8.1784, 
                    5.72704, 
                    -0.86568
                ], 
                "angle": 45, 
                "axis": "z"
            }, 
            "from": [
                8.1499, 
                5.67004, 
                -1.60668
            ], 
            "faces": {
                "north": {
                    "uv": [
                        9.5, 
                        5, 
                        11.547, 
                        7.047
                    ], 
                    "texture": "#8"
                }, 
                "west": {
                    "uv": [
                        9.5, 
                        5, 
                        11.547, 
                        7.047
                    ], 
                    "texture": "#8"
                }, 
                "up": {
                    "rotation": 270, 
                    "uv": [
                        9.5, 
                        5, 
                        11.547, 
                        7.047
                    ], 
                    "texture": "#8"
                }, 
                "down": {
                    "rotation": 90, 
                    "uv": [
                        9.5, 
                        5, 
                        11.547, 
                        7.047
                    ], 
                    "texture": "#8"
                }, 
                "east": {
                    "uv": [
                        9.5, 
                        5, 
                        11.547, 
                        7.047
                    ], 
                    "texture": "#8"
                }, 
                "south": {
                    "uv": [
                        9.5, 
                        5, 
                        11.547, 
                        7.047
                    ], 
                    "texture": "#8"
                }
            }
        }, 
        {
            "to": [
                8.23886, 
                5.70689, 
                -0.80868
            ], 
            "rotation": {
                "origin": [
                    8.50107, 
                    5.73929, 
                    -1.16208
                ], 
                "angle": 0, 
                "axis": "y"
            }, 
            "from": [
                8.18186, 
                5.53589, 
                -1.60668
            ], 
            "faces": {
                "north": {
                    "uv": [
                        9.5, 
                        5, 
                        11.547, 
                        7.047
                    ], 
                    "texture": "#8"
                }, 
                "west": {
                    "uv": [
                        9.5, 
                        5, 
                        11.547, 
                        7.047
                    ], 
                    "texture": "#8"
                }, 
                "up": {
                    "rotation": 270, 
                    "uv": [
                        9.5, 
                        5, 
                        11.547, 
                        7.047
                    ], 
                    "texture": "#8"
                }, 
                "down": {
                    "rotation": 90, 
                    "uv": [
                        9.5, 
                        5, 
                        11.547, 
                        7.047
                    ], 
                    "texture": "#8"
                }, 
                "east": {
                    "uv": [
                        9.5, 
                        5, 
                        11.547, 
                        7.047
                    ], 
                    "texture": "#8"
                }, 
                "south": {
                    "uv": [
                        9.5, 
                        5, 
                        11.547, 
                        7.047
                    ], 
                    "texture": "#8"
                }
            }
        }, 
        {
            "to": [
                8.2521, 
                5.50393, 
                -0.80868
            ], 
            "rotation": {
                "origin": [
                    8.1381, 
                    5.47543, 
                    -0.86568
                ], 
                "angle": 45, 
                "axis": "z"
            }, 
            "from": [
                8.0811, 
                5.44693, 
                -1.60668
            ], 
            "faces": {
                "north": {
                    "rotation": 180, 
                    "uv": [
                        9.5, 
                        5, 
                        11.547, 
                        7.047
                    ], 
                    "texture": "#8"
                }, 
                "west": {
                    "rotation": 180, 
                    "uv": [
                        9.5, 
                        5, 
                        11.547, 
                        7.047
                    ], 
                    "texture": "#8"
                }, 
                "up": {
                    "rotation": 90, 
                    "uv": [
                        9.5, 
                        5, 
                        11.547, 
                        7.047
                    ], 
                    "texture": "#8"
                }, 
                "down": {
                    "rotation": 270, 
                    "uv": [
                        9.5, 
                        5, 
                        11.547, 
                        7.047
                    ], 
                    "texture": "#8"
                }, 
                "east": {
                    "rotation": 180, 
                    "uv": [
                        9.5, 
                        5, 
                        11.547, 
                        7.047
                    ], 
                    "texture": "#8"
                }, 
                "south": {
                    "rotation": 180, 
                    "uv": [
                        9.5, 
                        5, 
                        11.547, 
                        7.047
                    ], 
                    "texture": "#8"
                }
            }
        }, 
        {
            "to": [
                8.11794, 
                5.47197, 
                -0.80868
            ], 
            "rotation": {
                "origin": [
                    8.01044, 
                    5.44347, 
                    -0.90836
                ], 
                "angle": 0, 
                "axis": "y"
            }, 
            "from": [
                7.94694, 
                5.41497, 
                -1.60668
            ], 
            "faces": {
                "north": {
                    "rotation": 180, 
                    "uv": [
                        9.5, 
                        5, 
                        11.547, 
                        7.047
                    ], 
                    "texture": "#8"
                }, 
                "west": {
                    "rotation": 180, 
                    "uv": [
                        9.5, 
                        5, 
                        11.547, 
                        7.047
                    ], 
                    "texture": "#8"
                }, 
                "up": {
                    "rotation": 90, 
                    "uv": [
                        9.5, 
                        5, 
                        11.547, 
                        7.047
                    ], 
                    "texture": "#8"
                }, 
                "down": {
                    "rotation": 270, 
                    "uv": [
                        9.5, 
                        5, 
                        11.547, 
                        7.047
                    ], 
                    "texture": "#8"
                }, 
                "east": {
                    "rotation": 180, 
                    "uv": [
                        9.5, 
                        5, 
                        11.547, 
                        7.047
                    ], 
                    "texture": "#8"
                }, 
                "south": {
                    "rotation": 180, 
                    "uv": [
                        9.5, 
                        5, 
                        11.547, 
                        7.047
                    ], 
                    "texture": "#8"
                }
            }
        }, 
        {
            "to": [
                8.37444, 
                5.46708, 
                1.83612
            ], 
            "rotation": {
                "origin": [
                    8.03244, 
                    6.19112, 
                    5.69732
                ], 
                "angle": 0, 
                "axis": "y"
            }, 
            "from": [
                7.69044, 
                5.23908, 
                -0.78588
            ], 
            "faces": {
                "north": {
                    "uv": [
                        0, 
                        0, 
                        3.032, 
                        2.394
                    ], 
                    "texture": "#8"
                }, 
                "west": {
                    "uv": [
                        0, 
                        0, 
                        3.032, 
                        2.394
                    ], 
                    "texture": "#8"
                }, 
                "up": {
                    "rotation": 270, 
                    "uv": [
                        0, 
                        0, 
                        3.032, 
                        2.394
                    ], 
                    "texture": "#8"
                }, 
                "down": {
                    "rotation": 90, 
                    "uv": [
                        0, 
                        0, 
                        3.032, 
                        2.394
                    ], 
                    "texture": "#8"
                }, 
                "east": {
                    "uv": [
                        0, 
                        0, 
                        3.032, 
                        2.394
                    ], 
                    "texture": "#8"
                }, 
                "south": {
                    "uv": [
                        0, 
                        0, 
                        3.032, 
                        2.394
                    ], 
                    "texture": "#8"
                }
            }
        }, 
        {
            "to": [
                8.37444, 
                5.80908, 
                1.95012
            ], 
            "rotation": {
                "origin": [
                    8.14644, 
                    6.41912, 
                    5.69732
                ], 
                "angle": 0, 
                "axis": "y"
            }, 
            "from": [
                7.80444, 
                5.46708, 
                -0.78588
            ], 
            "faces": {
                "north": {
                    "uv": [
                        0, 
                        0, 
                        3.032, 
                        2.394
                    ], 
                    "texture": "#8"
                }, 
                "west": {
                    "uv": [
                        0, 
                        0, 
                        3.032, 
                        2.394
                    ], 
                    "texture": "#8"
                }, 
                "up": {
                    "rotation": 270, 
                    "uv": [
                        0, 
                        0, 
                        3.032, 
                        2.394
                    ], 
                    "texture": "#8"
                }, 
                "down": {
                    "rotation": 90, 
                    "uv": [
                        0, 
                        0, 
                        3.032, 
                        2.394
                    ], 
                    "texture": "#8"
                }, 
                "east": {
                    "uv": [
                        0, 
                        0, 
                        3.032, 
                        2.394
                    ], 
                    "texture": "#8"
                }, 
                "south": {
                    "uv": [
                        0, 
                        0, 
                        3.032, 
                        2.394
                    ], 
                    "texture": "#8"
                }
            }
        }, 
        {
            "to": [
                7.80444, 
                5.80908, 
                -0.55788
            ], 
            "rotation": {
                "origin": [
                    8.03244, 
                    6.41912, 
                    5.69732
                ], 
                "angle": 0, 
                "axis": "y"
            }, 
            "from": [
                7.69044, 
                5.46708, 
                -0.78588
            ], 
            "faces": {
                "north": {
                    "uv": [
                        0, 
                        0, 
                        3.032, 
                        2.394
                    ], 
                    "texture": "#8"
                }, 
                "west": {
                    "uv": [
                        0, 
                        0, 
                        3.032, 
                        2.394
                    ], 
                    "texture": "#8"
                }, 
                "up": {
                    "rotation": 270, 
                    "uv": [
                        0, 
                        0, 
                        3.032, 
                        2.394
                    ], 
                    "texture": "#8"
                }, 
                "down": {
                    "rotation": 90, 
                    "uv": [
                        0, 
                        0, 
                        3.032, 
                        2.394
                    ], 
                    "texture": "#8"
                }, 
                "east": {
                    "uv": [
                        0, 
                        0, 
                        3.032, 
                        2.394
                    ], 
                    "texture": "#8"
                }, 
                "south": {
                    "uv": [
                        0, 
                        0, 
                        3.032, 
                        2.394
                    ], 
                    "texture": "#8"
                }
            }
        }, 
        {
            "to": [
                7.77244, 
                6.26908, 
                2.29212
            ], 
            "rotation": {
                "origin": [
                    8.03244, 
                    6.87512, 
                    8.54732
                ], 
                "angle": 0, 
                "axis": "y"
            }, 
            "from": [
                7.65624, 
                5.92308, 
                2.06412
            ], 
            "faces": {
                "north": {
                    "uv": [
                        0, 
                        0, 
                        3.032, 
                        2.394
                    ], 
                    "texture": "#8"
                }, 
                "west": {
                    "uv": [
                        0, 
                        0, 
                        3.032, 
                        2.394
                    ], 
                    "texture": "#8"
                }, 
                "up": {
                    "rotation": 270, 
                    "uv": [
                        0, 
                        0, 
                        3.032, 
                        2.394
                    ], 
                    "texture": "#8"
                }, 
                "down": {
                    "rotation": 90, 
                    "uv": [
                        0, 
                        0, 
                        3.032, 
                        2.394
                    ], 
                    "texture": "#8"
                }, 
                "east": {
                    "uv": [
                        0, 
                        0, 
                        3.032, 
                        2.394
                    ], 
                    "texture": "#8"
                }, 
                "south": {
                    "uv": [
                        0, 
                        0, 
                        3.032, 
                        2.394
                    ], 
                    "texture": "#8"
                }
            }
        }, 
        {
            "to": [
                7.77244, 
                6.26908, 
                -0.10188
            ], 
            "rotation": {
                "origin": [
                    8.03244, 
                    6.87512, 
                    6.15332
                ], 
                "angle": 0, 
                "axis": "y"
            }, 
            "from": [
                7.65624, 
                5.92308, 
                -0.32988
            ], 
            "faces": {
                "north": {
                    "uv": [
                        0, 
                        0, 
                        3.032, 
                        2.394
                    ], 
                    "texture": "#8"
                }, 
                "west": {
                    "uv": [
                        0, 
                        0, 
                        3.032, 
                        2.394
                    ], 
                    "texture": "#8"
                }, 
                "up": {
                    "rotation": 270, 
                    "uv": [
                        0, 
                        0, 
                        3.032, 
                        2.394
                    ], 
                    "texture": "#8"
                }, 
                "down": {
                    "rotation": 90, 
                    "uv": [
                        0, 
                        0, 
                        3.032, 
                        2.394
                    ], 
                    "texture": "#8"
                }, 
                "east": {
                    "uv": [
                        0, 
                        0, 
                        3.032, 
                        2.394
                    ], 
                    "texture": "#8"
                }, 
                "south": {
                    "uv": [
                        0, 
                        0, 
                        3.032, 
                        2.394
                    ], 
                    "texture": "#8"
                }
            }
        }, 
        {
            "to": [
                8.40864, 
                6.26908, 
                2.29212
            ], 
            "rotation": {
                "origin": [
                    8.60244, 
                    6.87512, 
                    8.54732
                ], 
                "angle": 0, 
                "axis": "y"
            }, 
            "from": [
                8.29244, 
                5.92308, 
                2.06412
            ], 
            "faces": {
                "north": {
                    "uv": [
                        0, 
                        0, 
                        3.032, 
                        2.394
                    ], 
                    "texture": "#8"
                }, 
                "west": {
                    "uv": [
                        0, 
                        0, 
                        3.032, 
                        2.394
                    ], 
                    "texture": "#8"
                }, 
                "up": {
                    "rotation": 270, 
                    "uv": [
                        0, 
                        0, 
                        3.032, 
                        2.394
                    ], 
                    "texture": "#8"
                }, 
                "down": {
                    "rotation": 90, 
                    "uv": [
                        0, 
                        0, 
                        3.032, 
                        2.394
                    ], 
                    "texture": "#8"
                }, 
                "east": {
                    "uv": [
                        0, 
                        0, 
                        3.032, 
                        2.394
                    ], 
                    "texture": "#8"
                }, 
                "south": {
                    "uv": [
                        0, 
                        0, 
                        3.032, 
                        2.394
                    ], 
                    "texture": "#8"
                }
            }
        }, 
        {
            "to": [
                8.40864, 
                6.26908, 
                -0.10188
            ], 
            "rotation": {
                "origin": [
                    8.60244, 
                    6.87512, 
                    6.15332
                ], 
                "angle": 0, 
                "axis": "y"
            }, 
            "from": [
                8.29244, 
                5.92308, 
                -0.32988
            ], 
            "faces": {
                "north": {
                    "uv": [
                        0, 
                        0, 
                        3.032, 
                        2.394
                    ], 
                    "texture": "#8"
                }, 
                "west": {
                    "uv": [
                        0, 
                        0, 
                        3.032, 
                        2.394
                    ], 
                    "texture": "#8"
                }, 
                "up": {
                    "rotation": 270, 
                    "uv": [
                        0, 
                        0, 
                        3.032, 
                        2.394
                    ], 
                    "texture": "#8"
                }, 
                "down": {
                    "rotation": 90, 
                    "uv": [
                        0, 
                        0, 
                        3.032, 
                        2.394
                    ], 
                    "texture": "#8"
                }, 
                "east": {
                    "uv": [
                        0, 
                        0, 
                        3.032, 
                        2.394
                    ], 
                    "texture": "#8"
                }, 
                "south": {
                    "uv": [
                        0, 
                        0, 
                        3.032, 
                        2.394
                    ], 
                    "texture": "#8"
                }
            }
        }, 
        {
            "to": [
                8.37444, 
                6.23828, 
                2.40612
            ], 
            "rotation": {
                "origin": [
                    8.03244, 
                    6.64712, 
                    5.69732
                ], 
                "angle": 0, 
                "axis": "y"
            }, 
            "from": [
                7.69044, 
                5.78628, 
                -0.78588
            ], 
            "faces": {
                "north": {
                    "uv": [
                        0, 
                        0, 
                        3.032, 
                        2.394
                    ], 
                    "texture": "#8"
                }, 
                "west": {
                    "uv": [
                        0, 
                        0, 
                        3.032, 
                        2.394
                    ], 
                    "texture": "#8"
                }, 
                "up": {
                    "rotation": 270, 
                    "uv": [
                        0, 
                        0, 
                        3.032, 
                        2.394
                    ], 
                    "texture": "#8"
                }, 
                "down": {
                    "rotation": 90, 
                    "uv": [
                        0, 
                        0, 
                        3.032, 
                        2.394
                    ], 
                    "texture": "#8"
                }, 
                "east": {
                    "uv": [
                        0, 
                        0, 
                        3.032, 
                        2.394
                    ], 
                    "texture": "#8"
                }, 
                "south": {
                    "uv": [
                        0, 
                        0, 
                        3.032, 
                        2.394
                    ], 
                    "texture": "#8"
                }
            }
        }, 
        {
            "to": [
                8.37444, 
                5.49689, 
                1.15212
            ], 
            "rotation": {
                "origin": [
                    8.03244, 
                    5.15489, 
                    0.63912
                ], 
                "angle": -22.5, 
                "axis": "x"
            }, 
            "from": [
                7.69044, 
                4.81289, 
                0.35412
            ], 
            "faces": {
                "north": {
                    "uv": [
                        0, 
                        0, 
                        3.032, 
                        2.394
                    ], 
                    "texture": "#8"
                }, 
                "west": {
                    "uv": [
                        0, 
                        0, 
                        3.032, 
                        2.394
                    ], 
                    "texture": "#8"
                }, 
                "up": {
                    "rotation": 270, 
                    "uv": [
                        0, 
                        0, 
                        3.032, 
                        2.394
                    ], 
                    "texture": "#8"
                }, 
                "down": {
                    "rotation": 90, 
                    "uv": [
                        0, 
                        0, 
                        3.032, 
                        2.394
                    ], 
                    "texture": "#8"
                }, 
                "east": {
                    "uv": [
                        0, 
                        0, 
                        3.032, 
                        2.394
                    ], 
                    "texture": "#8"
                }, 
                "south": {
                    "uv": [
                        0, 
                        0, 
                        3.032, 
                        2.394
                    ], 
                    "texture": "#8"
                }
            }
        }, 
        {
            "to": [
                8.37444, 
                5.78628, 
                1.95012
            ], 
            "rotation": {
                "origin": [
                    8.03244, 
                    5.21628, 
                    1.32312
                ], 
                "angle": 0, 
                "axis": "y"
            }, 
            "from": [
                7.69044, 
                4.98828, 
                0.69612
            ], 
            "faces": {
                "north": {
                    "uv": [
                        0, 
                        0, 
                        3.032, 
                        2.394
                    ], 
                    "texture": "#8"
                }, 
                "west": {
                    "uv": [
                        0, 
                        0, 
                        3.032, 
                        2.394
                    ], 
                    "texture": "#8"
                }, 
                "up": {
                    "rotation": 270, 
                    "uv": [
                        0, 
                        0, 
                        3.032, 
                        2.394
                    ], 
                    "texture": "#8"
                }, 
                "down": {
                    "rotation": 90, 
                    "uv": [
                        0, 
                        0, 
                        3.032, 
                        2.394
                    ], 
                    "texture": "#8"
                }, 
                "east": {
                    "uv": [
                        0, 
                        0, 
                        3.032, 
                        2.394
                    ], 
                    "texture": "#8"
                }, 
                "south": {
                    "uv": [
                        0, 
                        0, 
                        3.032, 
                        2.394
                    ], 
                    "texture": "#8"
                }
            }
        }, 
        {
            "to": [
                8.37444, 
                5.93006, 
                2.25331
            ], 
            "rotation": {
                "origin": [
                    8.03244, 
                    5.47406, 
                    1.96831
                ], 
                "angle": 22.5, 
                "axis": "x"
            }, 
            "from": [
                7.69044, 
                4.90406, 
                1.68331
            ], 
            "faces": {
                "north": {
                    "uv": [
                        0, 
                        0, 
                        3.032, 
                        2.394
                    ], 
                    "texture": "#8"
                }, 
                "west": {
                    "uv": [
                        0, 
                        0, 
                        3.032, 
                        2.394
                    ], 
                    "texture": "#8"
                }, 
                "up": {
                    "rotation": 270, 
                    "uv": [
                        0, 
                        0, 
                        3.032, 
                        2.394
                    ], 
                    "texture": "#8"
                }, 
                "down": {
                    "rotation": 90, 
                    "uv": [
                        0, 
                        0, 
                        3.032, 
                        2.394
                    ], 
                    "texture": "#8"
                }, 
                "east": {
                    "uv": [
                        0, 
                        0, 
                        3.032, 
                        2.394
                    ], 
                    "texture": "#8"
                }, 
                "south": {
                    "uv": [
                        0, 
                        0, 
                        3.032, 
                        2.394
                    ], 
                    "texture": "#8"
                }
            }
        }, 
        {
            "to": [
                8.14644, 
                4.87901, 
                -0.32197
            ], 
            "rotation": {
                "origin": [
                    8.03244, 
                    4.85051, 
                    -0.60697
                ], 
                "angle": 45, 
                "axis": "x"
            }, 
            "from": [
                7.91844, 
                4.82201, 
                -0.66397
            ], 
            "faces": {
                "north": {
                    "uv": [
                        9, 
                        4.5, 
                        11.3, 
                        6.594
                    ], 
                    "texture": "#8"
                }, 
                "west": {
                    "uv": [
                        9, 
                        4.5, 
                        11.3, 
                        6.594
                    ], 
                    "texture": "#8"
                }, 
                "up": {
                    "rotation": 270, 
                    "uv": [
                        9, 
                        4.5, 
                        11.3, 
                        6.594
                    ], 
                    "texture": "#8"
                }, 
                "down": {
                    "rotation": 90, 
                    "uv": [
                        9, 
                        4.5, 
                        11.3, 
                        6.594
                    ], 
                    "texture": "#8"
                }, 
                "east": {
                    "uv": [
                        9, 
                        4.5, 
                        11.3, 
                        6.594
                    ], 
                    "texture": "#8"
                }, 
                "south": {
                    "uv": [
                        9, 
                        4.5, 
                        11.3, 
                        6.594
                    ], 
                    "texture": "#8"
                }
            }
        }, 
        {
            "to": [
                8.14644, 
                5.09656, 
                -0.67804
            ], 
            "rotation": {
                "origin": [
                    8.03244, 
                    5.03956, 
                    -0.70654
                ], 
                "angle": -22.5, 
                "axis": "x"
            }, 
            "from": [
                7.91844, 
                4.86856, 
                -0.73504
            ], 
            "faces": {
                "north": {
                    "rotation": 90, 
                    "uv": [
                        9, 
                        4.5, 
                        11.3, 
                        6.594
                    ], 
                    "texture": "#8"
                }, 
                "west": {
                    "rotation": 90, 
                    "uv": [
                        9, 
                        4.5, 
                        11.3, 
                        6.594
                    ], 
                    "texture": "#8"
                }, 
                "up": {
                    "uv": [
                        9, 
                        4.5, 
                        11.3, 
                        6.594
                    ], 
                    "texture": "#8"
                }, 
                "down": {
                    "rotation": 180, 
                    "uv": [
                        9, 
                        4.5, 
                        11.3, 
                        6.594
                    ], 
                    "texture": "#8"
                }, 
                "east": {
                    "rotation": 90, 
                    "uv": [
                        9, 
                        4.5, 
                        11.3, 
                        6.594
                    ], 
                    "texture": "#8"
                }, 
                "south": {
                    "rotation": 90, 
                    "uv": [
                        9, 
                        4.5, 
                        11.3, 
                        6.594
                    ], 
                    "texture": "#8"
                }
            }
        }, 
        {
            "to": [
                8.14644, 
                5.30932, 
                -0.69768
            ], 
            "rotation": {
                "origin": [
                    8.03244, 
                    5.25232, 
                    -0.72618
                ], 
                "angle": 0, 
                "axis": "y"
            }, 
            "from": [
                7.91844, 
                5.08132, 
                -0.75468
            ], 
            "faces": {
                "north": {
                    "rotation": 90, 
                    "uv": [
                        9, 
                        4.5, 
                        11.3, 
                        6.594
                    ], 
                    "texture": "#8"
                }, 
                "west": {
                    "rotation": 90, 
                    "uv": [
                        9, 
                        4.5, 
                        11.3, 
                        6.594
                    ], 
                    "texture": "#8"
                }, 
                "up": {
                    "uv": [
                        9, 
                        4.5, 
                        11.3, 
                        6.594
                    ], 
                    "texture": "#8"
                }, 
                "down": {
                    "rotation": 180, 
                    "uv": [
                        9, 
                        4.5, 
                        11.3, 
                        6.594
                    ], 
                    "texture": "#8"
                }, 
                "east": {
                    "rotation": 90, 
                    "uv": [
                        9, 
                        4.5, 
                        11.3, 
                        6.594
                    ], 
                    "texture": "#8"
                }, 
                "south": {
                    "rotation": 90, 
                    "uv": [
                        9, 
                        4.5, 
                        11.3, 
                        6.594
                    ], 
                    "texture": "#8"
                }
            }
        }, 
        {
            "to": [
                8.14644, 
                4.68584, 
                0.14441
            ], 
            "rotation": {
                "origin": [
                    8.03244, 
                    4.65734, 
                    0.05891
                ], 
                "angle": 0, 
                "axis": "y"
            }, 
            "from": [
                7.91844, 
                4.62884, 
                -0.42559
            ], 
            "faces": {
                "north": {
                    "uv": [
                        9, 
                        4.5, 
                        11.3, 
                        6.594
                    ], 
                    "texture": "#8"
                }, 
                "west": {
                    "uv": [
                        9, 
                        4.5, 
                        11.3, 
                        6.594
                    ], 
                    "texture": "#8"
                }, 
                "up": {
                    "rotation": 270, 
                    "uv": [
                        9, 
                        4.5, 
                        11.3, 
                        6.594
                    ], 
                    "texture": "#8"
                }, 
                "down": {
                    "rotation": 90, 
                    "uv": [
                        9, 
                        4.5, 
                        11.3, 
                        6.594
                    ], 
                    "texture": "#8"
                }, 
                "east": {
                    "uv": [
                        9, 
                        4.5, 
                        11.3, 
                        6.594
                    ], 
                    "texture": "#8"
                }, 
                "south": {
                    "uv": [
                        9, 
                        4.5, 
                        11.3, 
                        6.594
                    ], 
                    "texture": "#8"
                }
            }
        }, 
        {
            "to": [
                8.14644, 
                4.72513, 
                0.62691
            ], 
            "rotation": {
                "origin": [
                    8.03244, 
                    4.72513, 
                    0.22791
                ], 
                "angle": -22.5, 
                "axis": "x"
            }, 
            "from": [
                7.91844, 
                4.66813, 
                0.11391
            ], 
            "faces": {
                "north": {
                    "uv": [
                        9, 
                        4.5, 
                        11.3, 
                        6.594
                    ], 
                    "texture": "#8"
                }, 
                "west": {
                    "uv": [
                        9, 
                        4.5, 
                        11.3, 
                        6.594
                    ], 
                    "texture": "#8"
                }, 
                "up": {
                    "rotation": 270, 
                    "uv": [
                        9, 
                        4.5, 
                        11.3, 
                        6.594
                    ], 
                    "texture": "#8"
                }, 
                "down": {
                    "rotation": 90, 
                    "uv": [
                        9, 
                        4.5, 
                        11.3, 
                        6.594
                    ], 
                    "texture": "#8"
                }, 
                "east": {
                    "uv": [
                        9, 
                        4.5, 
                        11.3, 
                        6.594
                    ], 
                    "texture": "#8"
                }, 
                "south": {
                    "uv": [
                        9, 
                        4.5, 
                        11.3, 
                        6.594
                    ], 
                    "texture": "#8"
                }
            }
        }, 
        {
            "to": [
                8.08944, 
                5.06147, 
                0.21013
            ], 
            "rotation": {
                "origin": [
                    8.03244, 
                    5.11847, 
                    0.18163
                ], 
                "angle": 22.5, 
                "axis": "x"
            }, 
            "from": [
                7.97544, 
                4.94747, 
                0.15313
            ], 
            "faces": {
                "north": {
                    "rotation": 270, 
                    "uv": [
                        1, 
                        5, 
                        2.8, 
                        7.094
                    ], 
                    "texture": "#8"
                }, 
                "west": {
                    "rotation": 270, 
                    "uv": [
                        1, 
                        5, 
                        2.8, 
                        7.094
                    ], 
                    "texture": "#8"
                }, 
                "up": {
                    "rotation": 180, 
                    "uv": [
                        1, 
                        5, 
                        2.8, 
                        7.094
                    ], 
                    "texture": "#8"
                }, 
                "down": {
                    "uv": [
                        1, 
                        5, 
                        2.8, 
                        7.094
                    ], 
                    "texture": "#8"
                }, 
                "east": {
                    "rotation": 270, 
                    "uv": [
                        1, 
                        5, 
                        2.8, 
                        7.094
                    ], 
                    "texture": "#8"
                }, 
                "south": {
                    "rotation": 270, 
                    "uv": [
                        1, 
                        5, 
                        2.8, 
                        7.094
                    ], 
                    "texture": "#8"
                }
            }
        }, 
        {
            "to": [
                8.08944, 
                4.98644, 
                0.11056
            ], 
            "rotation": {
                "origin": [
                    8.03244, 
                    4.92944, 
                    0.08206
                ], 
                "angle": 45, 
                "axis": "x"
            }, 
            "from": [
                7.97544, 
                4.87244, 
                0.05356
            ], 
            "faces": {
                "north": {
                    "rotation": 270, 
                    "uv": [
                        1, 
                        5, 
                        2.8, 
                        7.094
                    ], 
                    "texture": "#8"
                }, 
                "west": {
                    "rotation": 270, 
                    "uv": [
                        1, 
                        5, 
                        2.8, 
                        7.094
                    ], 
                    "texture": "#8"
                }, 
                "up": {
                    "rotation": 180, 
                    "uv": [
                        1, 
                        5, 
                        2.8, 
                        7.094
                    ], 
                    "texture": "#8"
                }, 
                "down": {
                    "uv": [
                        1, 
                        5, 
                        2.8, 
                        7.094
                    ], 
                    "texture": "#8"
                }, 
                "east": {
                    "rotation": 270, 
                    "uv": [
                        1, 
                        5, 
                        2.8, 
                        7.094
                    ], 
                    "texture": "#8"
                }, 
                "south": {
                    "rotation": 270, 
                    "uv": [
                        1, 
                        5, 
                        2.8, 
                        7.094
                    ], 
                    "texture": "#8"
                }
            }
        }, 
        {
            "to": [
                8.08944, 
                5.3948, 
                0.25375
            ], 
            "rotation": {
                "origin": [
                    8.03244, 
                    5.2238, 
                    0.22525
                ], 
                "angle": 22.5, 
                "axis": "x"
            }, 
            "from": [
                7.97544, 
                5.0528, 
                0.19675
            ], 
            "faces": {
                "north": {
                    "rotation": 270, 
                    "uv": [
                        1, 
                        5, 
                        2.8, 
                        7.094
                    ], 
                    "texture": "#8"
                }, 
                "west": {
                    "rotation": 270, 
                    "uv": [
                        1, 
                        5, 
                        2.8, 
                        7.094
                    ], 
                    "texture": "#8"
                }, 
                "up": {
                    "rotation": 180, 
                    "uv": [
                        1, 
                        5, 
                        2.8, 
                        7.094
                    ], 
                    "texture": "#8"
                }, 
                "down": {
                    "uv": [
                        1, 
                        5, 
                        2.8, 
                        7.094
                    ], 
                    "texture": "#8"
                }, 
                "east": {
                    "rotation": 270, 
                    "uv": [
                        1, 
                        5, 
                        2.8, 
                        7.094
                    ], 
                    "texture": "#8"
                }, 
                "south": {
                    "rotation": 270, 
                    "uv": [
                        1, 
                        5, 
                        2.8, 
                        7.094
                    ], 
                    "texture": "#8"
                }
            }
        }, 
        {
            "to": [
                8.08944, 
                5.48699, 
                0.24941
            ], 
            "rotation": {
                "origin": [
                    8.03244, 
                    5.31599, 
                    0.22091
                ], 
                "angle": 22.5, 
                "axis": "x"
            }, 
            "from": [
                7.97544, 
                5.14499, 
                0.19241
            ], 
            "faces": {
                "north": {
                    "rotation": 270, 
                    "uv": [
                        2, 
                        6, 
                        3.3, 
                        7.094
                    ], 
                    "texture": "#8"
                }, 
                "west": {
                    "rotation": 270, 
                    "uv": [
                        2, 
                        6, 
                        3.3, 
                        7.094
                    ], 
                    "texture": "#8"
                }, 
                "up": {
                    "rotation": 270, 
                    "uv": [
                        2, 
                        6, 
                        3.3, 
                        7.094
                    ], 
                    "texture": "#8"
                }, 
                "down": {
                    "rotation": 270, 
                    "uv": [
                        2, 
                        6, 
                        3.3, 
                        7.094
                    ], 
                    "texture": "#8"
                }, 
                "east": {
                    "rotation": 270, 
                    "uv": [
                        2, 
                        6, 
                        3.3, 
                        7.094
                    ], 
                    "texture": "#8"
                }, 
                "south": {
                    "rotation": 270, 
                    "uv": [
                        2, 
                        6, 
                        3.3, 
                        7.094
                    ], 
                    "texture": "#8"
                }
            }
        }, 
        {
            "to": [
                8.08944, 
                5.5109, 
                0.18614
            ], 
            "rotation": {
                "origin": [
                    8.03244, 
                    5.3399, 
                    0.15764
                ], 
                "angle": 0, 
                "axis": "y"
            }, 
            "from": [
                7.97544, 
                5.1689, 
                0.12914
            ], 
            "faces": {
                "north": {
                    "rotation": 270, 
                    "uv": [
                        2, 
                        6, 
                        3.3, 
                        7.094
                    ], 
                    "texture": "#8"
                }, 
                "west": {
                    "rotation": 270, 
                    "uv": [
                        2, 
                        6, 
                        3.3, 
                        7.094
                    ], 
                    "texture": "#8"
                }, 
                "up": {
                    "rotation": 270, 
                    "uv": [
                        2, 
                        6, 
                        3.3, 
                        7.094
                    ], 
                    "texture": "#8"
                }, 
                "down": {
                    "rotation": 270, 
                    "uv": [
                        2, 
                        6, 
                        3.3, 
                        7.094
                    ], 
                    "texture": "#8"
                }, 
                "east": {
                    "rotation": 270, 
                    "uv": [
                        2, 
                        6, 
                        3.3, 
                        7.094
                    ], 
                    "texture": "#8"
                }, 
                "south": {
                    "rotation": 270, 
                    "uv": [
                        2, 
                        6, 
                        3.3, 
                        7.094
                    ], 
                    "texture": "#8"
                }
            }
        }, 
        {
            "to": [
                8.08944, 
                5.1689, 
                0.18614
            ], 
            "rotation": {
                "origin": [
                    8.03244, 
                    5.2259, 
                    0.15764
                ], 
                "angle": 0, 
                "axis": "y"
            }, 
            "from": [
                7.97544, 
                5.0549, 
                0.12914
            ], 
            "faces": {
                "north": {
                    "rotation": 270, 
                    "uv": [
                        1, 
                        5, 
                        2.8, 
                        7.094
                    ], 
                    "texture": "#8"
                }, 
                "west": {
                    "rotation": 270, 
                    "uv": [
                        1, 
                        5, 
                        2.8, 
                        7.094
                    ], 
                    "texture": "#8"
                }, 
                "up": {
                    "rotation": 180, 
                    "uv": [
                        1, 
                        5, 
                        2.8, 
                        7.094
                    ], 
                    "texture": "#8"
                }, 
                "down": {
                    "uv": [
                        1, 
                        5, 
                        2.8, 
                        7.094
                    ], 
                    "texture": "#8"
                }, 
                "east": {
                    "rotation": 270, 
                    "uv": [
                        1, 
                        5, 
                        2.8, 
                        7.094
                    ], 
                    "texture": "#8"
                }, 
                "south": {
                    "rotation": 270, 
                    "uv": [
                        1, 
                        5, 
                        2.8, 
                        7.094
                    ], 
                    "texture": "#8"
                }
            }
        }, 
        {
            "to": [
                7.8261, 
                5.80908, 
                0.81012
            ], 
            "rotation": {
                "origin": [
                    8.03244, 
                    6.41912, 
                    5.92532
                ], 
                "angle": 0, 
                "axis": "y"
            }, 
            "from": [
                7.7121, 
                5.46708, 
                -0.55788
            ], 
            "faces": {
                "north": {
                    "uv": [
                        4.5, 
                        4.5, 
                        7.263, 
                        7.099
                    ], 
                    "texture": "#8"
                }, 
                "west": {
                    "uv": [
                        4.5, 
                        4.5, 
                        7.263, 
                        7.099
                    ], 
                    "texture": "#8"
                }, 
                "up": {
                    "rotation": 270, 
                    "uv": [
                        4.5, 
                        4.5, 
                        7.263, 
                        7.099
                    ], 
                    "texture": "#8"
                }, 
                "down": {
                    "rotation": 90, 
                    "uv": [
                        4.5, 
                        4.5, 
                        7.263, 
                        7.099
                    ], 
                    "texture": "#8"
                }, 
                "east": {
                    "uv": [
                        4.5, 
                        4.5, 
                        7.263, 
                        7.099
                    ], 
                    "texture": "#8"
                }, 
                "south": {
                    "uv": [
                        4.5, 
                        4.5, 
                        7.263, 
                        7.099
                    ], 
                    "texture": "#8"
                }
            }
        }, 
        {
            "to": [
                7.56619, 
                5.73624, 
                -0.28966
            ], 
            "rotation": {
                "origin": [
                    7.46359, 
                    5.66784, 
                    -0.34666
                ], 
                "angle": 45, 
                "axis": "y"
            }, 
            "from": [
                7.34959, 
                5.59944, 
                -0.38086
            ], 
            "faces": {
                "north": {
                    "uv": [
                        4.5, 
                        4.5, 
                        7.263, 
                        7.099
                    ], 
                    "texture": "#8"
                }, 
                "west": {
                    "uv": [
                        4.5, 
                        4.5, 
                        7.263, 
                        7.099
                    ], 
                    "texture": "#8"
                }, 
                "up": {
                    "rotation": 270, 
                    "uv": [
                        4.5, 
                        4.5, 
                        7.263, 
                        7.099
                    ], 
                    "texture": "#8"
                }, 
                "down": {
                    "rotation": 90, 
                    "uv": [
                        4.5, 
                        4.5, 
                        7.263, 
                        7.099
                    ], 
                    "texture": "#8"
                }, 
                "east": {
                    "uv": [
                        4.5, 
                        4.5, 
                        7.263, 
                        7.099
                    ], 
                    "texture": "#8"
                }, 
                "south": {
                    "uv": [
                        4.5, 
                        4.5, 
                        7.263, 
                        7.099
                    ], 
                    "texture": "#8"
                }
            }
        }, 
        {
            "to": [
                7.51374, 
                5.73624, 
                -0.225
            ], 
            "rotation": {
                "origin": [
                    7.46814, 
                    5.66784, 
                    -0.3333
                ], 
                "angle": 0, 
                "axis": "y"
            }, 
            "from": [
                7.42254, 
                5.59944, 
                -0.4416
            ], 
            "faces": {
                "north": {
                    "uv": [
                        4.5, 
                        4.5, 
                        6.763, 
                        6.099
                    ], 
                    "texture": "#8"
                }, 
                "west": {
                    "uv": [
                        4.5, 
                        4.5, 
                        6.763, 
                        6.099
                    ], 
                    "texture": "#8"
                }, 
                "up": {
                    "rotation": 270, 
                    "uv": [
                        4.5, 
                        4.5, 
                        6.763, 
                        6.099
                    ], 
                    "texture": "#8"
                }, 
                "down": {
                    "rotation": 90, 
                    "uv": [
                        4.5, 
                        4.5, 
                        6.763, 
                        6.099
                    ], 
                    "texture": "#8"
                }, 
                "east": {
                    "uv": [
                        4.5, 
                        4.5, 
                        6.763, 
                        6.099
                    ], 
                    "texture": "#8"
                }, 
                "south": {
                    "uv": [
                        4.5, 
                        4.5, 
                        6.763, 
                        6.099
                    ], 
                    "texture": "#8"
                }
            }
        }, 
        {
            "to": [
                7.57644, 
                5.73624, 
                -0.2877
            ], 
            "rotation": {
                "origin": [
                    7.70184, 
                    6.53312, 
                    6.4953
                ], 
                "angle": 0, 
                "axis": "y"
            }, 
            "from": [
                7.35984, 
                5.59944, 
                -0.3789
            ], 
            "faces": {
                "north": {
                    "uv": [
                        4.5, 
                        4.5, 
                        7.263, 
                        7.099
                    ], 
                    "texture": "#8"
                }, 
                "west": {
                    "uv": [
                        4.5, 
                        4.5, 
                        7.263, 
                        7.099
                    ], 
                    "texture": "#8"
                }, 
                "up": {
                    "rotation": 270, 
                    "uv": [
                        4.5, 
                        4.5, 
                        7.263, 
                        7.099
                    ], 
                    "texture": "#8"
                }, 
                "down": {
                    "rotation": 90, 
                    "uv": [
                        4.5, 
                        4.5, 
                        7.263, 
                        7.099
                    ], 
                    "texture": "#8"
                }, 
                "east": {
                    "uv": [
                        4.5, 
                        4.5, 
                        7.263, 
                        7.099
                    ], 
                    "texture": "#8"
                }, 
                "south": {
                    "uv": [
                        4.5, 
                        4.5, 
                        7.263, 
                        7.099
                    ], 
                    "texture": "#8"
                }
            }
        }, 
        {
            "to": [
                7.57644, 
                5.73624, 
                -0.2877
            ], 
            "rotation": {
                "origin": [
                    7.46814, 
                    5.66784, 
                    -0.3333
                ], 
                "angle": -45, 
                "axis": "y"
            }, 
            "from": [
                7.35984, 
                5.59944, 
                -0.3789
            ], 
            "faces": {
                "north": {
                    "uv": [
                        4.5, 
                        4.5, 
                        7.263, 
                        7.099
                    ], 
                    "texture": "#8"
                }, 
                "west": {
                    "uv": [
                        4.5, 
                        4.5, 
                        7.263, 
                        7.099
                    ], 
                    "texture": "#8"
                }, 
                "up": {
                    "rotation": 270, 
                    "uv": [
                        4.5, 
                        4.5, 
                        7.263, 
                        7.099
                    ], 
                    "texture": "#8"
                }, 
                "down": {
                    "rotation": 90, 
                    "uv": [
                        4.5, 
                        4.5, 
                        7.263, 
                        7.099
                    ], 
                    "texture": "#8"
                }, 
                "east": {
                    "uv": [
                        4.5, 
                        4.5, 
                        7.263, 
                        7.099
                    ], 
                    "texture": "#8"
                }, 
                "south": {
                    "uv": [
                        4.5, 
                        4.5, 
                        7.263, 
                        7.099
                    ], 
                    "texture": "#8"
                }
            }
        }, 
        {
            "to": [
                8.08944, 
                5.71344, 
                -0.2877
            ], 
            "rotation": {
                "origin": [
                    7.91844, 
                    6.53312, 
                    6.4953
                ], 
                "angle": 0, 
                "axis": "y"
            }, 
            "from": [
                7.57644, 
                5.62224, 
                -0.3789
            ], 
            "faces": {
                "north": {
                    "uv": [
                        4.5, 
                        4.5, 
                        7.263, 
                        7.099
                    ], 
                    "texture": "#8"
                }, 
                "west": {
                    "uv": [
                        4.5, 
                        4.5, 
                        7.263, 
                        7.099
                    ], 
                    "texture": "#8"
                }, 
                "up": {
                    "rotation": 270, 
                    "uv": [
                        4.5, 
                        4.5, 
                        7.263, 
                        7.099
                    ], 
                    "texture": "#8"
                }, 
                "down": {
                    "rotation": 90, 
                    "uv": [
                        4.5, 
                        4.5, 
                        7.263, 
                        7.099
                    ], 
                    "texture": "#8"
                }, 
                "east": {
                    "uv": [
                        4.5, 
                        4.5, 
                        7.263, 
                        7.099
                    ], 
                    "texture": "#8"
                }, 
                "south": {
                    "uv": [
                        4.5, 
                        4.5, 
                        7.263, 
                        7.099
                    ], 
                    "texture": "#8"
                }
            }
        }
    ], 
    "display": {
        "thirdperson_righthand": {
            "rotation": [
                0, 
                -0.5, 
                4.5
            ], 
            "translation": [
                -0.75, 
                2, 
                1
            ]
        }, 
        "head": {
            "rotation": [
                0, 
                0, 
                90
            ], 
            "scale": [
                1.5, 
                1.5, 
                1.5
            ], 
            "translation": [
                -0.5, 
                9.25, 
                0
            ]
        }, 
        "thirdperson_lefthand": {
            "rotation": [
                0, 
                -0.5, 
                4.5
            ], 
            "translation": [
                -0.75, 
                2, 
                1
            ]
        }, 
        "gui": {
            "rotation": [
                23, 
                31, 
                -13
            ], 
            "scale": [
                1.4043, 
                1.49805, 
                1.39063
            ], 
            "translation": [
                1, 
                2.25, 
                0
            ]
        }, 
        "firstperson_righthand": {
            "rotation": [
                0, 
                5.25, 
                0.5
            ], 
            "translation": [
                -3.75, 
                5.5, 
                2.25
            ]
        }, 
        "firstperson_lefthand": {
            "rotation": [
                0, 
                5.25, 
                0.5
            ], 
            "translation": [
                -3.75, 
                5.5, 
                2.25
            ]
        }, 
        "fixed": {
            "rotation": [
                0, 
                -90, 
                0
            ], 
            "scale": [
                2, 
                2, 
                1.82227
            ], 
            "translation": [
                0, 
                2.25, 
                -2
            ]
        }, 
        "ground": {
            "rotation": [
                0, 
                0, 
                -90
            ], 
            "translation": [
                3.5, 
                -2.5, 
                0
            ]
        }
    }
}