{
    "textures": {
        "1": "gci:items/common/all_in_one"
    },
    "elements": [
        {
            "from": [
                8.05906,
                8.28512,
                14.416
            ],
            "to": [
                8.64306,
                9.63212,
                16.472
            ],
            "rotation": {
                "angle": 0,
                "axis": "y",
                "origin": [
                    15.80306,
                    17.82512,
                    15.024
                ]
            },
            "faces": {
                "north": {
                    "uv": [
                        3.75,
                        2.625,
                        4.75,
                        3.5
                    ],
                    "rotation": 90,
                    "texture": "#1"
                },
                "east": {
                    "uv": [
                        3.75,
                        2.625,
                        4.75,
                        3.5
                    ],
                    "rotation": 90,
                    "texture": "#1"
                },
                "south": {
                    "uv": [
                        3.75,
                        2.625,
                        4.75,
                        3.5
                    ],
                    "rotation": 90,
                    "texture": "#1"
                },
                "west": {
                    "uv": [
                        3.75,
                        2.625,
                        4.75,
                        3.5
                    ],
                    "rotation": 90,
                    "texture": "#1"
                },
                "up": {
                    "uv": [
                        3.75,
                        2.625,
                        4.75,
                        3.5
                    ],
                    "rotation": 90,
                    "texture": "#1"
                },
                "down": {
                    "uv": [
                        3.75,
                        2.625,
                        4.75,
                        3.5
                    ],
                    "rotation": 90,
                    "texture": "#1"
                }
            }
        }
    ],
    "display": {
        "thirdperson_righthand": {
            "rotation": [
                0,
                0,
                7
            ],
            "translation": [
                -0.75,
                -1.25,
                -2
            ],
            "scale": [
                1.14,
                1,
                1
            ]
        },
        "thirdperson_lefthand": {
            "rotation": [
                0,
                0,
                7
            ],
            "translation": [
                0.25,
                -1.5,
                -2.25
            ],
            "scale": [
                1.14,
                1,
                1
            ]
        },
        "firstperson_righthand": {
            "translation": [
                -5.25,
                3.5,
                2.75
            ],
            "scale": [
                1.25,
                1.19,
                1.14
            ]
        },
        "firstperson_lefthand": {
            "translation": [
                -5.25,
                3.5,
                2.75
            ],
            "scale": [
                1.25,
                1.19,
                1.14
            ]
        },
        "ground": {
            "translation": [
                0,
                0,
                3
            ]
        },
        "gui": {
            "rotation": [
                30,
                30,
                -16
            ],
            "translation": [
                1.25,
                -2.25,
                0
            ],
            "scale": [
                0.8,
                0.8,
                0.8
            ]
        },
        "head": {
            "rotation": [
                0,
                -139.5,
                90
            ],
            "translation": [
                -2.5,
                6.5,
                2.5
            ],
            "scale": [
                1.89781,
                1.89781,
                1.89781
            ]
        },
        "fixed": {
            "rotation": [
                90,
                45,
                -90
            ],
            "translation": [
                0,
                0,
                -1.25
            ],
            "scale": [
                1.22,
                1.22,
                1.22
            ]
        }
    }
}