{
	"credit": "Made with Blockbench",
	"textures": {
		"0": "gci:items/common/all_in_one",
		"particle": "gci:items/common/all_in_one"
	},
	"elements": [
		{
			"from": [8.08442, 9.48786, 7.98],
			"to": [9.20842, 9.62386, 8.112],
			"rotation": {"angle": 0, "axis": "y", "origin": [8.51842, 9.55586, -2.918]},
			"faces": {
				"north": {"uv": [2.375, 3.625, 2.375, 3.75], "texture": "#0"},
				"east": {"uv": [2.375, 3.625, 2.375, 3.75], "texture": "#0"},
				"south": {"uv": [2.375, 3.625, 2.375, 3.75], "texture": "#0"},
				"west": {"uv": [2.375, 3.625, 2.375, 3.75], "texture": "#0"},
				"up": {"uv": [2.375, 3.625, 2.375, 3.75], "texture": "#0"},
				"down": {"uv": [2.375, 3.625, 2.375, 3.75], "texture": "#0"}
			}
		},
		{
			"from": [8.5987, 9.11573, 9.004],
			"to": [8.6987, 9.41573, 11.792],
			"rotation": {"angle": 45, "axis": "z", "origin": [8.06884, 9.33002, -1.74115]},
			"faces": {
				"north": {"uv": [13.75, 4.875, 14.125, 5.125], "rotation": 180, "texture": "#0"},
				"east": {"uv": [13.75, 4.875, 14.125, 5.125], "rotation": 180, "texture": "#0"},
				"south": {"uv": [13.75, 4.875, 14.125, 5.125], "rotation": 180, "texture": "#0"},
				"west": {"uv": [13.75, 4.875, 14.125, 5.125], "rotation": 180, "texture": "#0"},
				"up": {"uv": [13.75, 4.875, 14.125, 5.125], "rotation": 180, "texture": "#0"},
				"down": {"uv": [13.75, 4.875, 14.125, 5.125], "rotation": 180, "texture": "#0"}
			}
		},
		{
			"from": [8.6627, 9.21173, 7.948],
			"to": [8.6987, 9.41573, 9.008],
			"rotation": {"angle": 45, "axis": "z", "origin": [8.06884, 9.33002, -2.79715]},
			"faces": {
				"north": {"uv": [13.75, 4.875, 14.125, 5.125], "rotation": 180, "texture": "#0"},
				"east": {"uv": [13.75, 4.875, 14.125, 5.125], "rotation": 180, "texture": "#0"},
				"south": {"uv": [13.75, 4.875, 14.125, 5.125], "rotation": 180, "texture": "#0"},
				"west": {"uv": [13.75, 4.875, 14.125, 5.125], "rotation": 180, "texture": "#0"},
				"up": {"uv": [13.75, 4.875, 14.125, 5.125], "rotation": 180, "texture": "#0"},
				"down": {"uv": [13.75, 4.875, 14.125, 5.125], "rotation": 180, "texture": "#0"}
			}
		},
		{
			"from": [8.5667, 9.11573, 7.756],
			"to": [8.6987, 9.41573, 7.952],
			"rotation": {"angle": 45, "axis": "z", "origin": [8.06884, 9.33002, -1.74115]},
			"faces": {
				"north": {"uv": [13.75, 4.875, 14.125, 5.125], "rotation": 180, "texture": "#0"},
				"east": {"uv": [13.75, 4.875, 14.125, 5.125], "rotation": 180, "texture": "#0"},
				"south": {"uv": [13.75, 4.875, 14.125, 5.125], "rotation": 180, "texture": "#0"},
				"west": {"uv": [13.75, 4.875, 14.125, 5.125], "rotation": 180, "texture": "#0"},
				"up": {"uv": [13.75, 4.875, 14.125, 5.125], "rotation": 180, "texture": "#0"},
				"down": {"uv": [13.75, 4.875, 14.125, 5.125], "rotation": 180, "texture": "#0"}
			}
		},
		{
			"from": [8.5347, 9.11573, 10.54],
			"to": [8.6987, 9.41573, 11.792],
			"rotation": {"angle": 45, "axis": "z", "origin": [8.06884, 9.33002, -1.74115]},
			"faces": {
				"north": {"uv": [13.75, 4.875, 14.125, 5.125], "rotation": 180, "texture": "#0"},
				"east": {"uv": [13.75, 4.875, 14.125, 5.125], "rotation": 180, "texture": "#0"},
				"south": {"uv": [13.75, 4.875, 14.125, 5.125], "rotation": 180, "texture": "#0"},
				"west": {"uv": [13.75, 4.875, 14.125, 5.125], "rotation": 180, "texture": "#0"},
				"up": {"uv": [13.75, 4.875, 14.125, 5.125], "rotation": 180, "texture": "#0"},
				"down": {"uv": [13.75, 4.875, 14.125, 5.125], "rotation": 180, "texture": "#0"}
			}
		},
		{
			"from": [8.5667, 9.11573, 7.756],
			"to": [8.6987, 9.41573, 7.92],
			"rotation": {"angle": 45, "axis": "z", "origin": [8.06884, 9.33002, -1.74115]},
			"faces": {
				"north": {"uv": [13.75, 4.875, 14.125, 5.125], "rotation": 180, "texture": "#0"},
				"east": {"uv": [13.75, 4.875, 14.125, 5.125], "rotation": 180, "texture": "#0"},
				"south": {"uv": [13.75, 4.875, 14.125, 5.125], "rotation": 180, "texture": "#0"},
				"west": {"uv": [13.75, 4.875, 14.125, 5.125], "rotation": 180, "texture": "#0"},
				"up": {"uv": [13.75, 4.875, 14.125, 5.125], "rotation": 180, "texture": "#0"},
				"down": {"uv": [13.75, 4.875, 14.125, 5.125], "rotation": 180, "texture": "#0"}
			}
		},
		{
			"from": [8.19737, 8.7743, 7.756],
			"to": [8.71337, 9.0743, 11.792],
			"rotation": {"angle": 45, "axis": "z", "origin": [7.66751, 8.98859, 2.95885]},
			"faces": {
				"north": {"uv": [13.75, 4.875, 14.125, 5.125], "rotation": 180, "texture": "#0"},
				"east": {"uv": [13.75, 4.875, 14.125, 5.125], "rotation": 180, "texture": "#0"},
				"south": {"uv": [13.75, 4.875, 14.125, 5.125], "rotation": 180, "texture": "#0"},
				"west": {"uv": [13.75, 4.875, 14.125, 5.125], "rotation": 180, "texture": "#0"},
				"up": {"uv": [13.75, 4.875, 14.125, 5.125], "rotation": 180, "texture": "#0"},
				"down": {"uv": [13.75, 4.875, 14.125, 5.125], "rotation": 180, "texture": "#0"}
			}
		},
		{
			"from": [7.98764, 9.54522, 7.756],
			"to": [8.28764, 9.70922, 11.792],
			"rotation": {"angle": 45, "axis": "z", "origin": [8.08764, 9.65922, -1.798]},
			"faces": {
				"north": {"uv": [13.75, 4.875, 14.125, 5.125], "rotation": 90, "texture": "#0"},
				"east": {"uv": [13.75, 4.875, 14.125, 5.125], "rotation": 90, "texture": "#0"},
				"south": {"uv": [13.75, 4.875, 14.125, 5.125], "rotation": 90, "texture": "#0"},
				"west": {"uv": [13.75, 4.875, 14.125, 5.125], "rotation": 90, "texture": "#0"},
				"up": {"uv": [13.75, 4.875, 14.125, 5.125], "rotation": 90, "texture": "#0"},
				"down": {"uv": [13.75, 4.875, 14.125, 5.125], "rotation": 90, "texture": "#0"}
			}
		},
		{
			"from": [8.38764, 9.2678, 7.756],
			"to": [8.68764, 9.3038, 11.792],
			"rotation": {"angle": 45, "axis": "z", "origin": [8.48764, 9.3178, -1.798]},
			"faces": {
				"north": {"uv": [13.75, 4.875, 14.125, 5.125], "rotation": 90, "texture": "#0"},
				"east": {"uv": [13.75, 4.875, 14.125, 5.125], "rotation": 90, "texture": "#0"},
				"south": {"uv": [13.75, 4.875, 14.125, 5.125], "rotation": 90, "texture": "#0"},
				"west": {"uv": [13.75, 4.875, 14.125, 5.125], "rotation": 90, "texture": "#0"},
				"up": {"uv": [13.75, 4.875, 14.125, 5.125], "rotation": 90, "texture": "#0"},
				"down": {"uv": [13.75, 4.875, 14.125, 5.125], "rotation": 90, "texture": "#0"}
			}
		},
		{
			"from": [8.38764, 9.2678, 7.756],
			"to": [8.68764, 9.4318, 7.952],
			"rotation": {"angle": 45, "axis": "z", "origin": [8.48764, 9.3178, -1.798]},
			"faces": {
				"north": {"uv": [13.75, 4.875, 14.125, 5.125], "rotation": 90, "texture": "#0"},
				"east": {"uv": [13.75, 4.875, 14.125, 5.125], "rotation": 90, "texture": "#0"},
				"south": {"uv": [13.75, 4.875, 14.125, 5.125], "rotation": 90, "texture": "#0"},
				"west": {"uv": [13.75, 4.875, 14.125, 5.125], "rotation": 90, "texture": "#0"},
				"up": {"uv": [13.75, 4.875, 14.125, 5.125], "rotation": 90, "texture": "#0"},
				"down": {"uv": [13.75, 4.875, 14.125, 5.125], "rotation": 90, "texture": "#0"}
			}
		},
		{
			"from": [8.38764, 9.2678, 11.596],
			"to": [8.68764, 9.8158, 11.792],
			"rotation": {"angle": 45, "axis": "z", "origin": [8.48764, 9.3178, 2.042]},
			"faces": {
				"north": {"uv": [13.75, 4.875, 14.125, 5.125], "rotation": 90, "texture": "#0"},
				"east": {"uv": [13.75, 4.875, 14.125, 5.125], "rotation": 90, "texture": "#0"},
				"south": {"uv": [13.75, 4.875, 14.125, 5.125], "rotation": 90, "texture": "#0"},
				"west": {"uv": [13.75, 4.875, 14.125, 5.125], "rotation": 90, "texture": "#0"},
				"up": {"uv": [13.75, 4.875, 14.125, 5.125], "rotation": 90, "texture": "#0"},
				"down": {"uv": [13.75, 4.875, 14.125, 5.125], "rotation": 90, "texture": "#0"}
			}
		},
		{
			"from": [8.05242, 9.42386, 7.756],
			"to": [8.66442, 9.62386, 7.952],
			"rotation": {"angle": 0, "axis": "y", "origin": [8.61442, 9.52386, -1.798]},
			"faces": {
				"north": {"uv": [13.75, 4.875, 14.125, 5.125], "texture": "#0"},
				"east": {"uv": [13.75, 4.875, 14.125, 5.125], "texture": "#0"},
				"south": {"uv": [13.75, 4.875, 14.125, 5.125], "texture": "#0"},
				"west": {"uv": [13.75, 4.875, 14.125, 5.125], "texture": "#0"},
				"up": {"uv": [13.75, 4.875, 14.125, 5.125], "texture": "#0"},
				"down": {"uv": [13.75, 4.875, 14.125, 5.125], "texture": "#0"}
			}
		},
		{
			"from": [8.05242, 9.42386, 9.004],
			"to": [8.66442, 9.62386, 11.792],
			"rotation": {"angle": 0, "axis": "y", "origin": [8.61442, 9.52386, -1.798]},
			"faces": {
				"north": {"uv": [13.75, 4.875, 14.125, 5.125], "texture": "#0"},
				"east": {"uv": [13.75, 4.875, 14.125, 5.125], "texture": "#0"},
				"south": {"uv": [13.75, 4.875, 14.125, 5.125], "texture": "#0"},
				"west": {"uv": [13.75, 4.875, 14.125, 5.125], "texture": "#0"},
				"up": {"uv": [13.75, 4.875, 14.125, 5.125], "texture": "#0"},
				"down": {"uv": [13.75, 4.875, 14.125, 5.125], "texture": "#0"}
			}
		},
		{
			"from": [8.08442, 9.39186, 7.916],
			"to": [8.56842, 9.68786, 10.704],
			"rotation": {"angle": 0, "axis": "y", "origin": [8.51842, 9.52386, -2.886]},
			"faces": {
				"north": {"uv": [3, 3.75, 3.125, 3.875], "texture": "#0"},
				"east": {"uv": [3, 3.75, 3.125, 3.875], "texture": "#0"},
				"south": {"uv": [3, 3.75, 3.125, 3.875], "texture": "#0"},
				"west": {"uv": [3, 3.75, 3.125, 3.875], "texture": "#0"},
				"up": {"uv": [3, 3.75, 3.125, 3.875], "texture": "#0"},
				"down": {"uv": [3, 3.75, 3.125, 3.875], "texture": "#0"}
			}
		},
		{
			"from": [7.98157, 9.42386, 7.756],
			"to": [8.08157, 9.62386, 11.792],
			"rotation": {"angle": 0, "axis": "y", "origin": [8.03157, 9.52386, -1.798]},
			"faces": {
				"north": {"uv": [13.75, 4.875, 14.125, 5.125], "texture": "#0"},
				"east": {"uv": [13.75, 4.875, 14.125, 5.125], "texture": "#0"},
				"south": {"uv": [13.75, 4.875, 14.125, 5.125], "texture": "#0"},
				"west": {"uv": [13.75, 4.875, 14.125, 5.125], "texture": "#0"},
				"up": {"uv": [13.75, 4.875, 14.125, 5.125], "texture": "#0"},
				"down": {"uv": [13.75, 4.875, 14.125, 5.125], "texture": "#0"}
			}
		},
		{
			"from": [8.19371, 9.736, 7.756],
			"to": [8.45361, 9.836, 11.792],
			"rotation": {"angle": 0, "axis": "y", "origin": [8.03513, 9.69458, -14.548]},
			"faces": {
				"north": {"uv": [13.75, 4.875, 14.125, 5.125], "rotation": 270, "texture": "#0"},
				"east": {"uv": [13.75, 4.875, 14.125, 5.125], "rotation": 270, "texture": "#0"},
				"south": {"uv": [13.75, 4.875, 14.125, 5.125], "rotation": 270, "texture": "#0"},
				"west": {"uv": [13.75, 4.875, 14.125, 5.125], "rotation": 270, "texture": "#0"},
				"up": {"uv": [13.75, 4.875, 14.125, 5.125], "rotation": 270, "texture": "#0"},
				"down": {"uv": [13.75, 4.875, 14.125, 5.125], "rotation": 270, "texture": "#0"}
			}
		},
		{
			"from": [8.19371, 9.21173, 7.756],
			"to": [8.45361, 9.75973, 11.792],
			"rotation": {"angle": 0, "axis": "y", "origin": [8.03513, 9.17031, -14.548]},
			"faces": {
				"north": {"uv": [13.75, 4.875, 14.125, 5.125], "rotation": 270, "texture": "#0"},
				"east": {"uv": [13.75, 4.875, 14.125, 5.125], "rotation": 270, "texture": "#0"},
				"south": {"uv": [13.75, 4.875, 14.125, 5.125], "rotation": 270, "texture": "#0"},
				"west": {"uv": [13.75, 4.875, 14.125, 5.125], "rotation": 270, "texture": "#0"},
				"up": {"uv": [13.75, 4.875, 14.125, 5.125], "rotation": 270, "texture": "#0"},
				"down": {"uv": [13.75, 4.875, 14.125, 5.125], "rotation": 270, "texture": "#0"}
			}
		},
		{
			"from": [8.06571, 8.76373, 7.788],
			"to": [8.58161, 9.34373, 11.76],
			"rotation": {"angle": 0, "axis": "y", "origin": [8.03513, 9.07431, -14.548]},
			"faces": {
				"north": {"uv": [2.375, 2.75, 2.5, 3.625], "rotation": 270, "texture": "#0"},
				"east": {"uv": [2.375, 2.75, 2.5, 3.625], "rotation": 270, "texture": "#0"},
				"south": {"uv": [2.375, 2.75, 2.5, 3.625], "rotation": 270, "texture": "#0"},
				"west": {"uv": [2.375, 2.625, 2.5, 3.5], "rotation": 270, "texture": "#0"},
				"up": {"uv": [2.375, 2.75, 2.5, 3.625], "rotation": 270, "texture": "#0"},
				"down": {"uv": [2.375, 2.75, 2.5, 3.625], "rotation": 270, "texture": "#0"}
			}
		},
		{
			"from": [8.06571, 8.50773, 7.788],
			"to": [8.58161, 8.76773, 7.856],
			"rotation": {"angle": 0, "axis": "y", "origin": [8.03513, 9.07431, -14.548]},
			"faces": {
				"north": {"uv": [2.375, 2.75, 2.5, 3.625], "rotation": 270, "texture": "#0"},
				"east": {"uv": [2.375, 2.75, 2.5, 3.625], "rotation": 270, "texture": "#0"},
				"south": {"uv": [2.375, 2.75, 2.5, 3.625], "rotation": 270, "texture": "#0"},
				"west": {"uv": [2.375, 2.625, 2.5, 3.5], "rotation": 270, "texture": "#0"},
				"up": {"uv": [2.375, 2.75, 2.5, 3.625], "rotation": 270, "texture": "#0"},
				"down": {"uv": [2.375, 2.75, 2.5, 3.625], "rotation": 270, "texture": "#0"}
			}
		},
		{
			"from": [8.06571, 8.50773, 8.748],
			"to": [8.58161, 8.76773, 8.816],
			"rotation": {"angle": 0, "axis": "y", "origin": [8.03513, 9.07431, -14.9]},
			"faces": {
				"north": {"uv": [2.375, 2.75, 2.5, 3.625], "rotation": 270, "texture": "#0"},
				"east": {"uv": [2.375, 2.75, 2.5, 3.625], "rotation": 270, "texture": "#0"},
				"south": {"uv": [2.375, 2.75, 2.5, 3.625], "rotation": 270, "texture": "#0"},
				"west": {"uv": [2.375, 2.625, 2.5, 3.5], "rotation": 270, "texture": "#0"},
				"up": {"uv": [2.375, 2.75, 2.5, 3.625], "rotation": 270, "texture": "#0"},
				"down": {"uv": [2.375, 2.75, 2.5, 3.625], "rotation": 270, "texture": "#0"}
			}
		},
		{
			"from": [8.51371, 8.50773, 7.788],
			"to": [8.58161, 8.76773, 8.752],
			"rotation": {"angle": 0, "axis": "y", "origin": [8.03513, 9.07431, -14.548]},
			"faces": {
				"north": {"uv": [2.375, 2.75, 2.5, 3.625], "rotation": 270, "texture": "#0"},
				"east": {"uv": [2.375, 2.75, 2.5, 3.625], "rotation": 270, "texture": "#0"},
				"south": {"uv": [2.375, 2.75, 2.5, 3.625], "rotation": 270, "texture": "#0"},
				"west": {"uv": [2.375, 2.625, 2.5, 3.5], "rotation": 270, "texture": "#0"},
				"up": {"uv": [2.375, 2.75, 2.5, 3.625], "rotation": 270, "texture": "#0"},
				"down": {"uv": [2.375, 2.75, 2.5, 3.625], "rotation": 270, "texture": "#0"}
			}
		},
		{
			"from": [8.06571, 8.50773, 7.788],
			"to": [8.13361, 8.76773, 8.752],
			"rotation": {"angle": 0, "axis": "y", "origin": [8.03513, 9.07431, -14.548]},
			"faces": {
				"north": {"uv": [2.375, 2.75, 2.5, 3.625], "rotation": 270, "texture": "#0"},
				"east": {"uv": [2.375, 2.75, 2.5, 3.625], "rotation": 270, "texture": "#0"},
				"south": {"uv": [2.375, 2.75, 2.5, 3.625], "rotation": 270, "texture": "#0"},
				"west": {"uv": [2.375, 2.625, 2.5, 3.5], "rotation": 270, "texture": "#0"},
				"up": {"uv": [2.375, 2.75, 2.5, 3.625], "rotation": 270, "texture": "#0"},
				"down": {"uv": [2.375, 2.75, 2.5, 3.625], "rotation": 270, "texture": "#0"}
			}
		},
		{
			"from": [8.03371, 8.69973, 7.757],
			"to": [8.61361, 9.34373, 9.105],
			"rotation": {"angle": 0, "axis": "y", "origin": [8.03513, 9.07431, -14.548]},
			"faces": {
				"north": {"uv": [4, 3.5, 4.125, 3.625], "rotation": 270, "texture": "#0"},
				"east": {"uv": [4, 3.5, 4.125, 3.625], "rotation": 270, "texture": "#0"},
				"south": {"uv": [4, 3.5, 4.125, 3.625], "rotation": 270, "texture": "#0"},
				"west": {"uv": [4, 3.5, 4.125, 3.625], "rotation": 270, "texture": "#0"},
				"up": {"uv": [4, 3.5, 4.125, 3.625], "rotation": 270, "texture": "#0"},
				"down": {"uv": [4, 3.5, 4.125, 3.625], "rotation": 270, "texture": "#0"}
			}
		},
		{
			"from": [8.03371, 9.01973, 9.105],
			"to": [8.61361, 9.34373, 11.441],
			"rotation": {"angle": 0, "axis": "y", "origin": [8.03513, 9.17031, -14.548]},
			"faces": {
				"north": {"uv": [4, 3.5, 4.125, 3.625], "rotation": 270, "texture": "#0"},
				"east": {"uv": [4, 3.5, 4.125, 3.625], "rotation": 270, "texture": "#0"},
				"south": {"uv": [4, 3.5, 4.125, 3.625], "rotation": 270, "texture": "#0"},
				"west": {"uv": [4, 3.5, 4.125, 3.625], "rotation": 270, "texture": "#0"},
				"up": {"uv": [4, 3.5, 4.125, 3.625], "rotation": 270, "texture": "#0"},
				"down": {"uv": [4, 3.5, 4.125, 3.625], "rotation": 270, "texture": "#0"}
			}
		},
		{
			"from": [8.00171, 8.98773, 7.917],
			"to": [8.64561, 9.08773, 8.017],
			"rotation": {"angle": -45, "axis": "x", "origin": [8.32366, 9.03773, 7.967]},
			"faces": {
				"north": {"uv": [2.25, 3, 2.375, 3.125], "rotation": 270, "texture": "#0"},
				"east": {"uv": [2.25, 3, 2.375, 3.125], "rotation": 270, "texture": "#0"},
				"south": {"uv": [2.25, 3, 2.375, 3.125], "rotation": 270, "texture": "#0"},
				"west": {"uv": [2.25, 3, 2.375, 3.125], "rotation": 270, "texture": "#0"},
				"up": {"uv": [2.25, 3, 2.375, 3.125], "rotation": 270, "texture": "#0"},
				"down": {"uv": [2.25, 3, 2.375, 3.125], "rotation": 270, "texture": "#0"}
			}
		},
		{
			"from": [8.00171, 9.14773, 11.213],
			"to": [8.64561, 9.24773, 11.313],
			"rotation": {"angle": -45, "axis": "x", "origin": [8.32366, 9.19773, 11.263]},
			"faces": {
				"north": {"uv": [2.25, 3, 2.375, 3.125], "rotation": 270, "texture": "#0"},
				"east": {"uv": [2.25, 3, 2.375, 3.125], "rotation": 270, "texture": "#0"},
				"south": {"uv": [2.25, 3, 2.375, 3.125], "rotation": 270, "texture": "#0"},
				"west": {"uv": [2.25, 3, 2.375, 3.125], "rotation": 270, "texture": "#0"},
				"up": {"uv": [2.25, 3, 2.375, 3.125], "rotation": 270, "texture": "#0"},
				"down": {"uv": [2.25, 3, 2.375, 3.125], "rotation": 270, "texture": "#0"}
			}
		},
		{
			"from": [8.00171, 8.98773, 8.909],
			"to": [8.64561, 9.08773, 9.009],
			"rotation": {"angle": -45, "axis": "x", "origin": [8.32366, 9.03773, 8.959]},
			"faces": {
				"north": {"uv": [2.25, 3, 2.375, 3.125], "rotation": 270, "texture": "#0"},
				"east": {"uv": [2.25, 3, 2.375, 3.125], "rotation": 270, "texture": "#0"},
				"south": {"uv": [2.25, 3, 2.375, 3.125], "rotation": 270, "texture": "#0"},
				"west": {"uv": [2.25, 3, 2.375, 3.125], "rotation": 270, "texture": "#0"},
				"up": {"uv": [2.25, 3, 2.375, 3.125], "rotation": 270, "texture": "#0"},
				"down": {"uv": [2.25, 3, 2.375, 3.125], "rotation": 270, "texture": "#0"}
			}
		},
		{
			"from": [8.16171, 7.45173, 11.532],
			"to": [8.48561, 8.86373, 11.664],
			"rotation": {"angle": -22.5, "axis": "x", "origin": [8.32366, 8.55773, 11.598]},
			"faces": {
				"north": {"uv": [2.375, 2.75, 2.375, 3.625], "rotation": 270, "texture": "#0"},
				"east": {"uv": [2.375, 2.75, 2.375, 3.625], "rotation": 270, "texture": "#0"},
				"south": {"uv": [2.375, 2.75, 2.375, 3.625], "rotation": 270, "texture": "#0"},
				"west": {"uv": [2.375, 2.75, 2.375, 3.625], "rotation": 270, "texture": "#0"},
				"up": {"uv": [2.375, 2.75, 2.375, 3.625], "rotation": 270, "texture": "#0"},
				"down": {"uv": [2.375, 2.75, 2.375, 3.625], "rotation": 270, "texture": "#0"}
			}
		},
		{
			"from": [8.06571, 7.01095, 11.16367],
			"to": [8.58161, 7.14295, 12.19167],
			"rotation": {"angle": -22.5, "axis": "x", "origin": [8.32366, 7.07695, 11.08567]},
			"faces": {
				"north": {"uv": [2.375, 2.75, 2.375, 3.625], "rotation": 270, "texture": "#0"},
				"east": {"uv": [2.375, 2.75, 2.375, 3.625], "rotation": 270, "texture": "#0"},
				"south": {"uv": [2.375, 2.75, 2.375, 3.625], "rotation": 270, "texture": "#0"},
				"west": {"uv": [2.375, 2.75, 2.375, 3.625], "rotation": 270, "texture": "#0"},
				"up": {"uv": [2.375, 2.75, 2.375, 3.625], "rotation": 270, "texture": "#0"},
				"down": {"uv": [2.375, 2.75, 2.375, 3.625], "rotation": 270, "texture": "#0"}
			}
		},
		{
			"from": [8.22571, 8.66416, 9.58961],
			"to": [8.42161, 8.89216, 9.65761],
			"rotation": {"angle": 45, "axis": "x", "origin": [8.32366, 7.78616, 9.59161]},
			"faces": {
				"north": {"uv": [2.375, 3, 2.375, 3.875], "rotation": 90, "texture": "#0"},
				"east": {"uv": [2.375, 3, 2.375, 3.875], "rotation": 90, "texture": "#0"},
				"south": {"uv": [2.375, 3, 2.375, 3.875], "rotation": 90, "texture": "#0"},
				"west": {"uv": [2.375, 3, 2.375, 3.875], "rotation": 90, "texture": "#0"},
				"up": {"uv": [2.375, 3, 2.375, 3.875], "rotation": 90, "texture": "#0"},
				"down": {"uv": [2.375, 3, 2.375, 3.875], "rotation": 90, "texture": "#0"}
			}
		},
		{
			"from": [8.22571, 8.60877, 10.04585],
			"to": [8.42161, 8.90077, 10.11385],
			"rotation": {"angle": 22.5, "axis": "x", "origin": [8.32366, 7.79477, 10.04785]},
			"faces": {
				"north": {"uv": [2.375, 3, 2.375, 3.875], "rotation": 90, "texture": "#0"},
				"east": {"uv": [2.375, 3, 2.375, 3.875], "rotation": 90, "texture": "#0"},
				"south": {"uv": [2.375, 3, 2.375, 3.875], "rotation": 90, "texture": "#0"},
				"west": {"uv": [2.375, 3, 2.375, 3.875], "rotation": 90, "texture": "#0"},
				"up": {"uv": [2.375, 3, 2.375, 3.875], "rotation": 90, "texture": "#0"},
				"down": {"uv": [2.375, 3, 2.375, 3.875], "rotation": 90, "texture": "#0"}
			}
		},
		{
			"from": [8.22571, 8.04877, 9.77385],
			"to": [8.42161, 8.18077, 10.89785],
			"rotation": {"angle": 0, "axis": "y", "origin": [8.32366, 8.11477, 9.79185]},
			"faces": {
				"north": {"uv": [5.25, 2.375, 5.25, 3.25], "rotation": 180, "texture": "#0"},
				"east": {"uv": [5.25, 2.375, 5.25, 3.25], "rotation": 180, "texture": "#0"},
				"south": {"uv": [5.25, 2.375, 5.25, 3.25], "rotation": 180, "texture": "#0"},
				"west": {"uv": [5.25, 2.375, 5.25, 3.25], "rotation": 180, "texture": "#0"},
				"up": {"uv": [5.25, 2.375, 5.25, 3.25], "rotation": 180, "texture": "#0"},
				"down": {"uv": [5.25, 2.375, 5.25, 3.25], "rotation": 180, "texture": "#0"}
			}
		},
		{
			"from": [8.22571, 8.13607, 9.65909],
			"to": [8.42161, 8.26807, 9.79109],
			"rotation": {"angle": 45, "axis": "x", "origin": [8.32366, 8.20207, 9.67709]},
			"faces": {
				"north": {"uv": [5.25, 2.375, 5.25, 3.25], "rotation": 180, "texture": "#0"},
				"east": {"uv": [5.25, 2.375, 5.25, 3.25], "rotation": 180, "texture": "#0"},
				"south": {"uv": [5.25, 2.375, 5.25, 3.25], "rotation": 180, "texture": "#0"},
				"west": {"uv": [5.25, 2.375, 5.25, 3.25], "rotation": 180, "texture": "#0"},
				"up": {"uv": [5.25, 2.375, 5.25, 3.25], "rotation": 180, "texture": "#0"},
				"down": {"uv": [5.25, 2.375, 5.25, 3.25], "rotation": 180, "texture": "#0"}
			}
		},
		{
			"from": [8.22571, 8.23095, 9.59167],
			"to": [8.42161, 8.77895, 9.72367],
			"rotation": {"angle": 0, "axis": "y", "origin": [8.32366, 9.33695, 9.65767]},
			"faces": {
				"north": {"uv": [5.25, 2.375, 5.25, 3.25], "rotation": 270, "texture": "#0"},
				"east": {"uv": [5.25, 2.375, 5.25, 3.25], "rotation": 270, "texture": "#0"},
				"south": {"uv": [5.25, 2.375, 5.25, 3.25], "rotation": 270, "texture": "#0"},
				"west": {"uv": [5.25, 2.375, 5.25, 3.25], "rotation": 270, "texture": "#0"},
				"up": {"uv": [5.25, 2.375, 5.25, 3.25], "rotation": 270, "texture": "#0"},
				"down": {"uv": [5.25, 2.375, 5.25, 3.25], "rotation": 270, "texture": "#0"}
			}
		},
		{
			"from": [8.22571, 8.06288, 9.73492],
			"to": [8.42161, 8.19488, 9.80292],
			"rotation": {"angle": 22.5, "axis": "x", "origin": [8.32366, 8.12888, 9.75292]},
			"faces": {
				"north": {"uv": [5.25, 2.375, 5.25, 3.25], "rotation": 180, "texture": "#0"},
				"east": {"uv": [5.25, 2.375, 5.25, 3.25], "rotation": 180, "texture": "#0"},
				"south": {"uv": [5.25, 2.375, 5.25, 3.25], "rotation": 180, "texture": "#0"},
				"west": {"uv": [5.25, 2.375, 5.25, 3.25], "rotation": 180, "texture": "#0"},
				"up": {"uv": [5.25, 2.375, 5.25, 3.25], "rotation": 180, "texture": "#0"},
				"down": {"uv": [5.25, 2.375, 5.25, 3.25], "rotation": 180, "texture": "#0"}
			}
		},
		{
			"from": [8.22571, 8.18958, 9.59353],
			"to": [8.42161, 8.25758, 9.72553],
			"rotation": {"angle": -22.5, "axis": "x", "origin": [8.32366, 8.23958, 9.65953]},
			"faces": {
				"north": {"uv": [5.25, 2.375, 5.25, 3.25], "rotation": 270, "texture": "#0"},
				"east": {"uv": [5.25, 2.375, 5.25, 3.25], "rotation": 270, "texture": "#0"},
				"south": {"uv": [5.25, 2.375, 5.25, 3.25], "rotation": 270, "texture": "#0"},
				"west": {"uv": [5.25, 2.375, 5.25, 3.25], "rotation": 270, "texture": "#0"},
				"up": {"uv": [5.25, 2.375, 5.25, 3.25], "rotation": 270, "texture": "#0"},
				"down": {"uv": [5.25, 2.375, 5.25, 3.25], "rotation": 270, "texture": "#0"}
			}
		},
		{
			"from": [8.16171, 7.06773, 10.7],
			"to": [8.48561, 8.86373, 10.832],
			"rotation": {"angle": -22.5, "axis": "x", "origin": [8.32366, 8.55773, 10.766]},
			"faces": {
				"north": {"uv": [2.375, 2.75, 2.375, 3.625], "rotation": 270, "texture": "#0"},
				"east": {"uv": [2.375, 2.75, 2.375, 3.625], "rotation": 270, "texture": "#0"},
				"south": {"uv": [2.375, 2.75, 2.375, 3.625], "rotation": 270, "texture": "#0"},
				"west": {"uv": [2.375, 2.75, 2.375, 3.625], "rotation": 270, "texture": "#0"},
				"up": {"uv": [2.375, 2.75, 2.375, 3.625], "rotation": 270, "texture": "#0"},
				"down": {"uv": [2.375, 2.75, 2.375, 3.625], "rotation": 270, "texture": "#0"}
			}
		},
		{
			"from": [8.12971, 7.32373, 11.724],
			"to": [8.51761, 7.93573, 11.824],
			"rotation": {"angle": -22.5, "axis": "x", "origin": [8.32366, 8.07773, 10.958]},
			"faces": {
				"north": {"uv": [7.125, 2.125, 7.75, 2.625], "rotation": 90, "texture": "#0"},
				"east": {"uv": [7.125, 2.125, 7.75, 2.625], "rotation": 90, "texture": "#0"},
				"south": {"uv": [7.125, 2.125, 7.75, 2.625], "rotation": 90, "texture": "#0"},
				"west": {"uv": [7.125, 2.125, 7.75, 2.625], "rotation": 90, "texture": "#0"},
				"up": {"uv": [7.125, 2.125, 7.25, 2.625], "rotation": 90, "texture": "#0"},
				"down": {"uv": [7.625, 2.125, 7.75, 2.75], "rotation": 90, "texture": "#0"}
			}
		},
		{
			"from": [8.12971, 7.32373, 10.86],
			"to": [8.51761, 7.93573, 10.928],
			"rotation": {"angle": -22.5, "axis": "x", "origin": [8.32366, 8.07773, 10.958]},
			"faces": {
				"north": {"uv": [7.125, 2.125, 7.75, 2.625], "rotation": 90, "texture": "#0"},
				"east": {"uv": [7.125, 2.125, 7.75, 2.625], "rotation": 90, "texture": "#0"},
				"south": {"uv": [7.125, 2.125, 7.75, 2.625], "rotation": 90, "texture": "#0"},
				"west": {"uv": [7.125, 2.125, 7.75, 2.625], "rotation": 90, "texture": "#0"},
				"up": {"uv": [7.125, 2.125, 7.25, 2.625], "rotation": 90, "texture": "#0"},
				"down": {"uv": [7.625, 2.125, 7.75, 2.75], "rotation": 90, "texture": "#0"}
			}
		},
		{
			"from": [8.48171, 7.32373, 10.86],
			"to": [8.51761, 7.93573, 11.824],
			"rotation": {"angle": -22.5, "axis": "x", "origin": [8.32366, 8.07773, 10.958]},
			"faces": {
				"north": {"uv": [7.125, 2.125, 7.75, 2.625], "rotation": 90, "texture": "#0"},
				"east": {"uv": [7.125, 2.125, 7.75, 2.625], "rotation": 90, "texture": "#0"},
				"south": {"uv": [7.125, 2.125, 7.75, 2.625], "rotation": 90, "texture": "#0"},
				"west": {"uv": [7.125, 2.125, 7.75, 2.625], "rotation": 90, "texture": "#0"},
				"up": {"uv": [7.125, 2.125, 7.25, 2.625], "rotation": 90, "texture": "#0"},
				"down": {"uv": [7.625, 2.125, 7.75, 2.75], "rotation": 90, "texture": "#0"}
			}
		},
		{
			"from": [8.12971, 7.32373, 10.86],
			"to": [8.16561, 7.93573, 11.824],
			"rotation": {"angle": -22.5, "axis": "x", "origin": [8.32366, 8.07773, 10.958]},
			"faces": {
				"north": {"uv": [7.125, 2.125, 7.75, 2.625], "rotation": 90, "texture": "#0"},
				"east": {"uv": [7.125, 2.125, 7.75, 2.625], "rotation": 90, "texture": "#0"},
				"south": {"uv": [7.125, 2.125, 7.75, 2.625], "rotation": 90, "texture": "#0"},
				"west": {"uv": [7.125, 2.125, 7.75, 2.625], "rotation": 90, "texture": "#0"},
				"up": {"uv": [7.125, 2.125, 7.25, 2.625], "rotation": 90, "texture": "#0"},
				"down": {"uv": [7.625, 2.125, 7.75, 2.75], "rotation": 90, "texture": "#0"}
			}
		},
		{
			"from": [8.12971, 8.18773, 11.532],
			"to": [8.51761, 8.41573, 11.632],
			"rotation": {"angle": -22.5, "axis": "x", "origin": [8.32366, 8.55773, 10.766]},
			"faces": {
				"north": {"uv": [7.125, 2.125, 7.75, 2.625], "rotation": 90, "texture": "#0"},
				"east": {"uv": [7.125, 2.125, 7.75, 2.625], "rotation": 90, "texture": "#0"},
				"south": {"uv": [7.125, 2.125, 7.75, 2.625], "rotation": 90, "texture": "#0"},
				"west": {"uv": [7.125, 2.125, 7.75, 2.625], "rotation": 90, "texture": "#0"},
				"up": {"uv": [7.125, 2.125, 7.25, 2.625], "rotation": 90, "texture": "#0"},
				"down": {"uv": [7.625, 2.125, 7.75, 2.75], "rotation": 90, "texture": "#0"}
			}
		},
		{
			"from": [8.12971, 8.18773, 10.668],
			"to": [8.51761, 8.41573, 10.736],
			"rotation": {"angle": -22.5, "axis": "x", "origin": [8.32366, 8.55773, 10.766]},
			"faces": {
				"north": {"uv": [7.125, 2.125, 7.75, 2.625], "rotation": 90, "texture": "#0"},
				"east": {"uv": [7.125, 2.125, 7.75, 2.625], "rotation": 90, "texture": "#0"},
				"south": {"uv": [7.125, 2.125, 7.75, 2.625], "rotation": 90, "texture": "#0"},
				"west": {"uv": [7.125, 2.125, 7.75, 2.625], "rotation": 90, "texture": "#0"},
				"up": {"uv": [7.125, 2.125, 7.25, 2.625], "rotation": 90, "texture": "#0"},
				"down": {"uv": [7.625, 2.125, 7.75, 2.75], "rotation": 90, "texture": "#0"}
			}
		},
		{
			"from": [8.48171, 8.18773, 10.668],
			"to": [8.51761, 8.41573, 11.632],
			"rotation": {"angle": -22.5, "axis": "x", "origin": [8.32366, 8.55773, 10.766]},
			"faces": {
				"north": {"uv": [7.125, 2.125, 7.75, 2.625], "rotation": 90, "texture": "#0"},
				"east": {"uv": [7.125, 2.125, 7.75, 2.625], "rotation": 90, "texture": "#0"},
				"south": {"uv": [7.125, 2.125, 7.75, 2.625], "rotation": 90, "texture": "#0"},
				"west": {"uv": [7.125, 2.125, 7.75, 2.625], "rotation": 90, "texture": "#0"},
				"up": {"uv": [7.125, 2.125, 7.25, 2.625], "rotation": 90, "texture": "#0"},
				"down": {"uv": [7.625, 2.125, 7.75, 2.75], "rotation": 90, "texture": "#0"}
			}
		},
		{
			"from": [8.12971, 8.18773, 10.668],
			"to": [8.16561, 8.41573, 11.632],
			"rotation": {"angle": -22.5, "axis": "x", "origin": [8.32366, 8.55773, 10.766]},
			"faces": {
				"north": {"uv": [7.125, 2.125, 7.75, 2.625], "rotation": 90, "texture": "#0"},
				"east": {"uv": [7.125, 2.125, 7.75, 2.625], "rotation": 90, "texture": "#0"},
				"south": {"uv": [7.125, 2.125, 7.75, 2.625], "rotation": 90, "texture": "#0"},
				"west": {"uv": [7.125, 2.125, 7.75, 2.625], "rotation": 90, "texture": "#0"},
				"up": {"uv": [7.125, 2.125, 7.25, 2.625], "rotation": 90, "texture": "#0"},
				"down": {"uv": [7.625, 2.125, 7.75, 2.75], "rotation": 90, "texture": "#0"}
			}
		},
		{
			"from": [8.54571, 9.768, 0.716],
			"to": [8.61361, 9.868, 7.824],
			"rotation": {"angle": 0, "axis": "y", "origin": [8.06713, 9.72658, -18.58]},
			"faces": {
				"north": {"uv": [14.25, 6.375, 14.375, 6.625], "rotation": 270, "texture": "#0"},
				"east": {"uv": [14.25, 6.375, 14.375, 6.625], "rotation": 270, "texture": "#0"},
				"south": {"uv": [14.25, 6.375, 14.375, 6.625], "rotation": 270, "texture": "#0"},
				"west": {"uv": [14.25, 6.375, 14.375, 6.625], "rotation": 270, "texture": "#0"},
				"up": {"uv": [14.25, 6.375, 14.375, 6.625], "rotation": 270, "texture": "#0"},
				"down": {"uv": [14.25, 6.375, 14.375, 6.625], "rotation": 270, "texture": "#0"}
			}
		},
		{
			"from": [8.03371, 9.07782, 0.716],
			"to": [8.10161, 9.17782, 7.824],
			"rotation": {"angle": 0, "axis": "y", "origin": [8.25966, 9.15291, 4.238]},
			"faces": {
				"north": {"uv": [14.25, 6.375, 14.375, 6.625], "rotation": 90, "texture": "#0"},
				"east": {"uv": [14.25, 6.375, 14.375, 6.625], "rotation": 90, "texture": "#0"},
				"south": {"uv": [14.25, 6.375, 14.375, 6.625], "rotation": 90, "texture": "#0"},
				"west": {"uv": [14.25, 6.375, 14.375, 6.625], "rotation": 90, "texture": "#0"},
				"up": {"uv": [14.25, 6.375, 14.375, 6.625], "rotation": 90, "texture": "#0"},
				"down": {"uv": [14.25, 6.375, 14.375, 6.625], "rotation": 90, "texture": "#0"}
			}
		},
		{
			"from": [8.56362, 9.74732, 0.716],
			"to": [8.66352, 9.84732, 7.824],
			"rotation": {"angle": -45, "axis": "z", "origin": [8.61357, 9.79732, 4.286]},
			"faces": {
				"north": {"uv": [14.25, 6.375, 14.375, 6.625], "rotation": 270, "texture": "#0"},
				"east": {"uv": [14.25, 6.375, 14.375, 6.625], "rotation": 270, "texture": "#0"},
				"south": {"uv": [14.25, 6.375, 14.375, 6.625], "rotation": 270, "texture": "#0"},
				"west": {"uv": [14.25, 6.375, 14.375, 6.625], "rotation": 270, "texture": "#0"},
				"up": {"uv": [14.25, 6.375, 14.375, 6.625], "rotation": 270, "texture": "#0"},
				"down": {"uv": [14.25, 6.375, 14.375, 6.625], "rotation": 270, "texture": "#0"}
			}
		},
		{
			"from": [8.04679, 9.25959, 0.716],
			"to": [8.14679, 9.35949, 7.824],
			"rotation": {"angle": 45, "axis": "z", "origin": [8.25966, 9.15291, 4.238]},
			"faces": {
				"north": {"uv": [14.25, 6.375, 14.375, 6.625], "rotation": 180, "texture": "#0"},
				"east": {"uv": [14.25, 6.375, 14.375, 6.625], "rotation": 180, "texture": "#0"},
				"south": {"uv": [14.25, 6.375, 14.375, 6.625], "rotation": 180, "texture": "#0"},
				"west": {"uv": [14.25, 6.375, 14.375, 6.625], "rotation": 180, "texture": "#0"},
				"up": {"uv": [14.25, 6.375, 14.375, 6.625], "rotation": 180, "texture": "#0"},
				"down": {"uv": [14.25, 6.375, 14.375, 6.625], "rotation": 180, "texture": "#0"}
			}
		},
		{
			"from": [8.03371, 9.768, 0.716],
			"to": [8.10161, 9.868, 7.824],
			"rotation": {"angle": 0, "axis": "y", "origin": [7.61913, 9.72658, -18.58]},
			"faces": {
				"north": {"uv": [14.25, 6.375, 14.375, 6.625], "rotation": 270, "texture": "#0"},
				"east": {"uv": [14.25, 6.375, 14.375, 6.625], "rotation": 270, "texture": "#0"},
				"south": {"uv": [14.25, 6.375, 14.375, 6.625], "rotation": 270, "texture": "#0"},
				"west": {"uv": [14.25, 6.375, 14.375, 6.625], "rotation": 270, "texture": "#0"},
				"up": {"uv": [14.25, 6.375, 14.375, 6.625], "rotation": 270, "texture": "#0"},
				"down": {"uv": [14.25, 6.375, 14.375, 6.625], "rotation": 270, "texture": "#0"}
			}
		},
		{
			"from": [8.03371, 9.768, 0.716],
			"to": [8.54961, 9.868, 7.824],
			"rotation": {"angle": 0, "axis": "y", "origin": [7.61913, 9.72658, -18.58]},
			"faces": {
				"north": {"uv": [14.25, 6.375, 14.375, 6.625], "rotation": 270, "texture": "#0"},
				"east": {"uv": [14.25, 6.375, 14.375, 6.625], "rotation": 270, "texture": "#0"},
				"south": {"uv": [14.25, 6.375, 14.375, 6.625], "rotation": 270, "texture": "#0"},
				"west": {"uv": [14.25, 6.375, 14.375, 6.625], "rotation": 270, "texture": "#0"},
				"up": {"uv": [14.25, 6.375, 14.375, 6.625], "rotation": 270, "texture": "#0"},
				"down": {"uv": [14.25, 6.375, 14.375, 6.625], "rotation": 270, "texture": "#0"}
			}
		},
		{
			"from": [8.09771, 9.768, 7.82],
			"to": [8.54961, 9.868, 9.552],
			"rotation": {"angle": 0, "axis": "y", "origin": [7.61913, 9.72658, -16.628]},
			"faces": {
				"north": {"uv": [14.25, 6.375, 14.375, 6.625], "rotation": 270, "texture": "#0"},
				"east": {"uv": [14.25, 6.375, 14.375, 6.625], "rotation": 270, "texture": "#0"},
				"south": {"uv": [14.25, 6.375, 14.375, 6.625], "rotation": 270, "texture": "#0"},
				"west": {"uv": [14.25, 6.375, 14.375, 6.625], "rotation": 270, "texture": "#0"},
				"up": {"uv": [14.25, 6.375, 14.375, 6.625], "rotation": 270, "texture": "#0"},
				"down": {"uv": [14.25, 6.375, 14.375, 6.625], "rotation": 270, "texture": "#0"}
			}
		},
		{
			"from": [8.06571, 9.8, 9.004],
			"to": [8.58161, 9.9, 9.648],
			"rotation": {"angle": 0, "axis": "y", "origin": [7.61913, 9.75858, -16.532]},
			"faces": {
				"north": {"uv": [2.375, 3.5, 2.375, 3.75], "rotation": 270, "texture": "#0"},
				"east": {"uv": [2.375, 3.5, 2.375, 3.75], "rotation": 270, "texture": "#0"},
				"south": {"uv": [2.375, 3.5, 2.375, 3.75], "rotation": 270, "texture": "#0"},
				"west": {"uv": [2.375, 3.5, 2.375, 3.75], "rotation": 270, "texture": "#0"},
				"up": {"uv": [2.375, 3.5, 2.375, 3.75], "rotation": 270, "texture": "#0"},
				"down": {"uv": [2.375, 3.5, 2.375, 3.75], "rotation": 270, "texture": "#0"}
			}
		},
		{
			"from": [8.16171, 9.464, 9.308],
			"to": [8.29361, 10.108, 9.344],
			"rotation": {"angle": 0, "axis": "y", "origin": [8.32366, 9.786, 9.326]},
			"faces": {
				"north": {"uv": [2.375, 3.5, 2.375, 3.75], "rotation": 90, "texture": "#0"},
				"east": {"uv": [2.375, 3.5, 2.375, 3.75], "rotation": 180, "texture": "#0"},
				"south": {"uv": [2.375, 3.5, 2.375, 3.75], "rotation": 270, "texture": "#0"},
				"west": {"uv": [2.375, 3.5, 2.375, 3.75], "texture": "#0"},
				"up": {"uv": [2.375, 3.5, 2.375, 3.75], "rotation": 90, "texture": "#0"},
				"down": {"uv": [2.375, 3.5, 2.375, 3.75], "rotation": 270, "texture": "#0"}
			}
		},
		{
			"from": [8.35371, 9.464, 9.308],
			"to": [8.48561, 10.108, 9.344],
			"rotation": {"angle": 0, "axis": "y", "origin": [8.51566, 9.786, 9.326]},
			"faces": {
				"north": {"uv": [2.375, 3.5, 2.375, 3.75], "rotation": 90, "texture": "#0"},
				"east": {"uv": [2.375, 3.5, 2.375, 3.75], "rotation": 180, "texture": "#0"},
				"south": {"uv": [2.375, 3.5, 2.375, 3.75], "rotation": 270, "texture": "#0"},
				"west": {"uv": [2.375, 3.5, 2.375, 3.75], "texture": "#0"},
				"up": {"uv": [2.375, 3.5, 2.375, 3.75], "rotation": 90, "texture": "#0"},
				"down": {"uv": [2.375, 3.5, 2.375, 3.75], "rotation": 270, "texture": "#0"}
			}
		},
		{
			"from": [8.28971, 9.464, 9.308],
			"to": [8.35761, 10.044, 9.344],
			"rotation": {"angle": 0, "axis": "y", "origin": [8.45166, 9.786, 9.326]},
			"faces": {
				"north": {"uv": [2.375, 3.5, 2.375, 3.75], "rotation": 90, "texture": "#0"},
				"east": {"uv": [2.375, 3.5, 2.375, 3.75], "rotation": 180, "texture": "#0"},
				"south": {"uv": [2.375, 3.5, 2.375, 3.75], "rotation": 270, "texture": "#0"},
				"west": {"uv": [2.375, 3.5, 2.375, 3.75], "texture": "#0"},
				"up": {"uv": [2.375, 3.5, 2.375, 3.75], "rotation": 90, "texture": "#0"},
				"down": {"uv": [2.375, 3.5, 2.375, 3.75], "rotation": 270, "texture": "#0"}
			}
		},
		{
			"from": [8.28971, 9.816, 0.956],
			"to": [8.35761, 10.236, 1.024],
			"rotation": {"angle": 0, "axis": "y", "origin": [8.45166, 9.882, 1.006]},
			"faces": {
				"north": {"uv": [2.375, 3.5, 2.375, 3.75], "rotation": 90, "texture": "#0"},
				"east": {"uv": [2.375, 3.5, 2.375, 3.75], "rotation": 180, "texture": "#0"},
				"south": {"uv": [2.375, 3.5, 2.375, 3.75], "rotation": 270, "texture": "#0"},
				"west": {"uv": [2.375, 3.5, 2.375, 3.75], "texture": "#0"},
				"up": {"uv": [2.375, 3.5, 2.375, 3.75], "rotation": 90, "texture": "#0"},
				"down": {"uv": [2.375, 3.5, 2.375, 3.75], "rotation": 270, "texture": "#0"}
			}
		},
		{
			"from": [8.12971, 9.816, 0.828],
			"to": [8.51761, 9.948, 1.184],
			"rotation": {"angle": 0, "axis": "y", "origin": [8.45166, 9.882, 1.006]},
			"faces": {
				"north": {"uv": [14.5, 6.625, 14.5, 6.875], "rotation": 270, "texture": "#0"},
				"east": {"uv": [14.5, 6.625, 14.5, 6.875], "rotation": 270, "texture": "#0"},
				"south": {"uv": [14.5, 6.625, 14.5, 6.875], "rotation": 270, "texture": "#0"},
				"west": {"uv": [14.5, 6.625, 14.5, 6.875], "rotation": 270, "texture": "#0"},
				"up": {"uv": [14.5, 6.625, 14.5, 6.875], "rotation": 270, "texture": "#0"},
				"down": {"uv": [14.5, 6.625, 14.5, 6.875], "rotation": 270, "texture": "#0"}
			}
		},
		{
			"from": [8.25771, 10.328, 0.796],
			"to": [8.38961, 10.396, 1.248],
			"rotation": {"angle": 0, "axis": "y", "origin": [8.45166, 10.202, 1.006]},
			"faces": {
				"north": {"uv": [14.5, 6.5, 14.5, 6.75], "rotation": 270, "texture": "#0"},
				"east": {"uv": [14.5, 6.5, 14.5, 6.75], "rotation": 270, "texture": "#0"},
				"south": {"uv": [14.5, 6.5, 14.5, 6.75], "rotation": 270, "texture": "#0"},
				"west": {"uv": [14.5, 6.5, 14.5, 6.75], "rotation": 270, "texture": "#0"},
				"up": {"uv": [14.5, 6.5, 14.5, 6.75], "rotation": 270, "texture": "#0"},
				"down": {"uv": [14.5, 6.5, 14.5, 6.75], "rotation": 270, "texture": "#0"}
			}
		},
		{
			"from": [8.37158, 10.30535, 0.796],
			"to": [8.50348, 10.37335, 1.248],
			"rotation": {"angle": -22.5, "axis": "z", "origin": [8.43753, 10.33935, 0.99]},
			"faces": {
				"north": {"uv": [14.5, 6.5, 14.5, 6.75], "rotation": 270, "texture": "#0"},
				"east": {"uv": [14.5, 6.5, 14.5, 6.75], "rotation": 270, "texture": "#0"},
				"south": {"uv": [14.5, 6.5, 14.5, 6.75], "rotation": 270, "texture": "#0"},
				"west": {"uv": [14.5, 6.5, 14.5, 6.75], "rotation": 270, "texture": "#0"},
				"up": {"uv": [14.5, 6.5, 14.5, 6.75], "rotation": 270, "texture": "#0"},
				"down": {"uv": [14.5, 6.5, 14.5, 6.75], "rotation": 270, "texture": "#0"}
			}
		},
		{
			"from": [8.12357, 10.19525, 0.796],
			"to": [8.19157, 10.32715, 1.248],
			"rotation": {"angle": -22.5, "axis": "z", "origin": [8.17591, 10.30547, 0.99]},
			"faces": {
				"north": {"uv": [14.5, 6.5, 14.5, 6.75], "rotation": 180, "texture": "#0"},
				"east": {"uv": [14.5, 6.5, 14.5, 6.75], "rotation": 180, "texture": "#0"},
				"south": {"uv": [14.5, 6.5, 14.5, 6.75], "rotation": 180, "texture": "#0"},
				"west": {"uv": [14.5, 6.5, 14.5, 6.75], "rotation": 180, "texture": "#0"},
				"up": {"uv": [14.5, 6.5, 14.5, 6.75], "rotation": 180, "texture": "#0"},
				"down": {"uv": [14.5, 6.5, 14.5, 6.75], "rotation": 180, "texture": "#0"}
			}
		},
		{
			"from": [8.4713, 10.20563, 0.796],
			"to": [8.5393, 10.33753, 1.248],
			"rotation": {"angle": 22.5, "axis": "z", "origin": [8.5053, 10.27158, 0.99]},
			"faces": {
				"north": {"uv": [14.5, 6.5, 14.5, 6.75], "texture": "#0"},
				"east": {"uv": [14.5, 6.5, 14.5, 6.75], "texture": "#0"},
				"south": {"uv": [14.5, 6.5, 14.5, 6.75], "texture": "#0"},
				"west": {"uv": [14.5, 6.5, 14.5, 6.75], "texture": "#0"},
				"up": {"uv": [14.5, 6.5, 14.5, 6.75], "texture": "#0"},
				"down": {"uv": [14.5, 6.5, 14.5, 6.75], "texture": "#0"}
			}
		},
		{
			"from": [8.15423, 10.2898, 0.796],
			"to": [8.28613, 10.3578, 1.248],
			"rotation": {"angle": 22.5, "axis": "z", "origin": [8.17591, 10.30547, 0.99]},
			"faces": {
				"north": {"uv": [14.5, 6.5, 14.5, 6.75], "rotation": 270, "texture": "#0"},
				"east": {"uv": [14.5, 6.5, 14.5, 6.75], "rotation": 270, "texture": "#0"},
				"south": {"uv": [14.5, 6.5, 14.5, 6.75], "rotation": 270, "texture": "#0"},
				"west": {"uv": [14.5, 6.5, 14.5, 6.75], "rotation": 270, "texture": "#0"},
				"up": {"uv": [14.5, 6.5, 14.5, 6.75], "rotation": 270, "texture": "#0"},
				"down": {"uv": [14.5, 6.5, 14.5, 6.75], "rotation": 270, "texture": "#0"}
			}
		},
		{
			"from": [8.49395, 9.86776, 0.796],
			"to": [8.56195, 10.22366, 1.248],
			"rotation": {"angle": 0, "axis": "y", "origin": [8.52795, 10.15771, 0.99]},
			"faces": {
				"north": {"uv": [14.5, 6.5, 14.5, 6.75], "texture": "#0"},
				"east": {"uv": [14.5, 6.5, 14.5, 6.75], "texture": "#0"},
				"south": {"uv": [14.5, 6.5, 14.5, 6.75], "texture": "#0"},
				"west": {"uv": [14.5, 6.5, 14.5, 6.75], "texture": "#0"},
				"up": {"uv": [14.5, 6.5, 14.5, 6.75], "texture": "#0"},
				"down": {"uv": [14.5, 6.5, 14.5, 6.75], "texture": "#0"}
			}
		},
		{
			"from": [8.08537, 9.86776, 0.796],
			"to": [8.15337, 10.22366, 1.248],
			"rotation": {"angle": 0, "axis": "y", "origin": [8.11937, 10.15771, 0.99]},
			"faces": {
				"north": {"uv": [14.5, 6.5, 14.5, 6.75], "texture": "#0"},
				"east": {"uv": [14.5, 6.5, 14.5, 6.75], "texture": "#0"},
				"south": {"uv": [14.5, 6.5, 14.5, 6.75], "texture": "#0"},
				"west": {"uv": [14.5, 6.5, 14.5, 6.75], "texture": "#0"},
				"up": {"uv": [14.5, 6.5, 14.5, 6.75], "texture": "#0"},
				"down": {"uv": [14.5, 6.5, 14.5, 6.75], "texture": "#0"}
			}
		},
		{
			"from": [7.96971, 9.768, 9.132],
			"to": [8.67761, 9.868, 9.552],
			"rotation": {"angle": 0, "axis": "y", "origin": [7.55513, 9.72658, -16.628]},
			"faces": {
				"north": {"uv": [14.25, 6.375, 14.375, 6.625], "rotation": 270, "texture": "#0"},
				"east": {"uv": [14.25, 6.375, 14.375, 6.625], "rotation": 270, "texture": "#0"},
				"south": {"uv": [14.25, 6.375, 14.375, 6.625], "rotation": 270, "texture": "#0"},
				"west": {"uv": [14.25, 6.375, 14.375, 6.625], "rotation": 270, "texture": "#0"},
				"up": {"uv": [14.25, 6.375, 14.375, 6.625], "rotation": 270, "texture": "#0"},
				"down": {"uv": [14.25, 6.375, 14.375, 6.625], "rotation": 270, "texture": "#0"}
			}
		},
		{
			"from": [8.44971, 9.624, 9.116],
			"to": [8.51761, 10.044, 9.536],
			"rotation": {"angle": 45, "axis": "x", "origin": [8.32366, 9.834, 9.342]},
			"faces": {
				"north": {"uv": [2.375, 3.5, 2.375, 3.75], "rotation": 180, "texture": "#0"},
				"east": {"uv": [2.375, 3.5, 2.375, 3.75], "rotation": 180, "texture": "#0"},
				"south": {"uv": [2.375, 3.5, 2.375, 3.75], "rotation": 180, "texture": "#0"},
				"west": {"uv": [2.375, 3.5, 2.375, 3.75], "rotation": 180, "texture": "#0"},
				"up": {"uv": [2.375, 3.5, 2.375, 3.75], "rotation": 180, "texture": "#0"},
				"down": {"uv": [2.375, 3.5, 2.375, 3.75], "rotation": 180, "texture": "#0"}
			}
		},
		{
			"from": [8.12971, 9.624, 9.116],
			"to": [8.19761, 10.044, 9.536],
			"rotation": {"angle": 45, "axis": "x", "origin": [8.00366, 9.834, 9.342]},
			"faces": {
				"north": {"uv": [2.375, 3.5, 2.375, 3.75], "rotation": 180, "texture": "#0"},
				"east": {"uv": [2.375, 3.5, 2.375, 3.75], "rotation": 180, "texture": "#0"},
				"south": {"uv": [2.375, 3.5, 2.375, 3.75], "rotation": 180, "texture": "#0"},
				"west": {"uv": [2.375, 3.5, 2.375, 3.75], "rotation": 180, "texture": "#0"},
				"up": {"uv": [2.375, 3.5, 2.375, 3.75], "rotation": 180, "texture": "#0"},
				"down": {"uv": [2.375, 3.5, 2.375, 3.75], "rotation": 180, "texture": "#0"}
			}
		},
		{
			"from": [7.96971, 9.1601, 9.132],
			"to": [8.06971, 9.868, 9.552],
			"rotation": {"angle": 0, "axis": "y", "origin": [8.01971, 9.51405, 9.406]},
			"faces": {
				"north": {"uv": [14.25, 6.375, 14.375, 6.625], "texture": "#0"},
				"east": {"uv": [14.25, 6.375, 14.375, 6.625], "rotation": 180, "texture": "#0"},
				"south": {"uv": [14.25, 6.375, 14.375, 6.625], "rotation": 180, "texture": "#0"},
				"west": {"uv": [14.25, 6.375, 14.375, 6.625], "rotation": 180, "texture": "#0"},
				"up": {"uv": [14.25, 6.375, 14.375, 6.625], "rotation": 180, "texture": "#0"},
				"down": {"uv": [14.25, 6.375, 14.375, 6.625], "rotation": 180, "texture": "#0"}
			}
		},
		{
			"from": [8.57761, 9.1601, 9.132],
			"to": [8.67761, 9.868, 9.552],
			"rotation": {"angle": 0, "axis": "y", "origin": [8.62761, 9.51405, 9.406]},
			"faces": {
				"north": {"uv": [14.25, 6.375, 14.375, 6.625], "texture": "#0"},
				"east": {"uv": [14.25, 6.375, 14.375, 6.625], "rotation": 180, "texture": "#0"},
				"south": {"uv": [14.25, 6.375, 14.375, 6.625], "rotation": 180, "texture": "#0"},
				"west": {"uv": [14.25, 6.375, 14.375, 6.625], "rotation": 180, "texture": "#0"},
				"up": {"uv": [14.25, 6.375, 14.375, 6.625], "rotation": 180, "texture": "#0"},
				"down": {"uv": [14.25, 6.375, 14.375, 6.625], "rotation": 180, "texture": "#0"}
			}
		},
		{
			"from": [8.54571, 9.07782, 0.716],
			"to": [8.61361, 9.17782, 7.824],
			"rotation": {"angle": 0, "axis": "y", "origin": [8.38766, 9.15291, 4.238]},
			"faces": {
				"north": {"uv": [14.25, 6.375, 14.375, 6.625], "rotation": 90, "texture": "#0"},
				"east": {"uv": [14.25, 6.375, 14.375, 6.625], "rotation": 90, "texture": "#0"},
				"south": {"uv": [14.25, 6.375, 14.375, 6.625], "rotation": 90, "texture": "#0"},
				"west": {"uv": [14.25, 6.375, 14.375, 6.625], "rotation": 90, "texture": "#0"},
				"up": {"uv": [14.25, 6.375, 14.375, 6.625], "rotation": 90, "texture": "#0"},
				"down": {"uv": [14.25, 6.375, 14.375, 6.625], "rotation": 90, "texture": "#0"}
			}
		},
		{
			"from": [7.98375, 9.74737, 0.716],
			"to": [8.08375, 9.84727, 7.824],
			"rotation": {"angle": -45, "axis": "z", "origin": [8.03375, 9.79732, 4.286]},
			"faces": {
				"north": {"uv": [14.25, 6.375, 14.375, 6.625], "rotation": 180, "texture": "#0"},
				"east": {"uv": [14.25, 6.375, 14.375, 6.625], "rotation": 180, "texture": "#0"},
				"south": {"uv": [14.25, 6.375, 14.375, 6.625], "rotation": 180, "texture": "#0"},
				"west": {"uv": [14.25, 6.375, 14.375, 6.625], "rotation": 180, "texture": "#0"},
				"up": {"uv": [14.25, 6.375, 14.375, 6.625], "rotation": 180, "texture": "#0"},
				"down": {"uv": [14.25, 6.375, 14.375, 6.625], "rotation": 180, "texture": "#0"}
			}
		},
		{
			"from": [8.49434, 8.94005, 0.716],
			"to": [8.59424, 9.04005, 7.824],
			"rotation": {"angle": 45, "axis": "z", "origin": [8.38766, 9.15291, 4.238]},
			"faces": {
				"north": {"uv": [14.25, 6.375, 14.375, 6.625], "rotation": 90, "texture": "#0"},
				"east": {"uv": [14.25, 6.375, 14.375, 6.625], "rotation": 90, "texture": "#0"},
				"south": {"uv": [14.25, 6.375, 14.375, 6.625], "rotation": 90, "texture": "#0"},
				"west": {"uv": [14.25, 6.375, 14.375, 6.625], "rotation": 90, "texture": "#0"},
				"up": {"uv": [14.25, 6.375, 14.375, 6.625], "rotation": 90, "texture": "#0"},
				"down": {"uv": [14.25, 6.375, 14.375, 6.625], "rotation": 90, "texture": "#0"}
			}
		},
		{
			"from": [7.96307, 9.69746, 0.716],
			"to": [8.06307, 9.79736, 7.408],
			"rotation": {"angle": 0, "axis": "y", "origin": [8.01307, 9.74741, 4.286]},
			"faces": {
				"north": {"uv": [14.25, 6.375, 14.375, 6.625], "rotation": 180, "texture": "#0"},
				"east": {"uv": [14.25, 6.375, 14.375, 6.625], "rotation": 180, "texture": "#0"},
				"south": {"uv": [14.25, 6.375, 14.375, 6.625], "rotation": 180, "texture": "#0"},
				"west": {"uv": [14.25, 6.375, 14.375, 6.625], "rotation": 180, "texture": "#0"},
				"up": {"uv": [14.25, 6.375, 14.375, 6.625], "rotation": 180, "texture": "#0"},
				"down": {"uv": [14.25, 6.375, 14.375, 6.625], "rotation": 180, "texture": "#0"}
			}
		},
		{
			"from": [8.58425, 9.14846, 0.716],
			"to": [8.68425, 9.24836, 7.824],
			"rotation": {"angle": 0, "axis": "y", "origin": [8.38766, 9.15291, 4.238]},
			"faces": {
				"north": {"uv": [14.25, 6.375, 14.375, 6.625], "texture": "#0"},
				"east": {"uv": [14.25, 6.375, 14.375, 6.625], "texture": "#0"},
				"south": {"uv": [14.25, 6.375, 14.375, 6.625], "texture": "#0"},
				"west": {"uv": [14.25, 6.375, 14.375, 6.625], "texture": "#0"},
				"up": {"uv": [14.25, 6.375, 14.375, 6.625], "texture": "#0"},
				"down": {"uv": [14.25, 6.375, 14.375, 6.625], "texture": "#0"}
			}
		},
		{
			"from": [8.58425, 9.69746, 0.716],
			"to": [8.68425, 9.79736, 7.824],
			"rotation": {"angle": 0, "axis": "y", "origin": [8.63425, 9.74741, 4.286]},
			"faces": {
				"north": {"uv": [14.25, 6.375, 14.375, 6.625], "rotation": 180, "texture": "#0"},
				"east": {"uv": [14.25, 6.375, 14.375, 6.625], "rotation": 180, "texture": "#0"},
				"south": {"uv": [14.25, 6.375, 14.375, 6.625], "rotation": 180, "texture": "#0"},
				"west": {"uv": [14.25, 6.375, 14.375, 6.625], "rotation": 180, "texture": "#0"},
				"up": {"uv": [14.25, 6.375, 14.375, 6.625], "rotation": 180, "texture": "#0"},
				"down": {"uv": [14.25, 6.375, 14.375, 6.625], "rotation": 180, "texture": "#0"}
			}
		},
		{
			"from": [7.96307, 9.14846, 0.716],
			"to": [8.06307, 9.24836, 7.824],
			"rotation": {"angle": 0, "axis": "y", "origin": [8.25966, 9.15291, 4.238]},
			"faces": {
				"north": {"uv": [14.25, 6.375, 14.375, 6.625], "texture": "#0"},
				"east": {"uv": [14.25, 6.375, 14.375, 6.625], "texture": "#0"},
				"south": {"uv": [14.25, 6.375, 14.375, 6.625], "texture": "#0"},
				"west": {"uv": [14.25, 6.375, 14.375, 6.625], "texture": "#0"},
				"up": {"uv": [14.25, 6.375, 14.375, 6.625], "texture": "#0"},
				"down": {"uv": [14.25, 6.375, 14.375, 6.625], "texture": "#0"}
			}
		},
		{
			"from": [7.96307, 9.14846, 0.716],
			"to": [8.06307, 9.79236, 1.264],
			"rotation": {"angle": 0, "axis": "y", "origin": [8.25966, 9.15291, 4.238]},
			"faces": {
				"north": {"uv": [14.25, 6.375, 14.375, 6.625], "texture": "#0"},
				"east": {"uv": [14.25, 6.375, 14.375, 6.625], "texture": "#0"},
				"south": {"uv": [14.25, 6.375, 14.375, 6.625], "texture": "#0"},
				"west": {"uv": [14.25, 6.375, 14.375, 6.625], "texture": "#0"},
				"up": {"uv": [14.25, 6.375, 14.375, 6.625], "texture": "#0"},
				"down": {"uv": [14.25, 6.375, 14.375, 6.625], "texture": "#0"}
			}
		},
		{
			"from": [8.5842, 9.14846, 0.716],
			"to": [8.6842, 9.79236, 1.264],
			"rotation": {"angle": 0, "axis": "y", "origin": [8.86766, 9.15291, 4.238]},
			"faces": {
				"north": {"uv": [14.25, 6.375, 14.375, 6.625], "texture": "#0"},
				"east": {"uv": [14.25, 6.375, 14.375, 6.625], "texture": "#0"},
				"south": {"uv": [14.25, 6.375, 14.375, 6.625], "texture": "#0"},
				"west": {"uv": [14.25, 6.375, 14.375, 6.625], "texture": "#0"},
				"up": {"uv": [14.25, 6.375, 14.375, 6.625], "texture": "#0"},
				"down": {"uv": [14.25, 6.375, 14.375, 6.625], "texture": "#0"}
			}
		},
		{
			"from": [7.96307, 9.14846, 2.54],
			"to": [8.06307, 9.79236, 2.864],
			"rotation": {"angle": 0, "axis": "y", "origin": [8.25966, 9.15291, 5.902]},
			"faces": {
				"north": {"uv": [14.25, 6.375, 14.375, 6.625], "texture": "#0"},
				"east": {"uv": [14.25, 6.375, 14.375, 6.625], "texture": "#0"},
				"south": {"uv": [14.25, 6.375, 14.375, 6.625], "texture": "#0"},
				"west": {"uv": [14.25, 6.375, 14.375, 6.625], "texture": "#0"},
				"up": {"uv": [14.25, 6.375, 14.375, 6.625], "texture": "#0"},
				"down": {"uv": [14.25, 6.375, 14.375, 6.625], "texture": "#0"}
			}
		},
		{
			"from": [8.07512, 9.0778, 2.54],
			"to": [8.55902, 9.1778, 2.864],
			"rotation": {"angle": 0, "axis": "y", "origin": [8.33307, 9.11841, 4.21667]},
			"faces": {
				"north": {"uv": [14.25, 6.375, 14.375, 6.625], "rotation": 270, "texture": "#0"},
				"east": {"uv": [14.25, 6.375, 14.375, 6.625], "rotation": 270, "texture": "#0"},
				"south": {"uv": [14.25, 6.375, 14.375, 6.625], "rotation": 270, "texture": "#0"},
				"west": {"uv": [14.25, 6.375, 14.375, 6.625], "rotation": 270, "texture": "#0"},
				"up": {"uv": [14.25, 6.375, 14.375, 6.625], "rotation": 270, "texture": "#0"},
				"down": {"uv": [14.25, 6.375, 14.375, 6.625], "rotation": 270, "texture": "#0"}
			}
		},
		{
			"from": [8.5842, 9.14846, 2.54],
			"to": [8.6842, 9.79236, 2.864],
			"rotation": {"angle": 0, "axis": "y", "origin": [8.62107, 9.47041, 4.974]},
			"faces": {
				"north": {"uv": [14.25, 6.375, 14.375, 6.625], "rotation": 180, "texture": "#0"},
				"east": {"uv": [14.25, 6.375, 14.375, 6.625], "rotation": 180, "texture": "#0"},
				"south": {"uv": [14.25, 6.375, 14.375, 6.625], "rotation": 180, "texture": "#0"},
				"west": {"uv": [14.25, 6.375, 14.375, 6.625], "rotation": 180, "texture": "#0"},
				"up": {"uv": [14.25, 6.375, 14.375, 6.625], "rotation": 180, "texture": "#0"},
				"down": {"uv": [14.25, 6.375, 14.375, 6.625], "rotation": 180, "texture": "#0"}
			}
		},
		{
			"from": [7.96307, 9.14846, 5.548],
			"to": [8.06307, 9.79236, 5.872],
			"rotation": {"angle": 0, "axis": "y", "origin": [8.25966, 9.15291, 8.91]},
			"faces": {
				"north": {"uv": [14.25, 6.375, 14.375, 6.625], "texture": "#0"},
				"east": {"uv": [14.25, 6.375, 14.375, 6.625], "texture": "#0"},
				"south": {"uv": [14.25, 6.375, 14.375, 6.625], "texture": "#0"},
				"west": {"uv": [14.25, 6.375, 14.375, 6.625], "texture": "#0"},
				"up": {"uv": [14.25, 6.375, 14.375, 6.625], "texture": "#0"},
				"down": {"uv": [14.25, 6.375, 14.375, 6.625], "texture": "#0"}
			}
		},
		{
			"from": [8.07512, 9.0778, 5.548],
			"to": [8.55902, 9.1778, 5.872],
			"rotation": {"angle": 0, "axis": "y", "origin": [8.33307, 9.11841, 4.21667]},
			"faces": {
				"north": {"uv": [14.25, 6.375, 14.375, 6.625], "rotation": 270, "texture": "#0"},
				"east": {"uv": [14.25, 6.375, 14.375, 6.625], "rotation": 270, "texture": "#0"},
				"south": {"uv": [14.25, 6.375, 14.375, 6.625], "rotation": 270, "texture": "#0"},
				"west": {"uv": [14.25, 6.375, 14.375, 6.625], "rotation": 270, "texture": "#0"},
				"up": {"uv": [14.25, 6.375, 14.375, 6.625], "rotation": 270, "texture": "#0"},
				"down": {"uv": [14.25, 6.375, 14.375, 6.625], "rotation": 270, "texture": "#0"}
			}
		},
		{
			"from": [8.07512, 9.0778, 7.084],
			"to": [8.55902, 9.1778, 7.824],
			"rotation": {"angle": 0, "axis": "y", "origin": [8.33307, 9.11841, 5.75267]},
			"faces": {
				"north": {"uv": [14.25, 6.375, 14.375, 6.625], "rotation": 270, "texture": "#0"},
				"east": {"uv": [14.25, 6.375, 14.375, 6.625], "rotation": 270, "texture": "#0"},
				"south": {"uv": [14.25, 6.375, 14.375, 6.625], "rotation": 270, "texture": "#0"},
				"west": {"uv": [14.25, 6.375, 14.375, 6.625], "rotation": 270, "texture": "#0"},
				"up": {"uv": [14.25, 6.375, 14.375, 6.625], "rotation": 270, "texture": "#0"},
				"down": {"uv": [14.25, 6.375, 14.375, 6.625], "rotation": 270, "texture": "#0"}
			}
		},
		{
			"from": [8.07512, 9.0778, 0.716],
			"to": [8.55902, 9.1778, 1.04],
			"rotation": {"angle": 0, "axis": "y", "origin": [8.33307, 9.11841, -0.61533]},
			"faces": {
				"north": {"uv": [14.25, 6.375, 14.375, 6.625], "rotation": 270, "texture": "#0"},
				"east": {"uv": [14.25, 6.375, 14.375, 6.625], "rotation": 270, "texture": "#0"},
				"south": {"uv": [14.25, 6.375, 14.375, 6.625], "rotation": 270, "texture": "#0"},
				"west": {"uv": [14.25, 6.375, 14.375, 6.625], "rotation": 270, "texture": "#0"},
				"up": {"uv": [14.25, 6.375, 14.375, 6.625], "rotation": 270, "texture": "#0"},
				"down": {"uv": [14.25, 6.375, 14.375, 6.625], "rotation": 270, "texture": "#0"}
			}
		},
		{
			"from": [8.5842, 9.14846, 5.548],
			"to": [8.6842, 9.79236, 5.872],
			"rotation": {"angle": 0, "axis": "y", "origin": [8.62107, 9.47041, 4.974]},
			"faces": {
				"north": {"uv": [14.25, 6.375, 14.375, 6.625], "rotation": 180, "texture": "#0"},
				"east": {"uv": [14.25, 6.375, 14.375, 6.625], "rotation": 180, "texture": "#0"},
				"south": {"uv": [14.25, 6.375, 14.375, 6.625], "rotation": 180, "texture": "#0"},
				"west": {"uv": [14.25, 6.375, 14.375, 6.625], "rotation": 180, "texture": "#0"},
				"up": {"uv": [14.25, 6.375, 14.375, 6.625], "rotation": 180, "texture": "#0"},
				"down": {"uv": [14.25, 6.375, 14.375, 6.625], "rotation": 180, "texture": "#0"}
			}
		},
		{
			"from": [7.96307, 9.14846, 4.076],
			"to": [8.06307, 9.79236, 4.4],
			"rotation": {"angle": 0, "axis": "y", "origin": [8.25966, 9.15291, 7.438]},
			"faces": {
				"north": {"uv": [14.25, 6.375, 14.375, 6.625], "texture": "#0"},
				"east": {"uv": [14.25, 6.375, 14.375, 6.625], "texture": "#0"},
				"south": {"uv": [14.25, 6.375, 14.375, 6.625], "texture": "#0"},
				"west": {"uv": [14.25, 6.375, 14.375, 6.625], "texture": "#0"},
				"up": {"uv": [14.25, 6.375, 14.375, 6.625], "texture": "#0"},
				"down": {"uv": [14.25, 6.375, 14.375, 6.625], "texture": "#0"}
			}
		},
		{
			"from": [8.07512, 9.0778, 4.076],
			"to": [8.55902, 9.1778, 4.4],
			"rotation": {"angle": 0, "axis": "y", "origin": [8.33307, 9.11841, 4.21667]},
			"faces": {
				"north": {"uv": [14.25, 6.375, 14.375, 6.625], "rotation": 270, "texture": "#0"},
				"east": {"uv": [14.25, 6.375, 14.375, 6.625], "rotation": 270, "texture": "#0"},
				"south": {"uv": [14.25, 6.375, 14.375, 6.625], "rotation": 270, "texture": "#0"},
				"west": {"uv": [14.25, 6.375, 14.375, 6.625], "rotation": 270, "texture": "#0"},
				"up": {"uv": [14.25, 6.375, 14.375, 6.625], "rotation": 270, "texture": "#0"},
				"down": {"uv": [14.25, 6.375, 14.375, 6.625], "rotation": 270, "texture": "#0"}
			}
		},
		{
			"from": [8.5842, 9.14846, 4.076],
			"to": [8.6842, 9.79236, 4.4],
			"rotation": {"angle": 0, "axis": "y", "origin": [8.62107, 9.47041, 4.974]},
			"faces": {
				"north": {"uv": [14.25, 6.375, 14.375, 6.625], "rotation": 180, "texture": "#0"},
				"east": {"uv": [14.25, 6.375, 14.375, 6.625], "rotation": 180, "texture": "#0"},
				"south": {"uv": [14.25, 6.375, 14.375, 6.625], "rotation": 180, "texture": "#0"},
				"west": {"uv": [14.25, 6.375, 14.375, 6.625], "rotation": 180, "texture": "#0"},
				"up": {"uv": [14.25, 6.375, 14.375, 6.625], "rotation": 180, "texture": "#0"},
				"down": {"uv": [14.25, 6.375, 14.375, 6.625], "rotation": 180, "texture": "#0"}
			}
		},
		{
			"from": [7.96307, 9.14846, 7.084],
			"to": [8.06307, 9.79236, 7.824],
			"rotation": {"angle": 0, "axis": "y", "origin": [8.25966, 9.15291, 10.446]},
			"faces": {
				"north": {"uv": [14.25, 6.375, 14.375, 6.625], "texture": "#0"},
				"east": {"uv": [14.25, 6.375, 14.375, 6.625], "texture": "#0"},
				"south": {"uv": [14.25, 6.375, 14.375, 6.625], "texture": "#0"},
				"west": {"uv": [14.25, 6.375, 14.375, 6.625], "texture": "#0"},
				"up": {"uv": [14.25, 6.375, 14.375, 6.625], "texture": "#0"},
				"down": {"uv": [14.25, 6.375, 14.375, 6.625], "texture": "#0"}
			}
		},
		{
			"from": [8.5842, 9.14846, 7.084],
			"to": [8.6842, 9.79236, 7.824],
			"rotation": {"angle": 0, "axis": "y", "origin": [8.62107, 9.47041, 4.974]},
			"faces": {
				"north": {"uv": [14.25, 6.375, 14.375, 6.625], "rotation": 180, "texture": "#0"},
				"east": {"uv": [14.25, 6.375, 14.375, 6.625], "rotation": 180, "texture": "#0"},
				"south": {"uv": [14.25, 6.375, 14.375, 6.625], "rotation": 180, "texture": "#0"},
				"west": {"uv": [14.25, 6.375, 14.375, 6.625], "rotation": 180, "texture": "#0"},
				"up": {"uv": [14.25, 6.375, 14.375, 6.625], "rotation": 180, "texture": "#0"},
				"down": {"uv": [14.25, 6.375, 14.375, 6.625], "rotation": 180, "texture": "#0"}
			}
		},
		{
			"from": [8.46442, 9.42386, 0.872],
			"to": [8.56442, 9.62386, 11.78],
			"rotation": {"angle": 45, "axis": "z", "origin": [8.323, 9.52386, -3.098]},
			"faces": {
				"north": {"uv": [1.875, 2.75, 1.875, 3.625], "rotation": 180, "texture": "#0"},
				"east": {"uv": [1.875, 2.75, 1.875, 3.625], "rotation": 180, "texture": "#0"},
				"south": {"uv": [1.875, 2.75, 1.875, 3.625], "rotation": 180, "texture": "#0"},
				"west": {"uv": [1.875, 2.75, 1.875, 3.625], "rotation": 180, "texture": "#0"},
				"up": {"uv": [1.875, 2.75, 1.875, 3.625], "rotation": 180, "texture": "#0"},
				"down": {"uv": [1.875, 2.75, 1.875, 3.625], "rotation": 180, "texture": "#0"}
			}
		},
		{
			"from": [8.46442, 9.42386, 0.712],
			"to": [8.69242, 9.62386, 0.9],
			"rotation": {"angle": 45, "axis": "z", "origin": [8.323, 9.52386, -3.258]},
			"faces": {
				"north": {"uv": [14.375, 6.375, 14.375, 6.875], "rotation": 180, "texture": "#0"},
				"east": {"uv": [14.375, 6.375, 14.375, 6.875], "rotation": 180, "texture": "#0"},
				"south": {"uv": [14.375, 6.375, 14.375, 6.875], "rotation": 180, "texture": "#0"},
				"west": {"uv": [14.375, 6.375, 14.375, 6.875], "rotation": 180, "texture": "#0"},
				"up": {"uv": [14.375, 6.375, 14.375, 6.875], "rotation": 180, "texture": "#0"},
				"down": {"uv": [14.375, 6.375, 14.375, 6.875], "rotation": 180, "texture": "#0"}
			}
		},
		{
			"from": [8.08157, 9.42386, 0.872],
			"to": [8.18157, 9.62386, 11.78],
			"rotation": {"angle": 45, "axis": "z", "origin": [8.323, 9.52386, -3.098]},
			"faces": {
				"north": {"uv": [1.875, 2.75, 1.875, 3.625], "rotation": 180, "texture": "#0"},
				"east": {"uv": [1.875, 2.75, 1.875, 3.625], "rotation": 180, "texture": "#0"},
				"south": {"uv": [1.875, 2.75, 1.875, 3.625], "rotation": 180, "texture": "#0"},
				"west": {"uv": [1.875, 2.75, 1.875, 3.625], "rotation": 180, "texture": "#0"},
				"up": {"uv": [1.875, 2.75, 1.875, 3.625], "rotation": 180, "texture": "#0"},
				"down": {"uv": [1.875, 2.75, 1.875, 3.625], "rotation": 180, "texture": "#0"}
			}
		},
		{
			"from": [7.92157, 9.42386, 0.712],
			"to": [8.18157, 9.62386, 0.9],
			"rotation": {"angle": 45, "axis": "z", "origin": [8.323, 9.52386, -3.258]},
			"faces": {
				"north": {"uv": [14.375, 6.375, 14.375, 6.875], "rotation": 180, "texture": "#0"},
				"east": {"uv": [14.375, 6.375, 14.375, 6.875], "rotation": 180, "texture": "#0"},
				"south": {"uv": [14.375, 6.375, 14.375, 6.875], "rotation": 180, "texture": "#0"},
				"west": {"uv": [14.375, 6.375, 14.375, 6.875], "rotation": 180, "texture": "#0"},
				"up": {"uv": [14.375, 6.375, 14.375, 6.875], "rotation": 180, "texture": "#0"},
				"down": {"uv": [14.375, 6.375, 14.375, 6.875], "rotation": 180, "texture": "#0"}
			}
		},
		{
			"from": [8.223, 9.28244, 0.872],
			"to": [8.423, 9.38244, 11.78],
			"rotation": {"angle": 0, "axis": "y", "origin": [8.06442, 9.24102, -16.848]},
			"faces": {
				"north": {"uv": [1.875, 2.75, 1.875, 3.625], "rotation": 270, "texture": "#0"},
				"east": {"uv": [1.875, 2.75, 1.875, 3.625], "rotation": 270, "texture": "#0"},
				"south": {"uv": [1.875, 2.75, 1.875, 3.625], "rotation": 270, "texture": "#0"},
				"west": {"uv": [1.875, 2.75, 1.875, 3.625], "rotation": 270, "texture": "#0"},
				"up": {"uv": [1.875, 2.75, 1.875, 3.625], "rotation": 270, "texture": "#0"},
				"down": {"uv": [1.875, 2.75, 1.875, 3.625], "rotation": 270, "texture": "#0"}
			}
		},
		{
			"from": [8.095, 8.93044, 7.048],
			"to": [8.551, 9.25444, 7.844],
			"rotation": {"angle": 22.5, "axis": "x", "origin": [8.323, 8.98044, 7.446]},
			"faces": {
				"north": {"uv": [14.375, 6.25, 14.375, 6.625], "rotation": 270, "texture": "#0"},
				"east": {"uv": [14.375, 6.25, 14.375, 6.625], "rotation": 270, "texture": "#0"},
				"south": {"uv": [14.375, 6.25, 14.375, 6.625], "rotation": 270, "texture": "#0"},
				"west": {"uv": [14.375, 6.25, 14.375, 6.625], "rotation": 270, "texture": "#0"},
				"up": {"uv": [14.375, 6.25, 14.375, 6.625], "rotation": 270, "texture": "#0"},
				"down": {"uv": [14.375, 6.25, 14.375, 6.625], "rotation": 270, "texture": "#0"}
			}
		},
		{
			"from": [8.00171, 9.1601, 7.732],
			"to": [8.64971, 9.3881, 9.552],
			"rotation": {"angle": 0, "axis": "y", "origin": [8.29371, 9.1141, 8.13]},
			"faces": {
				"north": {"uv": [14.375, 6.25, 14.375, 6.625], "rotation": 270, "texture": "#0"},
				"east": {"uv": [14.375, 6.25, 14.375, 6.625], "rotation": 270, "texture": "#0"},
				"south": {"uv": [14.375, 6.25, 14.375, 6.625], "rotation": 270, "texture": "#0"},
				"west": {"uv": [14.375, 6.25, 14.375, 6.625], "rotation": 270, "texture": "#0"},
				"up": {"uv": [14.375, 6.25, 14.375, 6.625], "rotation": 270, "texture": "#0"},
				"down": {"uv": [14.375, 6.25, 14.375, 6.625], "rotation": 270, "texture": "#0"}
			}
		},
		{
			"from": [8.031, 9.15444, 0.712],
			"to": [8.487, 9.38244, 0.9],
			"rotation": {"angle": 0, "axis": "y", "origin": [8.06442, 9.24102, -17.008]},
			"faces": {
				"north": {"uv": [14.375, 6.375, 14.375, 6.875], "rotation": 270, "texture": "#0"},
				"east": {"uv": [14.375, 6.375, 14.375, 6.875], "rotation": 270, "texture": "#0"},
				"south": {"uv": [14.375, 6.375, 14.375, 6.875], "rotation": 270, "texture": "#0"},
				"west": {"uv": [14.375, 6.375, 14.375, 6.875], "rotation": 270, "texture": "#0"},
				"up": {"uv": [14.375, 6.375, 14.375, 6.875], "rotation": 270, "texture": "#0"},
				"down": {"uv": [14.375, 6.375, 14.375, 6.875], "rotation": 270, "texture": "#0"}
			}
		},
		{
			"from": [8.223, 9.66529, 0.872],
			"to": [8.423, 9.76529, 11.78],
			"rotation": {"angle": 0, "axis": "y", "origin": [8.06442, 9.62386, -16.848]},
			"faces": {
				"north": {"uv": [1.875, 2.75, 1.875, 3.625], "rotation": 270, "texture": "#0"},
				"east": {"uv": [1.875, 2.75, 1.875, 3.625], "rotation": 270, "texture": "#0"},
				"south": {"uv": [1.875, 2.75, 1.875, 3.625], "rotation": 270, "texture": "#0"},
				"west": {"uv": [1.875, 2.75, 1.875, 3.625], "rotation": 270, "texture": "#0"},
				"up": {"uv": [1.875, 2.75, 1.875, 3.625], "rotation": 270, "texture": "#0"},
				"down": {"uv": [1.875, 2.75, 1.875, 3.625], "rotation": 270, "texture": "#0"}
			}
		},
		{
			"from": [8.223, 9.66529, 0.712],
			"to": [8.423, 9.79729, 0.9],
			"rotation": {"angle": 0, "axis": "y", "origin": [8.06442, 9.62386, -17.008]},
			"faces": {
				"north": {"uv": [14.375, 6.375, 14.375, 6.875], "rotation": 270, "texture": "#0"},
				"east": {"uv": [14.375, 6.375, 14.375, 6.875], "rotation": 270, "texture": "#0"},
				"south": {"uv": [14.375, 6.375, 14.375, 6.875], "rotation": 270, "texture": "#0"},
				"west": {"uv": [14.375, 6.375, 14.375, 6.875], "rotation": 270, "texture": "#0"},
				"up": {"uv": [14.375, 6.375, 14.375, 6.875], "rotation": 270, "texture": "#0"},
				"down": {"uv": [14.375, 6.375, 14.375, 6.875], "rotation": 270, "texture": "#0"}
			}
		},
		{
			"from": [8.08157, 9.42386, 0.872],
			"to": [8.18157, 9.62386, 11.78],
			"rotation": {"angle": 0, "axis": "y", "origin": [8.13157, 9.52386, -4.098]},
			"faces": {
				"north": {"uv": [1.875, 2.75, 1.875, 3.625], "texture": "#0"},
				"east": {"uv": [1.875, 2.75, 1.875, 3.625], "texture": "#0"},
				"south": {"uv": [1.875, 2.75, 1.875, 3.625], "texture": "#0"},
				"west": {"uv": [1.875, 2.75, 1.875, 3.625], "texture": "#0"},
				"up": {"uv": [1.875, 2.75, 1.875, 3.625], "texture": "#0"},
				"down": {"uv": [1.875, 2.75, 1.875, 3.625], "texture": "#0"}
			}
		},
		{
			"from": [8.04957, 9.29586, 0.712],
			"to": [8.18157, 9.68786, 0.9],
			"rotation": {"angle": 0, "axis": "y", "origin": [8.13157, 9.52386, -4.258]},
			"faces": {
				"north": {"uv": [14.375, 6.375, 14.375, 6.875], "texture": "#0"},
				"east": {"uv": [14.375, 6.375, 14.375, 6.875], "texture": "#0"},
				"south": {"uv": [14.375, 6.375, 14.375, 6.875], "texture": "#0"},
				"west": {"uv": [14.375, 6.375, 14.375, 6.875], "texture": "#0"},
				"up": {"uv": [14.375, 6.375, 14.375, 6.875], "texture": "#0"},
				"down": {"uv": [14.375, 6.375, 14.375, 6.875], "texture": "#0"}
			}
		},
		{
			"from": [8.46442, 9.42386, 0.872],
			"to": [8.56442, 9.62386, 11.78],
			"rotation": {"angle": 0, "axis": "y", "origin": [8.51442, 9.52386, -4.098]},
			"faces": {
				"north": {"uv": [1.875, 2.75, 1.875, 3.625], "texture": "#0"},
				"east": {"uv": [1.875, 2.75, 1.875, 3.625], "texture": "#0"},
				"south": {"uv": [1.875, 2.75, 1.875, 3.625], "texture": "#0"},
				"west": {"uv": [1.875, 2.75, 1.875, 3.625], "texture": "#0"},
				"up": {"uv": [1.875, 2.75, 1.875, 3.625], "texture": "#0"},
				"down": {"uv": [1.875, 2.75, 1.875, 3.625], "texture": "#0"}
			}
		},
		{
			"from": [8.46442, 9.16786, 0.712],
			"to": [8.59642, 9.68786, 0.9],
			"rotation": {"angle": 0, "axis": "y", "origin": [8.51442, 9.52386, -4.258]},
			"faces": {
				"north": {"uv": [14.375, 6.375, 14.375, 6.875], "texture": "#0"},
				"east": {"uv": [14.375, 6.375, 14.375, 6.875], "texture": "#0"},
				"south": {"uv": [14.375, 6.375, 14.375, 6.875], "texture": "#0"},
				"west": {"uv": [14.375, 6.375, 14.375, 6.875], "texture": "#0"},
				"up": {"uv": [14.375, 6.375, 14.375, 6.875], "texture": "#0"},
				"down": {"uv": [14.375, 6.375, 14.375, 6.875], "texture": "#0"}
			}
		},
		{
			"from": [8.223, 9.28244, 0.872],
			"to": [8.423, 9.38244, 11.78],
			"rotation": {"angle": 45, "axis": "z", "origin": [8.323, 9.52386, -3.098]},
			"faces": {
				"north": {"uv": [1.875, 2.75, 1.875, 3.625], "rotation": 90, "texture": "#0"},
				"east": {"uv": [1.875, 2.75, 1.875, 3.625], "rotation": 90, "texture": "#0"},
				"south": {"uv": [1.875, 2.75, 1.875, 3.625], "rotation": 90, "texture": "#0"},
				"west": {"uv": [1.875, 2.75, 1.875, 3.625], "rotation": 90, "texture": "#0"},
				"up": {"uv": [1.875, 2.75, 1.875, 3.625], "rotation": 90, "texture": "#0"},
				"down": {"uv": [1.875, 2.75, 1.875, 3.625], "rotation": 90, "texture": "#0"}
			}
		},
		{
			"from": [8.223, 9.12244, 0.712],
			"to": [8.423, 9.38244, 0.9],
			"rotation": {"angle": 45, "axis": "z", "origin": [8.323, 9.52386, -3.258]},
			"faces": {
				"north": {"uv": [14.375, 6.375, 14.375, 6.875], "rotation": 90, "texture": "#0"},
				"east": {"uv": [14.375, 6.375, 14.375, 6.875], "rotation": 90, "texture": "#0"},
				"south": {"uv": [14.375, 6.375, 14.375, 6.875], "rotation": 90, "texture": "#0"},
				"west": {"uv": [14.375, 6.375, 14.375, 6.875], "rotation": 90, "texture": "#0"},
				"up": {"uv": [14.375, 6.375, 14.375, 6.875], "rotation": 90, "texture": "#0"},
				"down": {"uv": [14.375, 6.375, 14.375, 6.875], "rotation": 90, "texture": "#0"}
			}
		},
		{
			"from": [8.223, 9.66529, 0.872],
			"to": [8.423, 9.76529, 11.78],
			"rotation": {"angle": 45, "axis": "z", "origin": [8.323, 9.52386, -3.098]},
			"faces": {
				"north": {"uv": [1.875, 2.75, 1.875, 3.625], "rotation": 90, "texture": "#0"},
				"east": {"uv": [1.875, 2.75, 1.875, 3.625], "rotation": 90, "texture": "#0"},
				"south": {"uv": [1.875, 2.75, 1.875, 3.625], "rotation": 90, "texture": "#0"},
				"west": {"uv": [1.875, 2.75, 1.875, 3.625], "rotation": 90, "texture": "#0"},
				"up": {"uv": [1.875, 2.75, 1.875, 3.625], "rotation": 90, "texture": "#0"},
				"down": {"uv": [1.875, 2.75, 1.875, 3.625], "rotation": 90, "texture": "#0"}
			}
		},
		{
			"from": [8.223, 9.66529, 0.712],
			"to": [8.423, 9.89329, 0.9],
			"rotation": {"angle": 45, "axis": "z", "origin": [8.323, 9.52386, -3.258]},
			"faces": {
				"north": {"uv": [14.375, 6.375, 14.375, 6.875], "rotation": 90, "texture": "#0"},
				"east": {"uv": [14.375, 6.375, 14.375, 6.875], "rotation": 90, "texture": "#0"},
				"south": {"uv": [14.375, 6.375, 14.375, 6.875], "rotation": 90, "texture": "#0"},
				"west": {"uv": [14.375, 6.375, 14.375, 6.875], "rotation": 90, "texture": "#0"},
				"up": {"uv": [14.375, 6.375, 14.375, 6.875], "rotation": 90, "texture": "#0"},
				"down": {"uv": [14.375, 6.375, 14.375, 6.875], "rotation": 90, "texture": "#0"}
			}
		},
		{
			"from": [8.15228, 9.39458, 5.576],
			"to": [8.25228, 9.59458, 11.784],
			"rotation": {"angle": 0, "axis": "y", "origin": [8.20228, 9.49458, 11.094]},
			"faces": {
				"north": {"uv": [2.25, 2.75, 2.25, 3.625], "rotation": 90, "texture": "#0"},
				"east": {"uv": [2.25, 2.75, 2.25, 3.625], "rotation": 90, "texture": "#0"},
				"south": {"uv": [2.25, 2.75, 2.25, 3.625], "rotation": 90, "texture": "#0"},
				"west": {"uv": [2.25, 2.75, 2.25, 3.625], "rotation": 90, "texture": "#0"},
				"up": {"uv": [2.25, 2.75, 2.25, 3.625], "rotation": 90, "texture": "#0"},
				"down": {"uv": [2.25, 2.75, 2.25, 3.625], "rotation": 90, "texture": "#0"}
			}
		},
		{
			"from": [8.223, 9.56529, 5.576],
			"to": [8.423, 9.66529, 11.784],
			"rotation": {"angle": 0, "axis": "y", "origin": [8.373, 9.61529, 11.094]},
			"faces": {
				"north": {"uv": [2.25, 2.75, 2.25, 3.625], "rotation": 180, "texture": "#0"},
				"east": {"uv": [2.25, 2.75, 2.25, 3.625], "rotation": 180, "texture": "#0"},
				"south": {"uv": [2.25, 2.75, 2.25, 3.625], "rotation": 180, "texture": "#0"},
				"west": {"uv": [2.25, 2.75, 2.25, 3.625], "rotation": 180, "texture": "#0"},
				"up": {"uv": [2.25, 2.75, 2.25, 3.625], "rotation": 180, "texture": "#0"},
				"down": {"uv": [2.25, 2.75, 2.25, 3.625], "rotation": 180, "texture": "#0"}
			}
		},
		{
			"from": [8.223, 9.36529, 5.576],
			"to": [8.423, 9.56529, 11.784],
			"rotation": {"angle": 0, "axis": "y", "origin": [8.373, 9.51529, 11.094]},
			"faces": {
				"north": {"uv": [2.25, 2.75, 2.25, 3.625], "rotation": 180, "texture": "#0"},
				"east": {"uv": [2.25, 2.75, 2.25, 3.625], "rotation": 180, "texture": "#0"},
				"south": {"uv": [2.25, 2.75, 2.25, 3.625], "rotation": 180, "texture": "#0"},
				"west": {"uv": [2.25, 2.75, 2.25, 3.625], "rotation": 180, "texture": "#0"},
				"up": {"uv": [2.25, 2.75, 2.25, 3.625], "rotation": 180, "texture": "#0"},
				"down": {"uv": [2.25, 2.75, 2.25, 3.625], "rotation": 180, "texture": "#0"}
			}
		},
		{
			"from": [8.323, 9.56529, 5.576],
			"to": [8.423, 9.66529, 11.784],
			"rotation": {"angle": 45, "axis": "z", "origin": [8.323, 9.42386, -3.606]},
			"faces": {
				"north": {"uv": [2.25, 2.75, 2.25, 3.625], "rotation": 90, "texture": "#0"},
				"east": {"uv": [2.25, 2.75, 2.25, 3.625], "rotation": 90, "texture": "#0"},
				"south": {"uv": [2.25, 2.75, 2.25, 3.625], "rotation": 90, "texture": "#0"},
				"west": {"uv": [2.25, 2.75, 2.25, 3.625], "rotation": 90, "texture": "#0"},
				"up": {"uv": [2.25, 2.75, 2.25, 3.625], "rotation": 90, "texture": "#0"},
				"down": {"uv": [2.25, 2.75, 2.25, 3.625], "rotation": 90, "texture": "#0"}
			}
		},
		{
			"from": [8.39371, 9.39458, 5.576],
			"to": [8.49371, 9.59458, 11.784],
			"rotation": {"angle": 0, "axis": "y", "origin": [8.44371, 9.49458, 11.094]},
			"faces": {
				"north": {"uv": [2.25, 2.75, 2.25, 3.625], "rotation": 90, "texture": "#0"},
				"east": {"uv": [2.25, 2.75, 2.25, 3.625], "rotation": 90, "texture": "#0"},
				"south": {"uv": [2.25, 2.75, 2.25, 3.625], "rotation": 90, "texture": "#0"},
				"west": {"uv": [2.25, 2.75, 2.25, 3.625], "rotation": 90, "texture": "#0"},
				"up": {"uv": [2.25, 2.75, 2.25, 3.625], "rotation": 90, "texture": "#0"},
				"down": {"uv": [2.25, 2.75, 2.25, 3.625], "rotation": 90, "texture": "#0"}
			}
		},
		{
			"from": [8.46442, 9.42386, 5.576],
			"to": [8.56442, 9.52386, 11.784],
			"rotation": {"angle": 45, "axis": "z", "origin": [8.323, 9.42386, -3.606]},
			"faces": {
				"north": {"uv": [2.25, 2.75, 2.25, 3.625], "rotation": 180, "texture": "#0"},
				"east": {"uv": [2.25, 2.75, 2.25, 3.625], "rotation": 180, "texture": "#0"},
				"south": {"uv": [2.25, 2.75, 2.25, 3.625], "rotation": 180, "texture": "#0"},
				"west": {"uv": [2.25, 2.75, 2.25, 3.625], "rotation": 180, "texture": "#0"},
				"up": {"uv": [2.25, 2.75, 2.25, 3.625], "rotation": 180, "texture": "#0"},
				"down": {"uv": [2.25, 2.75, 2.25, 3.625], "rotation": 180, "texture": "#0"}
			}
		},
		{
			"from": [8.523, 9.36529, 5.576],
			"to": [8.623, 9.46529, 11.784],
			"rotation": {"angle": 45, "axis": "z", "origin": [8.523, 9.22386, -3.606]},
			"faces": {
				"north": {"uv": [2.25, 2.75, 2.25, 3.625], "rotation": 90, "texture": "#0"},
				"east": {"uv": [2.25, 2.75, 2.25, 3.625], "rotation": 90, "texture": "#0"},
				"south": {"uv": [2.25, 2.75, 2.25, 3.625], "rotation": 90, "texture": "#0"},
				"west": {"uv": [2.25, 2.75, 2.25, 3.625], "rotation": 90, "texture": "#0"},
				"up": {"uv": [2.25, 2.75, 2.25, 3.625], "rotation": 90, "texture": "#0"},
				"down": {"uv": [2.25, 2.75, 2.25, 3.625], "rotation": 90, "texture": "#0"}
			}
		},
		{
			"from": [8.223, 9.32386, 5.576],
			"to": [8.423, 9.42386, 11.784],
			"rotation": {"angle": 0, "axis": "y", "origin": [8.373, 9.37386, 11.094]},
			"faces": {
				"north": {"uv": [2.25, 2.75, 2.25, 3.625], "rotation": 180, "texture": "#0"},
				"east": {"uv": [2.25, 2.75, 2.25, 3.625], "rotation": 180, "texture": "#0"},
				"south": {"uv": [2.25, 2.75, 2.25, 3.625], "rotation": 180, "texture": "#0"},
				"west": {"uv": [2.25, 2.75, 2.25, 3.625], "rotation": 180, "texture": "#0"},
				"up": {"uv": [2.25, 2.75, 2.25, 3.625], "rotation": 180, "texture": "#0"},
				"down": {"uv": [2.25, 2.75, 2.25, 3.625], "rotation": 180, "texture": "#0"}
			}
		},
		{
			"from": [8.15228, 9.49458, 5.576],
			"to": [8.25228, 9.59458, 11.784],
			"rotation": {"angle": 45, "axis": "z", "origin": [8.39371, 9.49458, -3.606]},
			"faces": {
				"north": {"uv": [2.25, 2.75, 2.25, 3.625], "rotation": 180, "texture": "#0"},
				"east": {"uv": [2.25, 2.75, 2.25, 3.625], "rotation": 180, "texture": "#0"},
				"south": {"uv": [2.25, 2.75, 2.25, 3.625], "rotation": 180, "texture": "#0"},
				"west": {"uv": [2.25, 2.75, 2.25, 3.625], "rotation": 180, "texture": "#0"},
				"up": {"uv": [2.25, 2.75, 2.25, 3.625], "rotation": 180, "texture": "#0"},
				"down": {"uv": [2.25, 2.75, 2.25, 3.625], "rotation": 180, "texture": "#0"}
			}
		},
		{
			"from": [7.95757, 9.22032, 9.28412],
			"to": [8.68957, 9.32432, 9.38412],
			"rotation": {"angle": 45, "axis": "x", "origin": [7.97157, 9.27232, 9.33412]},
			"faces": {
				"north": {"uv": [5.375, 2.875, 5.375, 2.875], "rotation": 90, "texture": "#0"},
				"east": {"uv": [5.375, 2.875, 5.375, 2.875], "rotation": 90, "texture": "#0"},
				"south": {"uv": [5.375, 2.875, 5.375, 2.875], "rotation": 90, "texture": "#0"},
				"west": {"uv": [5.375, 2.875, 5.375, 2.875], "rotation": 90, "texture": "#0"},
				"up": {"uv": [5.375, 2.875, 5.375, 2.875], "rotation": 90, "texture": "#0"},
				"down": {"uv": [5.375, 2.875, 5.375, 2.875], "rotation": 90, "texture": "#0"}
			}
		},
		{
			"from": [8.02157, 9.22032, 7.94012],
			"to": [8.62557, 9.32432, 8.04012],
			"rotation": {"angle": 45, "axis": "x", "origin": [7.97157, 9.27232, 7.99012]},
			"faces": {
				"north": {"uv": [5.375, 2.875, 5.375, 2.875], "rotation": 90, "texture": "#0"},
				"east": {"uv": [5.375, 2.875, 5.375, 2.875], "rotation": 90, "texture": "#0"},
				"south": {"uv": [5.375, 2.875, 5.375, 2.875], "rotation": 90, "texture": "#0"},
				"west": {"uv": [5.375, 2.875, 5.375, 2.875], "rotation": 90, "texture": "#0"},
				"up": {"uv": [5.375, 2.875, 5.375, 2.875], "rotation": 90, "texture": "#0"},
				"down": {"uv": [5.375, 2.875, 5.375, 2.875], "rotation": 90, "texture": "#0"}
			}
		}
	],
	"display": {
		"thirdperson_righthand": {
			"translation": [-1.25, -1.25, -3.75],
			"scale": [1.7, 1.7, 1.7]
		},
		"thirdperson_lefthand": {
			"translation": [0, -1.25, -3.75],
			"scale": [1.7, 1.7, 1.7]
		},
		"firstperson_righthand": {
			"rotation": [1, 1, 0],
			"translation": [-5.25, 5, 4],
			"scale": [1.19, 1.14, 0.87]
		},
		"firstperson_lefthand": {
			"rotation": [1, 1, 0],
			"translation": [-5.25, 5, 4],
			"scale": [1.19, 1.14, 0.87]
		},
		"ground": {
			"translation": [0, 0, -2.75],
			"scale": [1.7, 1.7, 1.7]
		},
		"gui": {
			"rotation": [11, 16, -16],
			"translation": [-2, 0, 0],
			"scale": [2.2, 2.24, 2.83]
		},
		"head": {
			"rotation": [0, -139, 90],
			"translation": [0.75, 6.5, 0.5],
			"scale": [1.36, 1.36, 1.36]
		},
		"fixed": {
			"rotation": [90, 45, -90],
			"translation": [-3, 1, -1.2],
			"scale": [1.7, 1.7, 1.7]
		}
	}
}