{
    "textures": {
        "0": "gci:items/common/all_in_one",
        "2": "gci:items/common/mpz",
        "particle": "gci:items/common/all_in_one"
    },
    "elements": [
        {
            "name": "octagon",
            "from": [
                7.10827,
                1.875,
                13.1625
            ],
            "to": [
                7.89173,
                4.125,
                16.2625
            ],
            "rotation": {
                "angle": 0,
                "axis": "y",
                "origin": [
                    7.5,
                    3.4,
                    12.5
                ]
            },
            "faces": {
                "north": {
                    "uv": [
                        1.5,
                        4,
                        1.625,
                        4.125
                    ],
                    "texture": "#0"
                },
                "east": {
                    "uv": [
                        1.5,
                        4,
                        1.625,
                        4.125
                    ],
                    "texture": "#0"
                },
                "south": {
                    "uv": [
                        1.5,
                        4,
                        1.625,
                        4.125
                    ],
                    "texture": "#0"
                },
                "west": {
                    "uv": [
                        1.5,
                        4,
                        1.625,
                        4.125
                    ],
                    "texture": "#0"
                },
                "up": {
                    "uv": [
                        1.5,
                        4,
                        1.625,
                        4.125
                    ],
                    "texture": "#0"
                },
                "down": {
                    "uv": [
                        1.5,
                        4,
                        1.625,
                        4.125
                    ],
                    "texture": "#0"
                }
            }
        },
        {
            "name": "octagon",
            "from": [
                7.10827,
                2.875,
                11.2625
            ],
            "to": [
                7.89173,
                4.125,
                13.2625
            ],
            "rotation": {
                "angle": 0,
                "axis": "y",
                "origin": [
                    7.5,
                    3.4,
                    12.5
                ]
            },
            "faces": {
                "north": {
                    "uv": [
                        1.5,
                        4,
                        1.625,
                        4.125
                    ],
                    "texture": "#0"
                },
                "east": {
                    "uv": [
                        1.5,
                        4,
                        1.625,
                        4.125
                    ],
                    "texture": "#0"
                },
                "south": {
                    "uv": [
                        1.5,
                        4,
                        1.625,
                        4.125
                    ],
                    "texture": "#0"
                },
                "west": {
                    "uv": [
                        1.5,
                        4,
                        1.625,
                        4.125
                    ],
                    "texture": "#0"
                },
                "up": {
                    "uv": [
                        1.5,
                        4,
                        1.625,
                        4.125
                    ],
                    "texture": "#0"
                },
                "down": {
                    "uv": [
                        1.5,
                        4,
                        1.625,
                        4.125
                    ],
                    "texture": "#0"
                }
            }
        },
        {
            "name": "octagon",
            "from": [
                7.10827,
                1.875,
                15.8625
            ],
            "to": [
                7.89173,
                4.125,
                19.6125
            ],
            "rotation": {
                "angle": 0,
                "axis": "y",
                "origin": [
                    7.5,
                    3.4,
                    17.1
                ]
            },
            "faces": {
                "north": {
                    "uv": [
                        1.5,
                        4,
                        1.625,
                        4.125
                    ],
                    "texture": "#0"
                },
                "east": {
                    "uv": [
                        1.5,
                        4,
                        1.625,
                        4.125
                    ],
                    "texture": "#0"
                },
                "south": {
                    "uv": [
                        1.5,
                        4,
                        1.625,
                        4.125
                    ],
                    "texture": "#0"
                },
                "west": {
                    "uv": [
                        1.5,
                        4,
                        1.625,
                        4.125
                    ],
                    "texture": "#0"
                },
                "up": {
                    "uv": [
                        1.5,
                        4,
                        1.625,
                        4.125
                    ],
                    "texture": "#0"
                },
                "down": {
                    "uv": [
                        1.5,
                        4,
                        1.625,
                        4.125
                    ],
                    "texture": "#0"
                }
            }
        },
        {
            "name": "octagon",
            "from": [
                7.10827,
                1.275,
                13.2125
            ],
            "to": [
                7.89173,
                2.025,
                16.5125
            ],
            "rotation": {
                "angle": 0,
                "axis": "y",
                "origin": [
                    7.5,
                    1.3,
                    12.5
                ]
            },
            "faces": {
                "north": {
                    "uv": [
                        1.5,
                        4,
                        1.625,
                        4.125
                    ],
                    "texture": "#0"
                },
                "east": {
                    "uv": [
                        1.5,
                        4,
                        1.625,
                        4.125
                    ],
                    "texture": "#0"
                },
                "south": {
                    "uv": [
                        1.5,
                        4,
                        1.625,
                        4.125
                    ],
                    "texture": "#0"
                },
                "west": {
                    "uv": [
                        1.5,
                        4,
                        1.625,
                        4.125
                    ],
                    "texture": "#0"
                },
                "up": {
                    "uv": [
                        1.5,
                        4,
                        1.625,
                        4.125
                    ],
                    "texture": "#0"
                },
                "down": {
                    "uv": [
                        1.5,
                        4,
                        1.625,
                        4.125
                    ],
                    "texture": "#0"
                }
            }
        },
        {
            "name": "octagon",
            "from": [
                7.10827,
                1.275,
                11.9125
            ],
            "to": [
                7.89173,
                1.525,
                13.5625
            ],
            "rotation": {
                "angle": 0,
                "axis": "y",
                "origin": [
                    7.5,
                    0.8,
                    10.65
                ]
            },
            "faces": {
                "north": {
                    "uv": [
                        1.5,
                        4,
                        1.625,
                        4.125
                    ],
                    "texture": "#0"
                },
                "east": {
                    "uv": [
                        1.5,
                        4,
                        1.625,
                        4.125
                    ],
                    "texture": "#0"
                },
                "south": {
                    "uv": [
                        1.5,
                        4,
                        1.625,
                        4.125
                    ],
                    "texture": "#0"
                },
                "west": {
                    "uv": [
                        1.5,
                        4,
                        1.625,
                        4.125
                    ],
                    "texture": "#0"
                },
                "up": {
                    "uv": [
                        1.5,
                        4,
                        1.625,
                        4.125
                    ],
                    "texture": "#0"
                },
                "down": {
                    "uv": [
                        1.5,
                        4,
                        1.625,
                        4.125
                    ],
                    "texture": "#0"
                }
            }
        },
        {
            "name": "octagon",
            "from": [
                7.35827,
                2.42572,
                11.05243
            ],
            "to": [
                7.64173,
                2.67572,
                11.95243
            ],
            "rotation": {
                "angle": 22.5,
                "axis": "x",
                "origin": [
                    7.5,
                    1.95072,
                    9.03993
                ]
            },
            "faces": {
                "north": {
                    "uv": [
                        1.5,
                        4,
                        1.625,
                        4.125
                    ],
                    "texture": "#0"
                },
                "east": {
                    "uv": [
                        1.5,
                        4,
                        1.625,
                        4.125
                    ],
                    "texture": "#0"
                },
                "south": {
                    "uv": [
                        1.5,
                        4,
                        1.625,
                        4.125
                    ],
                    "texture": "#0"
                },
                "west": {
                    "uv": [
                        1.5,
                        4,
                        1.625,
                        4.125
                    ],
                    "texture": "#0"
                },
                "up": {
                    "uv": [
                        1.5,
                        4,
                        1.625,
                        4.125
                    ],
                    "texture": "#0"
                },
                "down": {
                    "uv": [
                        1.5,
                        4,
                        1.625,
                        4.125
                    ],
                    "texture": "#0"
                }
            }
        },
        {
            "name": "octagon",
            "from": [
                7.10827,
                4.11751,
                11.23574
            ],
            "to": [
                7.89173,
                4.86751,
                13.48574
            ],
            "rotation": {
                "angle": 45,
                "axis": "x",
                "origin": [
                    7.5,
                    3.39251,
                    10.72324
                ]
            },
            "faces": {
                "north": {
                    "uv": [
                        1.5,
                        4,
                        1.625,
                        4.125
                    ],
                    "texture": "#0"
                },
                "east": {
                    "uv": [
                        1.5,
                        4,
                        1.625,
                        4.125
                    ],
                    "texture": "#0"
                },
                "south": {
                    "uv": [
                        1.5,
                        4,
                        1.625,
                        4.125
                    ],
                    "texture": "#0"
                },
                "west": {
                    "uv": [
                        1.5,
                        4,
                        1.625,
                        4.125
                    ],
                    "texture": "#0"
                },
                "up": {
                    "uv": [
                        1.5,
                        4,
                        1.625,
                        4.125
                    ],
                    "texture": "#0"
                },
                "down": {
                    "uv": [
                        1.5,
                        4,
                        1.625,
                        4.125
                    ],
                    "texture": "#0"
                }
            }
        },
        {
            "name": "octagon",
            "from": [
                7.10827,
                1.35662,
                16.09086
            ],
            "to": [
                7.89173,
                3.10662,
                19.54086
            ],
            "rotation": {
                "angle": 22.5,
                "axis": "x",
                "origin": [
                    7.5,
                    0.88162,
                    16.12836
                ]
            },
            "faces": {
                "north": {
                    "uv": [
                        1.5,
                        4,
                        1.625,
                        4.125
                    ],
                    "texture": "#0"
                },
                "east": {
                    "uv": [
                        1.5,
                        4,
                        1.625,
                        4.125
                    ],
                    "texture": "#0"
                },
                "south": {
                    "uv": [
                        1.5,
                        4,
                        1.625,
                        4.125
                    ],
                    "texture": "#0"
                },
                "west": {
                    "uv": [
                        1.5,
                        4,
                        1.625,
                        4.125
                    ],
                    "texture": "#0"
                },
                "up": {
                    "uv": [
                        1.5,
                        4,
                        1.625,
                        4.125
                    ],
                    "texture": "#0"
                },
                "down": {
                    "uv": [
                        1.5,
                        4,
                        1.625,
                        4.125
                    ],
                    "texture": "#0"
                }
            }
        },
        {
            "name": "octagon",
            "from": [
                6.675,
                0.40827,
                19.2625
            ],
            "to": [
                8.325,
                3.84173,
                20.2875
            ],
            "rotation": {
                "angle": 0,
                "axis": "y",
                "origin": [
                    7.5,
                    3.5,
                    20.5
                ]
            },
            "faces": {
                "north": {
                    "uv": [
                        9.25,
                        11.75,
                        9.375,
                        11.875
                    ],
                    "texture": "#0"
                },
                "east": {
                    "uv": [
                        9.25,
                        11.75,
                        9.375,
                        11.875
                    ],
                    "texture": "#0"
                },
                "south": {
                    "uv": [
                        9.25,
                        11.75,
                        9.375,
                        11.875
                    ],
                    "texture": "#0"
                },
                "west": {
                    "uv": [
                        9.25,
                        11.75,
                        9.375,
                        11.875
                    ],
                    "texture": "#0"
                },
                "up": {
                    "uv": [
                        9.25,
                        11.75,
                        9.375,
                        11.875
                    ],
                    "texture": "#0"
                },
                "down": {
                    "uv": [
                        9.25,
                        11.75,
                        9.375,
                        11.875
                    ],
                    "texture": "#0"
                }
            }
        },
        {
            "name": "octagon",
            "from": [
                6.90827,
                -0.075,
                19.2625
            ],
            "to": [
                8.09173,
                4.325,
                20.2875
            ],
            "rotation": {
                "angle": 0,
                "axis": "y",
                "origin": [
                    7.5,
                    3.5,
                    20.5
                ]
            },
            "faces": {
                "north": {
                    "uv": [
                        9.25,
                        11.75,
                        9.375,
                        11.875
                    ],
                    "texture": "#0"
                },
                "east": {
                    "uv": [
                        9.25,
                        11.75,
                        9.375,
                        11.875
                    ],
                    "texture": "#0"
                },
                "south": {
                    "uv": [
                        9.25,
                        11.75,
                        9.375,
                        11.875
                    ],
                    "texture": "#0"
                },
                "west": {
                    "uv": [
                        9.25,
                        11.75,
                        9.375,
                        11.875
                    ],
                    "texture": "#0"
                },
                "up": {
                    "uv": [
                        9.25,
                        11.75,
                        9.375,
                        11.875
                    ],
                    "texture": "#0"
                },
                "down": {
                    "uv": [
                        9.25,
                        11.75,
                        9.375,
                        11.875
                    ],
                    "texture": "#0"
                }
            }
        }
    ],
    "display": {
        "thirdperson_righthand": {
            "translation": [
                -0.75,
                4.25,
                -0.25
            ],
            "scale": [
                0.8,
                0.8,
                0.8
            ]
        },
        "thirdperson_lefthand": {
            "translation": [
                -0.75,
                4,
                -0.25
            ],
            "scale": [
                0.8,
                0.8,
                0.8
            ]
        },
        "firstperson_righthand": {
            "translation": [
                -5.5,
                8.5,
                1.75
            ],
            "scale": [
                1,
                1,
                0.9
            ]
        },
        "firstperson_lefthand": {
            "translation": [
                -5.5,
                8.5,
                1.75
            ],
            "scale": [
                1,
                1,
                0.9
            ]
        },
        "ground": {
            "translation": [
                0,
                1.75,
                0
            ],
            "scale": [
                0.88,
                0.88,
                0.88
            ]
        },
        "gui": {
            "rotation": [
                47,
                27,
                -14
            ],
            "translation": [
                5,
                3.5,
                0
            ],
            "scale": [
                0.85,
                0.85,
                0.85
            ]
        },
        "head": {
            "rotation": [
                0,
                122,
                90
            ],
            "translation": [
                -3.25,
                7.25,
                1.75
            ]
        },
        "fixed": {
            "rotation": [
                90,
                -45,
                90
            ],
            "translation": [
                -4.25,
                3,
                -2
            ]
        }
    }
}