{
	"credit": "Made with Blockbench",
	"textures": {
		"0": "gci:items/common/mpz",
		"particle": "gci:items/common/mpz"
	},
	"elements": [
		{
			"from": [7.3624, 4.80617, 10.907],
			"to": [8.6376, 4.87757, 11.0498],
			"rotation": {"angle": 45, "axis": "x", "origin": [8, 4.97855, 10.9784]},
			"faces": {
				"north": {"uv": [5.66667, 3.33333, 7.33333, 4.91667], "texture": "#0"},
				"east": {"uv": [5.66667, 3.33333, 7.33333, 4.91667], "texture": "#0"},
				"south": {"uv": [5.66667, 3.33333, 7.33333, 4.91667], "texture": "#0"},
				"west": {"uv": [5.66667, 3.33333, 7.33333, 4.91667], "texture": "#0"},
				"up": {"uv": [5.66667, 3.33333, 7.33333, 4.91667], "texture": "#0"},
				"down": {"uv": [5.66667, 3.33333, 7.33333, 4.91667], "texture": "#0"}
			}
		},
		{
			"from": [7.3624, 4.90715, 10.80602],
			"to": [8.6376, 5.04995, 10.87742],
			"rotation": {"angle": 0, "axis": "y", "origin": [8, 4.97855, 10.9784]},
			"faces": {
				"north": {"uv": [5.66667, 3.33333, 7.33333, 4.91667], "rotation": 90, "texture": "#0"},
				"east": {"uv": [5.66667, 3.33333, 7.33333, 4.91667], "rotation": 90, "texture": "#0"},
				"south": {"uv": [5.66667, 3.33333, 7.33333, 4.91667], "rotation": 90, "texture": "#0"},
				"west": {"uv": [5.66667, 3.33333, 7.33333, 4.91667], "rotation": 90, "texture": "#0"},
				"up": {"uv": [5.66667, 3.33333, 7.33333, 4.91667], "rotation": 90, "texture": "#0"},
				"down": {"uv": [5.66667, 3.33333, 7.33333, 4.91667], "rotation": 90, "texture": "#0"}
			}
		},
		{
			"from": [7.3624, 4.90715, 10.80602],
			"to": [8.6376, 5.04995, 10.87742],
			"rotation": {"angle": 45, "axis": "x", "origin": [8, 4.97855, 10.9784]},
			"faces": {
				"north": {"uv": [5.66667, 3.33333, 7.33333, 4.91667], "rotation": 90, "texture": "#0"},
				"east": {"uv": [5.66667, 3.33333, 7.33333, 4.91667], "rotation": 90, "texture": "#0"},
				"south": {"uv": [5.66667, 3.33333, 7.33333, 4.91667], "rotation": 90, "texture": "#0"},
				"west": {"uv": [5.66667, 3.33333, 7.33333, 4.91667], "rotation": 90, "texture": "#0"},
				"up": {"uv": [5.66667, 3.33333, 7.33333, 4.91667], "rotation": 90, "texture": "#0"},
				"down": {"uv": [5.66667, 3.33333, 7.33333, 4.91667], "rotation": 90, "texture": "#0"}
			}
		},
		{
			"from": [7.3624, 4.80617, 10.907],
			"to": [8.6376, 5.10257, 11.0498],
			"rotation": {"angle": -45, "axis": "x", "origin": [8, 4.97855, 10.9784]},
			"faces": {
				"north": {"uv": [5.66667, 3.33333, 7.33333, 4.91667], "texture": "#0"},
				"east": {"uv": [5.66667, 3.33333, 7.33333, 4.91667], "texture": "#0"},
				"south": {"uv": [5.66667, 3.33333, 7.33333, 4.91667], "texture": "#0"},
				"west": {"uv": [5.66667, 3.33333, 7.33333, 4.91667], "texture": "#0"},
				"up": {"uv": [5.66667, 3.33333, 7.33333, 4.91667], "texture": "#0"},
				"down": {"uv": [5.66667, 3.33333, 7.33333, 4.91667], "texture": "#0"}
			}
		},
		{
			"from": [7.3624, 4.90715, 10.85437],
			"to": [8.6376, 5.04995, 11.15077],
			"rotation": {"angle": 0, "axis": "y", "origin": [8, 4.97855, 10.9784]},
			"faces": {
				"north": {"uv": [5.66667, 3.33333, 7.33333, 4.91667], "rotation": 270, "texture": "#0"},
				"east": {"uv": [5.66667, 3.33333, 7.33333, 4.91667], "rotation": 270, "texture": "#0"},
				"south": {"uv": [5.66667, 3.33333, 7.33333, 4.91667], "rotation": 270, "texture": "#0"},
				"west": {"uv": [5.66667, 3.33333, 7.33333, 4.91667], "rotation": 270, "texture": "#0"},
				"up": {"uv": [5.66667, 3.33333, 7.33333, 4.91667], "rotation": 270, "texture": "#0"},
				"down": {"uv": [5.66667, 3.33333, 7.33333, 4.91667], "rotation": 270, "texture": "#0"}
			}
		},
		{
			"from": [7.3624, 4.90715, 10.82937],
			"to": [8.6376, 5.04995, 11.15077],
			"rotation": {"angle": -45, "axis": "x", "origin": [8, 4.97855, 10.9784]},
			"faces": {
				"north": {"uv": [5.66667, 3.33333, 7.33333, 4.91667], "rotation": 270, "texture": "#0"},
				"east": {"uv": [5.66667, 3.33333, 7.33333, 4.91667], "rotation": 270, "texture": "#0"},
				"south": {"uv": [5.66667, 3.33333, 7.33333, 4.91667], "rotation": 270, "texture": "#0"},
				"west": {"uv": [5.66667, 3.33333, 7.33333, 4.91667], "rotation": 270, "texture": "#0"},
				"up": {"uv": [5.66667, 3.33333, 7.33333, 4.91667], "rotation": 270, "texture": "#0"},
				"down": {"uv": [5.66667, 3.33333, 7.33333, 4.91667], "rotation": 270, "texture": "#0"}
			}
		},
		{
			"from": [7.3624, 4.85452, 10.907],
			"to": [8.6376, 5.15092, 11.0498],
			"rotation": {"angle": 0, "axis": "y", "origin": [8, 4.97855, 10.9784]},
			"faces": {
				"north": {"uv": [5.66667, 3.33333, 7.33333, 4.91667], "rotation": 180, "texture": "#0"},
				"east": {"uv": [5.66667, 3.33333, 7.33333, 4.91667], "rotation": 180, "texture": "#0"},
				"south": {"uv": [5.66667, 3.33333, 7.33333, 4.91667], "rotation": 180, "texture": "#0"},
				"west": {"uv": [5.66667, 3.33333, 7.33333, 4.91667], "rotation": 180, "texture": "#0"},
				"up": {"uv": [5.66667, 3.33333, 7.33333, 4.91667], "rotation": 180, "texture": "#0"},
				"down": {"uv": [5.66667, 3.33333, 7.33333, 4.91667], "rotation": 180, "texture": "#0"}
			}
		},
		{
			"from": [7.2624, 4.72952, 10.907],
			"to": [8.7376, 5.22592, 11.0498],
			"rotation": {"angle": 0, "axis": "y", "origin": [8, 4.97855, 10.9784]},
			"faces": {
				"north": {"uv": [5.66667, 3.33333, 7.33333, 4.91667], "rotation": 180, "texture": "#0"},
				"east": {"uv": [5.66667, 3.33333, 7.33333, 4.91667], "rotation": 180, "texture": "#0"},
				"south": {"uv": [5.66667, 3.33333, 7.33333, 4.91667], "rotation": 180, "texture": "#0"},
				"west": {"uv": [5.66667, 3.33333, 7.33333, 4.91667], "rotation": 180, "texture": "#0"},
				"up": {"uv": [5.66667, 3.33333, 7.33333, 4.91667], "rotation": 180, "texture": "#0"},
				"down": {"uv": [5.66667, 3.33333, 7.33333, 4.91667], "rotation": 180, "texture": "#0"}
			}
		},
		{
			"from": [7.3624, 4.80617, 10.907],
			"to": [8.6376, 4.87757, 11.0498],
			"rotation": {"angle": 0, "axis": "y", "origin": [8, 4.97855, 10.9784]},
			"faces": {
				"north": {"uv": [5.66667, 3.33333, 7.33333, 4.91667], "texture": "#0"},
				"east": {"uv": [5.66667, 3.33333, 7.33333, 4.91667], "texture": "#0"},
				"south": {"uv": [5.66667, 3.33333, 7.33333, 4.91667], "texture": "#0"},
				"west": {"uv": [5.66667, 3.33333, 7.33333, 4.91667], "texture": "#0"},
				"up": {"uv": [5.66667, 3.33333, 7.33333, 4.91667], "texture": "#0"},
				"down": {"uv": [5.66667, 3.33333, 7.33333, 4.91667], "texture": "#0"}
			}
		},
		{
			"from": [7.3624, 4.80617, 10.907],
			"to": [8.6376, 4.87757, 11.0498],
			"rotation": {"angle": 45, "axis": "x", "origin": [8, 4.97855, 10.9784]},
			"faces": {
				"north": {"uv": [5.66667, 3.33333, 7.33333, 4.91667], "texture": "#0"},
				"east": {"uv": [5.66667, 3.33333, 7.33333, 4.91667], "texture": "#0"},
				"south": {"uv": [5.66667, 3.33333, 7.33333, 4.91667], "texture": "#0"},
				"west": {"uv": [5.66667, 3.33333, 7.33333, 4.91667], "texture": "#0"},
				"up": {"uv": [5.66667, 3.33333, 7.33333, 4.91667], "texture": "#0"},
				"down": {"uv": [5.66667, 3.33333, 7.33333, 4.91667], "texture": "#0"}
			}
		},
		{
			"from": [7.3624, 4.90715, 10.80602],
			"to": [8.6376, 5.04995, 10.87742],
			"rotation": {"angle": 0, "axis": "y", "origin": [8, 4.97855, 10.9784]},
			"faces": {
				"north": {"uv": [5.66667, 3.33333, 7.33333, 4.91667], "rotation": 90, "texture": "#0"},
				"east": {"uv": [5.66667, 3.33333, 7.33333, 4.91667], "rotation": 90, "texture": "#0"},
				"south": {"uv": [5.66667, 3.33333, 7.33333, 4.91667], "rotation": 90, "texture": "#0"},
				"west": {"uv": [5.66667, 3.33333, 7.33333, 4.91667], "rotation": 90, "texture": "#0"},
				"up": {"uv": [5.66667, 3.33333, 7.33333, 4.91667], "rotation": 90, "texture": "#0"},
				"down": {"uv": [5.66667, 3.33333, 7.33333, 4.91667], "rotation": 90, "texture": "#0"}
			}
		},
		{
			"from": [7.3624, 4.90715, 10.80602],
			"to": [8.6376, 5.04995, 10.87742],
			"rotation": {"angle": 45, "axis": "x", "origin": [8, 4.97855, 10.9784]},
			"faces": {
				"north": {"uv": [5.66667, 3.33333, 7.33333, 4.91667], "rotation": 90, "texture": "#0"},
				"east": {"uv": [5.66667, 3.33333, 7.33333, 4.91667], "rotation": 90, "texture": "#0"},
				"south": {"uv": [5.66667, 3.33333, 7.33333, 4.91667], "rotation": 90, "texture": "#0"},
				"west": {"uv": [5.66667, 3.33333, 7.33333, 4.91667], "rotation": 90, "texture": "#0"},
				"up": {"uv": [5.66667, 3.33333, 7.33333, 4.91667], "rotation": 90, "texture": "#0"},
				"down": {"uv": [5.66667, 3.33333, 7.33333, 4.91667], "rotation": 90, "texture": "#0"}
			}
		},
		{
			"from": [7.3624, 4.80617, 10.907],
			"to": [8.6376, 5.10257, 11.0498],
			"rotation": {"angle": -45, "axis": "x", "origin": [8, 4.97855, 10.9784]},
			"faces": {
				"north": {"uv": [5.66667, 3.33333, 7.33333, 4.91667], "texture": "#0"},
				"east": {"uv": [5.66667, 3.33333, 7.33333, 4.91667], "texture": "#0"},
				"south": {"uv": [5.66667, 3.33333, 7.33333, 4.91667], "texture": "#0"},
				"west": {"uv": [5.66667, 3.33333, 7.33333, 4.91667], "texture": "#0"},
				"up": {"uv": [5.66667, 3.33333, 7.33333, 4.91667], "texture": "#0"},
				"down": {"uv": [5.66667, 3.33333, 7.33333, 4.91667], "texture": "#0"}
			}
		},
		{
			"from": [7.3624, 4.90715, 10.85437],
			"to": [8.6376, 5.04995, 11.15077],
			"rotation": {"angle": 0, "axis": "y", "origin": [8, 4.97855, 10.9784]},
			"faces": {
				"north": {"uv": [5.66667, 3.33333, 7.33333, 4.91667], "rotation": 270, "texture": "#0"},
				"east": {"uv": [5.66667, 3.33333, 7.33333, 4.91667], "rotation": 270, "texture": "#0"},
				"south": {"uv": [5.66667, 3.33333, 7.33333, 4.91667], "rotation": 270, "texture": "#0"},
				"west": {"uv": [5.66667, 3.33333, 7.33333, 4.91667], "rotation": 270, "texture": "#0"},
				"up": {"uv": [5.66667, 3.33333, 7.33333, 4.91667], "rotation": 270, "texture": "#0"},
				"down": {"uv": [5.66667, 3.33333, 7.33333, 4.91667], "rotation": 270, "texture": "#0"}
			}
		},
		{
			"from": [7.3624, 4.90715, 10.82937],
			"to": [8.6376, 5.04995, 11.15077],
			"rotation": {"angle": -45, "axis": "x", "origin": [8, 4.97855, 10.9784]},
			"faces": {
				"north": {"uv": [5.66667, 3.33333, 7.33333, 4.91667], "rotation": 270, "texture": "#0"},
				"east": {"uv": [5.66667, 3.33333, 7.33333, 4.91667], "rotation": 270, "texture": "#0"},
				"south": {"uv": [5.66667, 3.33333, 7.33333, 4.91667], "rotation": 270, "texture": "#0"},
				"west": {"uv": [5.66667, 3.33333, 7.33333, 4.91667], "rotation": 270, "texture": "#0"},
				"up": {"uv": [5.66667, 3.33333, 7.33333, 4.91667], "rotation": 270, "texture": "#0"},
				"down": {"uv": [5.66667, 3.33333, 7.33333, 4.91667], "rotation": 270, "texture": "#0"}
			}
		},
		{
			"from": [7.3624, 4.85452, 10.907],
			"to": [8.6376, 5.15092, 11.0498],
			"rotation": {"angle": 0, "axis": "y", "origin": [8, 4.97855, 10.9784]},
			"faces": {
				"north": {"uv": [5.66667, 3.33333, 7.33333, 4.91667], "rotation": 180, "texture": "#0"},
				"east": {"uv": [5.66667, 3.33333, 7.33333, 4.91667], "rotation": 180, "texture": "#0"},
				"south": {"uv": [5.66667, 3.33333, 7.33333, 4.91667], "rotation": 180, "texture": "#0"},
				"west": {"uv": [5.66667, 3.33333, 7.33333, 4.91667], "rotation": 180, "texture": "#0"},
				"up": {"uv": [5.66667, 3.33333, 7.33333, 4.91667], "rotation": 180, "texture": "#0"},
				"down": {"uv": [5.66667, 3.33333, 7.33333, 4.91667], "rotation": 180, "texture": "#0"}
			}
		},
		{
			"from": [7.2624, 4.72952, 10.907],
			"to": [8.7376, 5.22592, 11.0498],
			"rotation": {"angle": 0, "axis": "y", "origin": [8, 4.97855, 10.9784]},
			"faces": {
				"north": {"uv": [5.66667, 3.33333, 7.33333, 4.91667], "rotation": 180, "texture": "#0"},
				"east": {"uv": [5.66667, 3.33333, 7.33333, 4.91667], "rotation": 180, "texture": "#0"},
				"south": {"uv": [5.66667, 3.33333, 7.33333, 4.91667], "rotation": 180, "texture": "#0"},
				"west": {"uv": [5.66667, 3.33333, 7.33333, 4.91667], "rotation": 180, "texture": "#0"},
				"up": {"uv": [5.66667, 3.33333, 7.33333, 4.91667], "rotation": 180, "texture": "#0"},
				"down": {"uv": [5.66667, 3.33333, 7.33333, 4.91667], "rotation": 180, "texture": "#0"}
			}
		},
		{
			"from": [7.4, 4.75, 15.0784],
			"to": [8.575, 5.4, 16.3284],
			"rotation": {"angle": 0, "axis": "y", "origin": [7.9875, 5.075, 16.0034]},
			"faces": {
				"north": {"uv": [5.66667, 11, 7.25, 12.58333], "texture": "#0"},
				"east": {"uv": [5.66667, 11, 7.25, 12.58333], "texture": "#0"},
				"south": {"uv": [5.66667, 11, 7.25, 12.58333], "texture": "#0"},
				"west": {"uv": [5.66667, 11, 7.25, 12.58333], "texture": "#0"},
				"up": {"uv": [5.66667, 11, 7.25, 12.58333], "texture": "#0"},
				"down": {"uv": [5.66667, 11, 7.25, 12.58333], "texture": "#0"}
			}
		},
		{
			"from": [7.4, 1.14233, 19.68035],
			"to": [8.575, 1.89233, 20.33035],
			"rotation": {"angle": 45, "axis": "x", "origin": [8, 6.76733, 20.00535]},
			"faces": {
				"north": {"uv": [5.66667, 11, 7.25, 12.58333], "texture": "#0"},
				"east": {"uv": [5.66667, 11, 7.25, 12.58333], "texture": "#0"},
				"south": {"uv": [5.66667, 11, 7.25, 12.58333], "texture": "#0"},
				"west": {"uv": [5.66667, 11, 7.25, 12.58333], "texture": "#0"},
				"up": {"uv": [5.66667, 11, 7.25, 12.58333], "texture": "#0"},
				"down": {"uv": [5.66667, 11, 7.25, 12.58333], "texture": "#0"}
			}
		},
		{
			"from": [7.4, 3.09038, 16.13802],
			"to": [8.575, 4.94038, 16.78802],
			"rotation": {"angle": 0, "axis": "y", "origin": [8, 4.61538, 16.46302]},
			"faces": {
				"north": {"uv": [5.66667, 11, 7.25, 12.58333], "texture": "#0"},
				"east": {"uv": [5.66667, 11, 7.25, 12.58333], "texture": "#0"},
				"south": {"uv": [5.66667, 11, 7.25, 12.58333], "texture": "#0"},
				"west": {"uv": [5.66667, 11, 7.25, 12.58333], "texture": "#0"},
				"up": {"uv": [5.66667, 11, 7.25, 12.58333], "texture": "#0"},
				"down": {"uv": [5.66667, 11, 7.25, 12.58333], "texture": "#0"}
			}
		},
		{
			"from": [7.3624, 4.80617, 10.907],
			"to": [8.6376, 4.87757, 11.0498],
			"rotation": {"angle": 45, "axis": "x", "origin": [8, 4.97855, 10.9784]},
			"faces": {
				"north": {"uv": [5.66667, 3.33333, 7.33333, 4.91667], "texture": "#0"},
				"east": {"uv": [5.66667, 3.33333, 7.33333, 4.91667], "texture": "#0"},
				"south": {"uv": [5.66667, 3.33333, 7.33333, 4.91667], "texture": "#0"},
				"west": {"uv": [5.66667, 3.33333, 7.33333, 4.91667], "texture": "#0"},
				"up": {"uv": [5.66667, 3.33333, 7.33333, 4.91667], "texture": "#0"},
				"down": {"uv": [5.66667, 3.33333, 7.33333, 4.91667], "texture": "#0"}
			}
		},
		{
			"from": [7.3624, 4.90715, 10.80602],
			"to": [8.6376, 5.04995, 10.87742],
			"rotation": {"angle": 0, "axis": "y", "origin": [8, 4.97855, 10.9784]},
			"faces": {
				"north": {"uv": [5.66667, 3.33333, 7.33333, 4.91667], "rotation": 90, "texture": "#0"},
				"east": {"uv": [5.66667, 3.33333, 7.33333, 4.91667], "rotation": 90, "texture": "#0"},
				"south": {"uv": [5.66667, 3.33333, 7.33333, 4.91667], "rotation": 90, "texture": "#0"},
				"west": {"uv": [5.66667, 3.33333, 7.33333, 4.91667], "rotation": 90, "texture": "#0"},
				"up": {"uv": [5.66667, 3.33333, 7.33333, 4.91667], "rotation": 90, "texture": "#0"},
				"down": {"uv": [5.66667, 3.33333, 7.33333, 4.91667], "rotation": 90, "texture": "#0"}
			}
		},
		{
			"from": [7.3624, 4.90715, 10.80602],
			"to": [8.6376, 5.04995, 10.87742],
			"rotation": {"angle": 45, "axis": "x", "origin": [8, 4.97855, 10.9784]},
			"faces": {
				"north": {"uv": [5.66667, 3.33333, 7.33333, 4.91667], "rotation": 90, "texture": "#0"},
				"east": {"uv": [5.66667, 3.33333, 7.33333, 4.91667], "rotation": 90, "texture": "#0"},
				"south": {"uv": [5.66667, 3.33333, 7.33333, 4.91667], "rotation": 90, "texture": "#0"},
				"west": {"uv": [5.66667, 3.33333, 7.33333, 4.91667], "rotation": 90, "texture": "#0"},
				"up": {"uv": [5.66667, 3.33333, 7.33333, 4.91667], "rotation": 90, "texture": "#0"},
				"down": {"uv": [5.66667, 3.33333, 7.33333, 4.91667], "rotation": 90, "texture": "#0"}
			}
		},
		{
			"from": [7.3624, 4.80617, 10.907],
			"to": [8.6376, 5.10257, 11.0498],
			"rotation": {"angle": -45, "axis": "x", "origin": [8, 4.97855, 10.9784]},
			"faces": {
				"north": {"uv": [5.66667, 3.33333, 7.33333, 4.91667], "texture": "#0"},
				"east": {"uv": [5.66667, 3.33333, 7.33333, 4.91667], "texture": "#0"},
				"south": {"uv": [5.66667, 3.33333, 7.33333, 4.91667], "texture": "#0"},
				"west": {"uv": [5.66667, 3.33333, 7.33333, 4.91667], "texture": "#0"},
				"up": {"uv": [5.66667, 3.33333, 7.33333, 4.91667], "texture": "#0"},
				"down": {"uv": [5.66667, 3.33333, 7.33333, 4.91667], "texture": "#0"}
			}
		},
		{
			"from": [7.3624, 4.90715, 10.85437],
			"to": [8.6376, 5.04995, 11.15077],
			"rotation": {"angle": 0, "axis": "y", "origin": [8, 4.97855, 10.9784]},
			"faces": {
				"north": {"uv": [5.66667, 3.33333, 7.33333, 4.91667], "rotation": 270, "texture": "#0"},
				"east": {"uv": [5.66667, 3.33333, 7.33333, 4.91667], "rotation": 270, "texture": "#0"},
				"south": {"uv": [5.66667, 3.33333, 7.33333, 4.91667], "rotation": 270, "texture": "#0"},
				"west": {"uv": [5.66667, 3.33333, 7.33333, 4.91667], "rotation": 270, "texture": "#0"},
				"up": {"uv": [5.66667, 3.33333, 7.33333, 4.91667], "rotation": 270, "texture": "#0"},
				"down": {"uv": [5.66667, 3.33333, 7.33333, 4.91667], "rotation": 270, "texture": "#0"}
			}
		},
		{
			"from": [7.3624, 4.90715, 10.82937],
			"to": [8.6376, 5.04995, 11.15077],
			"rotation": {"angle": -45, "axis": "x", "origin": [8, 4.97855, 10.9784]},
			"faces": {
				"north": {"uv": [5.66667, 3.33333, 7.33333, 4.91667], "rotation": 270, "texture": "#0"},
				"east": {"uv": [5.66667, 3.33333, 7.33333, 4.91667], "rotation": 270, "texture": "#0"},
				"south": {"uv": [5.66667, 3.33333, 7.33333, 4.91667], "rotation": 270, "texture": "#0"},
				"west": {"uv": [5.66667, 3.33333, 7.33333, 4.91667], "rotation": 270, "texture": "#0"},
				"up": {"uv": [5.66667, 3.33333, 7.33333, 4.91667], "rotation": 270, "texture": "#0"},
				"down": {"uv": [5.66667, 3.33333, 7.33333, 4.91667], "rotation": 270, "texture": "#0"}
			}
		},
		{
			"from": [7.3624, 4.85452, 10.907],
			"to": [8.6376, 5.15092, 11.0498],
			"rotation": {"angle": 0, "axis": "y", "origin": [8, 4.97855, 10.9784]},
			"faces": {
				"north": {"uv": [5.66667, 3.33333, 7.33333, 4.91667], "rotation": 180, "texture": "#0"},
				"east": {"uv": [5.66667, 3.33333, 7.33333, 4.91667], "rotation": 180, "texture": "#0"},
				"south": {"uv": [5.66667, 3.33333, 7.33333, 4.91667], "rotation": 180, "texture": "#0"},
				"west": {"uv": [5.66667, 3.33333, 7.33333, 4.91667], "rotation": 180, "texture": "#0"},
				"up": {"uv": [5.66667, 3.33333, 7.33333, 4.91667], "rotation": 180, "texture": "#0"},
				"down": {"uv": [5.66667, 3.33333, 7.33333, 4.91667], "rotation": 180, "texture": "#0"}
			}
		},
		{
			"from": [7.2624, 4.72952, 10.907],
			"to": [8.7376, 5.22592, 11.0498],
			"rotation": {"angle": 0, "axis": "y", "origin": [8, 4.97855, 10.9784]},
			"faces": {
				"north": {"uv": [5.66667, 3.33333, 7.33333, 4.91667], "rotation": 180, "texture": "#0"},
				"east": {"uv": [5.66667, 3.33333, 7.33333, 4.91667], "rotation": 180, "texture": "#0"},
				"south": {"uv": [5.66667, 3.33333, 7.33333, 4.91667], "rotation": 180, "texture": "#0"},
				"west": {"uv": [5.66667, 3.33333, 7.33333, 4.91667], "rotation": 180, "texture": "#0"},
				"up": {"uv": [5.66667, 3.33333, 7.33333, 4.91667], "rotation": 180, "texture": "#0"},
				"down": {"uv": [5.66667, 3.33333, 7.33333, 4.91667], "rotation": 180, "texture": "#0"}
			}
		},
		{
			"from": [7.4, 4.61538, 16.0034],
			"to": [8.575, 5.26538, 16.6534],
			"rotation": {"angle": 45, "axis": "x", "origin": [8, 4.94038, 16.3284]},
			"faces": {
				"north": {"uv": [5.66667, 11, 7.25, 12.58333], "texture": "#0"},
				"east": {"uv": [5.66667, 11, 7.25, 12.58333], "texture": "#0"},
				"south": {"uv": [5.66667, 11, 7.25, 12.58333], "texture": "#0"},
				"west": {"uv": [5.66667, 11, 7.25, 12.58333], "texture": "#0"},
				"up": {"uv": [5.66667, 11, 7.25, 12.58333], "texture": "#0"},
				"down": {"uv": [5.66667, 11, 7.25, 12.58333], "texture": "#0"}
			}
		},
		{
			"from": [7.4, 4.75, 15.0784],
			"to": [8.575, 5.4, 16.3284],
			"rotation": {"angle": 0, "axis": "y", "origin": [7.9875, 5.075, 16.0034]},
			"faces": {
				"north": {"uv": [5.66667, 11, 7.25, 12.58333], "texture": "#0"},
				"east": {"uv": [5.66667, 11, 7.25, 12.58333], "texture": "#0"},
				"south": {"uv": [5.66667, 11, 7.25, 12.58333], "texture": "#0"},
				"west": {"uv": [5.66667, 11, 7.25, 12.58333], "texture": "#0"},
				"up": {"uv": [5.66667, 11, 7.25, 12.58333], "texture": "#0"},
				"down": {"uv": [5.66667, 11, 7.25, 12.58333], "texture": "#0"}
			}
		},
		{
			"from": [7.4, 1.14233, 19.68035],
			"to": [8.575, 1.89233, 20.33035],
			"rotation": {"angle": 45, "axis": "x", "origin": [8, 6.76733, 20.00535]},
			"faces": {
				"north": {"uv": [5.66667, 11, 7.25, 12.58333], "texture": "#0"},
				"east": {"uv": [5.66667, 11, 7.25, 12.58333], "texture": "#0"},
				"south": {"uv": [5.66667, 11, 7.25, 12.58333], "texture": "#0"},
				"west": {"uv": [5.66667, 11, 7.25, 12.58333], "texture": "#0"},
				"up": {"uv": [5.66667, 11, 7.25, 12.58333], "texture": "#0"},
				"down": {"uv": [5.66667, 11, 7.25, 12.58333], "texture": "#0"}
			}
		},
		{
			"from": [7.4, 3.09038, 16.13802],
			"to": [8.575, 4.94038, 16.78802],
			"rotation": {"angle": 0, "axis": "y", "origin": [8, 4.61538, 16.46302]},
			"faces": {
				"north": {"uv": [5.66667, 11, 7.25, 12.58333], "texture": "#0"},
				"east": {"uv": [5.66667, 11, 7.25, 12.58333], "texture": "#0"},
				"south": {"uv": [5.66667, 11, 7.25, 12.58333], "texture": "#0"},
				"west": {"uv": [5.66667, 11, 7.25, 12.58333], "texture": "#0"},
				"up": {"uv": [5.66667, 11, 7.25, 12.58333], "texture": "#0"},
				"down": {"uv": [5.66667, 11, 7.25, 12.58333], "texture": "#0"}
			}
		},
		{
			"from": [7.575, 4.65, 10.8784],
			"to": [8.425, 5.3, 16.2284],
			"rotation": {"angle": 0, "axis": "y", "origin": [8.875, 4.55, 6.8534]},
			"faces": {
				"north": {"uv": [0.33333, 3.33333, 1.83333, 4.83333], "texture": "#0"},
				"east": {"uv": [0.33333, 3.33333, 1.83333, 4.83333], "texture": "#0"},
				"south": {"uv": [0.33333, 3.33333, 1.83333, 4.83333], "texture": "#0"},
				"west": {"uv": [0.33333, 3.33333, 1.83333, 4.83333], "texture": "#0"},
				"up": {"uv": [0.33333, 3.33333, 1.83333, 4.83333], "texture": "#0"},
				"down": {"uv": [0.33333, 3.33333, 1.83333, 4.83333], "texture": "#0"}
			}
		},
		{
			"from": [7.575, 4.51538, 15.9034],
			"to": [8.425, 5.16538, 16.5534],
			"rotation": {"angle": 45, "axis": "x", "origin": [8.875, 4.84038, 16.2284]},
			"faces": {
				"north": {"uv": [0.33333, 3.33333, 1.83333, 4.83333], "texture": "#0"},
				"east": {"uv": [0.33333, 3.33333, 1.83333, 4.83333], "texture": "#0"},
				"south": {"uv": [0.33333, 3.33333, 1.83333, 4.83333], "texture": "#0"},
				"west": {"uv": [0.33333, 3.33333, 1.83333, 4.83333], "texture": "#0"},
				"up": {"uv": [0.33333, 3.33333, 1.83333, 4.83333], "texture": "#0"},
				"down": {"uv": [0.33333, 3.33333, 1.83333, 4.83333], "texture": "#0"}
			}
		},
		{
			"from": [7.575, 2.19172, 15.42975],
			"to": [8.425, 2.84172, 18.17975],
			"rotation": {"angle": 45, "axis": "x", "origin": [8.875, 4.81672, 17.85475]},
			"faces": {
				"north": {"uv": [0.33333, 3.33333, 1.83333, 4.83333], "texture": "#0"},
				"east": {"uv": [0.33333, 3.33333, 1.83333, 4.83333], "texture": "#0"},
				"south": {"uv": [0.33333, 3.33333, 1.83333, 4.83333], "texture": "#0"},
				"west": {"uv": [0.33333, 3.33333, 1.83333, 4.83333], "texture": "#0"},
				"up": {"uv": [0.33333, 3.33333, 1.83333, 4.83333], "texture": "#0"},
				"down": {"uv": [0.33333, 3.33333, 1.83333, 4.83333], "texture": "#0"}
			}
		},
		{
			"from": [7.575, 3.19038, 16.03802],
			"to": [8.425, 4.84038, 16.68802],
			"rotation": {"angle": 0, "axis": "y", "origin": [8.875, 4.51538, 16.36302]},
			"faces": {
				"north": {"uv": [0.33333, 3.33333, 1.83333, 4.83333], "texture": "#0"},
				"east": {"uv": [0.33333, 3.33333, 1.83333, 4.83333], "texture": "#0"},
				"south": {"uv": [0.33333, 3.33333, 1.83333, 4.83333], "texture": "#0"},
				"west": {"uv": [0.33333, 3.33333, 1.83333, 4.83333], "texture": "#0"},
				"up": {"uv": [0.33333, 3.33333, 1.83333, 4.83333], "texture": "#0"},
				"down": {"uv": [0.33333, 3.33333, 1.83333, 4.83333], "texture": "#0"}
			}
		},
		{
			"from": [7.3624, 4.80617, 10.907],
			"to": [8.6376, 4.87757, 11.0498],
			"rotation": {"angle": 0, "axis": "y", "origin": [8, 4.97855, 10.9784]},
			"faces": {
				"north": {"uv": [5.66667, 3.33333, 7.33333, 4.91667], "texture": "#0"},
				"east": {"uv": [5.66667, 3.33333, 7.33333, 4.91667], "texture": "#0"},
				"south": {"uv": [5.66667, 3.33333, 7.33333, 4.91667], "texture": "#0"},
				"west": {"uv": [5.66667, 3.33333, 7.33333, 4.91667], "texture": "#0"},
				"up": {"uv": [5.66667, 3.33333, 7.33333, 4.91667], "texture": "#0"},
				"down": {"uv": [5.66667, 3.33333, 7.33333, 4.91667], "texture": "#0"}
			}
		},
		{
			"from": [7.3624, 4.80617, 10.907],
			"to": [8.6376, 4.87757, 11.0498],
			"rotation": {"angle": 45, "axis": "x", "origin": [8, 4.97855, 10.9784]},
			"faces": {
				"north": {"uv": [5.66667, 3.33333, 7.33333, 4.91667], "texture": "#0"},
				"east": {"uv": [5.66667, 3.33333, 7.33333, 4.91667], "texture": "#0"},
				"south": {"uv": [5.66667, 3.33333, 7.33333, 4.91667], "texture": "#0"},
				"west": {"uv": [5.66667, 3.33333, 7.33333, 4.91667], "texture": "#0"},
				"up": {"uv": [5.66667, 3.33333, 7.33333, 4.91667], "texture": "#0"},
				"down": {"uv": [5.66667, 3.33333, 7.33333, 4.91667], "texture": "#0"}
			}
		},
		{
			"from": [7.3624, 4.90715, 10.80602],
			"to": [8.6376, 5.04995, 10.87742],
			"rotation": {"angle": 0, "axis": "y", "origin": [8, 4.97855, 10.9784]},
			"faces": {
				"north": {"uv": [5.66667, 3.33333, 7.33333, 4.91667], "rotation": 90, "texture": "#0"},
				"east": {"uv": [5.66667, 3.33333, 7.33333, 4.91667], "rotation": 90, "texture": "#0"},
				"south": {"uv": [5.66667, 3.33333, 7.33333, 4.91667], "rotation": 90, "texture": "#0"},
				"west": {"uv": [5.66667, 3.33333, 7.33333, 4.91667], "rotation": 90, "texture": "#0"},
				"up": {"uv": [5.66667, 3.33333, 7.33333, 4.91667], "rotation": 90, "texture": "#0"},
				"down": {"uv": [5.66667, 3.33333, 7.33333, 4.91667], "rotation": 90, "texture": "#0"}
			}
		},
		{
			"from": [7.3624, 4.90715, 10.80602],
			"to": [8.6376, 5.04995, 10.87742],
			"rotation": {"angle": 45, "axis": "x", "origin": [8, 4.97855, 10.9784]},
			"faces": {
				"north": {"uv": [5.66667, 3.33333, 7.33333, 4.91667], "rotation": 90, "texture": "#0"},
				"east": {"uv": [5.66667, 3.33333, 7.33333, 4.91667], "rotation": 90, "texture": "#0"},
				"south": {"uv": [5.66667, 3.33333, 7.33333, 4.91667], "rotation": 90, "texture": "#0"},
				"west": {"uv": [5.66667, 3.33333, 7.33333, 4.91667], "rotation": 90, "texture": "#0"},
				"up": {"uv": [5.66667, 3.33333, 7.33333, 4.91667], "rotation": 90, "texture": "#0"},
				"down": {"uv": [5.66667, 3.33333, 7.33333, 4.91667], "rotation": 90, "texture": "#0"}
			}
		},
		{
			"from": [7.3624, 4.80617, 10.907],
			"to": [8.6376, 5.10257, 11.0498],
			"rotation": {"angle": -45, "axis": "x", "origin": [8, 4.97855, 10.9784]},
			"faces": {
				"north": {"uv": [5.66667, 3.33333, 7.33333, 4.91667], "texture": "#0"},
				"east": {"uv": [5.66667, 3.33333, 7.33333, 4.91667], "texture": "#0"},
				"south": {"uv": [5.66667, 3.33333, 7.33333, 4.91667], "texture": "#0"},
				"west": {"uv": [5.66667, 3.33333, 7.33333, 4.91667], "texture": "#0"},
				"up": {"uv": [5.66667, 3.33333, 7.33333, 4.91667], "texture": "#0"},
				"down": {"uv": [5.66667, 3.33333, 7.33333, 4.91667], "texture": "#0"}
			}
		},
		{
			"from": [7.3624, 4.90715, 10.85437],
			"to": [8.6376, 5.04995, 11.15077],
			"rotation": {"angle": 0, "axis": "y", "origin": [8, 4.97855, 10.9784]},
			"faces": {
				"north": {"uv": [5.66667, 3.33333, 7.33333, 4.91667], "rotation": 270, "texture": "#0"},
				"east": {"uv": [5.66667, 3.33333, 7.33333, 4.91667], "rotation": 270, "texture": "#0"},
				"south": {"uv": [5.66667, 3.33333, 7.33333, 4.91667], "rotation": 270, "texture": "#0"},
				"west": {"uv": [5.66667, 3.33333, 7.33333, 4.91667], "rotation": 270, "texture": "#0"},
				"up": {"uv": [5.66667, 3.33333, 7.33333, 4.91667], "rotation": 270, "texture": "#0"},
				"down": {"uv": [5.66667, 3.33333, 7.33333, 4.91667], "rotation": 270, "texture": "#0"}
			}
		},
		{
			"from": [7.3624, 4.90715, 10.82937],
			"to": [8.6376, 5.04995, 11.15077],
			"rotation": {"angle": -45, "axis": "x", "origin": [8, 4.97855, 10.9784]},
			"faces": {
				"north": {"uv": [5.66667, 3.33333, 7.33333, 4.91667], "rotation": 270, "texture": "#0"},
				"east": {"uv": [5.66667, 3.33333, 7.33333, 4.91667], "rotation": 270, "texture": "#0"},
				"south": {"uv": [5.66667, 3.33333, 7.33333, 4.91667], "rotation": 270, "texture": "#0"},
				"west": {"uv": [5.66667, 3.33333, 7.33333, 4.91667], "rotation": 270, "texture": "#0"},
				"up": {"uv": [5.66667, 3.33333, 7.33333, 4.91667], "rotation": 270, "texture": "#0"},
				"down": {"uv": [5.66667, 3.33333, 7.33333, 4.91667], "rotation": 270, "texture": "#0"}
			}
		},
		{
			"from": [7.3624, 4.85452, 10.907],
			"to": [8.6376, 5.15092, 11.0498],
			"rotation": {"angle": 0, "axis": "y", "origin": [8, 4.97855, 10.9784]},
			"faces": {
				"north": {"uv": [5.66667, 3.33333, 7.33333, 4.91667], "rotation": 180, "texture": "#0"},
				"east": {"uv": [5.66667, 3.33333, 7.33333, 4.91667], "rotation": 180, "texture": "#0"},
				"south": {"uv": [5.66667, 3.33333, 7.33333, 4.91667], "rotation": 180, "texture": "#0"},
				"west": {"uv": [5.66667, 3.33333, 7.33333, 4.91667], "rotation": 180, "texture": "#0"},
				"up": {"uv": [5.66667, 3.33333, 7.33333, 4.91667], "rotation": 180, "texture": "#0"},
				"down": {"uv": [5.66667, 3.33333, 7.33333, 4.91667], "rotation": 180, "texture": "#0"}
			}
		},
		{
			"from": [7.2624, 4.72952, 10.907],
			"to": [8.7376, 5.22592, 11.0498],
			"rotation": {"angle": 0, "axis": "y", "origin": [8, 4.97855, 10.9784]},
			"faces": {
				"north": {"uv": [5.66667, 3.33333, 7.33333, 4.91667], "rotation": 180, "texture": "#0"},
				"east": {"uv": [5.66667, 3.33333, 7.33333, 4.91667], "rotation": 180, "texture": "#0"},
				"south": {"uv": [5.66667, 3.33333, 7.33333, 4.91667], "rotation": 180, "texture": "#0"},
				"west": {"uv": [5.66667, 3.33333, 7.33333, 4.91667], "rotation": 180, "texture": "#0"},
				"up": {"uv": [5.66667, 3.33333, 7.33333, 4.91667], "rotation": 180, "texture": "#0"},
				"down": {"uv": [5.66667, 3.33333, 7.33333, 4.91667], "rotation": 180, "texture": "#0"}
			}
		},
		{
			"from": [7.4, 4.61538, 16.0034],
			"to": [8.575, 5.26538, 16.6534],
			"rotation": {"angle": 45, "axis": "x", "origin": [8, 4.94038, 16.3284]},
			"faces": {
				"north": {"uv": [5.66667, 11, 7.25, 12.58333], "texture": "#0"},
				"east": {"uv": [5.66667, 11, 7.25, 12.58333], "texture": "#0"},
				"south": {"uv": [5.66667, 11, 7.25, 12.58333], "texture": "#0"},
				"west": {"uv": [5.66667, 11, 7.25, 12.58333], "texture": "#0"},
				"up": {"uv": [5.66667, 11, 7.25, 12.58333], "texture": "#0"},
				"down": {"uv": [5.66667, 11, 7.25, 12.58333], "texture": "#0"}
			}
		},
		{
			"from": [7.4, 4.75, 15.0784],
			"to": [8.575, 5.4, 16.3284],
			"rotation": {"angle": 0, "axis": "y", "origin": [7.9875, 5.075, 16.0034]},
			"faces": {
				"north": {"uv": [5.66667, 11, 7.25, 12.58333], "texture": "#0"},
				"east": {"uv": [5.66667, 11, 7.25, 12.58333], "texture": "#0"},
				"south": {"uv": [5.66667, 11, 7.25, 12.58333], "texture": "#0"},
				"west": {"uv": [5.66667, 11, 7.25, 12.58333], "texture": "#0"},
				"up": {"uv": [5.66667, 11, 7.25, 12.58333], "texture": "#0"},
				"down": {"uv": [5.66667, 11, 7.25, 12.58333], "texture": "#0"}
			}
		},
		{
			"from": [7.4, 1.14233, 19.68035],
			"to": [8.575, 1.89233, 20.33035],
			"rotation": {"angle": 45, "axis": "x", "origin": [8, 6.76733, 20.00535]},
			"faces": {
				"north": {"uv": [5.66667, 11, 7.25, 12.58333], "texture": "#0"},
				"east": {"uv": [5.66667, 11, 7.25, 12.58333], "texture": "#0"},
				"south": {"uv": [5.66667, 11, 7.25, 12.58333], "texture": "#0"},
				"west": {"uv": [5.66667, 11, 7.25, 12.58333], "texture": "#0"},
				"up": {"uv": [5.66667, 11, 7.25, 12.58333], "texture": "#0"},
				"down": {"uv": [5.66667, 11, 7.25, 12.58333], "texture": "#0"}
			}
		},
		{
			"from": [7.4, 3.09038, 16.13802],
			"to": [8.575, 4.94038, 16.78802],
			"rotation": {"angle": 0, "axis": "y", "origin": [8, 4.61538, 16.46302]},
			"faces": {
				"north": {"uv": [5.66667, 11, 7.25, 12.58333], "texture": "#0"},
				"east": {"uv": [5.66667, 11, 7.25, 12.58333], "texture": "#0"},
				"south": {"uv": [5.66667, 11, 7.25, 12.58333], "texture": "#0"},
				"west": {"uv": [5.66667, 11, 7.25, 12.58333], "texture": "#0"},
				"up": {"uv": [5.66667, 11, 7.25, 12.58333], "texture": "#0"},
				"down": {"uv": [5.66667, 11, 7.25, 12.58333], "texture": "#0"}
			}
		},
		{
			"from": [7.575, 4.65, 10.8784],
			"to": [8.425, 5.3, 16.2284],
			"rotation": {"angle": 0, "axis": "y", "origin": [8.875, 4.55, 6.8534]},
			"faces": {
				"north": {"uv": [0.33333, 3.33333, 1.83333, 4.83333], "texture": "#0"},
				"east": {"uv": [0.33333, 3.33333, 1.83333, 4.83333], "texture": "#0"},
				"south": {"uv": [0.33333, 3.33333, 1.83333, 4.83333], "texture": "#0"},
				"west": {"uv": [0.33333, 3.33333, 1.83333, 4.83333], "texture": "#0"},
				"up": {"uv": [0.33333, 3.33333, 1.83333, 4.83333], "texture": "#0"},
				"down": {"uv": [0.33333, 3.33333, 1.83333, 4.83333], "texture": "#0"}
			}
		},
		{
			"from": [7.575, 4.51538, 15.9034],
			"to": [8.425, 5.16538, 16.5534],
			"rotation": {"angle": 45, "axis": "x", "origin": [8.875, 4.84038, 16.2284]},
			"faces": {
				"north": {"uv": [0.33333, 3.33333, 1.83333, 4.83333], "texture": "#0"},
				"east": {"uv": [0.33333, 3.33333, 1.83333, 4.83333], "texture": "#0"},
				"south": {"uv": [0.33333, 3.33333, 1.83333, 4.83333], "texture": "#0"},
				"west": {"uv": [0.33333, 3.33333, 1.83333, 4.83333], "texture": "#0"},
				"up": {"uv": [0.33333, 3.33333, 1.83333, 4.83333], "texture": "#0"},
				"down": {"uv": [0.33333, 3.33333, 1.83333, 4.83333], "texture": "#0"}
			}
		},
		{
			"from": [7.575, 2.19172, 15.42975],
			"to": [8.425, 2.84172, 18.17975],
			"rotation": {"angle": 45, "axis": "x", "origin": [8.875, 4.81672, 17.85475]},
			"faces": {
				"north": {"uv": [0.33333, 3.33333, 1.83333, 4.83333], "texture": "#0"},
				"east": {"uv": [0.33333, 3.33333, 1.83333, 4.83333], "texture": "#0"},
				"south": {"uv": [0.33333, 3.33333, 1.83333, 4.83333], "texture": "#0"},
				"west": {"uv": [0.33333, 3.33333, 1.83333, 4.83333], "texture": "#0"},
				"up": {"uv": [0.33333, 3.33333, 1.83333, 4.83333], "texture": "#0"},
				"down": {"uv": [0.33333, 3.33333, 1.83333, 4.83333], "texture": "#0"}
			}
		},
		{
			"from": [7.575, 3.19038, 16.03802],
			"to": [8.425, 4.84038, 16.68802],
			"rotation": {"angle": 0, "axis": "y", "origin": [8.875, 4.51538, 16.36302]},
			"faces": {
				"north": {"uv": [0.33333, 3.33333, 1.83333, 4.83333], "texture": "#0"},
				"east": {"uv": [0.33333, 3.33333, 1.83333, 4.83333], "texture": "#0"},
				"south": {"uv": [0.33333, 3.33333, 1.83333, 4.83333], "texture": "#0"},
				"west": {"uv": [0.33333, 3.33333, 1.83333, 4.83333], "texture": "#0"},
				"up": {"uv": [0.33333, 3.33333, 1.83333, 4.83333], "texture": "#0"},
				"down": {"uv": [0.33333, 3.33333, 1.83333, 4.83333], "texture": "#0"}
			}
		}
	],
	"display": {
		"thirdperson_righthand": {
			"translation": [0, 3.5, 1.25]
		},
		"thirdperson_lefthand": {
			"translation": [0, 3.5, 1.25]
		},
		"firstperson_righthand": {
			"translation": [-4.75, 7.5, 3.75]
		},
		"firstperson_lefthand": {
			"translation": [-6, 7.5, 3]
		},
		"ground": {
			"translation": [0, 3.25, 4]
		},
		"gui": {
			"rotation": [90, 51, -90],
			"translation": [3.25, 1.25, 0],
			"scale": [0.9, 0.9, 0.9]
		},
		"head": {
			"translation": [0, 13.5, 0]
		},
		"fixed": {
			"rotation": [90, 45, -90],
			"translation": [3.5, 0.75, -1]
		}
	}
}