{
    "textures": {
        "0": "gci:items/common/mpz",
        "particle": "gci:items/common/mpz"
    },
    "elements": [
        {
            "name": "hexadecagon",
            "from": [
                6.6,
                12.51719,
                7.6
            ],
            "to": [
                7.3975,
                13.58281,
                8.3975
            ],
            "rotation": {
                "angle": 0,
                "axis": "y",
                "origin": [
                    7,
                    7.55469,
                    8.1
                ]
            },
            "faces": {
                "north": {
                    "uv": [
                        0.33333,
                        11.33333,
                        1.33333,
                        12.33333
                    ],
                    "texture": "#0"
                },
                "east": {
                    "uv": [
                        0.33333,
                        11.33333,
                        1.33333,
                        12.33333
                    ],
                    "texture": "#0"
                },
                "south": {
                    "uv": [
                        0.33333,
                        11.33333,
                        1.33333,
                        12.33333
                    ],
                    "texture": "#0"
                },
                "west": {
                    "uv": [
                        0.33333,
                        11.33333,
                        1.33333,
                        12.33333
                    ],
                    "texture": "#0"
                },
                "up": {
                    "uv": [
                        0.33333,
                        11.33333,
                        1.33333,
                        12.33333
                    ],
                    "texture": "#0"
                },
                "down": {
                    "uv": [
                        0.33333,
                        11.33333,
                        1.33333,
                        12.33333
                    ],
                    "texture": "#0"
                }
            }
        },
        {
            "name": "hexadecagon",
            "from": [
                6.6,
                13.39917,
                7.47429
            ],
            "to": [
                7.3975,
                14.2148,
                8.27179
            ],
            "rotation": {
                "angle": -22.5,
                "axis": "x",
                "origin": [
                    6.99875,
                    13.80699,
                    7.87304
                ]
            },
            "faces": {
                "north": {
                    "uv": [
                        0.33333,
                        11.33333,
                        1.33333,
                        12.33333
                    ],
                    "texture": "#0"
                },
                "east": {
                    "uv": [
                        0.33333,
                        11.33333,
                        1.33333,
                        12.33333
                    ],
                    "texture": "#0"
                },
                "south": {
                    "uv": [
                        0.33333,
                        11.33333,
                        1.33333,
                        12.33333
                    ],
                    "texture": "#0"
                },
                "west": {
                    "uv": [
                        0.33333,
                        11.33333,
                        1.33333,
                        12.33333
                    ],
                    "texture": "#0"
                },
                "up": {
                    "uv": [
                        0.33333,
                        11.33333,
                        1.33333,
                        12.33333
                    ],
                    "texture": "#0"
                },
                "down": {
                    "uv": [
                        0.33333,
                        11.33333,
                        1.33333,
                        12.33333
                    ],
                    "texture": "#0"
                }
            }
        },
        {
            "name": "hexadecagon",
            "from": [
                6.6,
                13.72527,
                7.1482
            ],
            "to": [
                7.3975,
                14.52277,
                7.96382
            ],
            "rotation": {
                "angle": 22.5,
                "axis": "x",
                "origin": [
                    6.99875,
                    14.12402,
                    7.55601
                ]
            },
            "faces": {
                "north": {
                    "uv": [
                        0.33333,
                        11.33333,
                        1.33333,
                        12.33333
                    ],
                    "rotation": 180,
                    "texture": "#0"
                },
                "east": {
                    "uv": [
                        0.33333,
                        11.33333,
                        1.33333,
                        12.33333
                    ],
                    "rotation": 90,
                    "texture": "#0"
                },
                "south": {
                    "uv": [
                        0.33333,
                        11.33333,
                        1.33333,
                        12.33333
                    ],
                    "texture": "#0"
                },
                "west": {
                    "uv": [
                        0.33333,
                        11.33333,
                        1.33333,
                        12.33333
                    ],
                    "rotation": 270,
                    "texture": "#0"
                },
                "up": {
                    "uv": [
                        0.33333,
                        11.33333,
                        1.33333,
                        12.33333
                    ],
                    "texture": "#0"
                },
                "down": {
                    "uv": [
                        0.33333,
                        11.33333,
                        1.33333,
                        12.33333
                    ],
                    "rotation": 180,
                    "texture": "#0"
                }
            }
        },
        {
            "name": "hexadecagon",
            "from": [
                6.6,
                13.85098,
                6.51621
            ],
            "to": [
                7.3975,
                14.64848,
                7.33183
            ],
            "rotation": {
                "angle": 0,
                "axis": "y",
                "origin": [
                    6.99875,
                    14.24973,
                    6.92402
                ]
            },
            "faces": {
                "north": {
                    "uv": [
                        0.33333,
                        11.33333,
                        1.33333,
                        12.33333
                    ],
                    "rotation": 180,
                    "texture": "#0"
                },
                "east": {
                    "uv": [
                        0.33333,
                        11.33333,
                        1.33333,
                        12.33333
                    ],
                    "rotation": 90,
                    "texture": "#0"
                },
                "south": {
                    "uv": [
                        0.33333,
                        11.33333,
                        1.33333,
                        12.33333
                    ],
                    "texture": "#0"
                },
                "west": {
                    "uv": [
                        0.33333,
                        11.33333,
                        1.33333,
                        12.33333
                    ],
                    "rotation": 270,
                    "texture": "#0"
                },
                "up": {
                    "uv": [
                        0.33333,
                        11.33333,
                        1.33333,
                        12.33333
                    ],
                    "texture": "#0"
                },
                "down": {
                    "uv": [
                        0.33333,
                        11.33333,
                        1.33333,
                        12.33333
                    ],
                    "rotation": 180,
                    "texture": "#0"
                }
            }
        },
        {
            "name": "hexadecagon",
            "from": [
                6.6,
                13.72527,
                5.88422
            ],
            "to": [
                7.3975,
                14.52277,
                6.69985
            ],
            "rotation": {
                "angle": -22.5,
                "axis": "x",
                "origin": [
                    6.99875,
                    14.12402,
                    6.29203
                ]
            },
            "faces": {
                "north": {
                    "uv": [
                        0.33333,
                        11.33333,
                        1.33333,
                        12.33333
                    ],
                    "rotation": 180,
                    "texture": "#0"
                },
                "east": {
                    "uv": [
                        0.33333,
                        11.33333,
                        1.33333,
                        12.33333
                    ],
                    "rotation": 90,
                    "texture": "#0"
                },
                "south": {
                    "uv": [
                        0.33333,
                        11.33333,
                        1.33333,
                        12.33333
                    ],
                    "texture": "#0"
                },
                "west": {
                    "uv": [
                        0.33333,
                        11.33333,
                        1.33333,
                        12.33333
                    ],
                    "rotation": 270,
                    "texture": "#0"
                },
                "up": {
                    "uv": [
                        0.33333,
                        11.33333,
                        1.33333,
                        12.33333
                    ],
                    "texture": "#0"
                },
                "down": {
                    "uv": [
                        0.33333,
                        11.33333,
                        1.33333,
                        12.33333
                    ],
                    "rotation": 180,
                    "texture": "#0"
                }
            }
        },
        {
            "name": "hexadecagon",
            "from": [
                6.6,
                13.27073,
                5.76267
            ],
            "to": [
                7.3975,
                14.33635,
                6.56017
            ],
            "rotation": {
                "angle": 0,
                "axis": "y",
                "origin": [
                    6.99875,
                    13.92854,
                    6.16142
                ]
            },
            "faces": {
                "north": {
                    "uv": [
                        0.33333,
                        11.33333,
                        1.33333,
                        12.33333
                    ],
                    "rotation": 180,
                    "texture": "#0"
                },
                "east": {
                    "uv": [
                        0.33333,
                        11.33333,
                        1.33333,
                        12.33333
                    ],
                    "rotation": 180,
                    "texture": "#0"
                },
                "south": {
                    "uv": [
                        0.33333,
                        11.33333,
                        1.33333,
                        12.33333
                    ],
                    "rotation": 180,
                    "texture": "#0"
                },
                "west": {
                    "uv": [
                        0.33333,
                        11.33333,
                        1.33333,
                        12.33333
                    ],
                    "rotation": 180,
                    "texture": "#0"
                },
                "up": {
                    "uv": [
                        0.33333,
                        11.33333,
                        1.33333,
                        12.33333
                    ],
                    "texture": "#0"
                },
                "down": {
                    "uv": [
                        0.33333,
                        11.33333,
                        1.33333,
                        12.33333
                    ],
                    "texture": "#0"
                }
            }
        },
        {
            "name": "hexadecagon",
            "from": [
                6.6,
                12.51719,
                7.6
            ],
            "to": [
                7.3975,
                13.58281,
                8.3975
            ],
            "rotation": {
                "angle": 0,
                "axis": "y",
                "origin": [
                    7,
                    7.55469,
                    8.1
                ]
            },
            "faces": {
                "north": {
                    "uv": [
                        0.33333,
                        11.33333,
                        1.33333,
                        12.33333
                    ],
                    "texture": "#0"
                },
                "east": {
                    "uv": [
                        0.33333,
                        11.33333,
                        1.33333,
                        12.33333
                    ],
                    "texture": "#0"
                },
                "south": {
                    "uv": [
                        0.33333,
                        11.33333,
                        1.33333,
                        12.33333
                    ],
                    "texture": "#0"
                },
                "west": {
                    "uv": [
                        0.33333,
                        11.33333,
                        1.33333,
                        12.33333
                    ],
                    "texture": "#0"
                },
                "up": {
                    "uv": [
                        0.33333,
                        11.33333,
                        1.33333,
                        12.33333
                    ],
                    "texture": "#0"
                },
                "down": {
                    "uv": [
                        0.33333,
                        11.33333,
                        1.33333,
                        12.33333
                    ],
                    "texture": "#0"
                }
            }
        },
        {
            "name": "hexadecagon",
            "from": [
                6.6,
                13.39917,
                7.47429
            ],
            "to": [
                7.3975,
                14.2148,
                8.27179
            ],
            "rotation": {
                "angle": -22.5,
                "axis": "x",
                "origin": [
                    6.99875,
                    13.80699,
                    7.87304
                ]
            },
            "faces": {
                "north": {
                    "uv": [
                        0.33333,
                        11.33333,
                        1.33333,
                        12.33333
                    ],
                    "texture": "#0"
                },
                "east": {
                    "uv": [
                        0.33333,
                        11.33333,
                        1.33333,
                        12.33333
                    ],
                    "texture": "#0"
                },
                "south": {
                    "uv": [
                        0.33333,
                        11.33333,
                        1.33333,
                        12.33333
                    ],
                    "texture": "#0"
                },
                "west": {
                    "uv": [
                        0.33333,
                        11.33333,
                        1.33333,
                        12.33333
                    ],
                    "texture": "#0"
                },
                "up": {
                    "uv": [
                        0.33333,
                        11.33333,
                        1.33333,
                        12.33333
                    ],
                    "texture": "#0"
                },
                "down": {
                    "uv": [
                        0.33333,
                        11.33333,
                        1.33333,
                        12.33333
                    ],
                    "texture": "#0"
                }
            }
        },
        {
            "name": "hexadecagon",
            "from": [
                6.6,
                13.72527,
                7.1482
            ],
            "to": [
                7.3975,
                14.52277,
                7.96382
            ],
            "rotation": {
                "angle": 22.5,
                "axis": "x",
                "origin": [
                    6.99875,
                    14.12402,
                    7.55601
                ]
            },
            "faces": {
                "north": {
                    "uv": [
                        0.33333,
                        11.33333,
                        1.33333,
                        12.33333
                    ],
                    "rotation": 180,
                    "texture": "#0"
                },
                "east": {
                    "uv": [
                        0.33333,
                        11.33333,
                        1.33333,
                        12.33333
                    ],
                    "rotation": 90,
                    "texture": "#0"
                },
                "south": {
                    "uv": [
                        0.33333,
                        11.33333,
                        1.33333,
                        12.33333
                    ],
                    "texture": "#0"
                },
                "west": {
                    "uv": [
                        0.33333,
                        11.33333,
                        1.33333,
                        12.33333
                    ],
                    "rotation": 270,
                    "texture": "#0"
                },
                "up": {
                    "uv": [
                        0.33333,
                        11.33333,
                        1.33333,
                        12.33333
                    ],
                    "texture": "#0"
                },
                "down": {
                    "uv": [
                        0.33333,
                        11.33333,
                        1.33333,
                        12.33333
                    ],
                    "rotation": 180,
                    "texture": "#0"
                }
            }
        },
        {
            "name": "hexadecagon",
            "from": [
                6.6,
                13.85098,
                6.51621
            ],
            "to": [
                7.3975,
                14.64848,
                7.33183
            ],
            "rotation": {
                "angle": 0,
                "axis": "y",
                "origin": [
                    6.99875,
                    14.24973,
                    6.92402
                ]
            },
            "faces": {
                "north": {
                    "uv": [
                        0.33333,
                        11.33333,
                        1.33333,
                        12.33333
                    ],
                    "rotation": 180,
                    "texture": "#0"
                },
                "east": {
                    "uv": [
                        0.33333,
                        11.33333,
                        1.33333,
                        12.33333
                    ],
                    "rotation": 90,
                    "texture": "#0"
                },
                "south": {
                    "uv": [
                        0.33333,
                        11.33333,
                        1.33333,
                        12.33333
                    ],
                    "texture": "#0"
                },
                "west": {
                    "uv": [
                        0.33333,
                        11.33333,
                        1.33333,
                        12.33333
                    ],
                    "rotation": 270,
                    "texture": "#0"
                },
                "up": {
                    "uv": [
                        0.33333,
                        11.33333,
                        1.33333,
                        12.33333
                    ],
                    "texture": "#0"
                },
                "down": {
                    "uv": [
                        0.33333,
                        11.33333,
                        1.33333,
                        12.33333
                    ],
                    "rotation": 180,
                    "texture": "#0"
                }
            }
        },
        {
            "name": "hexadecagon",
            "from": [
                6.6,
                13.72527,
                5.88422
            ],
            "to": [
                7.3975,
                14.52277,
                6.69985
            ],
            "rotation": {
                "angle": -22.5,
                "axis": "x",
                "origin": [
                    6.99875,
                    14.12402,
                    6.29203
                ]
            },
            "faces": {
                "north": {
                    "uv": [
                        0.33333,
                        11.33333,
                        1.33333,
                        12.33333
                    ],
                    "rotation": 180,
                    "texture": "#0"
                },
                "east": {
                    "uv": [
                        0.33333,
                        11.33333,
                        1.33333,
                        12.33333
                    ],
                    "rotation": 90,
                    "texture": "#0"
                },
                "south": {
                    "uv": [
                        0.33333,
                        11.33333,
                        1.33333,
                        12.33333
                    ],
                    "texture": "#0"
                },
                "west": {
                    "uv": [
                        0.33333,
                        11.33333,
                        1.33333,
                        12.33333
                    ],
                    "rotation": 270,
                    "texture": "#0"
                },
                "up": {
                    "uv": [
                        0.33333,
                        11.33333,
                        1.33333,
                        12.33333
                    ],
                    "texture": "#0"
                },
                "down": {
                    "uv": [
                        0.33333,
                        11.33333,
                        1.33333,
                        12.33333
                    ],
                    "rotation": 180,
                    "texture": "#0"
                }
            }
        },
        {
            "name": "hexadecagon",
            "from": [
                6.6,
                13.27073,
                5.76267
            ],
            "to": [
                7.3975,
                14.33635,
                6.56017
            ],
            "rotation": {
                "angle": 0,
                "axis": "y",
                "origin": [
                    6.99875,
                    13.92854,
                    6.16142
                ]
            },
            "faces": {
                "north": {
                    "uv": [
                        0.33333,
                        11.33333,
                        1.33333,
                        12.33333
                    ],
                    "rotation": 180,
                    "texture": "#0"
                },
                "east": {
                    "uv": [
                        0.33333,
                        11.33333,
                        1.33333,
                        12.33333
                    ],
                    "rotation": 180,
                    "texture": "#0"
                },
                "south": {
                    "uv": [
                        0.33333,
                        11.33333,
                        1.33333,
                        12.33333
                    ],
                    "rotation": 180,
                    "texture": "#0"
                },
                "west": {
                    "uv": [
                        0.33333,
                        11.33333,
                        1.33333,
                        12.33333
                    ],
                    "rotation": 180,
                    "texture": "#0"
                },
                "up": {
                    "uv": [
                        0.33333,
                        11.33333,
                        1.33333,
                        12.33333
                    ],
                    "texture": "#0"
                },
                "down": {
                    "uv": [
                        0.33333,
                        11.33333,
                        1.33333,
                        12.33333
                    ],
                    "texture": "#0"
                }
            }
        },
        {
            "name": "hexadecagon",
            "from": [
                6.91944,
                11.67375,
                7.595
            ],
            "to": [
                7.08056,
                12.57625,
                8.405
            ],
            "rotation": {
                "angle": -22.5,
                "axis": "y",
                "origin": [
                    7,
                    6.85875,
                    8
                ]
            },
            "faces": {
                "north": {
                    "uv": [
                        0.33333,
                        11.33333,
                        1.33333,
                        12.33333
                    ],
                    "texture": "#0"
                },
                "east": {
                    "uv": [
                        0.33333,
                        11.33333,
                        1.33333,
                        12.33333
                    ],
                    "texture": "#0"
                },
                "south": {
                    "uv": [
                        0.33333,
                        11.33333,
                        1.33333,
                        12.33333
                    ],
                    "texture": "#0"
                },
                "west": {
                    "uv": [
                        0.33333,
                        11.33333,
                        1.33333,
                        12.33333
                    ],
                    "texture": "#0"
                },
                "up": {
                    "uv": [
                        0.33333,
                        11.33333,
                        1.33333,
                        12.33333
                    ],
                    "texture": "#0"
                },
                "down": {
                    "uv": [
                        0.33333,
                        11.33333,
                        1.33333,
                        12.33333
                    ],
                    "texture": "#0"
                }
            }
        },
        {
            "name": "hexadecagon",
            "from": [
                6.91944,
                11.67375,
                7.595
            ],
            "to": [
                7.08056,
                12.57625,
                8.405
            ],
            "rotation": {
                "angle": 0,
                "axis": "y",
                "origin": [
                    7,
                    6.85875,
                    8
                ]
            },
            "faces": {
                "north": {
                    "uv": [
                        0.33333,
                        11.33333,
                        1.33333,
                        12.33333
                    ],
                    "texture": "#0"
                },
                "east": {
                    "uv": [
                        0.33333,
                        11.33333,
                        1.33333,
                        12.33333
                    ],
                    "texture": "#0"
                },
                "south": {
                    "uv": [
                        0.33333,
                        11.33333,
                        1.33333,
                        12.33333
                    ],
                    "texture": "#0"
                },
                "west": {
                    "uv": [
                        0.33333,
                        11.33333,
                        1.33333,
                        12.33333
                    ],
                    "texture": "#0"
                },
                "up": {
                    "uv": [
                        0.33333,
                        11.33333,
                        1.33333,
                        12.33333
                    ],
                    "texture": "#0"
                },
                "down": {
                    "uv": [
                        0.33333,
                        11.33333,
                        1.33333,
                        12.33333
                    ],
                    "texture": "#0"
                }
            }
        },
        {
            "name": "hexadecagon",
            "from": [
                6.91944,
                11.67375,
                7.595
            ],
            "to": [
                7.08056,
                12.57625,
                8.405
            ],
            "rotation": {
                "angle": 22.5,
                "axis": "y",
                "origin": [
                    7,
                    6.85875,
                    8
                ]
            },
            "faces": {
                "north": {
                    "uv": [
                        0.33333,
                        11.33333,
                        1.33333,
                        12.33333
                    ],
                    "texture": "#0"
                },
                "east": {
                    "uv": [
                        0.33333,
                        11.33333,
                        1.33333,
                        12.33333
                    ],
                    "texture": "#0"
                },
                "south": {
                    "uv": [
                        0.33333,
                        11.33333,
                        1.33333,
                        12.33333
                    ],
                    "texture": "#0"
                },
                "west": {
                    "uv": [
                        0.33333,
                        11.33333,
                        1.33333,
                        12.33333
                    ],
                    "texture": "#0"
                },
                "up": {
                    "uv": [
                        0.33333,
                        11.33333,
                        1.33333,
                        12.33333
                    ],
                    "texture": "#0"
                },
                "down": {
                    "uv": [
                        0.33333,
                        11.33333,
                        1.33333,
                        12.33333
                    ],
                    "texture": "#0"
                }
            }
        },
        {
            "name": "hexadecagon",
            "from": [
                6.91944,
                11.67375,
                7.595
            ],
            "to": [
                7.08056,
                12.57625,
                8.405
            ],
            "rotation": {
                "angle": 45,
                "axis": "y",
                "origin": [
                    7,
                    6.85875,
                    8
                ]
            },
            "faces": {
                "north": {
                    "uv": [
                        0.33333,
                        11.33333,
                        1.33333,
                        12.33333
                    ],
                    "texture": "#0"
                },
                "east": {
                    "uv": [
                        0.33333,
                        11.33333,
                        1.33333,
                        12.33333
                    ],
                    "texture": "#0"
                },
                "south": {
                    "uv": [
                        0.33333,
                        11.33333,
                        1.33333,
                        12.33333
                    ],
                    "texture": "#0"
                },
                "west": {
                    "uv": [
                        0.33333,
                        11.33333,
                        1.33333,
                        12.33333
                    ],
                    "texture": "#0"
                },
                "up": {
                    "uv": [
                        0.33333,
                        11.33333,
                        1.33333,
                        12.33333
                    ],
                    "texture": "#0"
                },
                "down": {
                    "uv": [
                        0.33333,
                        11.33333,
                        1.33333,
                        12.33333
                    ],
                    "texture": "#0"
                }
            }
        },
        {
            "name": "hexadecagon",
            "from": [
                6.595,
                11.67375,
                7.91944
            ],
            "to": [
                7.405,
                12.57625,
                8.08056
            ],
            "rotation": {
                "angle": -22.5,
                "axis": "y",
                "origin": [
                    7,
                    6.85875,
                    8
                ]
            },
            "faces": {
                "north": {
                    "uv": [
                        0.33333,
                        11.33333,
                        1.33333,
                        12.33333
                    ],
                    "texture": "#0"
                },
                "east": {
                    "uv": [
                        0.33333,
                        11.33333,
                        1.33333,
                        12.33333
                    ],
                    "texture": "#0"
                },
                "south": {
                    "uv": [
                        0.33333,
                        11.33333,
                        1.33333,
                        12.33333
                    ],
                    "texture": "#0"
                },
                "west": {
                    "uv": [
                        0.33333,
                        11.33333,
                        1.33333,
                        12.33333
                    ],
                    "texture": "#0"
                },
                "up": {
                    "uv": [
                        0.33333,
                        11.33333,
                        1.33333,
                        12.33333
                    ],
                    "texture": "#0"
                },
                "down": {
                    "uv": [
                        0.33333,
                        11.33333,
                        1.33333,
                        12.33333
                    ],
                    "texture": "#0"
                }
            }
        },
        {
            "name": "hexadecagon",
            "from": [
                6.595,
                11.67375,
                7.91944
            ],
            "to": [
                7.405,
                12.57625,
                8.08056
            ],
            "rotation": {
                "angle": 0,
                "axis": "y",
                "origin": [
                    7,
                    6.85875,
                    8
                ]
            },
            "faces": {
                "north": {
                    "uv": [
                        0.33333,
                        11.33333,
                        1.33333,
                        12.33333
                    ],
                    "texture": "#0"
                },
                "east": {
                    "uv": [
                        0.33333,
                        11.33333,
                        1.33333,
                        12.33333
                    ],
                    "texture": "#0"
                },
                "south": {
                    "uv": [
                        0.33333,
                        11.33333,
                        1.33333,
                        12.33333
                    ],
                    "texture": "#0"
                },
                "west": {
                    "uv": [
                        0.33333,
                        11.33333,
                        1.33333,
                        12.33333
                    ],
                    "texture": "#0"
                },
                "up": {
                    "uv": [
                        0.33333,
                        11.33333,
                        1.33333,
                        12.33333
                    ],
                    "texture": "#0"
                },
                "down": {
                    "uv": [
                        0.33333,
                        11.33333,
                        1.33333,
                        12.33333
                    ],
                    "texture": "#0"
                }
            }
        },
        {
            "name": "hexadecagon",
            "from": [
                6.595,
                11.67375,
                7.91944
            ],
            "to": [
                7.405,
                12.57625,
                8.08056
            ],
            "rotation": {
                "angle": 22.5,
                "axis": "y",
                "origin": [
                    7,
                    6.85875,
                    8
                ]
            },
            "faces": {
                "north": {
                    "uv": [
                        0.33333,
                        11.33333,
                        1.33333,
                        12.33333
                    ],
                    "texture": "#0"
                },
                "east": {
                    "uv": [
                        0.33333,
                        11.33333,
                        1.33333,
                        12.33333
                    ],
                    "texture": "#0"
                },
                "south": {
                    "uv": [
                        0.33333,
                        11.33333,
                        1.33333,
                        12.33333
                    ],
                    "texture": "#0"
                },
                "west": {
                    "uv": [
                        0.33333,
                        11.33333,
                        1.33333,
                        12.33333
                    ],
                    "texture": "#0"
                },
                "up": {
                    "uv": [
                        0.33333,
                        11.33333,
                        1.33333,
                        12.33333
                    ],
                    "texture": "#0"
                },
                "down": {
                    "uv": [
                        0.33333,
                        11.33333,
                        1.33333,
                        12.33333
                    ],
                    "texture": "#0"
                }
            }
        },
        {
            "name": "hexadecagon",
            "from": [
                6.6,
                12.51719,
                7.6
            ],
            "to": [
                7.3975,
                13.58281,
                8.3975
            ],
            "rotation": {
                "angle": 0,
                "axis": "y",
                "origin": [
                    7,
                    7.55469,
                    8.1
                ]
            },
            "faces": {
                "north": {
                    "uv": [
                        0.33333,
                        11.33333,
                        1.33333,
                        12.33333
                    ],
                    "texture": "#0"
                },
                "east": {
                    "uv": [
                        0.33333,
                        11.33333,
                        1.33333,
                        12.33333
                    ],
                    "texture": "#0"
                },
                "south": {
                    "uv": [
                        0.33333,
                        11.33333,
                        1.33333,
                        12.33333
                    ],
                    "texture": "#0"
                },
                "west": {
                    "uv": [
                        0.33333,
                        11.33333,
                        1.33333,
                        12.33333
                    ],
                    "texture": "#0"
                },
                "up": {
                    "uv": [
                        0.33333,
                        11.33333,
                        1.33333,
                        12.33333
                    ],
                    "texture": "#0"
                },
                "down": {
                    "uv": [
                        0.33333,
                        11.33333,
                        1.33333,
                        12.33333
                    ],
                    "texture": "#0"
                }
            }
        },
        {
            "name": "hexadecagon",
            "from": [
                6.6,
                13.39917,
                7.47429
            ],
            "to": [
                7.3975,
                14.2148,
                8.27179
            ],
            "rotation": {
                "angle": -22.5,
                "axis": "x",
                "origin": [
                    6.99875,
                    13.80699,
                    7.87304
                ]
            },
            "faces": {
                "north": {
                    "uv": [
                        0.33333,
                        11.33333,
                        1.33333,
                        12.33333
                    ],
                    "texture": "#0"
                },
                "east": {
                    "uv": [
                        0.33333,
                        11.33333,
                        1.33333,
                        12.33333
                    ],
                    "texture": "#0"
                },
                "south": {
                    "uv": [
                        0.33333,
                        11.33333,
                        1.33333,
                        12.33333
                    ],
                    "texture": "#0"
                },
                "west": {
                    "uv": [
                        0.33333,
                        11.33333,
                        1.33333,
                        12.33333
                    ],
                    "texture": "#0"
                },
                "up": {
                    "uv": [
                        0.33333,
                        11.33333,
                        1.33333,
                        12.33333
                    ],
                    "texture": "#0"
                },
                "down": {
                    "uv": [
                        0.33333,
                        11.33333,
                        1.33333,
                        12.33333
                    ],
                    "texture": "#0"
                }
            }
        },
        {
            "name": "hexadecagon",
            "from": [
                6.6,
                13.72527,
                7.1482
            ],
            "to": [
                7.3975,
                14.52277,
                7.96382
            ],
            "rotation": {
                "angle": 22.5,
                "axis": "x",
                "origin": [
                    6.99875,
                    14.12402,
                    7.55601
                ]
            },
            "faces": {
                "north": {
                    "uv": [
                        0.33333,
                        11.33333,
                        1.33333,
                        12.33333
                    ],
                    "rotation": 180,
                    "texture": "#0"
                },
                "east": {
                    "uv": [
                        0.33333,
                        11.33333,
                        1.33333,
                        12.33333
                    ],
                    "rotation": 90,
                    "texture": "#0"
                },
                "south": {
                    "uv": [
                        0.33333,
                        11.33333,
                        1.33333,
                        12.33333
                    ],
                    "texture": "#0"
                },
                "west": {
                    "uv": [
                        0.33333,
                        11.33333,
                        1.33333,
                        12.33333
                    ],
                    "rotation": 270,
                    "texture": "#0"
                },
                "up": {
                    "uv": [
                        0.33333,
                        11.33333,
                        1.33333,
                        12.33333
                    ],
                    "texture": "#0"
                },
                "down": {
                    "uv": [
                        0.33333,
                        11.33333,
                        1.33333,
                        12.33333
                    ],
                    "rotation": 180,
                    "texture": "#0"
                }
            }
        },
        {
            "name": "hexadecagon",
            "from": [
                6.6,
                13.85098,
                6.51621
            ],
            "to": [
                7.3975,
                14.64848,
                7.33183
            ],
            "rotation": {
                "angle": 0,
                "axis": "y",
                "origin": [
                    6.99875,
                    14.24973,
                    6.92402
                ]
            },
            "faces": {
                "north": {
                    "uv": [
                        0.33333,
                        11.33333,
                        1.33333,
                        12.33333
                    ],
                    "rotation": 180,
                    "texture": "#0"
                },
                "east": {
                    "uv": [
                        0.33333,
                        11.33333,
                        1.33333,
                        12.33333
                    ],
                    "rotation": 90,
                    "texture": "#0"
                },
                "south": {
                    "uv": [
                        0.33333,
                        11.33333,
                        1.33333,
                        12.33333
                    ],
                    "texture": "#0"
                },
                "west": {
                    "uv": [
                        0.33333,
                        11.33333,
                        1.33333,
                        12.33333
                    ],
                    "rotation": 270,
                    "texture": "#0"
                },
                "up": {
                    "uv": [
                        0.33333,
                        11.33333,
                        1.33333,
                        12.33333
                    ],
                    "texture": "#0"
                },
                "down": {
                    "uv": [
                        0.33333,
                        11.33333,
                        1.33333,
                        12.33333
                    ],
                    "rotation": 180,
                    "texture": "#0"
                }
            }
        },
        {
            "name": "hexadecagon",
            "from": [
                6.6,
                13.72527,
                5.88422
            ],
            "to": [
                7.3975,
                14.52277,
                6.69985
            ],
            "rotation": {
                "angle": -22.5,
                "axis": "x",
                "origin": [
                    6.99875,
                    14.12402,
                    6.29203
                ]
            },
            "faces": {
                "north": {
                    "uv": [
                        0.33333,
                        11.33333,
                        1.33333,
                        12.33333
                    ],
                    "rotation": 180,
                    "texture": "#0"
                },
                "east": {
                    "uv": [
                        0.33333,
                        11.33333,
                        1.33333,
                        12.33333
                    ],
                    "rotation": 90,
                    "texture": "#0"
                },
                "south": {
                    "uv": [
                        0.33333,
                        11.33333,
                        1.33333,
                        12.33333
                    ],
                    "texture": "#0"
                },
                "west": {
                    "uv": [
                        0.33333,
                        11.33333,
                        1.33333,
                        12.33333
                    ],
                    "rotation": 270,
                    "texture": "#0"
                },
                "up": {
                    "uv": [
                        0.33333,
                        11.33333,
                        1.33333,
                        12.33333
                    ],
                    "texture": "#0"
                },
                "down": {
                    "uv": [
                        0.33333,
                        11.33333,
                        1.33333,
                        12.33333
                    ],
                    "rotation": 180,
                    "texture": "#0"
                }
            }
        },
        {
            "name": "hexadecagon",
            "from": [
                6.6,
                13.27073,
                5.76267
            ],
            "to": [
                7.3975,
                14.33635,
                6.56017
            ],
            "rotation": {
                "angle": 0,
                "axis": "y",
                "origin": [
                    6.99875,
                    13.92854,
                    6.16142
                ]
            },
            "faces": {
                "north": {
                    "uv": [
                        0.33333,
                        11.33333,
                        1.33333,
                        12.33333
                    ],
                    "rotation": 180,
                    "texture": "#0"
                },
                "east": {
                    "uv": [
                        0.33333,
                        11.33333,
                        1.33333,
                        12.33333
                    ],
                    "rotation": 180,
                    "texture": "#0"
                },
                "south": {
                    "uv": [
                        0.33333,
                        11.33333,
                        1.33333,
                        12.33333
                    ],
                    "rotation": 180,
                    "texture": "#0"
                },
                "west": {
                    "uv": [
                        0.33333,
                        11.33333,
                        1.33333,
                        12.33333
                    ],
                    "rotation": 180,
                    "texture": "#0"
                },
                "up": {
                    "uv": [
                        0.33333,
                        11.33333,
                        1.33333,
                        12.33333
                    ],
                    "texture": "#0"
                },
                "down": {
                    "uv": [
                        0.33333,
                        11.33333,
                        1.33333,
                        12.33333
                    ],
                    "texture": "#0"
                }
            }
        },
        {
            "name": "hexadecagon",
            "from": [
                6.91944,
                11.67375,
                7.595
            ],
            "to": [
                7.08056,
                12.57625,
                8.405
            ],
            "rotation": {
                "angle": -45,
                "axis": "y",
                "origin": [
                    7,
                    6.85875,
                    8
                ]
            },
            "faces": {
                "north": {
                    "uv": [
                        0.33333,
                        11.33333,
                        1.33333,
                        12.33333
                    ],
                    "texture": "#0"
                },
                "east": {
                    "uv": [
                        0.33333,
                        11.33333,
                        1.33333,
                        12.33333
                    ],
                    "texture": "#0"
                },
                "south": {
                    "uv": [
                        0.33333,
                        11.33333,
                        1.33333,
                        12.33333
                    ],
                    "texture": "#0"
                },
                "west": {
                    "uv": [
                        0.33333,
                        11.33333,
                        1.33333,
                        12.33333
                    ],
                    "texture": "#0"
                },
                "up": {
                    "uv": [
                        0.33333,
                        11.33333,
                        1.33333,
                        12.33333
                    ],
                    "texture": "#0"
                },
                "down": {
                    "uv": [
                        0.33333,
                        11.33333,
                        1.33333,
                        12.33333
                    ],
                    "texture": "#0"
                }
            }
        },
        {
            "name": "hexadecagon",
            "from": [
                6.91944,
                11.67375,
                7.595
            ],
            "to": [
                7.08056,
                12.57625,
                8.405
            ],
            "rotation": {
                "angle": -22.5,
                "axis": "y",
                "origin": [
                    7,
                    6.85875,
                    8
                ]
            },
            "faces": {
                "north": {
                    "uv": [
                        0.33333,
                        11.33333,
                        1.33333,
                        12.33333
                    ],
                    "texture": "#0"
                },
                "east": {
                    "uv": [
                        0.33333,
                        11.33333,
                        1.33333,
                        12.33333
                    ],
                    "texture": "#0"
                },
                "south": {
                    "uv": [
                        0.33333,
                        11.33333,
                        1.33333,
                        12.33333
                    ],
                    "texture": "#0"
                },
                "west": {
                    "uv": [
                        0.33333,
                        11.33333,
                        1.33333,
                        12.33333
                    ],
                    "texture": "#0"
                },
                "up": {
                    "uv": [
                        0.33333,
                        11.33333,
                        1.33333,
                        12.33333
                    ],
                    "texture": "#0"
                },
                "down": {
                    "uv": [
                        0.33333,
                        11.33333,
                        1.33333,
                        12.33333
                    ],
                    "texture": "#0"
                }
            }
        },
        {
            "name": "hexadecagon",
            "from": [
                6.91944,
                11.67375,
                7.595
            ],
            "to": [
                7.08056,
                12.57625,
                8.405
            ],
            "rotation": {
                "angle": 0,
                "axis": "y",
                "origin": [
                    7,
                    6.85875,
                    8
                ]
            },
            "faces": {
                "north": {
                    "uv": [
                        0.33333,
                        11.33333,
                        1.33333,
                        12.33333
                    ],
                    "texture": "#0"
                },
                "east": {
                    "uv": [
                        0.33333,
                        11.33333,
                        1.33333,
                        12.33333
                    ],
                    "texture": "#0"
                },
                "south": {
                    "uv": [
                        0.33333,
                        11.33333,
                        1.33333,
                        12.33333
                    ],
                    "texture": "#0"
                },
                "west": {
                    "uv": [
                        0.33333,
                        11.33333,
                        1.33333,
                        12.33333
                    ],
                    "texture": "#0"
                },
                "up": {
                    "uv": [
                        0.33333,
                        11.33333,
                        1.33333,
                        12.33333
                    ],
                    "texture": "#0"
                },
                "down": {
                    "uv": [
                        0.33333,
                        11.33333,
                        1.33333,
                        12.33333
                    ],
                    "texture": "#0"
                }
            }
        },
        {
            "name": "hexadecagon",
            "from": [
                6.91944,
                11.67375,
                7.595
            ],
            "to": [
                7.08056,
                12.57625,
                8.405
            ],
            "rotation": {
                "angle": 22.5,
                "axis": "y",
                "origin": [
                    7,
                    6.85875,
                    8
                ]
            },
            "faces": {
                "north": {
                    "uv": [
                        0.33333,
                        11.33333,
                        1.33333,
                        12.33333
                    ],
                    "texture": "#0"
                },
                "east": {
                    "uv": [
                        0.33333,
                        11.33333,
                        1.33333,
                        12.33333
                    ],
                    "texture": "#0"
                },
                "south": {
                    "uv": [
                        0.33333,
                        11.33333,
                        1.33333,
                        12.33333
                    ],
                    "texture": "#0"
                },
                "west": {
                    "uv": [
                        0.33333,
                        11.33333,
                        1.33333,
                        12.33333
                    ],
                    "texture": "#0"
                },
                "up": {
                    "uv": [
                        0.33333,
                        11.33333,
                        1.33333,
                        12.33333
                    ],
                    "texture": "#0"
                },
                "down": {
                    "uv": [
                        0.33333,
                        11.33333,
                        1.33333,
                        12.33333
                    ],
                    "texture": "#0"
                }
            }
        },
        {
            "name": "hexadecagon",
            "from": [
                6.91944,
                11.67375,
                7.595
            ],
            "to": [
                7.08056,
                12.57625,
                8.405
            ],
            "rotation": {
                "angle": 45,
                "axis": "y",
                "origin": [
                    7,
                    6.85875,
                    8
                ]
            },
            "faces": {
                "north": {
                    "uv": [
                        0.33333,
                        11.33333,
                        1.33333,
                        12.33333
                    ],
                    "texture": "#0"
                },
                "east": {
                    "uv": [
                        0.33333,
                        11.33333,
                        1.33333,
                        12.33333
                    ],
                    "texture": "#0"
                },
                "south": {
                    "uv": [
                        0.33333,
                        11.33333,
                        1.33333,
                        12.33333
                    ],
                    "texture": "#0"
                },
                "west": {
                    "uv": [
                        0.33333,
                        11.33333,
                        1.33333,
                        12.33333
                    ],
                    "texture": "#0"
                },
                "up": {
                    "uv": [
                        0.33333,
                        11.33333,
                        1.33333,
                        12.33333
                    ],
                    "texture": "#0"
                },
                "down": {
                    "uv": [
                        0.33333,
                        11.33333,
                        1.33333,
                        12.33333
                    ],
                    "texture": "#0"
                }
            }
        },
        {
            "name": "hexadecagon",
            "from": [
                6.595,
                11.67375,
                7.91944
            ],
            "to": [
                7.405,
                12.57625,
                8.08056
            ],
            "rotation": {
                "angle": -22.5,
                "axis": "y",
                "origin": [
                    7,
                    6.85875,
                    8
                ]
            },
            "faces": {
                "north": {
                    "uv": [
                        0.33333,
                        11.33333,
                        1.33333,
                        12.33333
                    ],
                    "texture": "#0"
                },
                "east": {
                    "uv": [
                        0.33333,
                        11.33333,
                        1.33333,
                        12.33333
                    ],
                    "texture": "#0"
                },
                "south": {
                    "uv": [
                        0.33333,
                        11.33333,
                        1.33333,
                        12.33333
                    ],
                    "texture": "#0"
                },
                "west": {
                    "uv": [
                        0.33333,
                        11.33333,
                        1.33333,
                        12.33333
                    ],
                    "texture": "#0"
                },
                "up": {
                    "uv": [
                        0.33333,
                        11.33333,
                        1.33333,
                        12.33333
                    ],
                    "texture": "#0"
                },
                "down": {
                    "uv": [
                        0.33333,
                        11.33333,
                        1.33333,
                        12.33333
                    ],
                    "texture": "#0"
                }
            }
        },
        {
            "name": "hexadecagon",
            "from": [
                6.595,
                11.67375,
                7.91944
            ],
            "to": [
                7.405,
                12.57625,
                8.08056
            ],
            "rotation": {
                "angle": 0,
                "axis": "y",
                "origin": [
                    7,
                    6.85875,
                    8
                ]
            },
            "faces": {
                "north": {
                    "uv": [
                        0.33333,
                        11.33333,
                        1.33333,
                        12.33333
                    ],
                    "texture": "#0"
                },
                "east": {
                    "uv": [
                        0.33333,
                        11.33333,
                        1.33333,
                        12.33333
                    ],
                    "texture": "#0"
                },
                "south": {
                    "uv": [
                        0.33333,
                        11.33333,
                        1.33333,
                        12.33333
                    ],
                    "texture": "#0"
                },
                "west": {
                    "uv": [
                        0.33333,
                        11.33333,
                        1.33333,
                        12.33333
                    ],
                    "texture": "#0"
                },
                "up": {
                    "uv": [
                        0.33333,
                        11.33333,
                        1.33333,
                        12.33333
                    ],
                    "texture": "#0"
                },
                "down": {
                    "uv": [
                        0.33333,
                        11.33333,
                        1.33333,
                        12.33333
                    ],
                    "texture": "#0"
                }
            }
        },
        {
            "name": "hexadecagon",
            "from": [
                6.595,
                11.67375,
                7.91944
            ],
            "to": [
                7.405,
                12.57625,
                8.08056
            ],
            "rotation": {
                "angle": 22.5,
                "axis": "y",
                "origin": [
                    7,
                    6.85875,
                    8
                ]
            },
            "faces": {
                "north": {
                    "uv": [
                        0.33333,
                        11.33333,
                        1.33333,
                        12.33333
                    ],
                    "texture": "#0"
                },
                "east": {
                    "uv": [
                        0.33333,
                        11.33333,
                        1.33333,
                        12.33333
                    ],
                    "texture": "#0"
                },
                "south": {
                    "uv": [
                        0.33333,
                        11.33333,
                        1.33333,
                        12.33333
                    ],
                    "texture": "#0"
                },
                "west": {
                    "uv": [
                        0.33333,
                        11.33333,
                        1.33333,
                        12.33333
                    ],
                    "texture": "#0"
                },
                "up": {
                    "uv": [
                        0.33333,
                        11.33333,
                        1.33333,
                        12.33333
                    ],
                    "texture": "#0"
                },
                "down": {
                    "uv": [
                        0.33333,
                        11.33333,
                        1.33333,
                        12.33333
                    ],
                    "texture": "#0"
                }
            }
        }
    ],
    "display": {
        "thirdperson_righthand": {
            "rotation": [
                65,
                0,
                0
            ],
            "translation": [
                1.25,
                -4.25,
                -5
            ]
        },
        "thirdperson_lefthand": {
            "rotation": [
                65,
                0,
                0
            ],
            "translation": [
                -1.25,
                -4.25,
                -5
            ]
        },
        "firstperson_righthand": {
            "translation": [
                0,
                -2.25,
                2
            ]
        },
        "firstperson_lefthand": {
            "translation": [
                0,
                -2.25,
                2
            ]
        },
        "ground": {
            "rotation": [
                90,
                -45,
                90
            ],
            "translation": [
                0,
                1,
                0
            ]
        },
        "gui": {
            "rotation": [
                90,
                -45,
                90
            ]
        },
        "fixed": {
            "rotation": [
                90,
                -45,
                90
            ]
        }
    }
}