{
    "textures": {
        "0": "gci:items/common/all_in_one", 
        "2": "gci:items/common/mpz", 
        "particle": "gci:items/common/all_in_one"
    }, 
    "elements": [
        {
            "to": [
                7.39125, 
                9.54923, 
                13.74
            ], 
            "rotation": {
                "origin": [
                    7.20925, 
                    9.29373, 
                    13.072
                ], 
                "angle": 45, 
                "axis": "z"
            }, 
            "from": [
                7.18725, 
                8.81423, 
                12.404
            ], 
            "faces": {
                "north": {
                    "uv": [
                        2.25, 
                        2.5, 
                        2.375, 
                        3.2
                    ], 
                    "texture": "#0"
                }, 
                "west": {
                    "uv": [
                        2.25, 
                        2.5, 
                        2.375, 
                        3.2
                    ], 
                    "texture": "#0"
                }, 
                "up": {
                    "uv": [
                        2.25, 
                        2.5, 
                        2.375, 
                        3.2
                    ], 
                    "texture": "#0"
                }, 
                "down": {
                    "uv": [
                        2.25, 
                        2.5, 
                        2.375, 
                        3.2
                    ], 
                    "texture": "#0"
                }, 
                "east": {
                    "uv": [
                        2.25, 
                        2.5, 
                        2.375, 
                        3.2
                    ], 
                    "texture": "#0"
                }, 
                "south": {
                    "uv": [
                        2.25, 
                        2.5, 
                        2.375, 
                        3.2
                    ], 
                    "texture": "#0"
                }
            }
        }, 
        {
            "to": [
                7.19925, 
                10.25323, 
                13.74
            ], 
            "rotation": {
                "origin": [
                    7.20925, 
                    10.28573, 
                    13.072
                ], 
                "angle": 0, 
                "axis": "y"
            }, 
            "from": [
                7.01303, 
                9.45884, 
                12.404
            ], 
            "faces": {
                "north": {
                    "uv": [
                        2.25, 
                        2.5, 
                        2.375, 
                        3.2
                    ], 
                    "texture": "#0"
                }, 
                "west": {
                    "uv": [
                        2.25, 
                        2.5, 
                        2.375, 
                        3.2
                    ], 
                    "texture": "#0"
                }, 
                "up": {
                    "uv": [
                        2.25, 
                        2.5, 
                        2.375, 
                        3.2
                    ], 
                    "texture": "#0"
                }, 
                "down": {
                    "uv": [
                        2.25, 
                        2.5, 
                        2.375, 
                        3.2
                    ], 
                    "texture": "#0"
                }, 
                "east": {
                    "uv": [
                        2.25, 
                        2.5, 
                        2.375, 
                        3.2
                    ], 
                    "texture": "#0"
                }, 
                "south": {
                    "uv": [
                        2.25, 
                        2.5, 
                        2.375, 
                        3.2
                    ], 
                    "texture": "#0"
                }
            }
        }, 
        {
            "to": [
                7.55125, 
                9.16523, 
                13.74
            ], 
            "rotation": {
                "origin": [
                    7.56125, 
                    9.42173, 
                    13.072
                ], 
                "angle": 0, 
                "axis": "y"
            }, 
            "from": [
                7.49303, 
                8.46684, 
                12.404
            ], 
            "faces": {
                "north": {
                    "uv": [
                        2.25, 
                        2.5, 
                        2.375, 
                        3.2
                    ], 
                    "texture": "#0"
                }, 
                "west": {
                    "uv": [
                        2.25, 
                        2.5, 
                        2.375, 
                        3.2
                    ], 
                    "texture": "#0"
                }, 
                "up": {
                    "uv": [
                        2.25, 
                        2.5, 
                        2.375, 
                        3.2
                    ], 
                    "texture": "#0"
                }, 
                "down": {
                    "uv": [
                        2.25, 
                        2.5, 
                        2.375, 
                        3.2
                    ], 
                    "texture": "#0"
                }, 
                "east": {
                    "uv": [
                        2.25, 
                        2.5, 
                        2.375, 
                        3.2
                    ], 
                    "texture": "#0"
                }, 
                "south": {
                    "uv": [
                        2.25, 
                        2.5, 
                        2.375, 
                        3.2
                    ], 
                    "texture": "#0"
                }
            }
        }, 
        {
            "to": [
                7.55125, 
                8.78123, 
                12.748
            ], 
            "rotation": {
                "origin": [
                    7.50614, 
                    8.68803, 
                    12.656
                ], 
                "angle": 45, 
                "axis": "x"
            }, 
            "from": [
                7.46103, 
                8.59484, 
                12.564
            ], 
            "faces": {
                "north": {
                    "uv": [
                        3.75, 
                        2.875, 
                        4, 
                        2.875
                    ], 
                    "texture": "#0"
                }, 
                "west": {
                    "uv": [
                        3.75, 
                        2.875, 
                        4, 
                        2.875
                    ], 
                    "texture": "#0"
                }, 
                "up": {
                    "uv": [
                        3.75, 
                        2.875, 
                        4, 
                        2.875
                    ], 
                    "texture": "#0"
                }, 
                "down": {
                    "uv": [
                        3.75, 
                        2.875, 
                        4, 
                        2.875
                    ], 
                    "texture": "#0"
                }, 
                "east": {
                    "uv": [
                        3.75, 
                        2.875, 
                        4, 
                        2.875
                    ], 
                    "texture": "#0"
                }, 
                "south": {
                    "uv": [
                        3.75, 
                        2.875, 
                        4, 
                        2.875
                    ], 
                    "texture": "#0"
                }
            }
        }, 
        {
            "to": [
                7.55125, 
                8.78123, 
                13.58
            ], 
            "rotation": {
                "origin": [
                    7.50614, 
                    8.68803, 
                    13.488
                ], 
                "angle": 45, 
                "axis": "x"
            }, 
            "from": [
                7.46103, 
                8.59484, 
                13.396
            ], 
            "faces": {
                "north": {
                    "uv": [
                        3.75, 
                        2.875, 
                        4, 
                        2.875
                    ], 
                    "texture": "#0"
                }, 
                "west": {
                    "uv": [
                        3.75, 
                        2.875, 
                        4, 
                        2.875
                    ], 
                    "texture": "#0"
                }, 
                "up": {
                    "uv": [
                        3.75, 
                        2.875, 
                        4, 
                        2.875
                    ], 
                    "texture": "#0"
                }, 
                "down": {
                    "uv": [
                        3.75, 
                        2.875, 
                        4, 
                        2.875
                    ], 
                    "texture": "#0"
                }, 
                "east": {
                    "uv": [
                        3.75, 
                        2.875, 
                        4, 
                        2.875
                    ], 
                    "texture": "#0"
                }, 
                "south": {
                    "uv": [
                        3.75, 
                        2.875, 
                        4, 
                        2.875
                    ], 
                    "texture": "#0"
                }
            }
        }, 
        {
            "to": [
                8.47942, 
                10.43945, 
                13.74
            ], 
            "rotation": {
                "origin": [
                    7.83992, 
                    10.24323, 
                    13.072
                ], 
                "angle": 0, 
                "axis": "y"
            }, 
            "from": [
                7.01303, 
                10.25323, 
                12.404
            ], 
            "faces": {
                "north": {
                    "rotation": 90, 
                    "uv": [
                        2.25, 
                        2.5, 
                        2.375, 
                        3.2
                    ], 
                    "texture": "#0"
                }, 
                "west": {
                    "rotation": 90, 
                    "uv": [
                        2.25, 
                        2.5, 
                        2.375, 
                        3.2
                    ], 
                    "texture": "#0"
                }, 
                "up": {
                    "rotation": 90, 
                    "uv": [
                        2.25, 
                        2.5, 
                        2.375, 
                        3.2
                    ], 
                    "texture": "#0"
                }, 
                "down": {
                    "rotation": 90, 
                    "uv": [
                        2.25, 
                        2.5, 
                        2.375, 
                        3.2
                    ], 
                    "texture": "#0"
                }, 
                "east": {
                    "rotation": 90, 
                    "uv": [
                        2.25, 
                        2.5, 
                        2.375, 
                        3.2
                    ], 
                    "texture": "#0"
                }, 
                "south": {
                    "rotation": 90, 
                    "uv": [
                        2.25, 
                        2.5, 
                        2.375, 
                        3.2
                    ], 
                    "texture": "#0"
                }
            }
        }, 
        {
            "to": [
                8.31942, 
                10.43945, 
                14.348
            ], 
            "rotation": {
                "origin": [
                    7.83992, 
                    10.24323, 
                    13.072
                ], 
                "angle": 0, 
                "axis": "y"
            }, 
            "from": [
                7.68503, 
                10.28523, 
                12.052
            ], 
            "faces": {
                "north": {
                    "rotation": 90, 
                    "uv": [
                        2.25, 
                        2.5, 
                        2.375, 
                        3.2
                    ], 
                    "texture": "#0"
                }, 
                "west": {
                    "rotation": 90, 
                    "uv": [
                        2.25, 
                        2.5, 
                        2.375, 
                        3.2
                    ], 
                    "texture": "#0"
                }, 
                "up": {
                    "rotation": 90, 
                    "uv": [
                        2.25, 
                        2.5, 
                        2.375, 
                        3.2
                    ], 
                    "texture": "#0"
                }, 
                "down": {
                    "rotation": 90, 
                    "uv": [
                        2.25, 
                        2.5, 
                        2.375, 
                        3.2
                    ], 
                    "texture": "#0"
                }, 
                "east": {
                    "rotation": 90, 
                    "uv": [
                        2.25, 
                        2.5, 
                        2.375, 
                        3.2
                    ], 
                    "texture": "#0"
                }, 
                "south": {
                    "rotation": 90, 
                    "uv": [
                        2.25, 
                        2.5, 
                        2.375, 
                        3.2
                    ], 
                    "texture": "#0"
                }
            }
        }, 
        {
            "to": [
                7.39125, 
                9.54923, 
                13.74
            ], 
            "rotation": {
                "origin": [
                    7.20925, 
                    9.29373, 
                    13.072
                ], 
                "angle": 45, 
                "axis": "z"
            }, 
            "from": [
                7.18725, 
                8.81423, 
                12.404
            ], 
            "faces": {
                "north": {
                    "uv": [
                        2.25, 
                        2.5, 
                        2.375, 
                        3.2
                    ], 
                    "texture": "#0"
                }, 
                "west": {
                    "uv": [
                        2.25, 
                        2.5, 
                        2.375, 
                        3.2
                    ], 
                    "texture": "#0"
                }, 
                "up": {
                    "uv": [
                        2.25, 
                        2.5, 
                        2.375, 
                        3.2
                    ], 
                    "texture": "#0"
                }, 
                "down": {
                    "uv": [
                        2.25, 
                        2.5, 
                        2.375, 
                        3.2
                    ], 
                    "texture": "#0"
                }, 
                "east": {
                    "uv": [
                        2.25, 
                        2.5, 
                        2.375, 
                        3.2
                    ], 
                    "texture": "#0"
                }, 
                "south": {
                    "uv": [
                        2.25, 
                        2.5, 
                        2.375, 
                        3.2
                    ], 
                    "texture": "#0"
                }
            }
        }, 
        {
            "to": [
                7.19925, 
                10.25323, 
                13.74
            ], 
            "rotation": {
                "origin": [
                    7.20925, 
                    10.28573, 
                    13.072
                ], 
                "angle": 0, 
                "axis": "y"
            }, 
            "from": [
                7.01303, 
                9.45884, 
                12.404
            ], 
            "faces": {
                "north": {
                    "uv": [
                        2.25, 
                        2.5, 
                        2.375, 
                        3.2
                    ], 
                    "texture": "#0"
                }, 
                "west": {
                    "uv": [
                        2.25, 
                        2.5, 
                        2.375, 
                        3.2
                    ], 
                    "texture": "#0"
                }, 
                "up": {
                    "uv": [
                        2.25, 
                        2.5, 
                        2.375, 
                        3.2
                    ], 
                    "texture": "#0"
                }, 
                "down": {
                    "uv": [
                        2.25, 
                        2.5, 
                        2.375, 
                        3.2
                    ], 
                    "texture": "#0"
                }, 
                "east": {
                    "uv": [
                        2.25, 
                        2.5, 
                        2.375, 
                        3.2
                    ], 
                    "texture": "#0"
                }, 
                "south": {
                    "uv": [
                        2.25, 
                        2.5, 
                        2.375, 
                        3.2
                    ], 
                    "texture": "#0"
                }
            }
        }, 
        {
            "to": [
                7.55125, 
                9.16523, 
                13.74
            ], 
            "rotation": {
                "origin": [
                    7.56125, 
                    9.42173, 
                    13.072
                ], 
                "angle": 0, 
                "axis": "y"
            }, 
            "from": [
                7.49303, 
                8.46684, 
                12.404
            ], 
            "faces": {
                "north": {
                    "uv": [
                        2.25, 
                        2.5, 
                        2.375, 
                        3.2
                    ], 
                    "texture": "#0"
                }, 
                "west": {
                    "uv": [
                        2.25, 
                        2.5, 
                        2.375, 
                        3.2
                    ], 
                    "texture": "#0"
                }, 
                "up": {
                    "uv": [
                        2.25, 
                        2.5, 
                        2.375, 
                        3.2
                    ], 
                    "texture": "#0"
                }, 
                "down": {
                    "uv": [
                        2.25, 
                        2.5, 
                        2.375, 
                        3.2
                    ], 
                    "texture": "#0"
                }, 
                "east": {
                    "uv": [
                        2.25, 
                        2.5, 
                        2.375, 
                        3.2
                    ], 
                    "texture": "#0"
                }, 
                "south": {
                    "uv": [
                        2.25, 
                        2.5, 
                        2.375, 
                        3.2
                    ], 
                    "texture": "#0"
                }
            }
        }, 
        {
            "to": [
                7.55125, 
                8.78123, 
                12.748
            ], 
            "rotation": {
                "origin": [
                    7.50614, 
                    8.68803, 
                    12.656
                ], 
                "angle": 45, 
                "axis": "x"
            }, 
            "from": [
                7.46103, 
                8.59484, 
                12.564
            ], 
            "faces": {
                "north": {
                    "uv": [
                        3.75, 
                        2.875, 
                        4, 
                        2.875
                    ], 
                    "texture": "#0"
                }, 
                "west": {
                    "uv": [
                        3.75, 
                        2.875, 
                        4, 
                        2.875
                    ], 
                    "texture": "#0"
                }, 
                "up": {
                    "uv": [
                        3.75, 
                        2.875, 
                        4, 
                        2.875
                    ], 
                    "texture": "#0"
                }, 
                "down": {
                    "uv": [
                        3.75, 
                        2.875, 
                        4, 
                        2.875
                    ], 
                    "texture": "#0"
                }, 
                "east": {
                    "uv": [
                        3.75, 
                        2.875, 
                        4, 
                        2.875
                    ], 
                    "texture": "#0"
                }, 
                "south": {
                    "uv": [
                        3.75, 
                        2.875, 
                        4, 
                        2.875
                    ], 
                    "texture": "#0"
                }
            }
        }, 
        {
            "to": [
                7.55125, 
                8.78123, 
                13.58
            ], 
            "rotation": {
                "origin": [
                    7.50614, 
                    8.68803, 
                    13.488
                ], 
                "angle": 45, 
                "axis": "x"
            }, 
            "from": [
                7.46103, 
                8.59484, 
                13.396
            ], 
            "faces": {
                "north": {
                    "uv": [
                        3.75, 
                        2.875, 
                        4, 
                        2.875
                    ], 
                    "texture": "#0"
                }, 
                "west": {
                    "uv": [
                        3.75, 
                        2.875, 
                        4, 
                        2.875
                    ], 
                    "texture": "#0"
                }, 
                "up": {
                    "uv": [
                        3.75, 
                        2.875, 
                        4, 
                        2.875
                    ], 
                    "texture": "#0"
                }, 
                "down": {
                    "uv": [
                        3.75, 
                        2.875, 
                        4, 
                        2.875
                    ], 
                    "texture": "#0"
                }, 
                "east": {
                    "uv": [
                        3.75, 
                        2.875, 
                        4, 
                        2.875
                    ], 
                    "texture": "#0"
                }, 
                "south": {
                    "uv": [
                        3.75, 
                        2.875, 
                        4, 
                        2.875
                    ], 
                    "texture": "#0"
                }
            }
        }, 
        {
            "to": [
                8.47942, 
                10.43945, 
                13.74
            ], 
            "rotation": {
                "origin": [
                    7.83992, 
                    10.24323, 
                    13.072
                ], 
                "angle": 0, 
                "axis": "y"
            }, 
            "from": [
                7.01303, 
                10.25323, 
                12.404
            ], 
            "faces": {
                "north": {
                    "rotation": 90, 
                    "uv": [
                        2.25, 
                        2.5, 
                        2.375, 
                        3.2
                    ], 
                    "texture": "#0"
                }, 
                "west": {
                    "rotation": 90, 
                    "uv": [
                        2.25, 
                        2.5, 
                        2.375, 
                        3.2
                    ], 
                    "texture": "#0"
                }, 
                "up": {
                    "rotation": 90, 
                    "uv": [
                        2.25, 
                        2.5, 
                        2.375, 
                        3.2
                    ], 
                    "texture": "#0"
                }, 
                "down": {
                    "rotation": 90, 
                    "uv": [
                        2.25, 
                        2.5, 
                        2.375, 
                        3.2
                    ], 
                    "texture": "#0"
                }, 
                "east": {
                    "rotation": 90, 
                    "uv": [
                        2.25, 
                        2.5, 
                        2.375, 
                        3.2
                    ], 
                    "texture": "#0"
                }, 
                "south": {
                    "rotation": 90, 
                    "uv": [
                        2.25, 
                        2.5, 
                        2.375, 
                        3.2
                    ], 
                    "texture": "#0"
                }
            }
        }, 
        {
            "to": [
                8.31942, 
                10.43945, 
                14.348
            ], 
            "rotation": {
                "origin": [
                    7.83992, 
                    10.24323, 
                    13.072
                ], 
                "angle": 0, 
                "axis": "y"
            }, 
            "from": [
                7.68503, 
                10.28523, 
                12.052
            ], 
            "faces": {
                "north": {
                    "rotation": 90, 
                    "uv": [
                        2.25, 
                        2.5, 
                        2.375, 
                        3.2
                    ], 
                    "texture": "#0"
                }, 
                "west": {
                    "rotation": 90, 
                    "uv": [
                        2.25, 
                        2.5, 
                        2.375, 
                        3.2
                    ], 
                    "texture": "#0"
                }, 
                "up": {
                    "rotation": 90, 
                    "uv": [
                        2.25, 
                        2.5, 
                        2.375, 
                        3.2
                    ], 
                    "texture": "#0"
                }, 
                "down": {
                    "rotation": 90, 
                    "uv": [
                        2.25, 
                        2.5, 
                        2.375, 
                        3.2
                    ], 
                    "texture": "#0"
                }, 
                "east": {
                    "rotation": 90, 
                    "uv": [
                        2.25, 
                        2.5, 
                        2.375, 
                        3.2
                    ], 
                    "texture": "#0"
                }, 
                "south": {
                    "rotation": 90, 
                    "uv": [
                        2.25, 
                        2.5, 
                        2.375, 
                        3.2
                    ], 
                    "texture": "#0"
                }
            }
        }, 
        {
            "to": [
                8.28, 
                10.75492, 
                12.324
            ], 
            "rotation": {
                "origin": [
                    7.987, 
                    10.68159, 
                    12.198
                ], 
                "angle": 0, 
                "axis": "y"
            }, 
            "from": [
                7.72, 
                10.62692, 
                12.072
            ], 
            "faces": {
                "north": {
                    "rotation": 270, 
                    "uv": [
                        3.75, 
                        3.375, 
                        4.375, 
                        3.375
                    ], 
                    "texture": "#0"
                }, 
                "west": {
                    "rotation": 270, 
                    "uv": [
                        3.75, 
                        3.375, 
                        4.375, 
                        3.375
                    ], 
                    "texture": "#0"
                }, 
                "up": {
                    "rotation": 270, 
                    "uv": [
                        3.75, 
                        3.375, 
                        4.375, 
                        3.375
                    ], 
                    "texture": "#0"
                }, 
                "down": {
                    "rotation": 270, 
                    "uv": [
                        3.75, 
                        3.375, 
                        4.375, 
                        3.375
                    ], 
                    "texture": "#0"
                }, 
                "east": {
                    "rotation": 270, 
                    "uv": [
                        3.75, 
                        3.375, 
                        4.375, 
                        3.375
                    ], 
                    "texture": "#0"
                }, 
                "south": {
                    "rotation": 270, 
                    "uv": [
                        3.75, 
                        3.375, 
                        4.375, 
                        3.375
                    ], 
                    "texture": "#0"
                }
            }
        }, 
        {
            "to": [
                8.28, 
                10.75492, 
                14.34
            ], 
            "rotation": {
                "origin": [
                    7.987, 
                    10.68159, 
                    12.198
                ], 
                "angle": 0, 
                "axis": "y"
            }, 
            "from": [
                7.72, 
                10.62692, 
                14.088
            ], 
            "faces": {
                "north": {
                    "rotation": 270, 
                    "uv": [
                        3.75, 
                        3.375, 
                        4.375, 
                        3.375
                    ], 
                    "texture": "#0"
                }, 
                "west": {
                    "rotation": 270, 
                    "uv": [
                        3.75, 
                        3.375, 
                        4.375, 
                        3.375
                    ], 
                    "texture": "#0"
                }, 
                "up": {
                    "rotation": 270, 
                    "uv": [
                        3.75, 
                        3.375, 
                        4.375, 
                        3.375
                    ], 
                    "texture": "#0"
                }, 
                "down": {
                    "rotation": 270, 
                    "uv": [
                        3.75, 
                        3.375, 
                        4.375, 
                        3.375
                    ], 
                    "texture": "#0"
                }, 
                "east": {
                    "rotation": 270, 
                    "uv": [
                        3.75, 
                        3.375, 
                        4.375, 
                        3.375
                    ], 
                    "texture": "#0"
                }, 
                "south": {
                    "rotation": 270, 
                    "uv": [
                        3.75, 
                        3.375, 
                        4.375, 
                        3.375
                    ], 
                    "texture": "#0"
                }
            }
        }, 
        {
            "to": [
                8.28, 
                10.75492, 
                13.348
            ], 
            "rotation": {
                "origin": [
                    7.987, 
                    10.68159, 
                    12.198
                ], 
                "angle": 0, 
                "axis": "y"
            }, 
            "from": [
                7.72, 
                10.62692, 
                13.096
            ], 
            "faces": {
                "north": {
                    "rotation": 270, 
                    "uv": [
                        3.75, 
                        3.375, 
                        4.375, 
                        3.375
                    ], 
                    "texture": "#0"
                }, 
                "west": {
                    "rotation": 270, 
                    "uv": [
                        3.75, 
                        3.375, 
                        4.375, 
                        3.375
                    ], 
                    "texture": "#0"
                }, 
                "up": {
                    "rotation": 270, 
                    "uv": [
                        3.75, 
                        3.375, 
                        4.375, 
                        3.375
                    ], 
                    "texture": "#0"
                }, 
                "down": {
                    "rotation": 270, 
                    "uv": [
                        3.75, 
                        3.375, 
                        4.375, 
                        3.375
                    ], 
                    "texture": "#0"
                }, 
                "east": {
                    "rotation": 270, 
                    "uv": [
                        3.75, 
                        3.375, 
                        4.375, 
                        3.375
                    ], 
                    "texture": "#0"
                }, 
                "south": {
                    "rotation": 270, 
                    "uv": [
                        3.75, 
                        3.375, 
                        4.375, 
                        3.375
                    ], 
                    "texture": "#0"
                }
            }
        }, 
        {
            "to": [
                8.28, 
                10.75492, 
                12.836
            ], 
            "rotation": {
                "origin": [
                    7.987, 
                    10.68159, 
                    12.198
                ], 
                "angle": 0, 
                "axis": "y"
            }, 
            "from": [
                7.72, 
                10.62692, 
                12.584
            ], 
            "faces": {
                "north": {
                    "rotation": 270, 
                    "uv": [
                        3.75, 
                        3.375, 
                        4.375, 
                        3.375
                    ], 
                    "texture": "#0"
                }, 
                "west": {
                    "rotation": 270, 
                    "uv": [
                        3.75, 
                        3.375, 
                        4.375, 
                        3.375
                    ], 
                    "texture": "#0"
                }, 
                "up": {
                    "rotation": 270, 
                    "uv": [
                        3.75, 
                        3.375, 
                        4.375, 
                        3.375
                    ], 
                    "texture": "#0"
                }, 
                "down": {
                    "rotation": 270, 
                    "uv": [
                        3.75, 
                        3.375, 
                        4.375, 
                        3.375
                    ], 
                    "texture": "#0"
                }, 
                "east": {
                    "rotation": 270, 
                    "uv": [
                        3.75, 
                        3.375, 
                        4.375, 
                        3.375
                    ], 
                    "texture": "#0"
                }, 
                "south": {
                    "rotation": 270, 
                    "uv": [
                        3.75, 
                        3.375, 
                        4.375, 
                        3.375
                    ], 
                    "texture": "#0"
                }
            }
        }, 
        {
            "to": [
                8.28, 
                10.62692, 
                14.34
            ], 
            "rotation": {
                "origin": [
                    7.987, 
                    10.68159, 
                    12.198
                ], 
                "angle": 0, 
                "axis": "y"
            }, 
            "from": [
                7.72, 
                10.53092, 
                12.072
            ], 
            "faces": {
                "north": {
                    "rotation": 270, 
                    "uv": [
                        3.75, 
                        3.375, 
                        4.375, 
                        3.375
                    ], 
                    "texture": "#0"
                }, 
                "west": {
                    "rotation": 270, 
                    "uv": [
                        3.75, 
                        3.375, 
                        4.375, 
                        3.375
                    ], 
                    "texture": "#0"
                }, 
                "up": {
                    "rotation": 270, 
                    "uv": [
                        3.75, 
                        3.375, 
                        4.375, 
                        3.375
                    ], 
                    "texture": "#0"
                }, 
                "down": {
                    "rotation": 270, 
                    "uv": [
                        3.75, 
                        3.375, 
                        4.375, 
                        3.375
                    ], 
                    "texture": "#0"
                }, 
                "east": {
                    "rotation": 270, 
                    "uv": [
                        3.75, 
                        3.375, 
                        4.375, 
                        3.375
                    ], 
                    "texture": "#0"
                }, 
                "south": {
                    "rotation": 270, 
                    "uv": [
                        3.75, 
                        3.375, 
                        4.375, 
                        3.375
                    ], 
                    "texture": "#0"
                }
            }
        }, 
        {
            "to": [
                8.216, 
                10.62692, 
                14.34
            ], 
            "rotation": {
                "origin": [
                    7.987, 
                    10.68159, 
                    12.198
                ], 
                "angle": 0, 
                "axis": "y"
            }, 
            "from": [
                7.784, 
                10.40292, 
                12.072
            ], 
            "faces": {
                "north": {
                    "rotation": 270, 
                    "uv": [
                        3.75, 
                        3.375, 
                        4.375, 
                        3.375
                    ], 
                    "texture": "#0"
                }, 
                "west": {
                    "rotation": 270, 
                    "uv": [
                        3.75, 
                        3.375, 
                        4.375, 
                        3.375
                    ], 
                    "texture": "#0"
                }, 
                "up": {
                    "rotation": 270, 
                    "uv": [
                        3.75, 
                        3.375, 
                        4.375, 
                        3.375
                    ], 
                    "texture": "#0"
                }, 
                "down": {
                    "rotation": 270, 
                    "uv": [
                        3.75, 
                        3.375, 
                        4.375, 
                        3.375
                    ], 
                    "texture": "#0"
                }, 
                "east": {
                    "rotation": 270, 
                    "uv": [
                        3.75, 
                        3.375, 
                        4.375, 
                        3.375
                    ], 
                    "texture": "#0"
                }, 
                "south": {
                    "rotation": 270, 
                    "uv": [
                        3.75, 
                        3.375, 
                        4.375, 
                        3.375
                    ], 
                    "texture": "#0"
                }
            }
        }, 
        {
            "to": [
                7.39125, 
                9.54923, 
                13.74
            ], 
            "rotation": {
                "origin": [
                    7.20925, 
                    9.29373, 
                    13.072
                ], 
                "angle": 45, 
                "axis": "z"
            }, 
            "from": [
                7.18725, 
                8.81423, 
                12.404
            ], 
            "faces": {
                "north": {
                    "uv": [
                        2.25, 
                        2.5, 
                        2.375, 
                        3.2
                    ], 
                    "texture": "#0"
                }, 
                "west": {
                    "uv": [
                        2.25, 
                        2.5, 
                        2.375, 
                        3.2
                    ], 
                    "texture": "#0"
                }, 
                "up": {
                    "uv": [
                        2.25, 
                        2.5, 
                        2.375, 
                        3.2
                    ], 
                    "texture": "#0"
                }, 
                "down": {
                    "uv": [
                        2.25, 
                        2.5, 
                        2.375, 
                        3.2
                    ], 
                    "texture": "#0"
                }, 
                "east": {
                    "uv": [
                        2.25, 
                        2.5, 
                        2.375, 
                        3.2
                    ], 
                    "texture": "#0"
                }, 
                "south": {
                    "uv": [
                        2.25, 
                        2.5, 
                        2.375, 
                        3.2
                    ], 
                    "texture": "#0"
                }
            }
        }, 
        {
            "to": [
                7.19925, 
                10.25323, 
                13.74
            ], 
            "rotation": {
                "origin": [
                    7.20925, 
                    10.28573, 
                    13.072
                ], 
                "angle": 0, 
                "axis": "y"
            }, 
            "from": [
                7.01303, 
                9.45884, 
                12.404
            ], 
            "faces": {
                "north": {
                    "uv": [
                        2.25, 
                        2.5, 
                        2.375, 
                        3.2
                    ], 
                    "texture": "#0"
                }, 
                "west": {
                    "uv": [
                        2.25, 
                        2.5, 
                        2.375, 
                        3.2
                    ], 
                    "texture": "#0"
                }, 
                "up": {
                    "uv": [
                        2.25, 
                        2.5, 
                        2.375, 
                        3.2
                    ], 
                    "texture": "#0"
                }, 
                "down": {
                    "uv": [
                        2.25, 
                        2.5, 
                        2.375, 
                        3.2
                    ], 
                    "texture": "#0"
                }, 
                "east": {
                    "uv": [
                        2.25, 
                        2.5, 
                        2.375, 
                        3.2
                    ], 
                    "texture": "#0"
                }, 
                "south": {
                    "uv": [
                        2.25, 
                        2.5, 
                        2.375, 
                        3.2
                    ], 
                    "texture": "#0"
                }
            }
        }, 
        {
            "to": [
                7.55125, 
                9.16523, 
                13.74
            ], 
            "rotation": {
                "origin": [
                    7.56125, 
                    9.42173, 
                    13.072
                ], 
                "angle": 0, 
                "axis": "y"
            }, 
            "from": [
                7.49303, 
                8.46684, 
                12.404
            ], 
            "faces": {
                "north": {
                    "uv": [
                        2.25, 
                        2.5, 
                        2.375, 
                        3.2
                    ], 
                    "texture": "#0"
                }, 
                "west": {
                    "uv": [
                        2.25, 
                        2.5, 
                        2.375, 
                        3.2
                    ], 
                    "texture": "#0"
                }, 
                "up": {
                    "uv": [
                        2.25, 
                        2.5, 
                        2.375, 
                        3.2
                    ], 
                    "texture": "#0"
                }, 
                "down": {
                    "uv": [
                        2.25, 
                        2.5, 
                        2.375, 
                        3.2
                    ], 
                    "texture": "#0"
                }, 
                "east": {
                    "uv": [
                        2.25, 
                        2.5, 
                        2.375, 
                        3.2
                    ], 
                    "texture": "#0"
                }, 
                "south": {
                    "uv": [
                        2.25, 
                        2.5, 
                        2.375, 
                        3.2
                    ], 
                    "texture": "#0"
                }
            }
        }, 
        {
            "to": [
                7.55125, 
                8.78123, 
                12.748
            ], 
            "rotation": {
                "origin": [
                    7.50614, 
                    8.68803, 
                    12.656
                ], 
                "angle": 45, 
                "axis": "x"
            }, 
            "from": [
                7.46103, 
                8.59484, 
                12.564
            ], 
            "faces": {
                "north": {
                    "uv": [
                        3.75, 
                        2.875, 
                        4, 
                        2.875
                    ], 
                    "texture": "#0"
                }, 
                "west": {
                    "uv": [
                        3.75, 
                        2.875, 
                        4, 
                        2.875
                    ], 
                    "texture": "#0"
                }, 
                "up": {
                    "uv": [
                        3.75, 
                        2.875, 
                        4, 
                        2.875
                    ], 
                    "texture": "#0"
                }, 
                "down": {
                    "uv": [
                        3.75, 
                        2.875, 
                        4, 
                        2.875
                    ], 
                    "texture": "#0"
                }, 
                "east": {
                    "uv": [
                        3.75, 
                        2.875, 
                        4, 
                        2.875
                    ], 
                    "texture": "#0"
                }, 
                "south": {
                    "uv": [
                        3.75, 
                        2.875, 
                        4, 
                        2.875
                    ], 
                    "texture": "#0"
                }
            }
        }, 
        {
            "to": [
                7.55125, 
                8.78123, 
                13.58
            ], 
            "rotation": {
                "origin": [
                    7.50614, 
                    8.68803, 
                    13.488
                ], 
                "angle": 45, 
                "axis": "x"
            }, 
            "from": [
                7.46103, 
                8.59484, 
                13.396
            ], 
            "faces": {
                "north": {
                    "uv": [
                        3.75, 
                        2.875, 
                        4, 
                        2.875
                    ], 
                    "texture": "#0"
                }, 
                "west": {
                    "uv": [
                        3.75, 
                        2.875, 
                        4, 
                        2.875
                    ], 
                    "texture": "#0"
                }, 
                "up": {
                    "uv": [
                        3.75, 
                        2.875, 
                        4, 
                        2.875
                    ], 
                    "texture": "#0"
                }, 
                "down": {
                    "uv": [
                        3.75, 
                        2.875, 
                        4, 
                        2.875
                    ], 
                    "texture": "#0"
                }, 
                "east": {
                    "uv": [
                        3.75, 
                        2.875, 
                        4, 
                        2.875
                    ], 
                    "texture": "#0"
                }, 
                "south": {
                    "uv": [
                        3.75, 
                        2.875, 
                        4, 
                        2.875
                    ], 
                    "texture": "#0"
                }
            }
        }, 
        {
            "to": [
                8.47942, 
                10.43945, 
                13.74
            ], 
            "rotation": {
                "origin": [
                    7.83992, 
                    10.24323, 
                    13.072
                ], 
                "angle": 0, 
                "axis": "y"
            }, 
            "from": [
                7.01303, 
                10.25323, 
                12.404
            ], 
            "faces": {
                "north": {
                    "rotation": 90, 
                    "uv": [
                        2.25, 
                        2.5, 
                        2.375, 
                        3.2
                    ], 
                    "texture": "#0"
                }, 
                "west": {
                    "rotation": 90, 
                    "uv": [
                        2.25, 
                        2.5, 
                        2.375, 
                        3.2
                    ], 
                    "texture": "#0"
                }, 
                "up": {
                    "rotation": 90, 
                    "uv": [
                        2.25, 
                        2.5, 
                        2.375, 
                        3.2
                    ], 
                    "texture": "#0"
                }, 
                "down": {
                    "rotation": 90, 
                    "uv": [
                        2.25, 
                        2.5, 
                        2.375, 
                        3.2
                    ], 
                    "texture": "#0"
                }, 
                "east": {
                    "rotation": 90, 
                    "uv": [
                        2.25, 
                        2.5, 
                        2.375, 
                        3.2
                    ], 
                    "texture": "#0"
                }, 
                "south": {
                    "rotation": 90, 
                    "uv": [
                        2.25, 
                        2.5, 
                        2.375, 
                        3.2
                    ], 
                    "texture": "#0"
                }
            }
        }, 
        {
            "to": [
                8.31942, 
                10.43945, 
                14.348
            ], 
            "rotation": {
                "origin": [
                    7.83992, 
                    10.24323, 
                    13.072
                ], 
                "angle": 0, 
                "axis": "y"
            }, 
            "from": [
                7.68503, 
                10.28523, 
                12.052
            ], 
            "faces": {
                "north": {
                    "rotation": 90, 
                    "uv": [
                        2.25, 
                        2.5, 
                        2.375, 
                        3.2
                    ], 
                    "texture": "#0"
                }, 
                "west": {
                    "rotation": 90, 
                    "uv": [
                        2.25, 
                        2.5, 
                        2.375, 
                        3.2
                    ], 
                    "texture": "#0"
                }, 
                "up": {
                    "rotation": 90, 
                    "uv": [
                        2.25, 
                        2.5, 
                        2.375, 
                        3.2
                    ], 
                    "texture": "#0"
                }, 
                "down": {
                    "rotation": 90, 
                    "uv": [
                        2.25, 
                        2.5, 
                        2.375, 
                        3.2
                    ], 
                    "texture": "#0"
                }, 
                "east": {
                    "rotation": 90, 
                    "uv": [
                        2.25, 
                        2.5, 
                        2.375, 
                        3.2
                    ], 
                    "texture": "#0"
                }, 
                "south": {
                    "rotation": 90, 
                    "uv": [
                        2.25, 
                        2.5, 
                        2.375, 
                        3.2
                    ], 
                    "texture": "#0"
                }
            }
        }, 
        {
            "to": [
                8.28, 
                10.75492, 
                13.828
            ], 
            "rotation": {
                "origin": [
                    7.987, 
                    10.68159, 
                    12.198
                ], 
                "angle": 0, 
                "axis": "y"
            }, 
            "from": [
                7.72, 
                10.62692, 
                13.576
            ], 
            "faces": {
                "north": {
                    "rotation": 270, 
                    "uv": [
                        3.75, 
                        3.375, 
                        4.375, 
                        3.375
                    ], 
                    "texture": "#0"
                }, 
                "west": {
                    "rotation": 270, 
                    "uv": [
                        3.75, 
                        3.375, 
                        4.375, 
                        3.375
                    ], 
                    "texture": "#0"
                }, 
                "up": {
                    "rotation": 270, 
                    "uv": [
                        3.75, 
                        3.375, 
                        4.375, 
                        3.375
                    ], 
                    "texture": "#0"
                }, 
                "down": {
                    "rotation": 270, 
                    "uv": [
                        3.75, 
                        3.375, 
                        4.375, 
                        3.375
                    ], 
                    "texture": "#0"
                }, 
                "east": {
                    "rotation": 270, 
                    "uv": [
                        3.75, 
                        3.375, 
                        4.375, 
                        3.375
                    ], 
                    "texture": "#0"
                }, 
                "south": {
                    "rotation": 270, 
                    "uv": [
                        3.75, 
                        3.375, 
                        4.375, 
                        3.375
                    ], 
                    "texture": "#0"
                }
            }
        }, 
        {
            "to": [
                8.28, 
                10.75492, 
                12.324
            ], 
            "rotation": {
                "origin": [
                    7.987, 
                    10.68159, 
                    12.198
                ], 
                "angle": 0, 
                "axis": "y"
            }, 
            "from": [
                7.72, 
                10.62692, 
                12.072
            ], 
            "faces": {
                "north": {
                    "rotation": 270, 
                    "uv": [
                        3.75, 
                        3.375, 
                        4.375, 
                        3.375
                    ], 
                    "texture": "#0"
                }, 
                "west": {
                    "rotation": 270, 
                    "uv": [
                        3.75, 
                        3.375, 
                        4.375, 
                        3.375
                    ], 
                    "texture": "#0"
                }, 
                "up": {
                    "rotation": 270, 
                    "uv": [
                        3.75, 
                        3.375, 
                        4.375, 
                        3.375
                    ], 
                    "texture": "#0"
                }, 
                "down": {
                    "rotation": 270, 
                    "uv": [
                        3.75, 
                        3.375, 
                        4.375, 
                        3.375
                    ], 
                    "texture": "#0"
                }, 
                "east": {
                    "rotation": 270, 
                    "uv": [
                        3.75, 
                        3.375, 
                        4.375, 
                        3.375
                    ], 
                    "texture": "#0"
                }, 
                "south": {
                    "rotation": 270, 
                    "uv": [
                        3.75, 
                        3.375, 
                        4.375, 
                        3.375
                    ], 
                    "texture": "#0"
                }
            }
        }, 
        {
            "to": [
                8.28, 
                10.75492, 
                14.34
            ], 
            "rotation": {
                "origin": [
                    7.987, 
                    10.68159, 
                    12.198
                ], 
                "angle": 0, 
                "axis": "y"
            }, 
            "from": [
                7.72, 
                10.62692, 
                14.088
            ], 
            "faces": {
                "north": {
                    "rotation": 270, 
                    "uv": [
                        3.75, 
                        3.375, 
                        4.375, 
                        3.375
                    ], 
                    "texture": "#0"
                }, 
                "west": {
                    "rotation": 270, 
                    "uv": [
                        3.75, 
                        3.375, 
                        4.375, 
                        3.375
                    ], 
                    "texture": "#0"
                }, 
                "up": {
                    "rotation": 270, 
                    "uv": [
                        3.75, 
                        3.375, 
                        4.375, 
                        3.375
                    ], 
                    "texture": "#0"
                }, 
                "down": {
                    "rotation": 270, 
                    "uv": [
                        3.75, 
                        3.375, 
                        4.375, 
                        3.375
                    ], 
                    "texture": "#0"
                }, 
                "east": {
                    "rotation": 270, 
                    "uv": [
                        3.75, 
                        3.375, 
                        4.375, 
                        3.375
                    ], 
                    "texture": "#0"
                }, 
                "south": {
                    "rotation": 270, 
                    "uv": [
                        3.75, 
                        3.375, 
                        4.375, 
                        3.375
                    ], 
                    "texture": "#0"
                }
            }
        }, 
        {
            "to": [
                8.28, 
                10.75492, 
                13.348
            ], 
            "rotation": {
                "origin": [
                    7.987, 
                    10.68159, 
                    12.198
                ], 
                "angle": 0, 
                "axis": "y"
            }, 
            "from": [
                7.72, 
                10.62692, 
                13.096
            ], 
            "faces": {
                "north": {
                    "rotation": 270, 
                    "uv": [
                        3.75, 
                        3.375, 
                        4.375, 
                        3.375
                    ], 
                    "texture": "#0"
                }, 
                "west": {
                    "rotation": 270, 
                    "uv": [
                        3.75, 
                        3.375, 
                        4.375, 
                        3.375
                    ], 
                    "texture": "#0"
                }, 
                "up": {
                    "rotation": 270, 
                    "uv": [
                        3.75, 
                        3.375, 
                        4.375, 
                        3.375
                    ], 
                    "texture": "#0"
                }, 
                "down": {
                    "rotation": 270, 
                    "uv": [
                        3.75, 
                        3.375, 
                        4.375, 
                        3.375
                    ], 
                    "texture": "#0"
                }, 
                "east": {
                    "rotation": 270, 
                    "uv": [
                        3.75, 
                        3.375, 
                        4.375, 
                        3.375
                    ], 
                    "texture": "#0"
                }, 
                "south": {
                    "rotation": 270, 
                    "uv": [
                        3.75, 
                        3.375, 
                        4.375, 
                        3.375
                    ], 
                    "texture": "#0"
                }
            }
        }, 
        {
            "to": [
                8.28, 
                10.75492, 
                12.836
            ], 
            "rotation": {
                "origin": [
                    7.987, 
                    10.68159, 
                    12.198
                ], 
                "angle": 0, 
                "axis": "y"
            }, 
            "from": [
                7.72, 
                10.62692, 
                12.584
            ], 
            "faces": {
                "north": {
                    "rotation": 270, 
                    "uv": [
                        3.75, 
                        3.375, 
                        4.375, 
                        3.375
                    ], 
                    "texture": "#0"
                }, 
                "west": {
                    "rotation": 270, 
                    "uv": [
                        3.75, 
                        3.375, 
                        4.375, 
                        3.375
                    ], 
                    "texture": "#0"
                }, 
                "up": {
                    "rotation": 270, 
                    "uv": [
                        3.75, 
                        3.375, 
                        4.375, 
                        3.375
                    ], 
                    "texture": "#0"
                }, 
                "down": {
                    "rotation": 270, 
                    "uv": [
                        3.75, 
                        3.375, 
                        4.375, 
                        3.375
                    ], 
                    "texture": "#0"
                }, 
                "east": {
                    "rotation": 270, 
                    "uv": [
                        3.75, 
                        3.375, 
                        4.375, 
                        3.375
                    ], 
                    "texture": "#0"
                }, 
                "south": {
                    "rotation": 270, 
                    "uv": [
                        3.75, 
                        3.375, 
                        4.375, 
                        3.375
                    ], 
                    "texture": "#0"
                }
            }
        }, 
        {
            "to": [
                8.28, 
                10.62692, 
                14.34
            ], 
            "rotation": {
                "origin": [
                    7.987, 
                    10.68159, 
                    12.198
                ], 
                "angle": 0, 
                "axis": "y"
            }, 
            "from": [
                7.72, 
                10.53092, 
                12.072
            ], 
            "faces": {
                "north": {
                    "rotation": 270, 
                    "uv": [
                        3.75, 
                        3.375, 
                        4.375, 
                        3.375
                    ], 
                    "texture": "#0"
                }, 
                "west": {
                    "rotation": 270, 
                    "uv": [
                        3.75, 
                        3.375, 
                        4.375, 
                        3.375
                    ], 
                    "texture": "#0"
                }, 
                "up": {
                    "rotation": 270, 
                    "uv": [
                        3.75, 
                        3.375, 
                        4.375, 
                        3.375
                    ], 
                    "texture": "#0"
                }, 
                "down": {
                    "rotation": 270, 
                    "uv": [
                        3.75, 
                        3.375, 
                        4.375, 
                        3.375
                    ], 
                    "texture": "#0"
                }, 
                "east": {
                    "rotation": 270, 
                    "uv": [
                        3.75, 
                        3.375, 
                        4.375, 
                        3.375
                    ], 
                    "texture": "#0"
                }, 
                "south": {
                    "rotation": 270, 
                    "uv": [
                        3.75, 
                        3.375, 
                        4.375, 
                        3.375
                    ], 
                    "texture": "#0"
                }
            }
        }, 
        {
            "to": [
                8.216, 
                10.62692, 
                14.34
            ], 
            "rotation": {
                "origin": [
                    7.987, 
                    10.68159, 
                    12.198
                ], 
                "angle": 0, 
                "axis": "y"
            }, 
            "from": [
                7.784, 
                10.40292, 
                12.072
            ], 
            "faces": {
                "north": {
                    "rotation": 270, 
                    "uv": [
                        3.75, 
                        3.375, 
                        4.375, 
                        3.375
                    ], 
                    "texture": "#0"
                }, 
                "west": {
                    "rotation": 270, 
                    "uv": [
                        3.75, 
                        3.375, 
                        4.375, 
                        3.375
                    ], 
                    "texture": "#0"
                }, 
                "up": {
                    "rotation": 270, 
                    "uv": [
                        3.75, 
                        3.375, 
                        4.375, 
                        3.375
                    ], 
                    "texture": "#0"
                }, 
                "down": {
                    "rotation": 270, 
                    "uv": [
                        3.75, 
                        3.375, 
                        4.375, 
                        3.375
                    ], 
                    "texture": "#0"
                }, 
                "east": {
                    "rotation": 270, 
                    "uv": [
                        3.75, 
                        3.375, 
                        4.375, 
                        3.375
                    ], 
                    "texture": "#0"
                }, 
                "south": {
                    "rotation": 270, 
                    "uv": [
                        3.75, 
                        3.375, 
                        4.375, 
                        3.375
                    ], 
                    "texture": "#0"
                }
            }
        }
    ], 
    "display": {
        "thirdperson_righthand": {
            "rotation": [
                -6, 
                -1, 
                16
            ], 
            "scale": [
                0.93, 
                0.93, 
                0.93
            ], 
            "translation": [
                -1, 
                -1, 
                -3
            ]
        }, 
        "head": {
            "rotation": [
                0, 
                44, 
                90
            ], 
            "scale": [
                1.42, 
                1.53, 
                1.36
            ], 
            "translation": [
                -3.5, 
                7.25, 
                -5.75
            ]
        }, 
        "thirdperson_lefthand": {
            "rotation": [
                -6, 
                -1, 
                16
            ], 
            "scale": [
                0.93, 
                0.93, 
                0.93
            ], 
            "translation": [
                -1.75, 
                -0.5, 
                -4
            ]
        }, 
        "gui": {
            "rotation": [
                16, 
                24, 
                0
            ], 
            "scale": [
                1.5, 
                1.58, 
                1.22
            ], 
            "translation": [
                1.25, 
                -0.25, 
                1
            ]
        }, 
        "firstperson_righthand": {
            "translation": [
                -3.5, 
                4.25, 
                -1.5
            ], 
            "scale": [
                0.98, 
                1.17, 
                1.03
            ]
        }, 
        "firstperson_lefthand": {
            "translation": [
                -4.5, 
                4.25, 
                0
            ], 
            "scale": [
                0.98, 
                1.17, 
                1.03
            ]
        }, 
        "fixed": {
            "rotation": [
                0, 
                91, 
                0
            ], 
            "scale": [
                1.67, 
                1.53, 
                1.33
            ], 
            "translation": [
                0, 
                0, 
                -1.25
            ]
        }
    }
}