{
    "textures": {
        "1": "gci:items/common/mpz",
        "particle": "MIGHTY_ALL_IN_ONE"
    },
    "elements": [
        {
            "name": "octagon",
            "from": [
                7.54289,
                2.1,
                7.5
            ],
            "to": [
                8.45711,
                11.1,
                8.5
            ],
            "rotation": {
                "angle": 0,
                "axis": "y",
                "origin": [
                    8,
                    3.6,
                    8
                ]
            },
            "faces": {
                "north": {
                    "uv": [
                        0.66667,
                        6,
                        1.66667,
                        7
                    ],
                    "texture": "#1"
                },
                "east": {
                    "uv": [
                        0.66667,
                        6,
                        1.66667,
                        7
                    ],
                    "texture": "#1"
                },
                "south": {
                    "uv": [
                        0.66667,
                        6,
                        1.66667,
                        7
                    ],
                    "texture": "#1"
                },
                "west": {
                    "uv": [
                        0.66667,
                        6,
                        1.66667,
                        7
                    ],
                    "texture": "#1"
                },
                "up": {
                    "uv": [
                        0.66667,
                        6,
                        1.66667,
                        7
                    ],
                    "texture": "#1"
                },
                "down": {
                    "uv": [
                        0.66667,
                        6,
                        1.66667,
                        7
                    ],
                    "texture": "#1"
                }
            }
        },
        {
            "name": "octagon",
            "from": [
                7.49203,
                11.27558,
                7.5
            ],
            "to": [
                8.49203,
                11.68979,
                8.5
            ],
            "rotation": {
                "angle": -22.5,
                "axis": "z",
                "origin": [
                    6.99203,
                    11.48268,
                    8
                ]
            },
            "faces": {
                "north": {
                    "uv": [
                        0.66667,
                        6,
                        1.66667,
                        7
                    ],
                    "rotation": 90,
                    "texture": "#1"
                },
                "east": {
                    "uv": [
                        0.66667,
                        6,
                        1.66667,
                        7
                    ],
                    "rotation": 270,
                    "texture": "#1"
                },
                "south": {
                    "uv": [
                        0.66667,
                        6,
                        1.66667,
                        7
                    ],
                    "rotation": 270,
                    "texture": "#1"
                },
                "west": {
                    "uv": [
                        0.66667,
                        6,
                        1.66667,
                        7
                    ],
                    "rotation": 270,
                    "texture": "#1"
                },
                "up": {
                    "uv": [
                        0.66667,
                        6,
                        1.66667,
                        7
                    ],
                    "rotation": 270,
                    "texture": "#1"
                },
                "down": {
                    "uv": [
                        0.66667,
                        6,
                        1.66667,
                        7
                    ],
                    "rotation": 270,
                    "texture": "#1"
                }
            }
        },
        {
            "name": "octagon",
            "from": [
                7.49203,
                11.27558,
                7.75
            ],
            "to": [
                8.49203,
                11.78979,
                8.25
            ],
            "rotation": {
                "angle": -22.5,
                "axis": "z",
                "origin": [
                    6.99203,
                    11.48268,
                    8
                ]
            },
            "faces": {
                "north": {
                    "uv": [
                        0.66667,
                        6,
                        1.66667,
                        7
                    ],
                    "rotation": 90,
                    "texture": "#1"
                },
                "east": {
                    "uv": [
                        0.66667,
                        6,
                        1.66667,
                        7
                    ],
                    "rotation": 270,
                    "texture": "#1"
                },
                "south": {
                    "uv": [
                        0.66667,
                        6,
                        1.66667,
                        7
                    ],
                    "rotation": 270,
                    "texture": "#1"
                },
                "west": {
                    "uv": [
                        0.66667,
                        6,
                        1.66667,
                        7
                    ],
                    "rotation": 270,
                    "texture": "#1"
                },
                "up": {
                    "uv": [
                        0.66667,
                        6,
                        1.66667,
                        7
                    ],
                    "rotation": 270,
                    "texture": "#1"
                },
                "down": {
                    "uv": [
                        0.66667,
                        6,
                        1.66667,
                        7
                    ],
                    "rotation": 270,
                    "texture": "#1"
                }
            }
        },
        {
            "name": "octagon",
            "from": [
                7.03323,
                11.06847,
                7.4
            ],
            "to": [
                7.53323,
                11.48268,
                8.6
            ],
            "rotation": {
                "angle": 0,
                "axis": "y",
                "origin": [
                    7.28323,
                    11.27558,
                    8
                ]
            },
            "faces": {
                "north": {
                    "uv": [
                        0.66667,
                        6,
                        1.66667,
                        7
                    ],
                    "rotation": 90,
                    "texture": "#1"
                },
                "east": {
                    "uv": [
                        0.66667,
                        6,
                        1.66667,
                        7
                    ],
                    "rotation": 270,
                    "texture": "#1"
                },
                "south": {
                    "uv": [
                        0.66667,
                        6,
                        1.66667,
                        7
                    ],
                    "rotation": 270,
                    "texture": "#1"
                },
                "west": {
                    "uv": [
                        0.66667,
                        6,
                        1.66667,
                        7
                    ],
                    "rotation": 270,
                    "texture": "#1"
                },
                "up": {
                    "uv": [
                        0.66667,
                        6,
                        1.66667,
                        7
                    ],
                    "rotation": 270,
                    "texture": "#1"
                },
                "down": {
                    "uv": [
                        0.66667,
                        6,
                        1.66667,
                        7
                    ],
                    "rotation": 270,
                    "texture": "#1"
                }
            }
        },
        {
            "name": "octagon",
            "from": [
                7.03323,
                11.06847,
                7.7
            ],
            "to": [
                7.63323,
                11.58268,
                8.3
            ],
            "rotation": {
                "angle": 0,
                "axis": "y",
                "origin": [
                    7.28323,
                    11.27558,
                    8
                ]
            },
            "faces": {
                "north": {
                    "uv": [
                        0.66667,
                        6,
                        1.66667,
                        7
                    ],
                    "rotation": 90,
                    "texture": "#1"
                },
                "east": {
                    "uv": [
                        0.66667,
                        6,
                        1.66667,
                        7
                    ],
                    "rotation": 270,
                    "texture": "#1"
                },
                "south": {
                    "uv": [
                        0.66667,
                        6,
                        1.66667,
                        7
                    ],
                    "rotation": 270,
                    "texture": "#1"
                },
                "west": {
                    "uv": [
                        0.66667,
                        6,
                        1.66667,
                        7
                    ],
                    "rotation": 270,
                    "texture": "#1"
                },
                "up": {
                    "uv": [
                        0.66667,
                        6,
                        1.66667,
                        7
                    ],
                    "rotation": 270,
                    "texture": "#1"
                },
                "down": {
                    "uv": [
                        0.66667,
                        6,
                        1.66667,
                        7
                    ],
                    "rotation": 270,
                    "texture": "#1"
                }
            }
        },
        {
            "name": "octagon",
            "from": [
                6.7529,
                10.95235,
                7.4
            ],
            "to": [
                7.2529,
                11.26657,
                8.6
            ],
            "rotation": {
                "angle": 45,
                "axis": "z",
                "origin": [
                    7.0029,
                    11.15946,
                    8
                ]
            },
            "faces": {
                "north": {
                    "uv": [
                        0.66667,
                        6,
                        1.66667,
                        7
                    ],
                    "rotation": 90,
                    "texture": "#1"
                },
                "east": {
                    "uv": [
                        0.66667,
                        6,
                        1.66667,
                        7
                    ],
                    "rotation": 270,
                    "texture": "#1"
                },
                "south": {
                    "uv": [
                        0.66667,
                        6,
                        1.66667,
                        7
                    ],
                    "rotation": 270,
                    "texture": "#1"
                },
                "west": {
                    "uv": [
                        0.66667,
                        6,
                        1.66667,
                        7
                    ],
                    "rotation": 270,
                    "texture": "#1"
                },
                "up": {
                    "uv": [
                        0.66667,
                        6,
                        1.66667,
                        7
                    ],
                    "rotation": 270,
                    "texture": "#1"
                },
                "down": {
                    "uv": [
                        0.66667,
                        6,
                        1.66667,
                        7
                    ],
                    "rotation": 270,
                    "texture": "#1"
                }
            }
        },
        {
            "name": "octagon",
            "from": [
                6.64656,
                10.88646,
                7.4
            ],
            "to": [
                6.96077,
                11.03646,
                8.6
            ],
            "rotation": {
                "angle": -22.5,
                "axis": "z",
                "origin": [
                    6.75367,
                    10.78646,
                    8
                ]
            },
            "faces": {
                "north": {
                    "uv": [
                        0.66667,
                        6,
                        1.66667,
                        7
                    ],
                    "rotation": 180,
                    "texture": "#1"
                },
                "east": {
                    "uv": [
                        0.66667,
                        6,
                        1.66667,
                        7
                    ],
                    "rotation": 180,
                    "texture": "#1"
                },
                "south": {
                    "uv": [
                        0.66667,
                        6,
                        1.66667,
                        7
                    ],
                    "rotation": 180,
                    "texture": "#1"
                },
                "west": {
                    "uv": [
                        0.66667,
                        6,
                        1.66667,
                        7
                    ],
                    "rotation": 180,
                    "texture": "#1"
                },
                "up": {
                    "uv": [
                        0.66667,
                        6,
                        1.66667,
                        7
                    ],
                    "rotation": 180,
                    "texture": "#1"
                },
                "down": {
                    "uv": [
                        0.66667,
                        6,
                        1.66667,
                        7
                    ],
                    "rotation": 180,
                    "texture": "#1"
                }
            }
        },
        {
            "name": "octagon",
            "from": [
                6.56824,
                10.8189,
                8.3
            ],
            "to": [
                6.98245,
                11.0689,
                8.6
            ],
            "rotation": {
                "angle": -22.5,
                "axis": "z",
                "origin": [
                    6.77534,
                    10.8189,
                    8
                ]
            },
            "faces": {
                "north": {
                    "uv": [
                        0.66667,
                        6,
                        1.66667,
                        7
                    ],
                    "rotation": 180,
                    "texture": "#1"
                },
                "east": {
                    "uv": [
                        0.66667,
                        6,
                        1.66667,
                        7
                    ],
                    "rotation": 180,
                    "texture": "#1"
                },
                "south": {
                    "uv": [
                        0.66667,
                        6,
                        1.66667,
                        7
                    ],
                    "rotation": 180,
                    "texture": "#1"
                },
                "west": {
                    "uv": [
                        0.66667,
                        6,
                        1.66667,
                        7
                    ],
                    "rotation": 180,
                    "texture": "#1"
                },
                "up": {
                    "uv": [
                        0.66667,
                        6,
                        1.66667,
                        7
                    ],
                    "rotation": 180,
                    "texture": "#1"
                },
                "down": {
                    "uv": [
                        0.66667,
                        6,
                        1.66667,
                        7
                    ],
                    "rotation": 180,
                    "texture": "#1"
                }
            }
        },
        {
            "name": "octagon",
            "from": [
                6.684,
                7.94816,
                8.3
            ],
            "to": [
                7.084,
                11.19816,
                8.7
            ],
            "rotation": {
                "angle": 45,
                "axis": "y",
                "origin": [
                    6.884,
                    9.57316,
                    8.5
                ]
            },
            "faces": {
                "north": {
                    "uv": [
                        0.66667,
                        6,
                        1.66667,
                        7
                    ],
                    "rotation": 180,
                    "texture": "#1"
                },
                "east": {
                    "uv": [
                        0.66667,
                        6,
                        1.66667,
                        7
                    ],
                    "rotation": 180,
                    "texture": "#1"
                },
                "south": {
                    "uv": [
                        0.66667,
                        6,
                        1.66667,
                        7
                    ],
                    "rotation": 180,
                    "texture": "#1"
                },
                "west": {
                    "uv": [
                        0.66667,
                        6,
                        1.66667,
                        7
                    ],
                    "rotation": 180,
                    "texture": "#1"
                },
                "up": {
                    "uv": [
                        0.66667,
                        6,
                        1.66667,
                        7
                    ],
                    "rotation": 270,
                    "texture": "#1"
                },
                "down": {
                    "uv": [
                        0.66667,
                        6,
                        1.66667,
                        7
                    ],
                    "rotation": 90,
                    "texture": "#1"
                }
            }
        },
        {
            "name": "octagon",
            "from": [
                6.734,
                7.44816,
                7.8
            ],
            "to": [
                7.134,
                10.94816,
                8.2
            ],
            "rotation": {
                "angle": 45,
                "axis": "y",
                "origin": [
                    6.934,
                    9.32316,
                    8
                ]
            },
            "faces": {
                "north": {
                    "uv": [
                        0.66667,
                        6,
                        1.66667,
                        7
                    ],
                    "rotation": 180,
                    "texture": "#1"
                },
                "east": {
                    "uv": [
                        0.66667,
                        6,
                        1.66667,
                        7
                    ],
                    "rotation": 180,
                    "texture": "#1"
                },
                "south": {
                    "uv": [
                        0.66667,
                        6,
                        1.66667,
                        7
                    ],
                    "rotation": 180,
                    "texture": "#1"
                },
                "west": {
                    "uv": [
                        0.66667,
                        6,
                        1.66667,
                        7
                    ],
                    "rotation": 180,
                    "texture": "#1"
                },
                "up": {
                    "uv": [
                        0.66667,
                        6,
                        1.66667,
                        7
                    ],
                    "rotation": 270,
                    "texture": "#1"
                },
                "down": {
                    "uv": [
                        0.66667,
                        6,
                        1.66667,
                        7
                    ],
                    "rotation": 90,
                    "texture": "#1"
                }
            }
        },
        {
            "name": "octagon",
            "from": [
                6.684,
                7.19816,
                7.4
            ],
            "to": [
                7.084,
                11.19816,
                7.8
            ],
            "rotation": {
                "angle": 45,
                "axis": "y",
                "origin": [
                    6.884,
                    9.57316,
                    7.6
                ]
            },
            "faces": {
                "north": {
                    "uv": [
                        0.66667,
                        6,
                        1.66667,
                        7
                    ],
                    "rotation": 180,
                    "texture": "#1"
                },
                "east": {
                    "uv": [
                        0.66667,
                        6,
                        1.66667,
                        7
                    ],
                    "rotation": 180,
                    "texture": "#1"
                },
                "south": {
                    "uv": [
                        0.66667,
                        6,
                        1.66667,
                        7
                    ],
                    "rotation": 180,
                    "texture": "#1"
                },
                "west": {
                    "uv": [
                        0.66667,
                        6,
                        1.66667,
                        7
                    ],
                    "rotation": 180,
                    "texture": "#1"
                },
                "up": {
                    "uv": [
                        0.66667,
                        6,
                        1.66667,
                        7
                    ],
                    "rotation": 270,
                    "texture": "#1"
                },
                "down": {
                    "uv": [
                        0.66667,
                        6,
                        1.66667,
                        7
                    ],
                    "rotation": 90,
                    "texture": "#1"
                }
            }
        },
        {
            "name": "octagon",
            "from": [
                6.56824,
                10.8189,
                7.4
            ],
            "to": [
                6.98245,
                11.0689,
                7.7
            ],
            "rotation": {
                "angle": -22.5,
                "axis": "z",
                "origin": [
                    6.77534,
                    10.8189,
                    7.1
                ]
            },
            "faces": {
                "north": {
                    "uv": [
                        0.66667,
                        6,
                        1.66667,
                        7
                    ],
                    "rotation": 180,
                    "texture": "#1"
                },
                "east": {
                    "uv": [
                        0.66667,
                        6,
                        1.66667,
                        7
                    ],
                    "rotation": 180,
                    "texture": "#1"
                },
                "south": {
                    "uv": [
                        0.66667,
                        6,
                        1.66667,
                        7
                    ],
                    "rotation": 180,
                    "texture": "#1"
                },
                "west": {
                    "uv": [
                        0.66667,
                        6,
                        1.66667,
                        7
                    ],
                    "rotation": 180,
                    "texture": "#1"
                },
                "up": {
                    "uv": [
                        0.66667,
                        6,
                        1.66667,
                        7
                    ],
                    "rotation": 180,
                    "texture": "#1"
                },
                "down": {
                    "uv": [
                        0.66667,
                        6,
                        1.66667,
                        7
                    ],
                    "rotation": 180,
                    "texture": "#1"
                }
            }
        },
        {
            "name": "octagon",
            "from": [
                6.79298,
                7.76984,
                7.4
            ],
            "to": [
                7.0072,
                10.91984,
                8.6
            ],
            "rotation": {
                "angle": 0,
                "axis": "y",
                "origin": [
                    6.80009,
                    10.86984,
                    8
                ]
            },
            "faces": {
                "north": {
                    "uv": [
                        0.66667,
                        6,
                        1.66667,
                        7
                    ],
                    "rotation": 180,
                    "texture": "#1"
                },
                "east": {
                    "uv": [
                        0.66667,
                        6,
                        1.66667,
                        7
                    ],
                    "rotation": 180,
                    "texture": "#1"
                },
                "south": {
                    "uv": [
                        0.66667,
                        6,
                        1.66667,
                        7
                    ],
                    "rotation": 180,
                    "texture": "#1"
                },
                "west": {
                    "uv": [
                        0.66667,
                        6,
                        1.66667,
                        7
                    ],
                    "rotation": 180,
                    "texture": "#1"
                },
                "up": {
                    "uv": [
                        0.66667,
                        6,
                        1.66667,
                        7
                    ],
                    "rotation": 180,
                    "texture": "#1"
                },
                "down": {
                    "uv": [
                        0.66667,
                        6,
                        1.66667,
                        7
                    ],
                    "rotation": 180,
                    "texture": "#1"
                }
            }
        },
        {
            "name": "octagon",
            "from": [
                6.7529,
                10.95235,
                8.25
            ],
            "to": [
                7.2529,
                11.36657,
                8.6
            ],
            "rotation": {
                "angle": 45,
                "axis": "z",
                "origin": [
                    7.0029,
                    11.15946,
                    8
                ]
            },
            "faces": {
                "north": {
                    "uv": [
                        0.66667,
                        6,
                        1.66667,
                        7
                    ],
                    "rotation": 90,
                    "texture": "#1"
                },
                "east": {
                    "uv": [
                        0.66667,
                        6,
                        1.66667,
                        7
                    ],
                    "rotation": 270,
                    "texture": "#1"
                },
                "south": {
                    "uv": [
                        0.66667,
                        6,
                        1.66667,
                        7
                    ],
                    "rotation": 270,
                    "texture": "#1"
                },
                "west": {
                    "uv": [
                        0.66667,
                        6,
                        1.66667,
                        7
                    ],
                    "rotation": 270,
                    "texture": "#1"
                },
                "up": {
                    "uv": [
                        0.66667,
                        6,
                        1.66667,
                        7
                    ],
                    "rotation": 270,
                    "texture": "#1"
                },
                "down": {
                    "uv": [
                        0.66667,
                        6,
                        1.66667,
                        7
                    ],
                    "rotation": 270,
                    "texture": "#1"
                }
            }
        },
        {
            "name": "octagon",
            "from": [
                6.7529,
                10.95235,
                7.4
            ],
            "to": [
                7.2529,
                11.36657,
                7.75
            ],
            "rotation": {
                "angle": 45,
                "axis": "z",
                "origin": [
                    7.0029,
                    11.15946,
                    7.25
                ]
            },
            "faces": {
                "north": {
                    "uv": [
                        0.66667,
                        6,
                        1.66667,
                        7
                    ],
                    "rotation": 90,
                    "texture": "#1"
                },
                "east": {
                    "uv": [
                        0.66667,
                        6,
                        1.66667,
                        7
                    ],
                    "rotation": 270,
                    "texture": "#1"
                },
                "south": {
                    "uv": [
                        0.66667,
                        6,
                        1.66667,
                        7
                    ],
                    "rotation": 270,
                    "texture": "#1"
                },
                "west": {
                    "uv": [
                        0.66667,
                        6,
                        1.66667,
                        7
                    ],
                    "rotation": 270,
                    "texture": "#1"
                },
                "up": {
                    "uv": [
                        0.66667,
                        6,
                        1.66667,
                        7
                    ],
                    "rotation": 270,
                    "texture": "#1"
                },
                "down": {
                    "uv": [
                        0.66667,
                        6,
                        1.66667,
                        7
                    ],
                    "rotation": 270,
                    "texture": "#1"
                }
            }
        }
    ],
    "display": {
        "thirdperson_righthand": {
            "rotation": [
                0,
                90,
                0
            ],
            "translation": [
                0,
                4.75,
                1.75
            ]
        },
        "thirdperson_lefthand": {
            "rotation": [
                0,
                -90,
                0
            ],
            "translation": [
                0,
                4.75,
                1.75
            ]
        },
        "firstperson_righthand": {
            "translation": [
                -1,
                4,
                1.75
            ]
        },
        "firstperson_lefthand": {
            "translation": [
                -1,
                4,
                1.75
            ]
        },
        "ground": {
            "translation": [
                0,
                2.75,
                0
            ]
        },
        "gui": {
            "translation": [
                0,
                2,
                0
            ],
            "scale": [
                1.5,
                1.5,
                1.5
            ]
        }
    }
}