{
	"credit": "Made with Blockbench",
	"textures": {
		"0": "gci:items/gun_asha/all_in_one",
		"particle": "gci:items/gun_asha/all_in_one"
	},
	"elements": [
		{
			"from": [8.05906, 6.91312, 9.016],
			"to": [8.64306, 9.63212, 11.072],
			"rotation": {"angle": 0, "axis": "y", "origin": [15.80306, 17.82512, 9.624]},
			"faces": {
				"north": {"uv": [3.75, 2.625, 4.75, 3.5], "rotation": 90, "texture": "#0"},
				"east": {"uv": [3.75, 2.625, 4.75, 3.5], "rotation": 90, "texture": "#0"},
				"south": {"uv": [3.75, 2.625, 4.75, 3.5], "rotation": 90, "texture": "#0"},
				"west": {"uv": [3.75, 2.625, 4.75, 3.5], "rotation": 90, "texture": "#0"},
				"up": {"uv": [3.75, 2.625, 4.75, 3.5], "rotation": 90, "texture": "#0"},
				"down": {"uv": [3.75, 2.625, 4.75, 3.5], "rotation": 90, "texture": "#0"}
			}
		},
		{
			"from": [8.0592, 5.299, 8.73399],
			"to": [8.6412, 7.41, 10.62999],
			"rotation": {"angle": 22.5, "axis": "x", "origin": [8.35106, 6.0505, 9.60199]},
			"faces": {
				"north": {"uv": [3.75, 2.625, 4.75, 3.5], "rotation": 90, "texture": "#0"},
				"east": {"uv": [3.75, 2.625, 4.75, 3.5], "rotation": 90, "texture": "#0"},
				"south": {"uv": [3.75, 2.625, 4.75, 3.5], "rotation": 90, "texture": "#0"},
				"west": {"uv": [3.75, 2.625, 4.75, 3.5], "rotation": 90, "texture": "#0"},
				"up": {"uv": [3.75, 2.625, 4.75, 3.5], "rotation": 90, "texture": "#0"},
				"down": {"uv": [3.75, 2.625, 4.75, 3.5], "rotation": 90, "texture": "#0"}
			}
		}
	],
	"display": {
		"thirdperson_righthand": {
			"rotation": [0, 0, 7],
			"translation": [-1.5, -1.75, 2.75],
			"scale": [1.14, 1, 1]
		},
		"thirdperson_lefthand": {
			"rotation": [0, 0, 7],
			"translation": [-1.5, -1.75, 2.75],
			"scale": [1.14, 1, 1]
		},
		"firstperson_righthand": {
			"translation": [-5.25, 3.5, 2.75],
			"scale": [1.25, 1.19, 1.14]
		},
		"firstperson_lefthand": {
			"translation": [-5.25, 3.5, 2.75],
			"scale": [1.25, 1.19, 1.14]
		},
		"gui": {
			"rotation": [23, 38, -16],
			"translation": [-0.25, -1.25, 0],
			"scale": [1.64, 1.41461, 1.27094]
		},
		"head": {
			"rotation": [0, -139.5, 90],
			"translation": [-2.5, 6.5, 2.5],
			"scale": [1.89781, 1.89781, 1.89781]
		},
		"fixed": {
			"rotation": [0, 90, 0],
			"translation": [0, 0, -1.25],
			"scale": [1.22, 1.22, 1.22]
		}
	}
}