{
	"credit": "Made with Blockbench",
	"textures": {
		"2": "gci:items/gun_asha/mpz2",
		"particle": "gci:items/gun_asha/all_in_one"
	},
	"elements": [
		{
			"from": [8.262, 8.7149, -5.6359],
			"to": [8.3945, 8.9149, -1.3359],
			"rotation": {"angle": 0, "axis": "y", "origin": [8.362, 9.0274, -2.3859]},
			"faces": {
				"north": {"uv": [5.5, 5.5, 6.57, 7.188], "rotation": 180, "texture": "#2"},
				"east": {"uv": [5.5, 5.5, 6.57, 7.188], "rotation": 180, "texture": "#2"},
				"south": {"uv": [5.5, 5.5, 6.57, 7.188], "rotation": 180, "texture": "#2"},
				"west": {"uv": [5.5, 5.5, 6.57, 7.188], "rotation": 180, "texture": "#2"},
				"up": {"uv": [5.5, 5.5, 6.57, 7.188], "rotation": 180, "texture": "#2"},
				"down": {"uv": [5.5, 5.5, 6.57, 7.188], "rotation": 180, "texture": "#2"}
			}
		},
		{
			"from": [8.262, 8.5149, -3.4359],
			"to": [8.3945, 8.7149, -1.3359],
			"rotation": {"angle": 0, "axis": "y", "origin": [8.362, 8.8274, -2.3859]},
			"faces": {
				"north": {"uv": [8.5, 5, 11.076, 7.188], "rotation": 180, "texture": "#2"},
				"east": {"uv": [8.5, 5, 11.076, 7.188], "rotation": 180, "texture": "#2"},
				"south": {"uv": [8.5, 5, 11.076, 7.188], "rotation": 180, "texture": "#2"},
				"west": {"uv": [8.5, 5, 11.076, 7.188], "rotation": 180, "texture": "#2"},
				"up": {"uv": [8.5, 5, 11.076, 7.188], "rotation": 180, "texture": "#2"},
				"down": {"uv": [8.5, 5, 11.076, 7.188], "rotation": 180, "texture": "#2"}
			}
		},
		{
			"from": [8.262, 8.3149, -5.6359],
			"to": [8.3945, 8.5149, -1.3359],
			"rotation": {"angle": 0, "axis": "y", "origin": [8.362, 8.6274, -2.3859]},
			"faces": {
				"north": {"uv": [5.5, 5.5, 6.57, 7.188], "rotation": 180, "texture": "#2"},
				"east": {"uv": [5.5, 5.5, 6.57, 7.188], "rotation": 180, "texture": "#2"},
				"south": {"uv": [5.5, 5.5, 6.57, 7.188], "rotation": 180, "texture": "#2"},
				"west": {"uv": [5.5, 5.5, 6.57, 7.188], "rotation": 180, "texture": "#2"},
				"up": {"uv": [5.5, 5.5, 6.57, 7.188], "rotation": 180, "texture": "#2"},
				"down": {"uv": [5.5, 5.5, 6.57, 7.188], "rotation": 180, "texture": "#2"}
			}
		},
		{
			"from": [8.277, 8.5149, -5.8359],
			"to": [8.377, 8.7149, -3.4359],
			"rotation": {"angle": 0, "axis": "y", "origin": [8.362, 8.8274, -2.3859]},
			"faces": {
				"north": {"uv": [0.5, 4.5, 3.076, 6.688], "rotation": 180, "texture": "#2"},
				"east": {"uv": [0.5, 4.5, 3.076, 6.688], "rotation": 180, "texture": "#2"},
				"south": {"uv": [0.5, 4.5, 3.076, 6.688], "rotation": 180, "texture": "#2"},
				"west": {"uv": [0.5, 4.5, 3.076, 6.688], "rotation": 180, "texture": "#2"},
				"up": {"uv": [0.5, 4.5, 3.076, 6.688], "rotation": 180, "texture": "#2"},
				"down": {"uv": [0.5, 4.5, 3.076, 6.688], "rotation": 180, "texture": "#2"}
			}
		},
		{
			"from": [8.262, 8.60771, -6.0748],
			"to": [8.3945, 8.80771, -5.5748],
			"rotation": {"angle": -22.5, "axis": "x", "origin": [8.32825, 8.70771, -5.8748]},
			"faces": {
				"north": {"uv": [5.5, 5.5, 6.57, 7.188], "rotation": 180, "texture": "#2"},
				"east": {"uv": [5.5, 5.5, 6.57, 7.188], "rotation": 180, "texture": "#2"},
				"south": {"uv": [5.5, 5.5, 6.57, 7.188], "rotation": 180, "texture": "#2"},
				"west": {"uv": [5.5, 5.5, 6.57, 7.188], "rotation": 180, "texture": "#2"},
				"up": {"uv": [5.5, 5.5, 6.57, 7.188], "rotation": 180, "texture": "#2"},
				"down": {"uv": [5.5, 5.5, 6.57, 7.188], "rotation": 180, "texture": "#2"}
			}
		},
		{
			"from": [8.262, 8.42209, -6.0748],
			"to": [8.3945, 8.62209, -5.5748],
			"rotation": {"angle": 22.5, "axis": "x", "origin": [8.32825, 8.52209, -5.8748]},
			"faces": {
				"north": {"uv": [5.5, 5.5, 6.57, 7.188], "rotation": 180, "texture": "#2"},
				"east": {"uv": [5.5, 5.5, 6.57, 7.188], "rotation": 180, "texture": "#2"},
				"south": {"uv": [5.5, 5.5, 6.57, 7.188], "rotation": 180, "texture": "#2"},
				"west": {"uv": [5.5, 5.5, 6.57, 7.188], "rotation": 180, "texture": "#2"},
				"up": {"uv": [5.5, 5.5, 6.57, 7.188], "rotation": 180, "texture": "#2"},
				"down": {"uv": [5.5, 5.5, 6.57, 7.188], "rotation": 180, "texture": "#2"}
			}
		},
		{
			"from": [8.262, 8.4086, -6.14043],
			"to": [8.3945, 8.5626, -5.98643],
			"rotation": {"angle": -45, "axis": "x", "origin": [8.32825, 8.5086, -6.23643]},
			"faces": {
				"north": {"uv": [5.5, 5.5, 6.57, 7.188], "rotation": 180, "texture": "#2"},
				"east": {"uv": [5.5, 5.5, 6.57, 7.188], "rotation": 180, "texture": "#2"},
				"south": {"uv": [5.5, 5.5, 6.57, 7.188], "rotation": 180, "texture": "#2"},
				"west": {"uv": [5.5, 5.5, 6.57, 7.188], "rotation": 180, "texture": "#2"},
				"up": {"uv": [5.5, 5.5, 6.57, 7.188], "rotation": 180, "texture": "#2"},
				"down": {"uv": [5.5, 5.5, 6.57, 7.188], "rotation": 180, "texture": "#2"}
			}
		},
		{
			"from": [8.162, 8.3149, -1.2359],
			"to": [8.4945, 8.8399, 1.0641],
			"rotation": {"angle": 0, "axis": "y", "origin": [8.362, 8.9274, 0.0141]},
			"faces": {
				"north": {"uv": [4.5, 1, 7.076, 3.188], "rotation": 180, "texture": "#2"},
				"east": {"uv": [4.5, 1, 7.076, 3.188], "rotation": 180, "texture": "#2"},
				"south": {"uv": [4.5, 1, 7.076, 3.188], "rotation": 180, "texture": "#2"},
				"west": {"uv": [4.5, 1, 7.076, 3.188], "rotation": 180, "texture": "#2"},
				"up": {"uv": [4.5, 1, 7.076, 3.188], "rotation": 180, "texture": "#2"},
				"down": {"uv": [4.5, 1, 7.076, 3.188], "rotation": 180, "texture": "#2"}
			}
		},
		{
			"from": [8.37379, 8.3149, 1.0141],
			"to": [8.47379, 8.8399, 1.1141],
			"rotation": {"angle": 45, "axis": "y", "origin": [8.42379, 8.5774, 1.0641]},
			"faces": {
				"north": {"uv": [4.5, 1, 7.076, 3.188], "rotation": 180, "texture": "#2"},
				"east": {"uv": [4.5, 1, 7.076, 3.188], "rotation": 180, "texture": "#2"},
				"south": {"uv": [4.5, 1, 7.076, 3.188], "rotation": 180, "texture": "#2"},
				"west": {"uv": [4.5, 1, 7.076, 3.188], "rotation": 180, "texture": "#2"},
				"up": {"uv": [4.5, 1, 7.076, 3.188], "rotation": 180, "texture": "#2"},
				"down": {"uv": [4.5, 1, 7.076, 3.188], "rotation": 180, "texture": "#2"}
			}
		},
		{
			"from": [8.18271, 8.3149, 1.0141],
			"to": [8.28271, 8.8399, 1.1141],
			"rotation": {"angle": 45, "axis": "y", "origin": [8.23271, 8.5774, 1.0641]},
			"faces": {
				"north": {"uv": [4.5, 1, 7.076, 3.188], "rotation": 180, "texture": "#2"},
				"east": {"uv": [4.5, 1, 7.076, 3.188], "rotation": 180, "texture": "#2"},
				"south": {"uv": [4.5, 1, 7.076, 3.188], "rotation": 180, "texture": "#2"},
				"west": {"uv": [4.5, 1, 7.076, 3.188], "rotation": 180, "texture": "#2"},
				"up": {"uv": [4.5, 1, 7.076, 3.188], "rotation": 180, "texture": "#2"},
				"down": {"uv": [4.5, 1, 7.076, 3.188], "rotation": 180, "texture": "#2"}
			}
		},
		{
			"from": [8.19307, 8.7649, -1.2359],
			"to": [8.29307, 8.8649, 1.0641],
			"rotation": {"angle": -45, "axis": "z", "origin": [8.26807, 8.8399, -0.0859]},
			"faces": {
				"north": {"uv": [4.5, 1, 7.076, 3.188], "rotation": 180, "texture": "#2"},
				"east": {"uv": [4.5, 1, 7.076, 3.188], "rotation": 180, "texture": "#2"},
				"south": {"uv": [4.5, 1, 7.076, 3.188], "rotation": 180, "texture": "#2"},
				"west": {"uv": [4.5, 1, 7.076, 3.188], "rotation": 180, "texture": "#2"},
				"up": {"uv": [4.5, 1, 7.076, 3.188], "rotation": 180, "texture": "#2"},
				"down": {"uv": [4.5, 1, 7.076, 3.188], "rotation": 180, "texture": "#2"}
			}
		},
		{
			"from": [8.23271, 8.81061, -1.2359],
			"to": [8.42271, 8.91061, 1.0641],
			"rotation": {"angle": 0, "axis": "y", "origin": [8.28271, 8.86061, -0.0859]},
			"faces": {
				"north": {"uv": [4.5, 1, 7.076, 3.188], "texture": "#2"},
				"east": {"uv": [4.5, 1, 7.076, 3.188], "texture": "#2"},
				"south": {"uv": [4.5, 1, 7.076, 3.188], "texture": "#2"},
				"west": {"uv": [4.5, 1, 7.076, 3.188], "texture": "#2"},
				"up": {"uv": [4.5, 1, 7.076, 3.188], "texture": "#2"},
				"down": {"uv": [4.5, 1, 7.076, 3.188], "texture": "#2"}
			}
		},
		{
			"from": [8.23379, 8.3149, 1.03481],
			"to": [8.42379, 8.8399, 1.13481],
			"rotation": {"angle": 0, "axis": "y", "origin": [8.28379, 8.7649, -0.01519]},
			"faces": {
				"north": {"uv": [4.5, 1, 7.076, 3.188], "texture": "#2"},
				"east": {"uv": [4.5, 1, 7.076, 3.188], "texture": "#2"},
				"south": {"uv": [4.5, 1, 7.076, 3.188], "texture": "#2"},
				"west": {"uv": [4.5, 1, 7.076, 3.188], "texture": "#2"},
				"up": {"uv": [4.5, 1, 7.076, 3.188], "texture": "#2"},
				"down": {"uv": [4.5, 1, 7.076, 3.188], "texture": "#2"}
			}
		},
		{
			"from": [8.23271, 8.7899, 1.0141],
			"to": [8.42271, 8.8899, 1.1141],
			"rotation": {"angle": -45, "axis": "x", "origin": [8.32771, 8.8399, 1.0641]},
			"faces": {
				"north": {"uv": [4.5, 1, 7.076, 3.188], "texture": "#2"},
				"east": {"uv": [4.5, 1, 7.076, 3.188], "texture": "#2"},
				"south": {"uv": [4.5, 1, 7.076, 3.188], "texture": "#2"},
				"west": {"uv": [4.5, 1, 7.076, 3.188], "texture": "#2"},
				"up": {"uv": [4.5, 1, 7.076, 3.188], "texture": "#2"},
				"down": {"uv": [4.5, 1, 7.076, 3.188], "texture": "#2"}
			}
		},
		{
			"from": [8.04071, 8.17461, -0.5399],
			"to": [8.64671, 9.27061, 0.3921],
			"rotation": {"angle": 0, "axis": "y", "origin": [8.32771, 8.96061, 0.2461]},
			"faces": {
				"north": {"uv": [8.5, 1.5, 11.076, 3.688], "rotation": 270, "texture": "#2"},
				"east": {"uv": [8.5, 1.5, 11.076, 3.688], "rotation": 270, "texture": "#2"},
				"south": {"uv": [8.5, 1.5, 11.076, 3.688], "rotation": 270, "texture": "#2"},
				"west": {"uv": [8.5, 1.5, 11.076, 3.688], "rotation": 270, "texture": "#2"},
				"up": {"uv": [8.5, 1.5, 11.076, 3.688], "rotation": 270, "texture": "#2"},
				"down": {"uv": [8.5, 1.5, 11.076, 3.688], "rotation": 270, "texture": "#2"}
			}
		},
		{
			"from": [8.00871, 9.07061, -0.4759],
			"to": [8.67871, 9.17461, -0.3759],
			"rotation": {"angle": 45, "axis": "x", "origin": [8.34371, 9.07461, -0.3779]},
			"faces": {
				"north": {"uv": [8.5, 4.5, 11.076, 6.688], "rotation": 270, "texture": "#2"},
				"east": {"uv": [8.5, 4.5, 11.076, 6.688], "rotation": 270, "texture": "#2"},
				"south": {"uv": [8.5, 4.5, 11.076, 6.688], "rotation": 270, "texture": "#2"},
				"west": {"uv": [8.5, 4.5, 11.076, 6.688], "rotation": 270, "texture": "#2"},
				"up": {"uv": [8.5, 4.5, 11.076, 6.688], "rotation": 270, "texture": "#2"},
				"down": {"uv": [8.5, 4.5, 11.076, 6.688], "rotation": 270, "texture": "#2"}
			}
		},
		{
			"from": [8.00871, 9.07061, 0.1641],
			"to": [8.67871, 9.17461, 0.2641],
			"rotation": {"angle": 45, "axis": "x", "origin": [8.34371, 9.07461, 0.2621]},
			"faces": {
				"north": {"uv": [8.5, 4.5, 11.076, 6.688], "rotation": 270, "texture": "#2"},
				"east": {"uv": [8.5, 4.5, 11.076, 6.688], "rotation": 270, "texture": "#2"},
				"south": {"uv": [8.5, 4.5, 11.076, 6.688], "rotation": 270, "texture": "#2"},
				"west": {"uv": [8.5, 4.5, 11.076, 6.688], "rotation": 270, "texture": "#2"},
				"up": {"uv": [8.5, 4.5, 11.076, 6.688], "rotation": 270, "texture": "#2"},
				"down": {"uv": [8.5, 4.5, 11.076, 6.688], "rotation": 270, "texture": "#2"}
			}
		},
		{
			"from": [8.23379, 8.2649, 1.0141],
			"to": [8.42379, 8.3649, 1.1141],
			"rotation": {"angle": -45, "axis": "x", "origin": [8.32879, 8.3149, 1.0641]},
			"faces": {
				"north": {"uv": [4.5, 1, 7.076, 3.188], "texture": "#2"},
				"east": {"uv": [4.5, 1, 7.076, 3.188], "texture": "#2"},
				"south": {"uv": [4.5, 1, 7.076, 3.188], "texture": "#2"},
				"west": {"uv": [4.5, 1, 7.076, 3.188], "texture": "#2"},
				"up": {"uv": [4.5, 1, 7.076, 3.188], "texture": "#2"},
				"down": {"uv": [4.5, 1, 7.076, 3.188], "texture": "#2"}
			}
		},
		{
			"from": [8.23271, 8.24419, -1.2359],
			"to": [8.42271, 8.34419, 1.0641],
			"rotation": {"angle": 0, "axis": "y", "origin": [8.28271, 8.29419, -0.0859]},
			"faces": {
				"north": {"uv": [4.5, 1, 7.076, 3.188], "texture": "#2"},
				"east": {"uv": [4.5, 1, 7.076, 3.188], "texture": "#2"},
				"south": {"uv": [4.5, 1, 7.076, 3.188], "texture": "#2"},
				"west": {"uv": [4.5, 1, 7.076, 3.188], "texture": "#2"},
				"up": {"uv": [4.5, 1, 7.076, 3.188], "texture": "#2"},
				"down": {"uv": [4.5, 1, 7.076, 3.188], "texture": "#2"}
			}
		},
		{
			"from": [8.38414, 8.7649, -1.2359],
			"to": [8.48414, 8.8649, 1.0641],
			"rotation": {"angle": -45, "axis": "z", "origin": [8.45914, 8.8399, -0.0859]},
			"faces": {
				"north": {"uv": [4.5, 1, 7.076, 3.188], "rotation": 180, "texture": "#2"},
				"east": {"uv": [4.5, 1, 7.076, 3.188], "rotation": 180, "texture": "#2"},
				"south": {"uv": [4.5, 1, 7.076, 3.188], "rotation": 180, "texture": "#2"},
				"west": {"uv": [4.5, 1, 7.076, 3.188], "rotation": 180, "texture": "#2"},
				"up": {"uv": [4.5, 1, 7.076, 3.188], "rotation": 180, "texture": "#2"},
				"down": {"uv": [4.5, 1, 7.076, 3.188], "rotation": 180, "texture": "#2"}
			}
		},
		{
			"from": [8.38414, 8.2399, -1.2359],
			"to": [8.48414, 8.3399, 1.0641],
			"rotation": {"angle": -45, "axis": "z", "origin": [8.45914, 8.3149, -0.0859]},
			"faces": {
				"north": {"uv": [4.5, 1, 7.076, 3.188], "rotation": 180, "texture": "#2"},
				"east": {"uv": [4.5, 1, 7.076, 3.188], "rotation": 180, "texture": "#2"},
				"south": {"uv": [4.5, 1, 7.076, 3.188], "rotation": 180, "texture": "#2"},
				"west": {"uv": [4.5, 1, 7.076, 3.188], "rotation": 180, "texture": "#2"},
				"up": {"uv": [4.5, 1, 7.076, 3.188], "rotation": 180, "texture": "#2"},
				"down": {"uv": [4.5, 1, 7.076, 3.188], "rotation": 180, "texture": "#2"}
			}
		},
		{
			"from": [8.19307, 8.2399, -1.2359],
			"to": [8.29307, 8.3399, 1.0641],
			"rotation": {"angle": -45, "axis": "z", "origin": [8.26807, 8.3149, -0.0859]},
			"faces": {
				"north": {"uv": [4.5, 1, 7.076, 3.188], "rotation": 180, "texture": "#2"},
				"east": {"uv": [4.5, 1, 7.076, 3.188], "rotation": 180, "texture": "#2"},
				"south": {"uv": [4.5, 1, 7.076, 3.188], "rotation": 180, "texture": "#2"},
				"west": {"uv": [4.5, 1, 7.076, 3.188], "rotation": 180, "texture": "#2"},
				"up": {"uv": [4.5, 1, 7.076, 3.188], "rotation": 180, "texture": "#2"},
				"down": {"uv": [4.5, 1, 7.076, 3.188], "rotation": 180, "texture": "#2"}
			}
		},
		{
			"from": [8.062, 8.064, -1.3359],
			"to": [8.5945, 8.989, -1.2359],
			"rotation": {"angle": 0, "axis": "y", "origin": [8.362, 9.0274, -2.2859]},
			"faces": {
				"north": {"uv": [4.5, 1, 7.076, 3.188], "rotation": 180, "texture": "#2"},
				"east": {"uv": [4.5, 1, 7.076, 3.188], "rotation": 180, "texture": "#2"},
				"south": {"uv": [4.5, 1, 7.076, 3.188], "rotation": 180, "texture": "#2"},
				"west": {"uv": [4.5, 1, 7.076, 3.188], "rotation": 180, "texture": "#2"},
				"up": {"uv": [4.5, 1, 7.076, 3.188], "rotation": 180, "texture": "#2"},
				"down": {"uv": [4.5, 1, 7.076, 3.188], "rotation": 180, "texture": "#2"}
			}
		},
		{
			"from": [8.062, 8.964, -1.3359],
			"to": [8.5945, 9.6, -1.2359],
			"rotation": {"angle": 0, "axis": "y", "origin": [8.362, 9.9274, -2.2859]},
			"faces": {
				"north": {"uv": [4.5, 1, 7.076, 3.188], "rotation": 180, "texture": "#2"},
				"east": {"uv": [4.5, 1, 7.076, 3.188], "rotation": 180, "texture": "#2"},
				"south": {"uv": [4.5, 1, 7.076, 3.188], "rotation": 180, "texture": "#2"},
				"west": {"uv": [4.5, 1, 7.076, 3.188], "rotation": 180, "texture": "#2"},
				"up": {"uv": [4.5, 1, 7.076, 3.188], "rotation": 180, "texture": "#2"},
				"down": {"uv": [4.5, 1, 7.076, 3.188], "rotation": 180, "texture": "#2"}
			}
		}
	],
	"display": {
		"thirdperson_righthand": {
			"rotation": [0, 0, 7],
			"translation": [-1.5, -1.75, 2.75],
			"scale": [1.14, 1, 1]
		},
		"thirdperson_lefthand": {
			"rotation": [0, 0, 7],
			"translation": [-1.5, -1.75, 2.75],
			"scale": [1.14, 1, 1]
		},
		"firstperson_righthand": {
			"translation": [-5.25, 3.5, 2.75],
			"scale": [1.25, 1.19, 1.14]
		},
		"firstperson_lefthand": {
			"translation": [-5.25, 3.5, 2.75],
			"scale": [1.25, 1.19, 1.14]
		},
		"gui": {
			"rotation": [23, 38, -16],
			"translation": [-0.25, -1.25, 0],
			"scale": [1.64, 1.41461, 1.27094]
		},
		"head": {
			"rotation": [0, -139.5, 90],
			"translation": [-2.5, 6.5, 2.5],
			"scale": [1.89781, 1.89781, 1.89781]
		},
		"fixed": {
			"rotation": [0, 90, 0],
			"translation": [0, 0, -1.25],
			"scale": [1.22, 1.22, 1.22]
		}
	}
}