{
	"credit": "Made with Blockbench",
	"textures": {
		"0": "gci:items/gun_asha/all_in_one",
		"particle": "gci:items/gun_asha/all_in_one"
	},
	"elements": [
		{
			"from": [8.42355, 8.58781, -1.656],
			"to": [8.55155, 8.76381, 0.26],
			"rotation": {"angle": 0, "axis": "y", "origin": [8.51955, 8.67581, -0.346]},
			"faces": {
				"north": {"uv": [3, 3, 3, 3], "texture": "#0"},
				"east": {"uv": [3, 3, 3, 3], "rotation": 180, "texture": "#0"},
				"south": {"uv": [3, 3, 3, 3], "rotation": 180, "texture": "#0"},
				"west": {"uv": [3, 3, 3, 3], "rotation": 180, "texture": "#0"},
				"up": {"uv": [3, 3, 3, 3], "rotation": 180, "texture": "#0"},
				"down": {"uv": [3, 3, 3, 3], "rotation": 180, "texture": "#0"}
			}
		},
		{
			"from": [8.3787, 8.70741, -1.656],
			"to": [8.5547, 8.83541, 0.26],
			"rotation": {"angle": -45, "axis": "z", "origin": [8.4667, 8.80341, -0.346]},
			"faces": {
				"north": {"uv": [3, 3, 3, 3], "rotation": 90, "texture": "#0"},
				"east": {"uv": [3, 3, 3, 3], "rotation": 90, "texture": "#0"},
				"south": {"uv": [3, 3, 3, 3], "rotation": 90, "texture": "#0"},
				"west": {"uv": [3, 3, 3, 3], "rotation": 90, "texture": "#0"},
				"up": {"uv": [3, 3, 3, 3], "rotation": 90, "texture": "#0"},
				"down": {"uv": [3, 3, 3, 3], "rotation": 90, "texture": "#0"}
			}
		},
		{
			"from": [8.2511, 8.76026, -1.656],
			"to": [8.4271, 8.88826, 0.26],
			"rotation": {"angle": 0, "axis": "y", "origin": [8.323, 8.47735, -1.70382]},
			"faces": {
				"north": {"uv": [3, 3, 3, 3], "rotation": 90, "texture": "#0"},
				"east": {"uv": [3, 3, 3, 3], "rotation": 90, "texture": "#0"},
				"south": {"uv": [3, 3, 3, 3], "rotation": 90, "texture": "#0"},
				"west": {"uv": [3, 3, 3, 3], "rotation": 90, "texture": "#0"},
				"up": {"uv": [3, 3, 3, 3], "rotation": 90, "texture": "#0"},
				"down": {"uv": [3, 3, 3, 3], "rotation": 90, "texture": "#0"}
			}
		},
		{
			"from": [8.06285, 8.65161, -1.656],
			"to": [8.19085, 8.82761, 0.26],
			"rotation": {"angle": -45, "axis": "z", "origin": [8.23019, 8.6307, -0.346]},
			"faces": {
				"north": {"uv": [3, 3, 3, 3], "rotation": 180, "texture": "#0"},
				"east": {"uv": [3, 3, 3, 3], "texture": "#0"},
				"south": {"uv": [3, 3, 3, 3], "texture": "#0"},
				"west": {"uv": [3, 3, 3, 3], "texture": "#0"},
				"up": {"uv": [3, 3, 3, 3], "texture": "#0"},
				"down": {"uv": [3, 3, 3, 3], "texture": "#0"}
			}
		},
		{
			"from": [8.1873, 8.52716, -1.656],
			"to": [8.3633, 8.65516, 0.26],
			"rotation": {"angle": -45, "axis": "z", "origin": [8.23019, 8.6307, -0.346]},
			"faces": {
				"north": {"uv": [3, 3, 3, 3], "rotation": 270, "texture": "#0"},
				"east": {"uv": [3, 3, 3, 3], "rotation": 270, "texture": "#0"},
				"south": {"uv": [3, 3, 3, 3], "rotation": 270, "texture": "#0"},
				"west": {"uv": [3, 3, 3, 3], "rotation": 270, "texture": "#0"},
				"up": {"uv": [3, 3, 3, 3], "rotation": 270, "texture": "#0"},
				"down": {"uv": [3, 3, 3, 3], "rotation": 270, "texture": "#0"}
			}
		},
		{
			"from": [8.1873, 8.52716, 0.008],
			"to": [8.3633, 8.84716, 0.26],
			"rotation": {"angle": -45, "axis": "z", "origin": [8.23019, 8.6307, -0.346]},
			"faces": {
				"north": {"uv": [3, 3, 3, 3], "rotation": 270, "texture": "#0"},
				"east": {"uv": [3, 3, 3, 3], "rotation": 270, "texture": "#0"},
				"south": {"uv": [3, 3, 3, 3], "rotation": 270, "texture": "#0"},
				"west": {"uv": [3, 3, 3, 3], "rotation": 270, "texture": "#0"},
				"up": {"uv": [3, 3, 3, 3], "rotation": 270, "texture": "#0"},
				"down": {"uv": [3, 3, 3, 3], "rotation": 270, "texture": "#0"}
			}
		},
		{
			"from": [8.12665, 8.58781, -1.656],
			"to": [8.25465, 8.76381, 0.26],
			"rotation": {"angle": 0, "axis": "y", "origin": [8.23019, 8.6307, -0.346]},
			"faces": {
				"north": {"uv": [3, 3, 3, 3], "rotation": 180, "texture": "#0"},
				"east": {"uv": [3, 3, 3, 3], "texture": "#0"},
				"south": {"uv": [3, 3, 3, 3], "texture": "#0"},
				"west": {"uv": [3, 3, 3, 3], "texture": "#0"},
				"up": {"uv": [3, 3, 3, 3], "texture": "#0"},
				"down": {"uv": [3, 3, 3, 3], "texture": "#0"}
			}
		},
		{
			"from": [8.2511, 8.46336, -1.656],
			"to": [8.4271, 8.59136, 0.26],
			"rotation": {"angle": 0, "axis": "y", "origin": [8.23019, 8.6307, -0.346]},
			"faces": {
				"north": {"uv": [3, 3, 3, 3], "rotation": 270, "texture": "#0"},
				"east": {"uv": [3, 3, 3, 3], "rotation": 270, "texture": "#0"},
				"south": {"uv": [3, 3, 3, 3], "rotation": 270, "texture": "#0"},
				"west": {"uv": [3, 3, 3, 3], "rotation": 270, "texture": "#0"},
				"up": {"uv": [3, 3, 3, 3], "rotation": 270, "texture": "#0"},
				"down": {"uv": [3, 3, 3, 3], "rotation": 270, "texture": "#0"}
			}
		},
		{
			"from": [8.2511, 8.39936, 0.872],
			"to": [8.4271, 8.87936, 1.508],
			"rotation": {"angle": 0, "axis": "y", "origin": [8.23019, 8.6307, 0.902]},
			"faces": {
				"north": {"uv": [4, 3.125, 4, 3.125], "rotation": 270, "texture": "#0"},
				"east": {"uv": [4, 3.125, 4, 3.125], "rotation": 270, "texture": "#0"},
				"south": {"uv": [4, 3.125, 4, 3.125], "rotation": 270, "texture": "#0"},
				"west": {"uv": [4, 3.125, 4, 3.125], "rotation": 270, "texture": "#0"},
				"up": {"uv": [4, 3.125, 4, 3.125], "rotation": 270, "texture": "#0"},
				"down": {"uv": [4, 3.125, 4, 3.125], "rotation": 270, "texture": "#0"}
			}
		},
		{
			"from": [8.2511, 8.21676, 0.74803],
			"to": [8.4271, 8.28076, 1.38403],
			"rotation": {"angle": 0, "axis": "y", "origin": [8.23019, 8.4161, 0.77803]},
			"faces": {
				"north": {"uv": [4, 3.125, 4, 3.125], "rotation": 270, "texture": "#0"},
				"east": {"uv": [4, 3.125, 4, 3.125], "rotation": 270, "texture": "#0"},
				"south": {"uv": [4, 3.125, 4, 3.125], "rotation": 270, "texture": "#0"},
				"west": {"uv": [4, 3.125, 4, 3.125], "rotation": 270, "texture": "#0"},
				"up": {"uv": [4, 3.125, 4, 3.125], "rotation": 270, "texture": "#0"},
				"down": {"uv": [4, 3.125, 4, 3.125], "rotation": 270, "texture": "#0"}
			}
		},
		{
			"from": [8.2511, 8.21676, 1.00403],
			"to": [8.4271, 8.50476, 1.38403],
			"rotation": {"angle": 0, "axis": "y", "origin": [8.23019, 8.4161, 0.77803]},
			"faces": {
				"north": {"uv": [4, 3.125, 4, 3.125], "rotation": 270, "texture": "#0"},
				"east": {"uv": [4, 3.125, 4, 3.125], "rotation": 270, "texture": "#0"},
				"south": {"uv": [4, 3.125, 4, 3.125], "rotation": 270, "texture": "#0"},
				"west": {"uv": [4, 3.125, 4, 3.125], "rotation": 270, "texture": "#0"},
				"up": {"uv": [4, 3.125, 4, 3.125], "rotation": 270, "texture": "#0"},
				"down": {"uv": [4, 3.125, 4, 3.125], "rotation": 270, "texture": "#0"}
			}
		},
		{
			"from": [8.2511, 8.72678, 0.75595],
			"to": [8.4271, 8.85478, 1.39195],
			"rotation": {"angle": -22.5, "axis": "x", "origin": [8.3391, 8.96678, 1.07395]},
			"faces": {
				"north": {"uv": [4, 3.125, 4, 3.125], "rotation": 270, "texture": "#0"},
				"east": {"uv": [4, 3.125, 4, 3.125], "rotation": 270, "texture": "#0"},
				"south": {"uv": [4, 3.125, 4, 3.125], "rotation": 270, "texture": "#0"},
				"west": {"uv": [4, 3.125, 4, 3.125], "rotation": 270, "texture": "#0"},
				"up": {"uv": [4, 3.125, 4, 3.125], "rotation": 270, "texture": "#0"},
				"down": {"uv": [4, 3.125, 4, 3.125], "rotation": 270, "texture": "#0"}
			}
		},
		{
			"from": [8.2511, 8.01995, 0.78322],
			"to": [8.4271, 8.14795, 0.87522],
			"rotation": {"angle": 45, "axis": "x", "origin": [8.3391, 8.19283, 1.08045]},
			"faces": {
				"north": {"uv": [4, 3.125, 4, 3.125], "rotation": 270, "texture": "#0"},
				"east": {"uv": [4, 3.125, 4, 3.125], "rotation": 270, "texture": "#0"},
				"south": {"uv": [4, 3.125, 4, 3.125], "rotation": 270, "texture": "#0"},
				"west": {"uv": [4, 3.125, 4, 3.125], "rotation": 270, "texture": "#0"},
				"up": {"uv": [4, 3.125, 4, 3.125], "rotation": 270, "texture": "#0"},
				"down": {"uv": [4, 3.125, 4, 3.125], "rotation": 270, "texture": "#0"}
			}
		},
		{
			"from": [8.2511, 8.87392, 0.57715],
			"to": [8.4271, 9.00192, 1.21315],
			"rotation": {"angle": -45, "axis": "x", "origin": [8.3391, 9.11392, 0.89515]},
			"faces": {
				"north": {"uv": [4, 3.125, 4, 3.125], "rotation": 270, "texture": "#0"},
				"east": {"uv": [4, 3.125, 4, 3.125], "rotation": 270, "texture": "#0"},
				"south": {"uv": [4, 3.125, 4, 3.125], "rotation": 270, "texture": "#0"},
				"west": {"uv": [4, 3.125, 4, 3.125], "rotation": 270, "texture": "#0"},
				"up": {"uv": [4, 3.125, 4, 3.125], "rotation": 270, "texture": "#0"},
				"down": {"uv": [4, 3.125, 4, 3.125], "rotation": 270, "texture": "#0"}
			}
		},
		{
			"from": [8.2511, 8.20536, 0.78494],
			"to": [8.4271, 8.36536, 1.00494],
			"rotation": {"angle": 22.5, "axis": "x", "origin": [8.3391, 8.19283, 1.08045]},
			"faces": {
				"north": {"uv": [4, 3.125, 4, 3.125], "rotation": 270, "texture": "#0"},
				"east": {"uv": [4, 3.125, 4, 3.125], "rotation": 270, "texture": "#0"},
				"south": {"uv": [4, 3.125, 4, 3.125], "rotation": 270, "texture": "#0"},
				"west": {"uv": [4, 3.125, 4, 3.125], "rotation": 270, "texture": "#0"},
				"up": {"uv": [4, 3.125, 4, 3.125], "rotation": 270, "texture": "#0"},
				"down": {"uv": [4, 3.125, 4, 3.125], "rotation": 270, "texture": "#0"}
			}
		},
		{
			"from": [8.04939, 8.56906, -0.024],
			"to": [8.17739, 8.80906, 0.228],
			"rotation": {"angle": 0, "axis": "y", "origin": [8.11339, 8.68906, -0.282]},
			"faces": {
				"north": {"uv": [7.5, 11.875, 7.5, 11.875], "rotation": 180, "texture": "#0"},
				"east": {"uv": [7.5, 11.875, 7.5, 11.875], "rotation": 180, "texture": "#0"},
				"south": {"uv": [7.5, 11.875, 7.5, 11.875], "rotation": 180, "texture": "#0"},
				"west": {"uv": [7.5, 11.875, 7.5, 11.875], "rotation": 180, "texture": "#0"},
				"up": {"uv": [7.5, 11.875, 7.5, 11.875], "rotation": 180, "texture": "#0"},
				"down": {"uv": [7.5, 11.875, 7.5, 11.875], "rotation": 180, "texture": "#0"}
			}
		},
		{
			"from": [8.01739, 8.53706, -0.792],
			"to": [8.14539, 9.19306, -0.54],
			"rotation": {"angle": 0, "axis": "y", "origin": [8.08139, 8.65706, -1.05]},
			"faces": {
				"north": {"uv": [2.875, 3.5, 2.875, 3.5], "rotation": 180, "texture": "#0"},
				"east": {"uv": [2.875, 3.5, 2.875, 3.5], "rotation": 180, "texture": "#0"},
				"south": {"uv": [2.875, 3.5, 2.875, 3.5], "rotation": 180, "texture": "#0"},
				"west": {"uv": [2.875, 3.5, 2.875, 3.5], "rotation": 180, "texture": "#0"},
				"up": {"uv": [2.875, 3.5, 2.875, 3.5], "rotation": 180, "texture": "#0"},
				"down": {"uv": [2.875, 3.5, 2.875, 3.5], "rotation": 180, "texture": "#0"}
			}
		},
		{
			"from": [8.01739, 8.53706, -0.024],
			"to": [8.14539, 9.19306, 0.228],
			"rotation": {"angle": 0, "axis": "y", "origin": [8.08139, 8.65706, -0.282]},
			"faces": {
				"north": {"uv": [2.875, 3.5, 2.875, 3.5], "rotation": 180, "texture": "#0"},
				"east": {"uv": [2.875, 3.5, 2.875, 3.5], "rotation": 180, "texture": "#0"},
				"south": {"uv": [2.875, 3.5, 2.875, 3.5], "rotation": 180, "texture": "#0"},
				"west": {"uv": [2.875, 3.5, 2.875, 3.5], "rotation": 180, "texture": "#0"},
				"up": {"uv": [2.875, 3.5, 2.875, 3.5], "rotation": 180, "texture": "#0"},
				"down": {"uv": [2.875, 3.5, 2.875, 3.5], "rotation": 180, "texture": "#0"}
			}
		},
		{
			"from": [8.50081, 8.56906, -0.024],
			"to": [8.62881, 8.80906, 0.228],
			"rotation": {"angle": 0, "axis": "y", "origin": [8.56481, 8.68906, -0.282]},
			"faces": {
				"north": {"uv": [7.5, 11.875, 7.5, 11.875], "texture": "#0"},
				"east": {"uv": [7.5, 11.875, 7.5, 11.875], "texture": "#0"},
				"south": {"uv": [7.5, 11.875, 7.5, 11.875], "texture": "#0"},
				"west": {"uv": [7.5, 11.875, 7.5, 11.875], "texture": "#0"},
				"up": {"uv": [7.5, 11.875, 7.5, 11.875], "texture": "#0"},
				"down": {"uv": [7.5, 11.875, 7.5, 11.875], "texture": "#0"}
			}
		},
		{
			"from": [8.53281, 8.53706, -0.792],
			"to": [8.66081, 9.19306, -0.54],
			"rotation": {"angle": 0, "axis": "y", "origin": [8.59681, 8.65706, -1.05]},
			"faces": {
				"north": {"uv": [2.875, 3.5, 2.875, 3.5], "texture": "#0"},
				"east": {"uv": [2.875, 3.5, 2.875, 3.5], "texture": "#0"},
				"south": {"uv": [2.875, 3.5, 2.875, 3.5], "texture": "#0"},
				"west": {"uv": [2.875, 3.5, 2.875, 3.5], "texture": "#0"},
				"up": {"uv": [2.875, 3.5, 2.875, 3.5], "texture": "#0"},
				"down": {"uv": [2.875, 3.5, 2.875, 3.5], "texture": "#0"}
			}
		},
		{
			"from": [8.53281, 8.53706, -0.024],
			"to": [8.66081, 9.19306, 0.228],
			"rotation": {"angle": 0, "axis": "y", "origin": [8.59681, 8.65706, -0.282]},
			"faces": {
				"north": {"uv": [2.875, 3.5, 2.875, 3.5], "texture": "#0"},
				"east": {"uv": [2.875, 3.5, 2.875, 3.5], "texture": "#0"},
				"south": {"uv": [2.875, 3.5, 2.875, 3.5], "texture": "#0"},
				"west": {"uv": [2.875, 3.5, 2.875, 3.5], "texture": "#0"},
				"up": {"uv": [2.875, 3.5, 2.875, 3.5], "texture": "#0"},
				"down": {"uv": [2.875, 3.5, 2.875, 3.5], "texture": "#0"}
			}
		},
		{
			"from": [8.2191, 8.39936, -0.024],
			"to": [8.4591, 8.52736, 0.228],
			"rotation": {"angle": 0, "axis": "y", "origin": [8.3391, 8.46336, -0.282]},
			"faces": {
				"north": {"uv": [7.5, 11.875, 7.5, 11.875], "rotation": 270, "texture": "#0"},
				"east": {"uv": [7.5, 11.875, 7.5, 11.875], "rotation": 270, "texture": "#0"},
				"south": {"uv": [7.5, 11.875, 7.5, 11.875], "rotation": 270, "texture": "#0"},
				"west": {"uv": [7.5, 11.875, 7.5, 11.875], "rotation": 270, "texture": "#0"},
				"up": {"uv": [7.5, 11.875, 7.5, 11.875], "rotation": 270, "texture": "#0"},
				"down": {"uv": [7.5, 11.875, 7.5, 11.875], "rotation": 270, "texture": "#0"}
			}
		},
		{
			"from": [8.1871, 8.36736, -0.792],
			"to": [8.4911, 8.49536, -0.54],
			"rotation": {"angle": 0, "axis": "y", "origin": [8.3711, 8.43136, -1.05]},
			"faces": {
				"north": {"uv": [2.875, 3.5, 2.875, 3.5], "rotation": 270, "texture": "#0"},
				"east": {"uv": [2.875, 3.5, 2.875, 3.5], "rotation": 270, "texture": "#0"},
				"south": {"uv": [2.875, 3.5, 2.875, 3.5], "rotation": 270, "texture": "#0"},
				"west": {"uv": [2.875, 3.5, 2.875, 3.5], "rotation": 270, "texture": "#0"},
				"up": {"uv": [2.875, 3.5, 2.875, 3.5], "rotation": 270, "texture": "#0"},
				"down": {"uv": [2.875, 3.5, 2.875, 3.5], "rotation": 270, "texture": "#0"}
			}
		},
		{
			"from": [8.1871, 8.36736, -0.024],
			"to": [8.4911, 8.49536, 0.228],
			"rotation": {"angle": 0, "axis": "y", "origin": [8.3711, 8.43136, -0.282]},
			"faces": {
				"north": {"uv": [2.875, 3.5, 2.875, 3.5], "rotation": 270, "texture": "#0"},
				"east": {"uv": [2.875, 3.5, 2.875, 3.5], "rotation": 270, "texture": "#0"},
				"south": {"uv": [2.875, 3.5, 2.875, 3.5], "rotation": 270, "texture": "#0"},
				"west": {"uv": [2.875, 3.5, 2.875, 3.5], "rotation": 270, "texture": "#0"},
				"up": {"uv": [2.875, 3.5, 2.875, 3.5], "rotation": 270, "texture": "#0"},
				"down": {"uv": [2.875, 3.5, 2.875, 3.5], "rotation": 270, "texture": "#0"}
			}
		},
		{
			"from": [8.0595, 8.46547, -0.024],
			"to": [8.2995, 8.59347, 0.228],
			"rotation": {"angle": -45, "axis": "z", "origin": [8.1795, 8.52947, -0.282]},
			"faces": {
				"north": {"uv": [7.5, 11.875, 7.5, 11.875], "rotation": 270, "texture": "#0"},
				"east": {"uv": [7.5, 11.875, 7.5, 11.875], "rotation": 270, "texture": "#0"},
				"south": {"uv": [7.5, 11.875, 7.5, 11.875], "rotation": 270, "texture": "#0"},
				"west": {"uv": [7.5, 11.875, 7.5, 11.875], "rotation": 270, "texture": "#0"},
				"up": {"uv": [7.5, 11.875, 7.5, 11.875], "rotation": 270, "texture": "#0"},
				"down": {"uv": [7.5, 11.875, 7.5, 11.875], "rotation": 270, "texture": "#0"}
			}
		},
		{
			"from": [8.0275, 8.43347, -0.792],
			"to": [8.2675, 8.56147, -0.54],
			"rotation": {"angle": -45, "axis": "z", "origin": [8.1475, 8.49747, -1.05]},
			"faces": {
				"north": {"uv": [2.875, 3.5, 2.875, 3.5], "rotation": 270, "texture": "#0"},
				"east": {"uv": [2.875, 3.5, 2.875, 3.5], "rotation": 270, "texture": "#0"},
				"south": {"uv": [2.875, 3.5, 2.875, 3.5], "rotation": 270, "texture": "#0"},
				"west": {"uv": [2.875, 3.5, 2.875, 3.5], "rotation": 270, "texture": "#0"},
				"up": {"uv": [2.875, 3.5, 2.875, 3.5], "rotation": 270, "texture": "#0"},
				"down": {"uv": [2.875, 3.5, 2.875, 3.5], "rotation": 270, "texture": "#0"}
			}
		},
		{
			"from": [8.0275, 8.43347, -0.024],
			"to": [8.2675, 8.56147, 0.228],
			"rotation": {"angle": -45, "axis": "z", "origin": [8.1475, 8.49747, -0.282]},
			"faces": {
				"north": {"uv": [2.875, 3.5, 2.875, 3.5], "rotation": 270, "texture": "#0"},
				"east": {"uv": [2.875, 3.5, 2.875, 3.5], "rotation": 270, "texture": "#0"},
				"south": {"uv": [2.875, 3.5, 2.875, 3.5], "rotation": 270, "texture": "#0"},
				"west": {"uv": [2.875, 3.5, 2.875, 3.5], "rotation": 270, "texture": "#0"},
				"up": {"uv": [2.875, 3.5, 2.875, 3.5], "rotation": 270, "texture": "#0"},
				"down": {"uv": [2.875, 3.5, 2.875, 3.5], "rotation": 270, "texture": "#0"}
			}
		},
		{
			"from": [8.3787, 8.46547, -0.024],
			"to": [8.6187, 8.59347, 0.228],
			"rotation": {"angle": 45, "axis": "z", "origin": [8.4987, 8.52947, -0.282]},
			"faces": {
				"north": {"uv": [7.5, 11.875, 7.5, 11.875], "rotation": 270, "texture": "#0"},
				"east": {"uv": [7.5, 11.875, 7.5, 11.875], "rotation": 270, "texture": "#0"},
				"south": {"uv": [7.5, 11.875, 7.5, 11.875], "rotation": 270, "texture": "#0"},
				"west": {"uv": [7.5, 11.875, 7.5, 11.875], "rotation": 270, "texture": "#0"},
				"up": {"uv": [7.5, 11.875, 7.5, 11.875], "rotation": 270, "texture": "#0"},
				"down": {"uv": [7.5, 11.875, 7.5, 11.875], "rotation": 270, "texture": "#0"}
			}
		},
		{
			"from": [8.4107, 8.43347, -0.792],
			"to": [8.6507, 8.56147, -0.54],
			"rotation": {"angle": 45, "axis": "z", "origin": [8.5307, 8.49747, -1.05]},
			"faces": {
				"north": {"uv": [2.875, 3.5, 2.875, 3.5], "rotation": 270, "texture": "#0"},
				"east": {"uv": [2.875, 3.5, 2.875, 3.5], "rotation": 270, "texture": "#0"},
				"south": {"uv": [2.875, 3.5, 2.875, 3.5], "rotation": 270, "texture": "#0"},
				"west": {"uv": [2.875, 3.5, 2.875, 3.5], "rotation": 270, "texture": "#0"},
				"up": {"uv": [2.875, 3.5, 2.875, 3.5], "rotation": 270, "texture": "#0"},
				"down": {"uv": [2.875, 3.5, 2.875, 3.5], "rotation": 270, "texture": "#0"}
			}
		},
		{
			"from": [8.4107, 8.43347, -0.024],
			"to": [8.6507, 8.56147, 0.228],
			"rotation": {"angle": 45, "axis": "z", "origin": [8.5307, 8.49747, -0.282]},
			"faces": {
				"north": {"uv": [2.875, 3.5, 2.875, 3.5], "rotation": 270, "texture": "#0"},
				"east": {"uv": [2.875, 3.5, 2.875, 3.5], "rotation": 270, "texture": "#0"},
				"south": {"uv": [2.875, 3.5, 2.875, 3.5], "rotation": 270, "texture": "#0"},
				"west": {"uv": [2.875, 3.5, 2.875, 3.5], "rotation": 270, "texture": "#0"},
				"up": {"uv": [2.875, 3.5, 2.875, 3.5], "rotation": 270, "texture": "#0"},
				"down": {"uv": [2.875, 3.5, 2.875, 3.5], "rotation": 270, "texture": "#0"}
			}
		},
		{
			"from": [8.3707, 8.46021, -1.656],
			"to": [8.4987, 8.63621, 0.26],
			"rotation": {"angle": -45, "axis": "z", "origin": [8.4667, 8.54821, -0.346]},
			"faces": {
				"north": {"uv": [3, 3, 3, 3], "texture": "#0"},
				"east": {"uv": [3, 3, 3, 3], "rotation": 180, "texture": "#0"},
				"south": {"uv": [3, 3, 3, 3], "rotation": 180, "texture": "#0"},
				"west": {"uv": [3, 3, 3, 3], "rotation": 180, "texture": "#0"},
				"up": {"uv": [3, 3, 3, 3], "rotation": 180, "texture": "#0"},
				"down": {"uv": [3, 3, 3, 3], "rotation": 180, "texture": "#0"}
			}
		},
		{
			"from": [8.1787, 8.46021, -1.624],
			"to": [8.4347, 8.63621, -1.532],
			"rotation": {"angle": -45, "axis": "z", "origin": [8.4667, 8.54821, -0.378]},
			"faces": {
				"north": {"uv": [6.875, 11.5, 6.875, 11.5], "texture": "#0"},
				"east": {"uv": [6.875, 11.5, 6.875, 11.5], "texture": "#0"},
				"south": {"uv": [6.875, 11.5, 6.875, 11.5], "texture": "#0"},
				"west": {"uv": [6.875, 11.5, 6.875, 11.5], "texture": "#0"},
				"up": {"uv": [6.875, 11.5, 6.875, 11.5], "texture": "#0"},
				"down": {"uv": [6.875, 11.5, 6.875, 11.5], "texture": "#0"}
			}
		},
		{
			"from": [8.0271, 8.76026, -0.824],
			"to": [8.6511, 9.20826, 2.116],
			"rotation": {"angle": 0, "axis": "y", "origin": [8.323, 8.79735, -1.70382]},
			"faces": {
				"north": {"uv": [7.375, 11.875, 7.375, 11.875], "rotation": 90, "texture": "#0"},
				"east": {"uv": [7.375, 11.875, 7.375, 11.875], "rotation": 90, "texture": "#0"},
				"south": {"uv": [7.375, 11.875, 7.375, 11.875], "rotation": 90, "texture": "#0"},
				"west": {"uv": [7.375, 11.875, 7.375, 11.875], "rotation": 90, "texture": "#0"},
				"up": {"uv": [7.375, 11.875, 7.375, 11.875], "rotation": 90, "texture": "#0"},
				"down": {"uv": [7.375, 11.875, 7.375, 11.875], "rotation": 90, "texture": "#0"}
			}
		},
		{
			"from": [7.89615, 8.21626, 1.78874],
			"to": [8.26415, 8.76026, 1.94474],
			"rotation": {"angle": -45, "axis": "y", "origin": [8.08015, 7.76826, 1.86674]},
			"faces": {
				"north": {"uv": [3, 3, 3, 3], "rotation": 90, "texture": "#0"},
				"east": {"uv": [3, 3, 3, 3], "rotation": 90, "texture": "#0"},
				"south": {"uv": [3, 3, 3, 3], "rotation": 90, "texture": "#0"},
				"west": {"uv": [3, 3, 3, 3], "rotation": 90, "texture": "#0"},
				"up": {"uv": [3, 3, 3, 3], "rotation": 90, "texture": "#0"},
				"down": {"uv": [3, 3, 3, 3], "rotation": 90, "texture": "#0"}
			}
		},
		{
			"from": [7.89615, 6.00826, 1.78874],
			"to": [8.26415, 8.08826, 1.94474],
			"rotation": {"angle": -45, "axis": "y", "origin": [8.08015, 7.09626, 1.86674]},
			"faces": {
				"north": {"uv": [3, 3, 3, 3], "rotation": 90, "texture": "#0"},
				"east": {"uv": [3, 3, 3, 3], "rotation": 90, "texture": "#0"},
				"south": {"uv": [3, 3, 3, 3], "rotation": 90, "texture": "#0"},
				"west": {"uv": [3, 3, 3, 3], "rotation": 90, "texture": "#0"},
				"up": {"uv": [3, 3, 3, 3], "rotation": 90, "texture": "#0"},
				"down": {"uv": [3, 3, 3, 3], "rotation": 90, "texture": "#0"}
			}
		},
		{
			"from": [8.62732, 8.21626, 1.24068],
			"to": [8.78332, 8.76026, 1.60868],
			"rotation": {"angle": 45, "axis": "y", "origin": [8.56013, 7.76826, 1.51623]},
			"faces": {
				"north": {"uv": [3, 3, 3, 3], "rotation": 90, "texture": "#0"},
				"east": {"uv": [3, 3, 3, 3], "rotation": 90, "texture": "#0"},
				"south": {"uv": [3, 3, 3, 3], "rotation": 90, "texture": "#0"},
				"west": {"uv": [3, 3, 3, 3], "rotation": 90, "texture": "#0"},
				"up": {"uv": [3, 3, 3, 3], "texture": "#0"},
				"down": {"uv": [3, 3, 3, 3], "rotation": 180, "texture": "#0"}
			}
		},
		{
			"from": [8.62732, 6.00826, 1.24068],
			"to": [8.78332, 8.08826, 1.60868],
			"rotation": {"angle": 45, "axis": "y", "origin": [8.56013, 7.09626, 1.51623]},
			"faces": {
				"north": {"uv": [3, 3, 3, 3], "rotation": 90, "texture": "#0"},
				"east": {"uv": [3, 3, 3, 3], "rotation": 90, "texture": "#0"},
				"south": {"uv": [3, 3, 3, 3], "rotation": 90, "texture": "#0"},
				"west": {"uv": [3, 3, 3, 3], "rotation": 90, "texture": "#0"},
				"up": {"uv": [3, 3, 3, 3], "texture": "#0"},
				"down": {"uv": [3, 3, 3, 3], "rotation": 180, "texture": "#0"}
			}
		},
		{
			"from": [8.00215, 8.21626, 1.16483],
			"to": [8.15815, 8.76026, 1.53283],
			"rotation": {"angle": -45, "axis": "y", "origin": [8.08015, 7.76826, 1.34883]},
			"faces": {
				"north": {"uv": [3, 3, 3, 3], "rotation": 90, "texture": "#0"},
				"east": {"uv": [3, 3, 3, 3], "rotation": 90, "texture": "#0"},
				"south": {"uv": [3, 3, 3, 3], "rotation": 90, "texture": "#0"},
				"west": {"uv": [3, 3, 3, 3], "rotation": 90, "texture": "#0"},
				"up": {"uv": [3, 3, 3, 3], "texture": "#0"},
				"down": {"uv": [3, 3, 3, 3], "rotation": 180, "texture": "#0"}
			}
		},
		{
			"from": [8.00215, 6.00826, 1.16483],
			"to": [8.15815, 8.08826, 1.53283],
			"rotation": {"angle": -45, "axis": "y", "origin": [8.08015, 7.09626, 1.34883]},
			"faces": {
				"north": {"uv": [3, 3, 3, 3], "rotation": 90, "texture": "#0"},
				"east": {"uv": [3, 3, 3, 3], "rotation": 90, "texture": "#0"},
				"south": {"uv": [3, 3, 3, 3], "rotation": 90, "texture": "#0"},
				"west": {"uv": [3, 3, 3, 3], "rotation": 90, "texture": "#0"},
				"up": {"uv": [3, 3, 3, 3], "texture": "#0"},
				"down": {"uv": [3, 3, 3, 3], "rotation": 180, "texture": "#0"}
			}
		},
		{
			"from": [8.1551, 8.21626, 1.71289],
			"to": [8.5231, 8.76026, 1.86889],
			"rotation": {"angle": 45, "axis": "y", "origin": [8.56013, 7.76826, 1.51623]},
			"faces": {
				"north": {"uv": [3, 3, 3, 3], "rotation": 90, "texture": "#0"},
				"east": {"uv": [3, 3, 3, 3], "rotation": 90, "texture": "#0"},
				"south": {"uv": [3, 3, 3, 3], "rotation": 90, "texture": "#0"},
				"west": {"uv": [3, 3, 3, 3], "rotation": 90, "texture": "#0"},
				"up": {"uv": [3, 3, 3, 3], "rotation": 270, "texture": "#0"},
				"down": {"uv": [3, 3, 3, 3], "rotation": 270, "texture": "#0"}
			}
		},
		{
			"from": [8.1551, 6.00826, 1.71289],
			"to": [8.5231, 8.08826, 1.86889],
			"rotation": {"angle": 45, "axis": "y", "origin": [8.56013, 7.09626, 1.51623]},
			"faces": {
				"north": {"uv": [3, 3, 3, 3], "rotation": 90, "texture": "#0"},
				"east": {"uv": [3, 3, 3, 3], "rotation": 90, "texture": "#0"},
				"south": {"uv": [3, 3, 3, 3], "rotation": 90, "texture": "#0"},
				"west": {"uv": [3, 3, 3, 3], "rotation": 90, "texture": "#0"},
				"up": {"uv": [3, 3, 3, 3], "rotation": 270, "texture": "#0"},
				"down": {"uv": [3, 3, 3, 3], "rotation": 270, "texture": "#0"}
			}
		},
		{
			"from": [7.89488, 8.21626, 1.42378],
			"to": [8.05088, 9.20826, 1.79178],
			"rotation": {"angle": 0, "axis": "y", "origin": [7.97288, 7.76826, 1.60778]},
			"faces": {
				"north": {"uv": [3, 3, 3, 3], "rotation": 90, "texture": "#0"},
				"east": {"uv": [3, 3, 3, 3], "rotation": 90, "texture": "#0"},
				"south": {"uv": [3, 3, 3, 3], "rotation": 90, "texture": "#0"},
				"west": {"uv": [3, 3, 3, 3], "rotation": 90, "texture": "#0"},
				"up": {"uv": [3, 3, 3, 3], "rotation": 180, "texture": "#0"},
				"down": {"uv": [3, 3, 3, 3], "texture": "#0"}
			}
		},
		{
			"from": [7.86288, 8.92026, 1.51978],
			"to": [8.81888, 9.09626, 1.69578],
			"rotation": {"angle": 45, "axis": "x", "origin": [7.95688, 8.99226, 1.59178]},
			"faces": {
				"north": {"uv": [4.375, 3.375, 4.375, 3.375], "rotation": 90, "texture": "#0"},
				"east": {"uv": [4.375, 3.375, 4.375, 3.375], "rotation": 90, "texture": "#0"},
				"south": {"uv": [4.375, 3.375, 4.375, 3.375], "rotation": 90, "texture": "#0"},
				"west": {"uv": [4.375, 3.375, 4.375, 3.375], "rotation": 90, "texture": "#0"},
				"up": {"uv": [4.375, 3.375, 4.375, 3.375], "rotation": 90, "texture": "#0"},
				"down": {"uv": [4.375, 3.375, 4.375, 3.375], "rotation": 90, "texture": "#0"}
			}
		},
		{
			"from": [7.99088, 9.04826, -0.68822],
			"to": [8.69088, 9.16026, -0.57622],
			"rotation": {"angle": 45, "axis": "x", "origin": [7.95688, 9.12026, -0.68022]},
			"faces": {
				"north": {"uv": [4.375, 3.375, 4.375, 3.375], "rotation": 90, "texture": "#0"},
				"east": {"uv": [4.375, 3.375, 4.375, 3.375], "rotation": 90, "texture": "#0"},
				"south": {"uv": [4.375, 3.375, 4.375, 3.375], "rotation": 90, "texture": "#0"},
				"west": {"uv": [4.375, 3.375, 4.375, 3.375], "rotation": 90, "texture": "#0"},
				"up": {"uv": [4.375, 3.375, 4.375, 3.375], "rotation": 90, "texture": "#0"},
				"down": {"uv": [4.375, 3.375, 4.375, 3.375], "rotation": 90, "texture": "#0"}
			}
		},
		{
			"from": [7.99088, 9.04826, 0.07978],
			"to": [8.69088, 9.16026, 0.19178],
			"rotation": {"angle": 45, "axis": "x", "origin": [7.95688, 9.12026, 0.08778]},
			"faces": {
				"north": {"uv": [4.375, 3.375, 4.375, 3.375], "rotation": 90, "texture": "#0"},
				"east": {"uv": [4.375, 3.375, 4.375, 3.375], "rotation": 90, "texture": "#0"},
				"south": {"uv": [4.375, 3.375, 4.375, 3.375], "rotation": 90, "texture": "#0"},
				"west": {"uv": [4.375, 3.375, 4.375, 3.375], "rotation": 90, "texture": "#0"},
				"up": {"uv": [4.375, 3.375, 4.375, 3.375], "rotation": 90, "texture": "#0"},
				"down": {"uv": [4.375, 3.375, 4.375, 3.375], "rotation": 90, "texture": "#0"}
			}
		},
		{
			"from": [7.89488, 6.00826, 1.42378],
			"to": [8.05088, 8.08826, 1.79178],
			"rotation": {"angle": 0, "axis": "y", "origin": [7.97288, 7.09626, 1.60778]},
			"faces": {
				"north": {"uv": [3, 3, 3, 3], "rotation": 90, "texture": "#0"},
				"east": {"uv": [3, 3, 3, 3], "rotation": 90, "texture": "#0"},
				"south": {"uv": [3, 3, 3, 3], "rotation": 90, "texture": "#0"},
				"west": {"uv": [3, 3, 3, 3], "rotation": 90, "texture": "#0"},
				"up": {"uv": [3, 3, 3, 3], "rotation": 180, "texture": "#0"},
				"down": {"uv": [3, 3, 3, 3], "texture": "#0"}
			}
		},
		{
			"from": [8.62732, 8.21626, 1.42378],
			"to": [8.78332, 9.20826, 1.79178],
			"rotation": {"angle": 0, "axis": "y", "origin": [8.56013, 7.76826, 1.51623]},
			"faces": {
				"north": {"uv": [3, 3, 3, 3], "rotation": 90, "texture": "#0"},
				"east": {"uv": [3, 3, 3, 3], "rotation": 90, "texture": "#0"},
				"south": {"uv": [3, 3, 3, 3], "rotation": 90, "texture": "#0"},
				"west": {"uv": [3, 3, 3, 3], "rotation": 90, "texture": "#0"},
				"up": {"uv": [3, 3, 3, 3], "texture": "#0"},
				"down": {"uv": [3, 3, 3, 3], "rotation": 180, "texture": "#0"}
			}
		},
		{
			"from": [8.62732, 6.00826, 1.42378],
			"to": [8.78332, 8.08826, 1.79178],
			"rotation": {"angle": 0, "axis": "y", "origin": [8.56013, 7.09626, 1.51623]},
			"faces": {
				"north": {"uv": [3, 3, 3, 3], "rotation": 90, "texture": "#0"},
				"east": {"uv": [3, 3, 3, 3], "rotation": 90, "texture": "#0"},
				"south": {"uv": [3, 3, 3, 3], "rotation": 90, "texture": "#0"},
				"west": {"uv": [3, 3, 3, 3], "rotation": 90, "texture": "#0"},
				"up": {"uv": [3, 3, 3, 3], "texture": "#0"},
				"down": {"uv": [3, 3, 3, 3], "rotation": 180, "texture": "#0"}
			}
		},
		{
			"from": [8.1551, 8.21626, 1.896],
			"to": [8.5231, 8.76026, 2.052],
			"rotation": {"angle": 0, "axis": "y", "origin": [8.3391, 7.76826, 1.974]},
			"faces": {
				"north": {"uv": [3, 3, 3, 3], "rotation": 90, "texture": "#0"},
				"east": {"uv": [3, 3, 3, 3], "rotation": 90, "texture": "#0"},
				"south": {"uv": [3, 3, 3, 3], "rotation": 90, "texture": "#0"},
				"west": {"uv": [3, 3, 3, 3], "rotation": 90, "texture": "#0"},
				"up": {"uv": [3, 3, 3, 3], "rotation": 90, "texture": "#0"},
				"down": {"uv": [3, 3, 3, 3], "rotation": 90, "texture": "#0"}
			}
		},
		{
			"from": [8.1551, 6.00826, 1.896],
			"to": [8.5231, 8.08826, 2.052],
			"rotation": {"angle": 0, "axis": "y", "origin": [8.3391, 7.09626, 1.974]},
			"faces": {
				"north": {"uv": [3, 3, 3, 3], "rotation": 90, "texture": "#0"},
				"east": {"uv": [3, 3, 3, 3], "rotation": 90, "texture": "#0"},
				"south": {"uv": [3, 3, 3, 3], "rotation": 90, "texture": "#0"},
				"west": {"uv": [3, 3, 3, 3], "rotation": 90, "texture": "#0"},
				"up": {"uv": [3, 3, 3, 3], "rotation": 90, "texture": "#0"},
				"down": {"uv": [3, 3, 3, 3], "rotation": 90, "texture": "#0"}
			}
		},
		{
			"from": [7.97214, 5.81626, 1.46904],
			"to": [8.12814, 8.76026, 1.77304],
			"rotation": {"angle": 0, "axis": "y", "origin": [8.05014, 8.53626, 1.62104]},
			"faces": {
				"north": {"uv": [7.625, 11.875, 7.625, 11.875], "rotation": 90, "texture": "#0"},
				"east": {"uv": [7.625, 11.875, 7.625, 11.875], "rotation": 90, "texture": "#0"},
				"south": {"uv": [7.625, 11.875, 7.625, 11.875], "rotation": 90, "texture": "#0"},
				"west": {"uv": [7.625, 11.875, 7.625, 11.875], "rotation": 90, "texture": "#0"},
				"up": {"uv": [7.625, 11.875, 7.625, 11.875], "rotation": 90, "texture": "#0"},
				"down": {"uv": [7.625, 11.875, 7.625, 11.875], "rotation": 90, "texture": "#0"}
			}
		},
		{
			"from": [8.10206, 5.81626, 1.46904],
			"to": [8.70606, 8.76026, 1.77304],
			"rotation": {"angle": 0, "axis": "y", "origin": [8.5135, 8.53626, 1.5488]},
			"faces": {
				"north": {"uv": [7.625, 11.875, 7.625, 11.875], "rotation": 90, "texture": "#0"},
				"east": {"uv": [7.625, 11.875, 7.625, 11.875], "rotation": 90, "texture": "#0"},
				"south": {"uv": [7.625, 11.875, 7.625, 11.875], "rotation": 90, "texture": "#0"},
				"west": {"uv": [7.625, 11.875, 7.625, 11.875], "rotation": 90, "texture": "#0"},
				"up": {"uv": [7.625, 11.875, 7.625, 11.875], "rotation": 90, "texture": "#0"},
				"down": {"uv": [7.625, 11.875, 7.625, 11.875], "rotation": 90, "texture": "#0"}
			}
		},
		{
			"from": [7.98277, 5.81626, 1.74737],
			"to": [8.28677, 8.76026, 1.90337],
			"rotation": {"angle": -45, "axis": "y", "origin": [8.13477, 8.53626, 1.82537]},
			"faces": {
				"north": {"uv": [7.625, 11.875, 7.625, 11.875], "rotation": 90, "texture": "#0"},
				"east": {"uv": [7.625, 11.875, 7.625, 11.875], "rotation": 90, "texture": "#0"},
				"south": {"uv": [7.625, 11.875, 7.625, 11.875], "rotation": 90, "texture": "#0"},
				"west": {"uv": [7.625, 11.875, 7.625, 11.875], "rotation": 90, "texture": "#0"},
				"up": {"uv": [7.625, 11.875, 7.625, 11.875], "rotation": 90, "texture": "#0"},
				"down": {"uv": [7.625, 11.875, 7.625, 11.875], "rotation": 90, "texture": "#0"}
			}
		},
		{
			"from": [8.28926, 5.81626, 1.35624],
			"to": [8.59326, 8.76026, 1.51224],
			"rotation": {"angle": -45, "axis": "y", "origin": [8.5135, 8.53626, 1.5488]},
			"faces": {
				"north": {"uv": [7.625, 11.875, 7.625, 11.875], "rotation": 90, "texture": "#0"},
				"east": {"uv": [7.625, 11.875, 7.625, 11.875], "rotation": 90, "texture": "#0"},
				"south": {"uv": [7.625, 11.875, 7.625, 11.875], "rotation": 90, "texture": "#0"},
				"west": {"uv": [7.625, 11.875, 7.625, 11.875], "rotation": 90, "texture": "#0"},
				"up": {"uv": [7.625, 11.875, 7.625, 11.875], "rotation": 90, "texture": "#0"},
				"down": {"uv": [7.625, 11.875, 7.625, 11.875], "rotation": 90, "texture": "#0"}
			}
		},
		{
			"from": [8.1871, 5.81626, 1.832],
			"to": [8.4911, 8.76026, 1.988],
			"rotation": {"angle": 0, "axis": "y", "origin": [8.3391, 8.53626, 1.91]},
			"faces": {
				"north": {"uv": [7.625, 11.875, 7.625, 11.875], "rotation": 90, "texture": "#0"},
				"east": {"uv": [7.625, 11.875, 7.625, 11.875], "rotation": 90, "texture": "#0"},
				"south": {"uv": [7.625, 11.875, 7.625, 11.875], "rotation": 90, "texture": "#0"},
				"west": {"uv": [7.625, 11.875, 7.625, 11.875], "rotation": 90, "texture": "#0"},
				"up": {"uv": [7.625, 11.875, 7.625, 11.875], "rotation": 90, "texture": "#0"},
				"down": {"uv": [7.625, 11.875, 7.625, 11.875], "rotation": 90, "texture": "#0"}
			}
		},
		{
			"from": [8.1871, 5.81626, 1.25408],
			"to": [8.4911, 8.76026, 1.95408],
			"rotation": {"angle": 0, "axis": "y", "origin": [8.5135, 8.53626, 1.5488]},
			"faces": {
				"north": {"uv": [7.625, 11.875, 7.625, 11.875], "rotation": 90, "texture": "#0"},
				"east": {"uv": [7.625, 11.875, 7.625, 11.875], "rotation": 90, "texture": "#0"},
				"south": {"uv": [7.625, 11.875, 7.625, 11.875], "rotation": 90, "texture": "#0"},
				"west": {"uv": [7.625, 11.875, 7.625, 11.875], "rotation": 90, "texture": "#0"},
				"up": {"uv": [7.625, 11.875, 7.625, 11.875], "rotation": 90, "texture": "#0"},
				"down": {"uv": [7.625, 11.875, 7.625, 11.875], "rotation": 90, "texture": "#0"}
			}
		},
		{
			"from": [7.98277, 5.81626, 1.33871],
			"to": [8.28677, 8.76026, 1.49471],
			"rotation": {"angle": 45, "axis": "y", "origin": [8.13477, 8.53626, 1.41671]},
			"faces": {
				"north": {"uv": [7.625, 11.875, 7.625, 11.875], "rotation": 90, "texture": "#0"},
				"east": {"uv": [7.625, 11.875, 7.625, 11.875], "rotation": 90, "texture": "#0"},
				"south": {"uv": [7.625, 11.875, 7.625, 11.875], "rotation": 90, "texture": "#0"},
				"west": {"uv": [7.625, 11.875, 7.625, 11.875], "rotation": 90, "texture": "#0"},
				"up": {"uv": [7.625, 11.875, 7.625, 11.875], "rotation": 90, "texture": "#0"},
				"down": {"uv": [7.625, 11.875, 7.625, 11.875], "rotation": 90, "texture": "#0"}
			}
		},
		{
			"from": [8.65222, 5.81626, 1.5712],
			"to": [8.80822, 8.76026, 1.8752],
			"rotation": {"angle": -45, "axis": "y", "origin": [8.5135, 8.53626, 1.5488]},
			"faces": {
				"north": {"uv": [7.625, 11.875, 7.625, 11.875], "rotation": 90, "texture": "#0"},
				"east": {"uv": [7.625, 11.875, 7.625, 11.875], "rotation": 90, "texture": "#0"},
				"south": {"uv": [7.625, 11.875, 7.625, 11.875], "rotation": 90, "texture": "#0"},
				"west": {"uv": [7.625, 11.875, 7.625, 11.875], "rotation": 90, "texture": "#0"},
				"up": {"uv": [7.625, 11.875, 7.625, 11.875], "rotation": 90, "texture": "#0"},
				"down": {"uv": [7.625, 11.875, 7.625, 11.875], "rotation": 90, "texture": "#0"}
			}
		},
		{
			"from": [8.1551, 8.21626, 1.16357],
			"to": [8.5231, 8.76026, 1.31957],
			"rotation": {"angle": 0, "axis": "y", "origin": [8.56013, 7.76826, 1.51623]},
			"faces": {
				"north": {"uv": [3, 3, 3, 3], "rotation": 90, "texture": "#0"},
				"east": {"uv": [3, 3, 3, 3], "rotation": 90, "texture": "#0"},
				"south": {"uv": [3, 3, 3, 3], "rotation": 90, "texture": "#0"},
				"west": {"uv": [3, 3, 3, 3], "rotation": 90, "texture": "#0"},
				"up": {"uv": [3, 3, 3, 3], "rotation": 270, "texture": "#0"},
				"down": {"uv": [3, 3, 3, 3], "rotation": 270, "texture": "#0"}
			}
		},
		{
			"from": [8.1551, 6.00826, 1.16357],
			"to": [8.5231, 8.08826, 1.31957],
			"rotation": {"angle": 0, "axis": "y", "origin": [8.56013, 7.09626, 1.51623]},
			"faces": {
				"north": {"uv": [3, 3, 3, 3], "rotation": 90, "texture": "#0"},
				"east": {"uv": [3, 3, 3, 3], "rotation": 90, "texture": "#0"},
				"south": {"uv": [3, 3, 3, 3], "rotation": 90, "texture": "#0"},
				"west": {"uv": [3, 3, 3, 3], "rotation": 90, "texture": "#0"},
				"up": {"uv": [3, 3, 3, 3], "rotation": 270, "texture": "#0"},
				"down": {"uv": [3, 3, 3, 3], "rotation": 270, "texture": "#0"}
			}
		}
	],
	"display": {
		"thirdperson_righthand": {
			"rotation": [0, 0, 7],
			"translation": [-1.5, -1.75, 2.75],
			"scale": [1.14, 1, 1]
		},
		"thirdperson_lefthand": {
			"rotation": [0, 0, 7],
			"translation": [-1.5, -1.75, 2.75],
			"scale": [1.14, 1, 1]
		},
		"firstperson_righthand": {
			"translation": [-5.25, 3.5, 2.75],
			"scale": [1.25, 1.19, 1.14]
		},
		"firstperson_lefthand": {
			"translation": [-5.25, 3.5, 2.75],
			"scale": [1.25, 1.19, 1.14]
		},
		"gui": {
			"rotation": [23, 38, -16],
			"translation": [-0.25, -1.25, 0],
			"scale": [1.64, 1.41461, 1.27094]
		},
		"head": {
			"rotation": [0, -139.5, 90],
			"translation": [-2.5, 6.5, 2.5],
			"scale": [1.89781, 1.89781, 1.89781]
		},
		"fixed": {
			"rotation": [0, 90, 0],
			"translation": [0, 0, -1.25],
			"scale": [1.22, 1.22, 1.22]
		}
	}
}