{
    "textures": {
        "0": "gci:items/common/mpz",
        "particle": "gci:items/common/mpz"
    },
    "elements": [
        {
            "from": [
                1.4704,
                3.07593,
                11.88397
            ],
            "to": [
                2.3769,
                3.85893,
                13.56397
            ],
            "rotation": {
                "angle": 22.5,
                "axis": "x",
                "origin": [
                    1.92365,
                    2.27593,
                    12.12397
                ]
            },
            "faces": {
                "north": {
                    "uv": [
                        0.66667,
                        14.66666,
                        1.33334,
                        15
                    ],
                    "rotation": 90,
                    "texture": "#0"
                },
                "east": {
                    "uv": [
                        0.66667,
                        14.66666,
                        1.33334,
                        15
                    ],
                    "texture": "#0"
                },
                "south": {
                    "uv": [
                        0.66667,
                        14.66666,
                        1.33334,
                        15
                    ],
                    "rotation": 270,
                    "texture": "#0"
                },
                "west": {
                    "uv": [
                        0.66667,
                        14.66666,
                        1.33334,
                        15
                    ],
                    "rotation": 180,
                    "texture": "#0"
                },
                "up": {
                    "uv": [
                        0.66667,
                        14.66666,
                        1.33334,
                        15
                    ],
                    "rotation": 270,
                    "texture": "#0"
                },
                "down": {
                    "uv": [
                        0.66667,
                        14.66666,
                        1.33334,
                        15
                    ],
                    "rotation": 90,
                    "texture": "#0"
                }
            }
        },
        {
            "from": [
                1.4704,
                2.93405,
                12.80188
            ],
            "to": [
                2.3769,
                3.71705,
                15.58188
            ],
            "rotation": {
                "angle": -22.5,
                "axis": "x",
                "origin": [
                    1.92365,
                    3.32555,
                    13.04188
                ]
            },
            "faces": {
                "north": {
                    "uv": [
                        0.66667,
                        14.66666,
                        1.33334,
                        15
                    ],
                    "rotation": 90,
                    "texture": "#0"
                },
                "east": {
                    "uv": [
                        0.66667,
                        14.66666,
                        1.33334,
                        15
                    ],
                    "texture": "#0"
                },
                "south": {
                    "uv": [
                        0.66667,
                        14.66666,
                        1.33334,
                        15
                    ],
                    "rotation": 270,
                    "texture": "#0"
                },
                "west": {
                    "uv": [
                        0.66667,
                        14.66666,
                        1.33334,
                        15
                    ],
                    "rotation": 180,
                    "texture": "#0"
                },
                "up": {
                    "uv": [
                        0.66667,
                        14.66666,
                        1.33334,
                        15
                    ],
                    "rotation": 270,
                    "texture": "#0"
                },
                "down": {
                    "uv": [
                        0.66667,
                        14.66666,
                        1.33334,
                        15
                    ],
                    "rotation": 90,
                    "texture": "#0"
                }
            }
        },
        {
            "from": [
                1.4704,
                3.87626,
                15.23871
            ],
            "to": [
                2.3769,
                4.65926,
                17.31871
            ],
            "rotation": {
                "angle": 0,
                "axis": "x",
                "origin": [
                    1.92365,
                    4.26776,
                    16.62871
                ]
            },
            "faces": {
                "north": {
                    "uv": [
                        0.66667,
                        14.66666,
                        1.33334,
                        15
                    ],
                    "rotation": 90,
                    "texture": "#0"
                },
                "east": {
                    "uv": [
                        0.66667,
                        14.66666,
                        1.33334,
                        15
                    ],
                    "texture": "#0"
                },
                "south": {
                    "uv": [
                        0.66667,
                        14.66666,
                        1.33334,
                        15
                    ],
                    "rotation": 270,
                    "texture": "#0"
                },
                "west": {
                    "uv": [
                        0.66667,
                        14.66666,
                        1.33334,
                        15
                    ],
                    "rotation": 180,
                    "texture": "#0"
                },
                "up": {
                    "uv": [
                        0.66667,
                        14.66666,
                        1.33334,
                        15
                    ],
                    "rotation": 270,
                    "texture": "#0"
                },
                "down": {
                    "uv": [
                        0.66667,
                        14.66666,
                        1.33334,
                        15
                    ],
                    "rotation": 90,
                    "texture": "#0"
                }
            }
        },
        {
            "from": [
                1.4704,
                2.92525,
                16.16752
            ],
            "to": [
                2.3769,
                4.10525,
                16.95052
            ],
            "rotation": {
                "angle": 22.5,
                "axis": "x",
                "origin": [
                    1.92365,
                    3.06525,
                    16.55902
                ]
            },
            "faces": {
                "north": {
                    "uv": [
                        0.66667,
                        14.66666,
                        1.33334,
                        15
                    ],
                    "rotation": 270,
                    "texture": "#0"
                },
                "east": {
                    "uv": [
                        0.66667,
                        14.66666,
                        1.33334,
                        15
                    ],
                    "rotation": 270,
                    "texture": "#0"
                },
                "south": {
                    "uv": [
                        0.66667,
                        14.66666,
                        1.33334,
                        15
                    ],
                    "rotation": 270,
                    "texture": "#0"
                },
                "west": {
                    "uv": [
                        0.66667,
                        14.66666,
                        1.33334,
                        15
                    ],
                    "rotation": 270,
                    "texture": "#0"
                },
                "up": {
                    "uv": [
                        0.66667,
                        14.66666,
                        1.33334,
                        15
                    ],
                    "rotation": 270,
                    "texture": "#0"
                },
                "down": {
                    "uv": [
                        0.66667,
                        14.66666,
                        1.33334,
                        15
                    ],
                    "rotation": 270,
                    "texture": "#0"
                }
            }
        },
        {
            "from": [
                1.4704,
                2.46397,
                13.7605
            ],
            "to": [
                2.3769,
                4.04697,
                17.0405
            ],
            "rotation": {
                "angle": 0,
                "axis": "x",
                "origin": [
                    1.92365,
                    2.85547,
                    14.6005
                ]
            },
            "faces": {
                "north": {
                    "uv": [
                        0.66667,
                        14.66666,
                        1.33334,
                        15
                    ],
                    "rotation": 90,
                    "texture": "#0"
                },
                "east": {
                    "uv": [
                        0.66667,
                        14.66666,
                        1.33334,
                        15
                    ],
                    "texture": "#0"
                },
                "south": {
                    "uv": [
                        0.66667,
                        14.66666,
                        1.33334,
                        15
                    ],
                    "rotation": 270,
                    "texture": "#0"
                },
                "west": {
                    "uv": [
                        0.66667,
                        14.66666,
                        1.33334,
                        15
                    ],
                    "rotation": 180,
                    "texture": "#0"
                },
                "up": {
                    "uv": [
                        0.66667,
                        14.66666,
                        1.33334,
                        15
                    ],
                    "rotation": 270,
                    "texture": "#0"
                },
                "down": {
                    "uv": [
                        0.66667,
                        14.66666,
                        1.33334,
                        15
                    ],
                    "rotation": 90,
                    "texture": "#0"
                }
            }
        },
        {
            "from": [
                1.46134,
                2.44219,
                17.03676
            ],
            "to": [
                2.38596,
                3.24085,
                17.13876
            ],
            "rotation": {
                "angle": 0,
                "axis": "x",
                "origin": [
                    1.92365,
                    2.84152,
                    14.64996
                ]
            },
            "faces": {
                "north": {
                    "uv": [
                        3.66667,
                        11.66666,
                        4.33334,
                        12
                    ],
                    "rotation": 90,
                    "texture": "#0"
                },
                "east": {
                    "uv": [
                        3.66667,
                        11.66666,
                        4.33334,
                        12
                    ],
                    "rotation": 90,
                    "texture": "#0"
                },
                "south": {
                    "uv": [
                        3.66667,
                        11.66666,
                        4.33334,
                        12
                    ],
                    "rotation": 90,
                    "texture": "#0"
                },
                "west": {
                    "uv": [
                        3.66667,
                        11.66666,
                        4.33334,
                        12
                    ],
                    "rotation": 90,
                    "texture": "#0"
                },
                "up": {
                    "uv": [
                        3.66667,
                        11.66666,
                        4.33334,
                        12
                    ],
                    "rotation": 90,
                    "texture": "#0"
                },
                "down": {
                    "uv": [
                        3.66667,
                        11.66666,
                        4.33334,
                        12
                    ],
                    "rotation": 90,
                    "texture": "#0"
                }
            }
        },
        {
            "from": [
                1.46134,
                3.3207,
                16.94498
            ],
            "to": [
                2.38596,
                4.1163,
                17.04698
            ],
            "rotation": {
                "angle": 22.5,
                "axis": "x",
                "origin": [
                    1.92365,
                    3.0555,
                    16.64765
                ]
            },
            "faces": {
                "north": {
                    "uv": [
                        3.66667,
                        11.66666,
                        4.33334,
                        12
                    ],
                    "rotation": 270,
                    "texture": "#0"
                },
                "east": {
                    "uv": [
                        3.66667,
                        11.66666,
                        4.33334,
                        12
                    ],
                    "rotation": 270,
                    "texture": "#0"
                },
                "south": {
                    "uv": [
                        3.66667,
                        11.66666,
                        4.33334,
                        12
                    ],
                    "rotation": 270,
                    "texture": "#0"
                },
                "west": {
                    "uv": [
                        3.66667,
                        11.66666,
                        4.33334,
                        12
                    ],
                    "rotation": 270,
                    "texture": "#0"
                },
                "up": {
                    "uv": [
                        3.66667,
                        11.66666,
                        4.33334,
                        12
                    ],
                    "rotation": 270,
                    "texture": "#0"
                },
                "down": {
                    "uv": [
                        3.66667,
                        11.66666,
                        4.33334,
                        12
                    ],
                    "rotation": 270,
                    "texture": "#0"
                }
            }
        },
        {
            "from": [
                1.46134,
                3.88273,
                17.32053
            ],
            "to": [
                2.38596,
                4.68139,
                17.42253
            ],
            "rotation": {
                "angle": 0,
                "axis": "x",
                "origin": [
                    1.92365,
                    4.28206,
                    16.71873
                ]
            },
            "faces": {
                "north": {
                    "uv": [
                        3.66667,
                        11.66666,
                        4.33334,
                        12
                    ],
                    "rotation": 90,
                    "texture": "#0"
                },
                "east": {
                    "uv": [
                        3.66667,
                        11.66666,
                        4.33334,
                        12
                    ],
                    "rotation": 90,
                    "texture": "#0"
                },
                "south": {
                    "uv": [
                        3.66667,
                        11.66666,
                        4.33334,
                        12
                    ],
                    "rotation": 90,
                    "texture": "#0"
                },
                "west": {
                    "uv": [
                        3.66667,
                        11.66666,
                        4.33334,
                        12
                    ],
                    "rotation": 90,
                    "texture": "#0"
                },
                "up": {
                    "uv": [
                        3.66667,
                        11.66666,
                        4.33334,
                        12
                    ],
                    "rotation": 90,
                    "texture": "#0"
                },
                "down": {
                    "uv": [
                        3.66667,
                        11.66666,
                        4.33334,
                        12
                    ],
                    "rotation": 90,
                    "texture": "#0"
                }
            }
        }
    ],
    "display": {
        "thirdperson_righthand": {
            "translation": [
                6.25,
                4,
                -0.25
            ]
        },
        "thirdperson_lefthand": {
            "translation": [
                -6,
                4,
                0
            ]
        },
        "firstperson_righthand": {
            "translation": [
                2.5,
                7,
                3.5
            ]
        },
        "firstperson_lefthand": {
            "translation": [
                -7.5,
                6.5,
                2
            ]
        },
        "ground": {
            "translation": [
                6,
                3.5,
                2.25
            ]
        },
        "gui": {
            "rotation": [
                90,
                45,
                -90
            ],
            "translation": [
                3.25,
                1,
                0
            ],
            "scale": [
                0.85,
                0.85,
                0.85
            ]
        },
        "head": {
            "translation": [
                6.25,
                11.25,
                0
            ]
        },
        "fixed": {
            "rotation": [
                90,
                45,
                -90
            ],
            "translation": [
                4.75,
                1,
                -6.75
            ]
        }
    }
}
