{
    "textures": {
        "1": "gci:items/gun_hsmg/barrel_uni_compensator",
        "2": "gci:items/gun_hsmg/barrel_uni_supressor",
        "3": "gci:items/gun_hsmg/underbarrel_uni_flash_on",
        "5": "gci:items/gun_hsmg/underbarrel_uni_lcu",
        "6": "gci:items/gun_hsmg/barrel_uni_silencer",
        "7": "gci:items/gun_hsmg/optic_uni_scope_assault",
        "12": "gci:items/gun_hsmg/smgstockbase",
        "13": "gci:items/gun_hsmg/medmag",
        "14": "gci:items/gun_hsmg/grip",
        "15": "gci:items/gun_hsmg/holo",
        "16": "gci:items/gun_hsmg/grip_flash",
        "17": "gci:items/gun_hsmg/grip_laser",
        "18": "gci:items/gun_hsmg/stockfold",
        "19": "gci:items/gun_hsmg/stocktelescop",
        "20": "gci:items/gun_hsmg/reflex_scope",
        "21": "gci:items/gun_hsmg/bigmag",
        "22": "gci:items/gun_hsmg/smallmag",
        "23": "gci:items/gun_hsmg/underbarrel_flame",
        "24": "gci:items/gun_hsmg/underbarrel_shot",
        "25": "gci:items/gun_hsmg/snip_scope",
        "particle": "gci:items/gun_hsmg/medmag"
    },
    "elements": [
        {
            "from": [
                8.07147,
                5.832,
                11.99162
            ],
            "to": [
                9.36747,
                6.642,
                13.61162
            ],
            "rotation": {
                "angle": 0,
                "axis": "y",
                "origin": [
                    8.71947,
                    -0.081,
                    2.27162
                ]
            },
            "faces": {
                "north": {
                    "uv": [
                        12,
                        0,
                        14,
                        1
                    ],
                    "texture": "#16"
                },
                "east": {
                    "uv": [
                        12,
                        1,
                        14,
                        2
                    ],
                    "texture": "#16"
                },
                "south": {
                    "uv": [
                        2,
                        12,
                        4,
                        13
                    ],
                    "texture": "#16"
                },
                "west": {
                    "uv": [
                        4,
                        12,
                        6,
                        13
                    ],
                    "texture": "#16"
                },
                "up": {
                    "uv": [
                        10,
                        4,
                        8,
                        2
                    ],
                    "texture": "#16"
                },
                "down": {
                    "uv": [
                        10,
                        4,
                        8,
                        6
                    ],
                    "texture": "#16"
                }
            }
        },
        {
            "from": [
                7.90947,
                1.782,
                11.82962
            ],
            "to": [
                9.52947,
                5.832,
                13.77362
            ],
            "rotation": {
                "angle": 0,
                "axis": "y",
                "origin": [
                    8.71947,
                    -0.081,
                    2.27162
                ]
            },
            "faces": {
                "north": {
                    "uv": [
                        0,
                        0,
                        2,
                        5
                    ],
                    "texture": "#16"
                },
                "east": {
                    "uv": [
                        2,
                        0,
                        4,
                        5
                    ],
                    "texture": "#16"
                },
                "south": {
                    "uv": [
                        4,
                        0,
                        6,
                        5
                    ],
                    "texture": "#16"
                },
                "west": {
                    "uv": [
                        0,
                        5,
                        2,
                        10
                    ],
                    "texture": "#16"
                },
                "up": {
                    "uv": [
                        10,
                        8,
                        8,
                        6
                    ],
                    "texture": "#16"
                },
                "down": {
                    "uv": [
                        10,
                        8,
                        8,
                        10
                    ],
                    "texture": "#16"
                }
            }
        },
        {
            "from": [
                7.90947,
                6.642,
                11.18162
            ],
            "to": [
                9.52947,
                8.262,
                14.42162
            ],
            "rotation": {
                "angle": 0,
                "axis": "y",
                "origin": [
                    8.71947,
                    -0.081,
                    1.46162
                ]
            },
            "faces": {
                "north": {
                    "uv": [
                        0,
                        10,
                        2,
                        12
                    ],
                    "texture": "#16"
                },
                "east": {
                    "uv": [
                        2,
                        5,
                        6,
                        7
                    ],
                    "texture": "#16"
                },
                "south": {
                    "uv": [
                        10,
                        0,
                        12,
                        2
                    ],
                    "texture": "#16"
                },
                "west": {
                    "uv": [
                        6,
                        0,
                        10,
                        2
                    ],
                    "texture": "#16"
                },
                "up": {
                    "uv": [
                        8,
                        6,
                        6,
                        2
                    ],
                    "texture": "#16"
                },
                "down": {
                    "uv": [
                        8,
                        6,
                        6,
                        10
                    ],
                    "texture": "#16"
                }
            }
        },
        {
            "from": [
                9.52947,
                7.047,
                12.39662
            ],
            "to": [
                9.85347,
                7.695,
                14.01662
            ],
            "rotation": {
                "angle": 22.5,
                "axis": "x",
                "origin": [
                    9.69147,
                    7.371,
                    13.20662
                ]
            },
            "faces": {
                "north": {
                    "uv": [
                        12,
                        11,
                        13,
                        12
                    ],
                    "texture": "#16"
                },
                "east": {
                    "uv": [
                        12,
                        6,
                        14,
                        7
                    ],
                    "texture": "#16"
                },
                "south": {
                    "uv": [
                        2,
                        13,
                        3,
                        14
                    ],
                    "texture": "#16"
                },
                "west": {
                    "uv": [
                        12,
                        7,
                        14,
                        8
                    ],
                    "texture": "#16"
                },
                "up": {
                    "uv": [
                        9,
                        14,
                        8,
                        12
                    ],
                    "texture": "#16"
                },
                "down": {
                    "uv": [
                        13,
                        8,
                        12,
                        10
                    ],
                    "texture": "#16"
                }
            }
        },
        {
            "from": [
                8.07147,
                8.262,
                11.18162
            ],
            "to": [
                9.36747,
                8.586,
                14.42162
            ],
            "rotation": {
                "angle": 0,
                "axis": "y",
                "origin": [
                    8.71947,
                    0,
                    1.46162
                ]
            },
            "faces": {
                "north": {
                    "uv": [
                        9,
                        12,
                        11,
                        13
                    ],
                    "texture": "#16"
                },
                "east": {
                    "uv": [
                        10,
                        2,
                        14,
                        3
                    ],
                    "texture": "#16"
                },
                "south": {
                    "uv": [
                        11,
                        12,
                        13,
                        13
                    ],
                    "texture": "#16"
                },
                "west": {
                    "uv": [
                        10,
                        3,
                        14,
                        4
                    ],
                    "texture": "#16"
                },
                "up": {
                    "uv": [
                        4,
                        11,
                        2,
                        7
                    ],
                    "texture": "#16"
                },
                "down": {
                    "uv": [
                        6,
                        7,
                        4,
                        11
                    ],
                    "texture": "#16"
                }
            }
        },
        {
            "from": [
                8.15247,
                6.804,
                14.42162
            ],
            "to": [
                9.28647,
                7.938,
                15.23162
            ],
            "rotation": {
                "angle": 45,
                "axis": "z",
                "origin": [
                    8.71947,
                    7.371,
                    14.82662
                ]
            },
            "faces": {
                "north": {
                    "uv": [
                        3,
                        13,
                        4,
                        14
                    ],
                    "texture": "#16"
                },
                "east": {
                    "uv": [
                        4,
                        13,
                        5,
                        14
                    ],
                    "texture": "#16"
                },
                "south": {
                    "uv": [
                        5,
                        13,
                        6,
                        14
                    ],
                    "texture": "#16"
                },
                "west": {
                    "uv": [
                        13,
                        8,
                        14,
                        9
                    ],
                    "texture": "#16"
                },
                "up": {
                    "uv": [
                        10,
                        14,
                        9,
                        13
                    ],
                    "texture": "#16"
                },
                "down": {
                    "uv": [
                        14,
                        9,
                        13,
                        10
                    ],
                    "texture": "#16"
                }
            }
        },
        {
            "from": [
                8.23347,
                6.885,
                15.25187
            ],
            "to": [
                9.20547,
                7.857,
                15.25187
            ],
            "rotation": {
                "angle": 45,
                "axis": "z",
                "origin": [
                    8.71947,
                    7.371,
                    14.82662
                ]
            },
            "faces": {
                "north": {
                    "uv": [
                        10,
                        13,
                        11,
                        14
                    ],
                    "texture": "#16"
                },
                "east": {
                    "uv": [
                        0,
                        0,
                        0,
                        1
                    ],
                    "texture": "#16"
                },
                "south": {
                    "uv": [
                        12,
                        14,
                        14,
                        16
                    ],
                    "texture": "#16"
                },
                "west": {
                    "uv": [
                        0,
                        0,
                        0,
                        1
                    ],
                    "texture": "#16"
                },
                "up": {
                    "uv": [
                        1,
                        0,
                        0,
                        0
                    ],
                    "texture": "#16"
                },
                "down": {
                    "uv": [
                        1,
                        0,
                        0,
                        0
                    ],
                    "texture": "#16"
                }
            }
        },
        {
            "from": [
                8.13857,
                6.4129,
                11.18162
            ],
            "to": [
                9.30037,
                6.8711,
                14.42162
            ],
            "rotation": {
                "angle": 0,
                "axis": "y",
                "origin": [
                    8.94857,
                    0.9581,
                    1.46162
                ]
            },
            "faces": {
                "north": {
                    "uv": [
                        13,
                        11,
                        14,
                        12
                    ],
                    "texture": "#16"
                },
                "east": {
                    "uv": [
                        10,
                        4,
                        14,
                        5
                    ],
                    "texture": "#16"
                },
                "south": {
                    "uv": [
                        12,
                        13,
                        13,
                        14
                    ],
                    "texture": "#16"
                },
                "west": {
                    "uv": [
                        10,
                        5,
                        14,
                        6
                    ],
                    "texture": "#16"
                },
                "up": {
                    "uv": [
                        7,
                        14,
                        6,
                        10
                    ],
                    "texture": "#16"
                },
                "down": {
                    "uv": [
                        11,
                        6,
                        10,
                        10
                    ],
                    "texture": "#16"
                }
            }
        },
        {
            "from": [
                8.0269,
                6.6015,
                11.18162
            ],
            "to": [
                8.3509,
                6.9255,
                14.42162
            ],
            "rotation": {
                "angle": 45,
                "axis": "z",
                "origin": [
                    8.3104,
                    6.642,
                    12.80162
                ]
            },
            "faces": {
                "north": {
                    "uv": [
                        13,
                        12,
                        14,
                        13
                    ],
                    "texture": "#16"
                },
                "east": {
                    "uv": [
                        7,
                        10,
                        11,
                        11
                    ],
                    "texture": "#16"
                },
                "south": {
                    "uv": [
                        13,
                        13,
                        14,
                        14
                    ],
                    "texture": "#16"
                },
                "west": {
                    "uv": [
                        2,
                        11,
                        6,
                        12
                    ],
                    "texture": "#16"
                },
                "up": {
                    "uv": [
                        12,
                        10,
                        11,
                        6
                    ],
                    "texture": "#16"
                },
                "down": {
                    "uv": [
                        8,
                        11,
                        7,
                        15
                    ],
                    "texture": "#16"
                }
            }
        },
        {
            "from": [
                9.1887,
                6.6015,
                11.18162
            ],
            "to": [
                9.5127,
                6.9255,
                14.42162
            ],
            "rotation": {
                "angle": 45,
                "axis": "z",
                "origin": [
                    9.4722,
                    6.642,
                    12.80162
                ]
            },
            "faces": {
                "north": {
                    "uv": [
                        14,
                        0,
                        15,
                        1
                    ],
                    "texture": "#16"
                },
                "east": {
                    "uv": [
                        8,
                        11,
                        12,
                        12
                    ],
                    "texture": "#16"
                },
                "south": {
                    "uv": [
                        14,
                        1,
                        15,
                        2
                    ],
                    "texture": "#16"
                },
                "west": {
                    "uv": [
                        11,
                        10,
                        15,
                        11
                    ],
                    "texture": "#16"
                },
                "up": {
                    "uv": [
                        1,
                        16,
                        0,
                        12
                    ],
                    "texture": "#16"
                },
                "down": {
                    "uv": [
                        2,
                        12,
                        1,
                        16
                    ],
                    "texture": "#16"
                }
            }
        }
    ],
    "display": {
        "thirdperson_righthand": {
            "rotation": [
                0,
                180,
                0
            ],
            "translation": [
                0,
                0.5,
                -2.25
            ],
            "scale": [
                0.65,
                0.65,
                0.65
            ]
        },
        "thirdperson_lefthand": {
            "rotation": [
                0,
                180,
                0
            ],
            "translation": [
                -0.75,
                0.5,
                -2.25
            ],
            "scale": [
                0.65,
                0.65,
                0.65
            ]
        },
        "firstperson_righthand": {
            "rotation": [
                -179.11,
                0.85,
                176.24
            ],
            "translation": [
                -2.75,
                2.5,
                -0.25
            ],
            "scale": [
                1,
                1,
                0.9
            ]
        },
        "firstperson_lefthand": {
            "rotation": [
                -179.11,
                0.85,
                176.24
            ],
            "translation": [
                -4.25,
                2.5,
                -0.25
            ],
            "scale": [
                1,
                1,
                0.9
            ]
        },
        "ground": {
            "translation": [
                0,
                2.25,
                0
            ]
        },
        "gui": {
            "rotation": [
                -90,
                -55,
                -90
            ],
            "translation": [
                1.75,
                -0.75,
                0
            ]
        },
        "fixed": {
            "rotation": [
                90,
                45,
                -90
            ],
            "translation": [
                -1.25,
                0.5,
                -1.5
            ],
            "scale": [
                0.65,
                0.65,
                0.65
            ]
        }
    }
}