{
	"credit": "Made with Blockbench",
	"textures": {
		"0": "gci:items/common/all_in_one",
		"particle": "gci:items/common/all_in_one"
	},
	"elements": [
		{
			"from": [7.93632, 8.38661, 4.652],
			"to": [8.00432, 9.57861, 5.136],
			"rotation": {"angle": 0, "axis": "y", "origin": [7.98632, 9.47861, -4.902]},
			"faces": {
				"north": {"uv": [7.375, 2.5, 7.375, 2.75], "texture": "#0"},
				"east": {"uv": [7.375, 2.5, 7.875, 2.75], "texture": "#0"},
				"south": {"uv": [7.5, 2.375, 7.5, 2.625], "texture": "#0"},
				"west": {"uv": [7.375, 2.5, 7.875, 2.75], "texture": "#0"},
				"up": {"uv": [7.375, 2.5, 7.875, 2.75], "texture": "#0"},
				"down": {"uv": [7.375, 2.5, 7.875, 2.75], "texture": "#0"}
			}
		},
		{
			"from": [7.92364, 9.60922, 4.652],
			"to": [8.28764, 9.70922, 5.136],
			"rotation": {"angle": 45, "axis": "z", "origin": [8.08764, 9.65922, -4.902]},
			"faces": {
				"north": {"uv": [7.375, 2.5, 7.375, 2.75], "rotation": 90, "texture": "#0"},
				"east": {"uv": [7.375, 2.5, 7.875, 2.75], "rotation": 90, "texture": "#0"},
				"south": {"uv": [7.5, 2.375, 7.5, 2.625], "rotation": 90, "texture": "#0"},
				"west": {"uv": [7.375, 2.5, 7.875, 2.75], "rotation": 90, "texture": "#0"},
				"up": {"uv": [7.375, 2.5, 7.875, 2.75], "rotation": 90, "texture": "#0"},
				"down": {"uv": [7.375, 2.5, 7.875, 2.75], "rotation": 90, "texture": "#0"}
			}
		},
		{
			"from": [8.19371, 9.736, 4.652],
			"to": [8.45361, 9.836, 5.136],
			"rotation": {"angle": 0, "axis": "y", "origin": [8.03513, 9.69458, -17.652]},
			"faces": {
				"north": {"uv": [7.375, 2.5, 7.375, 2.75], "rotation": 270, "texture": "#0"},
				"east": {"uv": [7.375, 2.5, 7.875, 2.75], "rotation": 270, "texture": "#0"},
				"south": {"uv": [7.5, 2.375, 7.5, 2.625], "rotation": 270, "texture": "#0"},
				"west": {"uv": [7.375, 2.5, 7.875, 2.75], "rotation": 270, "texture": "#0"},
				"up": {"uv": [7.375, 2.5, 7.875, 2.75], "rotation": 90, "texture": "#0"},
				"down": {"uv": [7.375, 2.5, 7.875, 2.75], "rotation": 270, "texture": "#0"}
			}
		},
		{
			"from": [8.59737, 9.05172, 4.652],
			"to": [8.69737, 9.41572, 5.136],
			"rotation": {"angle": 45, "axis": "z", "origin": [8.06751, 9.33001, -4.84515]},
			"faces": {
				"north": {"uv": [7.375, 2.5, 7.375, 2.75], "rotation": 180, "texture": "#0"},
				"east": {"uv": [7.375, 2.5, 7.875, 2.75], "rotation": 180, "texture": "#0"},
				"south": {"uv": [7.5, 2.375, 7.5, 2.625], "rotation": 180, "texture": "#0"},
				"west": {"uv": [7.375, 2.5, 7.875, 2.75], "rotation": 180, "texture": "#0"},
				"up": {"uv": [7.375, 2.5, 7.875, 2.75], "rotation": 180, "texture": "#0"},
				"down": {"uv": [7.375, 2.5, 7.875, 2.75], "rotation": 180, "texture": "#0"}
			}
		},
		{
			"from": [8.64167, 8.38661, 4.652],
			"to": [8.70967, 9.57861, 5.136],
			"rotation": {"angle": 0, "axis": "y", "origin": [8.65967, 9.47861, -4.902]},
			"faces": {
				"north": {"uv": [7.375, 2.5, 7.375, 2.75], "texture": "#0"},
				"east": {"uv": [7.375, 2.5, 7.875, 2.75], "rotation": 180, "texture": "#0"},
				"south": {"uv": [7.5, 2.375, 7.5, 2.625], "texture": "#0"},
				"west": {"uv": [7.375, 2.5, 7.875, 2.75], "texture": "#0"},
				"up": {"uv": [7.375, 2.5, 7.875, 2.75], "rotation": 90, "texture": "#0"},
				"down": {"uv": [7.375, 2.5, 7.875, 2.75], "texture": "#0"}
			}
		},
		{
			"from": [8.50183, 8.30736, 4.652],
			"to": [8.69773, 8.47136, 5.136],
			"rotation": {"angle": 22.5, "axis": "z", "origin": [8.50378, 8.37336, 6.846]},
			"faces": {
				"north": {"uv": [7.375, 2.5, 7.875, 2.75], "rotation": 270, "texture": "#0"},
				"east": {"uv": [7.375, 2.5, 7.875, 2.75], "rotation": 270, "texture": "#0"},
				"south": {"uv": [7.375, 2.5, 7.875, 2.75], "rotation": 270, "texture": "#0"},
				"west": {"uv": [7.375, 2.5, 7.875, 2.75], "rotation": 270, "texture": "#0"},
				"up": {"uv": [7.375, 2.5, 7.875, 2.75], "rotation": 270, "texture": "#0"},
				"down": {"uv": [7.375, 2.5, 7.875, 2.75], "rotation": 270, "texture": "#0"}
			}
		},
		{
			"from": [8.11731, 8.31164, 4.652],
			"to": [8.52631, 8.41164, 5.136],
			"rotation": {"angle": 0, "axis": "y", "origin": [8.02273, 8.81422, -15.54]},
			"faces": {
				"north": {"uv": [7.375, 2.5, 7.875, 2.75], "rotation": 270, "texture": "#0"},
				"east": {"uv": [7.375, 2.5, 7.875, 2.75], "rotation": 270, "texture": "#0"},
				"south": {"uv": [7.375, 2.5, 7.875, 2.75], "rotation": 270, "texture": "#0"},
				"west": {"uv": [7.375, 2.5, 7.875, 2.75], "rotation": 270, "texture": "#0"},
				"up": {"uv": [7.375, 2.5, 7.875, 2.75], "rotation": 270, "texture": "#0"},
				"down": {"uv": [7.375, 2.5, 7.875, 2.75], "rotation": 270, "texture": "#0"}
			}
		},
		{
			"from": [7.96143, 8.38084, 4.652],
			"to": [8.15733, 8.54484, 5.136],
			"rotation": {"angle": -22.5, "axis": "z", "origin": [7.96338, 8.44684, 6.846]},
			"faces": {
				"north": {"uv": [7.375, 2.5, 7.875, 2.75], "rotation": 270, "texture": "#0"},
				"east": {"uv": [7.375, 2.5, 7.875, 2.75], "rotation": 270, "texture": "#0"},
				"south": {"uv": [7.375, 2.5, 7.875, 2.75], "rotation": 270, "texture": "#0"},
				"west": {"uv": [7.375, 2.5, 7.875, 2.75], "rotation": 270, "texture": "#0"},
				"up": {"uv": [7.375, 2.5, 7.875, 2.75], "rotation": 270, "texture": "#0"},
				"down": {"uv": [7.375, 2.5, 7.875, 2.75], "rotation": 270, "texture": "#0"}
			}
		},
		{
			"from": [7.93632, 8.38661, 6.828],
			"to": [8.00432, 9.57861, 7.312],
			"rotation": {"angle": 0, "axis": "y", "origin": [7.98632, 9.47861, -2.726]},
			"faces": {
				"north": {"uv": [7.375, 2.5, 7.375, 2.75], "texture": "#0"},
				"east": {"uv": [7.375, 2.5, 7.875, 2.75], "texture": "#0"},
				"south": {"uv": [7.5, 2.375, 7.5, 2.625], "texture": "#0"},
				"west": {"uv": [7.375, 2.5, 7.875, 2.75], "texture": "#0"},
				"up": {"uv": [7.375, 2.5, 7.875, 2.75], "texture": "#0"},
				"down": {"uv": [7.375, 2.5, 7.875, 2.75], "texture": "#0"}
			}
		},
		{
			"from": [7.92364, 9.60922, 6.828],
			"to": [8.28764, 9.70922, 7.312],
			"rotation": {"angle": 45, "axis": "z", "origin": [8.08764, 9.65922, -2.726]},
			"faces": {
				"north": {"uv": [7.375, 2.5, 7.375, 2.75], "rotation": 90, "texture": "#0"},
				"east": {"uv": [7.375, 2.5, 7.875, 2.75], "rotation": 90, "texture": "#0"},
				"south": {"uv": [7.5, 2.375, 7.5, 2.625], "rotation": 90, "texture": "#0"},
				"west": {"uv": [7.375, 2.5, 7.875, 2.75], "rotation": 90, "texture": "#0"},
				"up": {"uv": [7.375, 2.5, 7.875, 2.75], "rotation": 90, "texture": "#0"},
				"down": {"uv": [7.375, 2.5, 7.875, 2.75], "rotation": 90, "texture": "#0"}
			}
		},
		{
			"from": [8.19371, 9.736, 6.828],
			"to": [8.45361, 9.836, 7.312],
			"rotation": {"angle": 0, "axis": "y", "origin": [8.03513, 9.69458, -15.476]},
			"faces": {
				"north": {"uv": [7.375, 2.5, 7.375, 2.75], "rotation": 270, "texture": "#0"},
				"east": {"uv": [7.375, 2.5, 7.875, 2.75], "rotation": 270, "texture": "#0"},
				"south": {"uv": [7.5, 2.375, 7.5, 2.625], "rotation": 270, "texture": "#0"},
				"west": {"uv": [7.375, 2.5, 7.875, 2.75], "rotation": 270, "texture": "#0"},
				"up": {"uv": [7.375, 2.5, 7.875, 2.75], "rotation": 90, "texture": "#0"},
				"down": {"uv": [7.375, 2.5, 7.875, 2.75], "rotation": 270, "texture": "#0"}
			}
		},
		{
			"from": [8.59737, 9.05172, 6.828],
			"to": [8.69737, 9.41572, 7.312],
			"rotation": {"angle": 45, "axis": "z", "origin": [8.06751, 9.33001, -2.66915]},
			"faces": {
				"north": {"uv": [7.375, 2.5, 7.375, 2.75], "rotation": 180, "texture": "#0"},
				"east": {"uv": [7.375, 2.5, 7.875, 2.75], "rotation": 180, "texture": "#0"},
				"south": {"uv": [7.5, 2.375, 7.5, 2.625], "rotation": 180, "texture": "#0"},
				"west": {"uv": [7.375, 2.5, 7.875, 2.75], "rotation": 180, "texture": "#0"},
				"up": {"uv": [7.375, 2.5, 7.875, 2.75], "rotation": 180, "texture": "#0"},
				"down": {"uv": [7.375, 2.5, 7.875, 2.75], "rotation": 180, "texture": "#0"}
			}
		},
		{
			"from": [8.64167, 8.38661, 6.828],
			"to": [8.70967, 9.57861, 7.312],
			"rotation": {"angle": 0, "axis": "y", "origin": [8.65967, 9.47861, -2.726]},
			"faces": {
				"north": {"uv": [7.375, 2.5, 7.375, 2.75], "texture": "#0"},
				"east": {"uv": [7.375, 2.5, 7.875, 2.75], "rotation": 180, "texture": "#0"},
				"south": {"uv": [7.5, 2.375, 7.5, 2.625], "texture": "#0"},
				"west": {"uv": [7.375, 2.5, 7.875, 2.75], "texture": "#0"},
				"up": {"uv": [7.375, 2.5, 7.875, 2.75], "rotation": 90, "texture": "#0"},
				"down": {"uv": [7.375, 2.5, 7.875, 2.75], "texture": "#0"}
			}
		},
		{
			"from": [8.50183, 8.30736, 6.828],
			"to": [8.69773, 8.47136, 7.312],
			"rotation": {"angle": 22.5, "axis": "z", "origin": [8.50378, 8.37336, 9.022]},
			"faces": {
				"north": {"uv": [7.375, 2.5, 7.875, 2.75], "rotation": 270, "texture": "#0"},
				"east": {"uv": [7.375, 2.5, 7.875, 2.75], "rotation": 270, "texture": "#0"},
				"south": {"uv": [7.375, 2.5, 7.875, 2.75], "rotation": 270, "texture": "#0"},
				"west": {"uv": [7.375, 2.5, 7.875, 2.75], "rotation": 270, "texture": "#0"},
				"up": {"uv": [7.375, 2.5, 7.875, 2.75], "rotation": 270, "texture": "#0"},
				"down": {"uv": [7.375, 2.5, 7.875, 2.75], "rotation": 270, "texture": "#0"}
			}
		},
		{
			"from": [8.11731, 8.31164, 6.828],
			"to": [8.52631, 8.41164, 7.312],
			"rotation": {"angle": 0, "axis": "y", "origin": [8.02273, 8.81422, -13.364]},
			"faces": {
				"north": {"uv": [7.375, 2.5, 7.875, 2.75], "rotation": 270, "texture": "#0"},
				"east": {"uv": [7.375, 2.5, 7.875, 2.75], "rotation": 270, "texture": "#0"},
				"south": {"uv": [7.375, 2.5, 7.875, 2.75], "rotation": 270, "texture": "#0"},
				"west": {"uv": [7.375, 2.5, 7.875, 2.75], "rotation": 270, "texture": "#0"},
				"up": {"uv": [7.375, 2.5, 7.875, 2.75], "rotation": 270, "texture": "#0"},
				"down": {"uv": [7.375, 2.5, 7.875, 2.75], "rotation": 270, "texture": "#0"}
			}
		},
		{
			"from": [7.96143, 8.38084, 6.828],
			"to": [8.15733, 8.54484, 7.312],
			"rotation": {"angle": -22.5, "axis": "z", "origin": [7.96338, 8.44684, 9.022]},
			"faces": {
				"north": {"uv": [7.375, 2.5, 7.875, 2.75], "rotation": 270, "texture": "#0"},
				"east": {"uv": [7.375, 2.5, 7.875, 2.75], "rotation": 270, "texture": "#0"},
				"south": {"uv": [7.375, 2.5, 7.875, 2.75], "rotation": 270, "texture": "#0"},
				"west": {"uv": [7.375, 2.5, 7.875, 2.75], "rotation": 270, "texture": "#0"},
				"up": {"uv": [7.375, 2.5, 7.875, 2.75], "rotation": 270, "texture": "#0"},
				"down": {"uv": [7.375, 2.5, 7.875, 2.75], "rotation": 270, "texture": "#0"}
			}
		},
		{
			"from": [7.96971, 8.41173, 4.524],
			"to": [8.67761, 9.37573, 7.632],
			"rotation": {"angle": 0, "axis": "y", "origin": [8.03513, 9.36231, -15.54]},
			"faces": {
				"north": {"uv": [0.875, 4.875, 1.625, 6.125], "rotation": 270, "texture": "#0"},
				"east": {"uv": [0.875, 4.875, 1.625, 6.125], "rotation": 270, "texture": "#0"},
				"south": {"uv": [0.875, 4.875, 1.625, 6.125], "rotation": 270, "texture": "#0"},
				"west": {"uv": [0.875, 4.875, 1.625, 6.125], "rotation": 270, "texture": "#0"},
				"up": {"uv": [0.875, 4.875, 1.625, 6.125], "rotation": 180, "texture": "#0"},
				"down": {"uv": [0.875, 4.875, 1.625, 6.125], "rotation": 180, "texture": "#0"}
			}
		},
		{
			"from": [8.12339, 8.34808, 4.524],
			"to": [8.5277, 8.43676, 7.632],
			"rotation": {"angle": 0, "axis": "y", "origin": [8.02412, 8.83934, -15.54]},
			"faces": {
				"north": {"uv": [0.875, 4.875, 1, 6], "rotation": 270, "texture": "#0"},
				"east": {"uv": [0.875, 4.875, 1, 6], "rotation": 270, "texture": "#0"},
				"south": {"uv": [0.875, 4.875, 1, 6], "rotation": 270, "texture": "#0"},
				"west": {"uv": [0.875, 4.875, 1, 6], "rotation": 270, "texture": "#0"},
				"up": {"uv": [0.875, 4.875, 1, 6], "rotation": 270, "texture": "#0"},
				"down": {"uv": [0.875, 4.875, 1, 6], "rotation": 270, "texture": "#0"}
			}
		},
		{
			"from": [8.5067, 8.34329, 4.524],
			"to": [8.66955, 8.49648, 7.632],
			"rotation": {"angle": 22.5, "axis": "z", "origin": [8.50517, 8.39848, 6.846]},
			"faces": {
				"north": {"uv": [0.875, 4.875, 1, 6], "rotation": 270, "texture": "#0"},
				"east": {"uv": [0.875, 4.875, 1, 6], "rotation": 270, "texture": "#0"},
				"south": {"uv": [0.875, 4.875, 1, 6], "rotation": 270, "texture": "#0"},
				"west": {"uv": [0.875, 4.875, 1, 6], "rotation": 270, "texture": "#0"},
				"up": {"uv": [0.875, 4.875, 1, 6], "rotation": 270, "texture": "#0"},
				"down": {"uv": [0.875, 4.875, 1, 6], "rotation": 270, "texture": "#0"}
			}
		},
		{
			"from": [7.99238, 8.41821, 4.524],
			"to": [8.15872, 8.56996, 7.632],
			"rotation": {"angle": -22.5, "axis": "z", "origin": [7.96477, 8.47196, 6.846]},
			"faces": {
				"north": {"uv": [0.875, 4.875, 1, 6], "rotation": 270, "texture": "#0"},
				"east": {"uv": [0.875, 4.875, 1, 6], "rotation": 270, "texture": "#0"},
				"south": {"uv": [0.875, 4.875, 1, 6], "rotation": 270, "texture": "#0"},
				"west": {"uv": [0.875, 4.875, 1, 6], "rotation": 270, "texture": "#0"},
				"up": {"uv": [0.875, 4.875, 1, 6], "rotation": 270, "texture": "#0"},
				"down": {"uv": [0.875, 4.875, 1, 6], "rotation": 270, "texture": "#0"}
			}
		},
		{
			"from": [8.28971, 9.736, 4.844],
			"to": [8.35761, 10.06, 4.912],
			"rotation": {"angle": 0, "axis": "y", "origin": [8.03513, 9.59858, -17.652]},
			"faces": {
				"north": {"uv": [4.125, 4.25, 4.5, 4.25], "rotation": 180, "texture": "#0"},
				"east": {"uv": [4.125, 4.25, 4.5, 4.25], "rotation": 180, "texture": "#0"},
				"south": {"uv": [4.125, 4.25, 4.5, 4.25], "rotation": 180, "texture": "#0"},
				"west": {"uv": [4.125, 4.25, 4.5, 4.25], "rotation": 180, "texture": "#0"},
				"up": {"uv": [4.125, 4.25, 4.5, 4.25], "rotation": 180, "texture": "#0"},
				"down": {"uv": [4.125, 4.25, 4.5, 4.25], "rotation": 180, "texture": "#0"}
			}
		},
		{
			"from": [8.25771, 10.056, 4.812],
			"to": [8.38961, 10.092, 4.944],
			"rotation": {"angle": 0, "axis": "y", "origin": [8.03513, 10.01458, -17.652]},
			"faces": {
				"north": {"uv": [4.125, 3.25, 4.5, 3.25], "rotation": 180, "texture": "#0"},
				"east": {"uv": [4.125, 3.25, 4.5, 3.25], "rotation": 180, "texture": "#0"},
				"south": {"uv": [4.125, 3.25, 4.5, 3.25], "rotation": 180, "texture": "#0"},
				"west": {"uv": [4.125, 3.25, 4.5, 3.25], "rotation": 180, "texture": "#0"},
				"up": {"uv": [4.125, 3.25, 4.5, 3.25], "rotation": 180, "texture": "#0"},
				"down": {"uv": [4.125, 3.25, 4.5, 3.25], "rotation": 180, "texture": "#0"}
			}
		},
		{
			"from": [8.46442, 9.42386, 4.04],
			"to": [8.56442, 9.62386, 11.78],
			"rotation": {"angle": 45, "axis": "z", "origin": [8.323, 9.52386, -3.098]},
			"faces": {
				"north": {"uv": [1.875, 2.75, 1.875, 3.625], "rotation": 180, "texture": "#0"},
				"east": {"uv": [1.875, 2.75, 1.875, 3.625], "rotation": 180, "texture": "#0"},
				"south": {"uv": [1.875, 2.75, 1.875, 3.625], "rotation": 180, "texture": "#0"},
				"west": {"uv": [1.875, 2.75, 1.875, 3.625], "rotation": 180, "texture": "#0"},
				"up": {"uv": [1.875, 2.75, 1.875, 3.625], "rotation": 180, "texture": "#0"},
				"down": {"uv": [1.875, 2.75, 1.875, 3.625], "rotation": 180, "texture": "#0"}
			}
		},
		{
			"from": [8.08157, 9.42386, 4.04],
			"to": [8.18157, 9.62386, 11.78],
			"rotation": {"angle": 45, "axis": "z", "origin": [8.323, 9.52386, -3.098]},
			"faces": {
				"north": {"uv": [1.875, 2.75, 1.875, 3.625], "rotation": 180, "texture": "#0"},
				"east": {"uv": [1.875, 2.75, 1.875, 3.625], "rotation": 180, "texture": "#0"},
				"south": {"uv": [1.875, 2.75, 1.875, 3.625], "rotation": 180, "texture": "#0"},
				"west": {"uv": [1.875, 2.75, 1.875, 3.625], "rotation": 180, "texture": "#0"},
				"up": {"uv": [1.875, 2.75, 1.875, 3.625], "rotation": 180, "texture": "#0"},
				"down": {"uv": [1.875, 2.75, 1.875, 3.625], "rotation": 180, "texture": "#0"}
			}
		},
		{
			"from": [8.223, 9.28244, 4.04],
			"to": [8.423, 9.38244, 11.78],
			"rotation": {"angle": 0, "axis": "y", "origin": [8.06442, 9.24102, -16.848]},
			"faces": {
				"north": {"uv": [1.875, 2.75, 1.875, 3.625], "rotation": 270, "texture": "#0"},
				"east": {"uv": [1.875, 2.75, 1.875, 3.625], "rotation": 270, "texture": "#0"},
				"south": {"uv": [1.875, 2.75, 1.875, 3.625], "rotation": 270, "texture": "#0"},
				"west": {"uv": [1.875, 2.75, 1.875, 3.625], "rotation": 270, "texture": "#0"},
				"up": {"uv": [1.875, 2.75, 1.875, 3.625], "rotation": 270, "texture": "#0"},
				"down": {"uv": [1.875, 2.75, 1.875, 3.625], "rotation": 270, "texture": "#0"}
			}
		},
		{
			"from": [8.223, 9.66529, 4.04],
			"to": [8.423, 9.76529, 11.78],
			"rotation": {"angle": 0, "axis": "y", "origin": [8.06442, 9.62386, -16.848]},
			"faces": {
				"north": {"uv": [1.875, 2.75, 1.875, 3.625], "rotation": 270, "texture": "#0"},
				"east": {"uv": [1.875, 2.75, 1.875, 3.625], "rotation": 270, "texture": "#0"},
				"south": {"uv": [1.875, 2.75, 1.875, 3.625], "rotation": 270, "texture": "#0"},
				"west": {"uv": [1.875, 2.75, 1.875, 3.625], "rotation": 270, "texture": "#0"},
				"up": {"uv": [1.875, 2.75, 1.875, 3.625], "rotation": 270, "texture": "#0"},
				"down": {"uv": [1.875, 2.75, 1.875, 3.625], "rotation": 270, "texture": "#0"}
			}
		},
		{
			"from": [8.08157, 9.42386, 4.04],
			"to": [8.18157, 9.62386, 11.78],
			"rotation": {"angle": 0, "axis": "y", "origin": [8.13157, 9.52386, -4.098]},
			"faces": {
				"north": {"uv": [1.875, 2.75, 1.875, 3.625], "texture": "#0"},
				"east": {"uv": [1.875, 2.75, 1.875, 3.625], "texture": "#0"},
				"south": {"uv": [1.875, 2.75, 1.875, 3.625], "texture": "#0"},
				"west": {"uv": [1.875, 2.75, 1.875, 3.625], "texture": "#0"},
				"up": {"uv": [1.875, 2.75, 1.875, 3.625], "texture": "#0"},
				"down": {"uv": [1.875, 2.75, 1.875, 3.625], "texture": "#0"}
			}
		},
		{
			"from": [8.46442, 9.42386, 4.04],
			"to": [8.56442, 9.62386, 11.78],
			"rotation": {"angle": 0, "axis": "y", "origin": [8.51442, 9.52386, -4.098]},
			"faces": {
				"north": {"uv": [1.875, 2.75, 1.875, 3.625], "texture": "#0"},
				"east": {"uv": [1.875, 2.75, 1.875, 3.625], "texture": "#0"},
				"south": {"uv": [1.875, 2.75, 1.875, 3.625], "texture": "#0"},
				"west": {"uv": [1.875, 2.75, 1.875, 3.625], "texture": "#0"},
				"up": {"uv": [1.875, 2.75, 1.875, 3.625], "texture": "#0"},
				"down": {"uv": [1.875, 2.75, 1.875, 3.625], "texture": "#0"}
			}
		},
		{
			"from": [8.223, 9.28244, 4.04],
			"to": [8.423, 9.38244, 11.78],
			"rotation": {"angle": 45, "axis": "z", "origin": [8.323, 9.52386, -3.098]},
			"faces": {
				"north": {"uv": [1.875, 2.75, 1.875, 3.625], "rotation": 90, "texture": "#0"},
				"east": {"uv": [1.875, 2.75, 1.875, 3.625], "rotation": 90, "texture": "#0"},
				"south": {"uv": [1.875, 2.75, 1.875, 3.625], "rotation": 90, "texture": "#0"},
				"west": {"uv": [1.875, 2.75, 1.875, 3.625], "rotation": 90, "texture": "#0"},
				"up": {"uv": [1.875, 2.75, 1.875, 3.625], "rotation": 90, "texture": "#0"},
				"down": {"uv": [1.875, 2.75, 1.875, 3.625], "rotation": 90, "texture": "#0"}
			}
		},
		{
			"from": [8.223, 9.66529, 4.04],
			"to": [8.423, 9.76529, 11.78],
			"rotation": {"angle": 45, "axis": "z", "origin": [8.323, 9.52386, -3.098]},
			"faces": {
				"north": {"uv": [1.875, 2.75, 1.875, 3.625], "rotation": 90, "texture": "#0"},
				"east": {"uv": [1.875, 2.75, 1.875, 3.625], "rotation": 90, "texture": "#0"},
				"south": {"uv": [1.875, 2.75, 1.875, 3.625], "rotation": 90, "texture": "#0"},
				"west": {"uv": [1.875, 2.75, 1.875, 3.625], "rotation": 90, "texture": "#0"},
				"up": {"uv": [1.875, 2.75, 1.875, 3.625], "rotation": 90, "texture": "#0"},
				"down": {"uv": [1.875, 2.75, 1.875, 3.625], "rotation": 90, "texture": "#0"}
			}
		},
		{
			"from": [8.15228, 9.39458, 10.944],
			"to": [8.25228, 9.59458, 11.784],
			"rotation": {"angle": 0, "axis": "y", "origin": [8.20228, 9.49458, 11.094]},
			"faces": {
				"north": {"uv": [2.25, 2.75, 2.25, 3.625], "rotation": 90, "texture": "#0"},
				"east": {"uv": [2.25, 2.75, 2.25, 3.625], "rotation": 90, "texture": "#0"},
				"south": {"uv": [2.25, 2.75, 2.25, 3.625], "rotation": 90, "texture": "#0"},
				"west": {"uv": [2.25, 2.75, 2.25, 3.625], "rotation": 90, "texture": "#0"},
				"up": {"uv": [2.25, 2.75, 2.25, 3.625], "rotation": 90, "texture": "#0"},
				"down": {"uv": [2.25, 2.75, 2.25, 3.625], "rotation": 90, "texture": "#0"}
			}
		},
		{
			"from": [8.223, 9.56529, 10.944],
			"to": [8.423, 9.66529, 11.784],
			"rotation": {"angle": 0, "axis": "y", "origin": [8.373, 9.61529, 11.094]},
			"faces": {
				"north": {"uv": [2.25, 2.75, 2.25, 3.625], "rotation": 180, "texture": "#0"},
				"east": {"uv": [2.25, 2.75, 2.25, 3.625], "rotation": 180, "texture": "#0"},
				"south": {"uv": [2.25, 2.75, 2.25, 3.625], "rotation": 180, "texture": "#0"},
				"west": {"uv": [2.25, 2.75, 2.25, 3.625], "rotation": 180, "texture": "#0"},
				"up": {"uv": [2.25, 2.75, 2.25, 3.625], "rotation": 180, "texture": "#0"},
				"down": {"uv": [2.25, 2.75, 2.25, 3.625], "rotation": 180, "texture": "#0"}
			}
		},
		{
			"from": [8.223, 9.36529, 10.944],
			"to": [8.423, 9.56529, 11.784],
			"rotation": {"angle": 0, "axis": "y", "origin": [8.373, 9.51529, 11.094]},
			"faces": {
				"north": {"uv": [2.25, 2.75, 2.25, 3.625], "rotation": 180, "texture": "#0"},
				"east": {"uv": [2.25, 2.75, 2.25, 3.625], "rotation": 180, "texture": "#0"},
				"south": {"uv": [2.25, 2.75, 2.25, 3.625], "rotation": 180, "texture": "#0"},
				"west": {"uv": [2.25, 2.75, 2.25, 3.625], "rotation": 180, "texture": "#0"},
				"up": {"uv": [2.25, 2.75, 2.25, 3.625], "rotation": 180, "texture": "#0"},
				"down": {"uv": [2.25, 2.75, 2.25, 3.625], "rotation": 180, "texture": "#0"}
			}
		},
		{
			"from": [8.323, 9.56529, 10.944],
			"to": [8.423, 9.66529, 11.784],
			"rotation": {"angle": 45, "axis": "z", "origin": [8.323, 9.42386, -3.606]},
			"faces": {
				"north": {"uv": [2.25, 2.75, 2.25, 3.625], "rotation": 90, "texture": "#0"},
				"east": {"uv": [2.25, 2.75, 2.25, 3.625], "rotation": 90, "texture": "#0"},
				"south": {"uv": [2.25, 2.75, 2.25, 3.625], "rotation": 90, "texture": "#0"},
				"west": {"uv": [2.25, 2.75, 2.25, 3.625], "rotation": 90, "texture": "#0"},
				"up": {"uv": [2.25, 2.75, 2.25, 3.625], "rotation": 90, "texture": "#0"},
				"down": {"uv": [2.25, 2.75, 2.25, 3.625], "rotation": 90, "texture": "#0"}
			}
		},
		{
			"from": [8.39371, 9.39458, 10.944],
			"to": [8.49371, 9.59458, 11.784],
			"rotation": {"angle": 0, "axis": "y", "origin": [8.44371, 9.49458, 11.094]},
			"faces": {
				"north": {"uv": [2.25, 2.75, 2.25, 3.625], "rotation": 90, "texture": "#0"},
				"east": {"uv": [2.25, 2.75, 2.25, 3.625], "rotation": 90, "texture": "#0"},
				"south": {"uv": [2.25, 2.75, 2.25, 3.625], "rotation": 90, "texture": "#0"},
				"west": {"uv": [2.25, 2.75, 2.25, 3.625], "rotation": 90, "texture": "#0"},
				"up": {"uv": [2.25, 2.75, 2.25, 3.625], "rotation": 90, "texture": "#0"},
				"down": {"uv": [2.25, 2.75, 2.25, 3.625], "rotation": 90, "texture": "#0"}
			}
		},
		{
			"from": [8.46442, 9.42386, 10.944],
			"to": [8.56442, 9.52386, 11.784],
			"rotation": {"angle": 45, "axis": "z", "origin": [8.323, 9.42386, -3.606]},
			"faces": {
				"north": {"uv": [2.25, 2.75, 2.25, 3.625], "rotation": 180, "texture": "#0"},
				"east": {"uv": [2.25, 2.75, 2.25, 3.625], "rotation": 180, "texture": "#0"},
				"south": {"uv": [2.25, 2.75, 2.25, 3.625], "rotation": 180, "texture": "#0"},
				"west": {"uv": [2.25, 2.75, 2.25, 3.625], "rotation": 180, "texture": "#0"},
				"up": {"uv": [2.25, 2.75, 2.25, 3.625], "rotation": 180, "texture": "#0"},
				"down": {"uv": [2.25, 2.75, 2.25, 3.625], "rotation": 180, "texture": "#0"}
			}
		},
		{
			"from": [8.523, 9.36529, 10.944],
			"to": [8.623, 9.46529, 11.784],
			"rotation": {"angle": 45, "axis": "z", "origin": [8.523, 9.22386, -3.606]},
			"faces": {
				"north": {"uv": [2.25, 2.75, 2.25, 3.625], "rotation": 90, "texture": "#0"},
				"east": {"uv": [2.25, 2.75, 2.25, 3.625], "rotation": 90, "texture": "#0"},
				"south": {"uv": [2.25, 2.75, 2.25, 3.625], "rotation": 90, "texture": "#0"},
				"west": {"uv": [2.25, 2.75, 2.25, 3.625], "rotation": 90, "texture": "#0"},
				"up": {"uv": [2.25, 2.75, 2.25, 3.625], "rotation": 90, "texture": "#0"},
				"down": {"uv": [2.25, 2.75, 2.25, 3.625], "rotation": 90, "texture": "#0"}
			}
		},
		{
			"from": [8.223, 9.32386, 10.944],
			"to": [8.423, 9.42386, 11.784],
			"rotation": {"angle": 0, "axis": "y", "origin": [8.373, 9.37386, 11.094]},
			"faces": {
				"north": {"uv": [2.25, 2.75, 2.25, 3.625], "rotation": 180, "texture": "#0"},
				"east": {"uv": [2.25, 2.75, 2.25, 3.625], "rotation": 180, "texture": "#0"},
				"south": {"uv": [2.25, 2.75, 2.25, 3.625], "rotation": 180, "texture": "#0"},
				"west": {"uv": [2.25, 2.75, 2.25, 3.625], "rotation": 180, "texture": "#0"},
				"up": {"uv": [2.25, 2.75, 2.25, 3.625], "rotation": 180, "texture": "#0"},
				"down": {"uv": [2.25, 2.75, 2.25, 3.625], "rotation": 180, "texture": "#0"}
			}
		},
		{
			"from": [8.15228, 9.49458, 10.944],
			"to": [8.25228, 9.59458, 11.784],
			"rotation": {"angle": 45, "axis": "z", "origin": [8.39371, 9.49458, -3.606]},
			"faces": {
				"north": {"uv": [2.25, 2.75, 2.25, 3.625], "rotation": 180, "texture": "#0"},
				"east": {"uv": [2.25, 2.75, 2.25, 3.625], "rotation": 180, "texture": "#0"},
				"south": {"uv": [2.25, 2.75, 2.25, 3.625], "rotation": 180, "texture": "#0"},
				"west": {"uv": [2.25, 2.75, 2.25, 3.625], "rotation": 180, "texture": "#0"},
				"up": {"uv": [2.25, 2.75, 2.25, 3.625], "rotation": 180, "texture": "#0"},
				"down": {"uv": [2.25, 2.75, 2.25, 3.625], "rotation": 180, "texture": "#0"}
			}
		},
		{
			"from": [8.08442, 9.58386, 8.044],
			"to": [9.04842, 9.71986, 8.176],
			"rotation": {"angle": 22.5, "axis": "z", "origin": [8.64642, 9.65186, 8.11]},
			"faces": {
				"north": {"uv": [6.375, 2.375, 6.375, 2.5], "texture": "#0"},
				"east": {"uv": [6.375, 2.375, 6.375, 2.5], "texture": "#0"},
				"south": {"uv": [6.375, 2.375, 6.375, 2.5], "texture": "#0"},
				"west": {"uv": [6.375, 2.375, 6.375, 2.5], "texture": "#0"},
				"up": {"uv": [6.375, 2.375, 6.375, 2.5], "texture": "#0"},
				"down": {"uv": [6.375, 2.375, 6.375, 2.5], "texture": "#0"}
			}
		},
		{
			"from": [8.5347, 9.37357, 9.676],
			"to": [8.65469, 9.73893, 11.792],
			"rotation": {"angle": 22.5, "axis": "z", "origin": [8.06884, 9.33002, -1.74115]},
			"faces": {
				"north": {"uv": [13.75, 4.875, 14.125, 5.125], "rotation": 180, "texture": "#0"},
				"east": {"uv": [13.75, 4.875, 14.125, 5.125], "rotation": 180, "texture": "#0"},
				"south": {"uv": [13.75, 4.875, 14.125, 5.125], "rotation": 180, "texture": "#0"},
				"west": {"uv": [13.75, 4.875, 14.125, 5.125], "rotation": 180, "texture": "#0"},
				"up": {"uv": [13.75, 4.875, 14.125, 5.125], "rotation": 180, "texture": "#0"},
				"down": {"uv": [13.75, 4.875, 14.125, 5.125], "rotation": 180, "texture": "#0"}
			}
		},
		{
			"from": [8.44975, 9.79041, 7.948],
			"to": [8.50658, 9.92709, 9.676],
			"rotation": {"angle": 22.5, "axis": "z", "origin": [8.46775, 9.79641, 8.59]},
			"faces": {
				"north": {"uv": [13.75, 4.875, 14.125, 5.125], "rotation": 180, "texture": "#0"},
				"east": {"uv": [13.75, 4.875, 14.125, 5.125], "rotation": 180, "texture": "#0"},
				"south": {"uv": [13.75, 4.875, 14.125, 5.125], "rotation": 180, "texture": "#0"},
				"west": {"uv": [13.75, 4.875, 14.125, 5.125], "rotation": 180, "texture": "#0"},
				"up": {"uv": [13.75, 4.875, 14.125, 5.125], "rotation": 180, "texture": "#0"},
				"down": {"uv": [13.75, 4.875, 14.125, 5.125], "rotation": 180, "texture": "#0"}
			}
		},
		{
			"from": [8.26969, 9.35575, 7.70592],
			"to": [8.52568, 9.97189, 7.98496],
			"rotation": {"angle": 22.5, "axis": "z", "origin": [8.48185, 9.82553, 8.42496]},
			"faces": {
				"north": {"uv": [3.875, 2.875, 4, 2.875], "rotation": 180, "texture": "#0"},
				"east": {"uv": [3.875, 2.875, 4, 2.875], "rotation": 180, "texture": "#0"},
				"south": {"uv": [3.875, 2.875, 4, 2.875], "rotation": 180, "texture": "#0"},
				"west": {"uv": [3.875, 2.875, 4, 2.875], "rotation": 180, "texture": "#0"},
				"up": {"uv": [3.875, 2.875, 4, 2.875], "rotation": 180, "texture": "#0"},
				"down": {"uv": [3.875, 2.875, 4, 2.875], "rotation": 180, "texture": "#0"}
			}
		},
		{
			"from": [8.19737, 8.7743, 7.948],
			"to": [8.71337, 9.0743, 11.792],
			"rotation": {"angle": 45, "axis": "z", "origin": [7.66751, 8.98859, 2.95885]},
			"faces": {
				"north": {"uv": [13.75, 4.875, 14.125, 5.125], "rotation": 180, "texture": "#0"},
				"east": {"uv": [13.75, 4.875, 14.125, 5.125], "rotation": 180, "texture": "#0"},
				"south": {"uv": [13.75, 4.875, 14.125, 5.125], "rotation": 180, "texture": "#0"},
				"west": {"uv": [13.75, 4.875, 14.125, 5.125], "rotation": 180, "texture": "#0"},
				"up": {"uv": [13.75, 4.875, 14.125, 5.125], "rotation": 180, "texture": "#0"},
				"down": {"uv": [13.75, 4.875, 14.125, 5.125], "rotation": 180, "texture": "#0"}
			}
		},
		{
			"from": [8.17902, 8.68077, 7.70592],
			"to": [8.75694, 9.01677, 7.98496],
			"rotation": {"angle": 45, "axis": "z", "origin": [7.58558, 8.92077, 2.33311]},
			"faces": {
				"north": {"uv": [4.25, 3.375, 4.75, 3.375], "rotation": 180, "texture": "#0"},
				"east": {"uv": [4.25, 3.375, 4.75, 3.375], "rotation": 180, "texture": "#0"},
				"south": {"uv": [4.25, 3.375, 4.75, 3.375], "rotation": 180, "texture": "#0"},
				"west": {"uv": [4.25, 3.375, 4.75, 3.375], "rotation": 180, "texture": "#0"},
				"up": {"uv": [4.25, 3.375, 4.75, 3.375], "rotation": 180, "texture": "#0"},
				"down": {"uv": [4.25, 3.375, 4.75, 3.375], "rotation": 180, "texture": "#0"}
			}
		},
		{
			"from": [8.09053, 9.56474, 7.948],
			"to": [8.22762, 9.93061, 11.792],
			"rotation": {"angle": -22.5, "axis": "z", "origin": [8.14562, 9.67195, 9.774]},
			"faces": {
				"north": {"uv": [13.75, 4.875, 14.125, 5.125], "rotation": 180, "texture": "#0"},
				"east": {"uv": [13.75, 4.875, 14.125, 5.125], "texture": "#0"},
				"south": {"uv": [13.75, 4.875, 14.125, 5.125], "texture": "#0"},
				"west": {"uv": [13.75, 4.875, 14.125, 5.125], "texture": "#0"},
				"up": {"uv": [13.75, 4.875, 14.125, 5.125], "texture": "#0"},
				"down": {"uv": [13.75, 4.875, 14.125, 5.125], "texture": "#0"}
			}
		},
		{
			"from": [8.05765, 9.35911, 7.70592],
			"to": [8.21291, 9.97583, 7.98944],
			"rotation": {"angle": -22.5, "axis": "z", "origin": [8.12107, 9.68613, 9.96608]},
			"faces": {
				"north": {"uv": [3.875, 2.875, 4, 2.875], "texture": "#0"},
				"east": {"uv": [3.875, 2.875, 4, 2.875], "texture": "#0"},
				"south": {"uv": [3.875, 2.875, 4, 2.875], "texture": "#0"},
				"west": {"uv": [3.875, 2.875, 4, 2.875], "texture": "#0"},
				"up": {"uv": [3.875, 2.875, 4, 2.875], "texture": "#0"},
				"down": {"uv": [3.875, 2.875, 4, 2.875], "texture": "#0"}
			}
		},
		{
			"from": [8.39213, 9.23349, 7.70592],
			"to": [8.72813, 9.41717, 7.98944],
			"rotation": {"angle": 45, "axis": "z", "origin": [8.50413, 9.28949, -2.99456]},
			"faces": {
				"north": {"uv": [4.25, 3.375, 4.75, 3.375], "rotation": 90, "texture": "#0"},
				"east": {"uv": [4.25, 3.375, 4.75, 3.375], "rotation": 90, "texture": "#0"},
				"south": {"uv": [4.25, 3.375, 4.75, 3.375], "rotation": 90, "texture": "#0"},
				"west": {"uv": [4.25, 3.375, 4.75, 3.375], "rotation": 90, "texture": "#0"},
				"up": {"uv": [4.25, 3.375, 4.75, 3.375], "rotation": 90, "texture": "#0"},
				"down": {"uv": [4.25, 3.375, 4.75, 3.375], "rotation": 90, "texture": "#0"}
			}
		},
		{
			"from": [8.38764, 9.2678, 9.676],
			"to": [8.68764, 9.8158, 11.792],
			"rotation": {"angle": 45, "axis": "z", "origin": [8.48764, 9.3178, 2.042]},
			"faces": {
				"north": {"uv": [13.75, 4.875, 14.125, 5.125], "rotation": 90, "texture": "#0"},
				"east": {"uv": [13.75, 4.875, 14.125, 5.125], "rotation": 90, "texture": "#0"},
				"south": {"uv": [13.75, 4.875, 14.125, 5.125], "rotation": 90, "texture": "#0"},
				"west": {"uv": [13.75, 4.875, 14.125, 5.125], "rotation": 90, "texture": "#0"},
				"up": {"uv": [13.75, 4.875, 14.125, 5.125], "rotation": 90, "texture": "#0"},
				"down": {"uv": [13.75, 4.875, 14.125, 5.125], "rotation": 90, "texture": "#0"}
			}
		},
		{
			"from": [8.05242, 9.42386, 9.676],
			"to": [8.59343, 9.59445, 11.792],
			"rotation": {"angle": 0, "axis": "y", "origin": [8.61442, 9.52386, -1.798]},
			"faces": {
				"north": {"uv": [13.75, 4.875, 14.125, 5.125], "texture": "#0"},
				"east": {"uv": [13.75, 4.875, 14.125, 5.125], "texture": "#0"},
				"south": {"uv": [13.75, 4.875, 14.125, 5.125], "texture": "#0"},
				"west": {"uv": [13.75, 4.875, 14.125, 5.125], "texture": "#0"},
				"up": {"uv": [13.75, 4.875, 14.125, 5.125], "texture": "#0"},
				"down": {"uv": [13.75, 4.875, 14.125, 5.125], "texture": "#0"}
			}
		},
		{
			"from": [8.0537, 9.42386, 7.756],
			"to": [8.08157, 9.59398, 11.792],
			"rotation": {"angle": 0, "axis": "y", "origin": [8.03157, 9.52386, -1.798]},
			"faces": {
				"north": {"uv": [13.75, 4.875, 14.125, 5.125], "texture": "#0"},
				"east": {"uv": [13.75, 4.875, 14.125, 5.125], "texture": "#0"},
				"south": {"uv": [13.75, 4.875, 14.125, 5.125], "texture": "#0"},
				"west": {"uv": [13.75, 4.875, 14.125, 5.125], "texture": "#0"},
				"up": {"uv": [13.75, 4.875, 14.125, 5.125], "texture": "#0"},
				"down": {"uv": [13.75, 4.875, 14.125, 5.125], "texture": "#0"}
			}
		},
		{
			"from": [8.19371, 9.8, 7.948],
			"to": [8.45361, 9.932, 11.792],
			"rotation": {"angle": 0, "axis": "y", "origin": [8.03513, 9.69458, -14.548]},
			"faces": {
				"north": {"uv": [13.75, 4.875, 14.125, 5.125], "rotation": 270, "texture": "#0"},
				"east": {"uv": [13.75, 4.875, 14.125, 5.125], "rotation": 270, "texture": "#0"},
				"south": {"uv": [13.75, 4.875, 14.125, 5.125], "rotation": 270, "texture": "#0"},
				"west": {"uv": [13.75, 4.875, 14.125, 5.125], "rotation": 270, "texture": "#0"},
				"up": {"uv": [13.75, 4.875, 14.125, 5.125], "rotation": 270, "texture": "#0"},
				"down": {"uv": [13.75, 4.875, 14.125, 5.125], "rotation": 270, "texture": "#0"}
			}
		},
		{
			"from": [8.17493, 9.82955, 7.70592],
			"to": [8.46601, 9.97739, 7.98944],
			"rotation": {"angle": 0, "axis": "y", "origin": [7.99732, 9.71148, -17.27456]},
			"faces": {
				"north": {"uv": [3.875, 2.875, 4, 2.875], "rotation": 270, "texture": "#0"},
				"east": {"uv": [3.875, 2.875, 4, 2.875], "rotation": 270, "texture": "#0"},
				"south": {"uv": [3.875, 2.875, 4, 2.875], "rotation": 270, "texture": "#0"},
				"west": {"uv": [3.875, 2.875, 4, 2.875], "rotation": 270, "texture": "#0"},
				"up": {"uv": [3.875, 2.875, 4, 2.875], "rotation": 270, "texture": "#0"},
				"down": {"uv": [3.875, 2.875, 4, 2.875], "rotation": 270, "texture": "#0"}
			}
		},
		{
			"from": [8.19371, 8.67955, 11.61925],
			"to": [8.45361, 9.16355, 12.45525],
			"rotation": {"angle": 22.5, "axis": "x", "origin": [8.32366, 9.11355, 13.63725]},
			"faces": {
				"north": {"uv": [13.75, 4.875, 14.125, 5.125], "rotation": 270, "texture": "#0"},
				"east": {"uv": [13.75, 4.875, 14.125, 5.125], "rotation": 270, "texture": "#0"},
				"south": {"uv": [13.75, 4.875, 14.125, 5.125], "rotation": 270, "texture": "#0"},
				"west": {"uv": [13.75, 4.875, 14.125, 5.125], "rotation": 270, "texture": "#0"},
				"up": {"uv": [13.75, 4.875, 14.125, 5.125], "rotation": 270, "texture": "#0"},
				"down": {"uv": [13.75, 4.875, 14.125, 5.125], "rotation": 270, "texture": "#0"}
			}
		},
		{
			"from": [8.19371, 9.23568, 11.80719],
			"to": [8.45361, 9.65225, 12.80405],
			"rotation": {"angle": -22.5, "axis": "x", "origin": [8.32366, 9.02968, 12.78519]},
			"faces": {
				"north": {"uv": [13.75, 4.875, 14.125, 5.125], "rotation": 90, "texture": "#0"},
				"east": {"uv": [13.75, 4.875, 14.125, 5.125], "rotation": 180, "texture": "#0"},
				"south": {"uv": [13.75, 4.875, 14.125, 5.125], "rotation": 270, "texture": "#0"},
				"west": {"uv": [13.75, 4.875, 14.125, 5.125], "texture": "#0"},
				"up": {"uv": [13.75, 4.875, 14.125, 5.125], "rotation": 90, "texture": "#0"},
				"down": {"uv": [13.75, 4.875, 14.125, 5.125], "rotation": 270, "texture": "#0"}
			}
		},
		{
			"from": [8.19371, 9.23568, 11.80719],
			"to": [8.45361, 9.87968, 12.41919],
			"rotation": {"angle": -22.5, "axis": "x", "origin": [8.32366, 9.02968, 12.78519]},
			"faces": {
				"north": {"uv": [13.75, 4.875, 14.125, 5.125], "rotation": 90, "texture": "#0"},
				"east": {"uv": [13.75, 4.875, 14.125, 5.125], "rotation": 180, "texture": "#0"},
				"south": {"uv": [13.75, 4.875, 14.125, 5.125], "rotation": 270, "texture": "#0"},
				"west": {"uv": [13.75, 4.875, 14.125, 5.125], "texture": "#0"},
				"up": {"uv": [13.75, 4.875, 14.125, 5.125], "rotation": 90, "texture": "#0"},
				"down": {"uv": [13.75, 4.875, 14.125, 5.125], "rotation": 270, "texture": "#0"}
			}
		},
		{
			"from": [8.19371, 9.21173, 8.172],
			"to": [8.45361, 9.31173, 11.792],
			"rotation": {"angle": 0, "axis": "y", "origin": [8.03513, 9.17031, -14.548]},
			"faces": {
				"north": {"uv": [3.625, 3.625, 4.125, 3.625], "rotation": 270, "texture": "#0"},
				"east": {"uv": [3.625, 3.625, 4.125, 3.625], "rotation": 270, "texture": "#0"},
				"south": {"uv": [3.625, 3.625, 4.125, 3.625], "rotation": 270, "texture": "#0"},
				"west": {"uv": [3.625, 3.625, 4.125, 3.625], "rotation": 270, "texture": "#0"},
				"up": {"uv": [3.625, 3.625, 4.125, 3.625], "rotation": 270, "texture": "#0"},
				"down": {"uv": [3.625, 3.625, 4.125, 3.625], "rotation": 270, "texture": "#0"}
			}
		},
		{
			"from": [8.17493, 9.17069, 7.70592],
			"to": [8.46601, 9.28269, 11.55424],
			"rotation": {"angle": 0, "axis": "y", "origin": [7.99732, 9.1243, -17.27456]},
			"faces": {
				"north": {"uv": [3.625, 3.625, 4.125, 3.625], "rotation": 270, "texture": "#0"},
				"east": {"uv": [3.625, 3.625, 4.125, 3.625], "rotation": 270, "texture": "#0"},
				"south": {"uv": [3.625, 3.625, 4.125, 3.625], "rotation": 270, "texture": "#0"},
				"west": {"uv": [3.625, 3.625, 4.125, 3.625], "rotation": 270, "texture": "#0"},
				"up": {"uv": [3.625, 3.625, 4.125, 3.625], "rotation": 270, "texture": "#0"},
				"down": {"uv": [3.625, 3.625, 4.125, 3.625], "rotation": 270, "texture": "#0"}
			}
		},
		{
			"from": [7.98157, 8.76373, 8.012],
			"to": [8.66442, 9.42386, 11.792],
			"rotation": {"angle": 0, "axis": "y", "origin": [8.03513, 9.07431, -14.548]},
			"faces": {
				"north": {"uv": [2.375, 2.75, 2.5, 3.625], "rotation": 270, "texture": "#0"},
				"east": {"uv": [2.375, 2.75, 2.5, 3.625], "rotation": 270, "texture": "#0"},
				"south": {"uv": [2.375, 2.75, 2.5, 3.625], "rotation": 270, "texture": "#0"},
				"west": {"uv": [2.375, 2.625, 2.5, 3.5], "rotation": 270, "texture": "#0"},
				"up": {"uv": [2.375, 2.75, 2.5, 3.625], "rotation": 270, "texture": "#0"},
				"down": {"uv": [2.375, 2.75, 2.5, 3.625], "rotation": 270, "texture": "#0"}
			}
		},
		{
			"from": [7.94957, 8.31173, 7.692],
			"to": [8.69642, 9.40773, 8.016],
			"rotation": {"angle": 0, "axis": "y", "origin": [8.03513, 9.07431, -14.612]},
			"faces": {
				"north": {"uv": [4, 2.875, 4.5, 2.875], "rotation": 270, "texture": "#0"},
				"east": {"uv": [4, 2.875, 4.5, 2.875], "rotation": 270, "texture": "#0"},
				"south": {"uv": [4, 2.875, 4.5, 2.875], "rotation": 270, "texture": "#0"},
				"west": {"uv": [4, 2.875, 4.5, 2.875], "rotation": 270, "texture": "#0"},
				"up": {"uv": [4, 2.875, 4.5, 2.875], "rotation": 270, "texture": "#0"},
				"down": {"uv": [4, 2.875, 4.5, 2.875], "rotation": 270, "texture": "#0"}
			}
		},
		{
			"from": [7.94957, 8.73626, 7.98113],
			"to": [8.69642, 9.19226, 10.06513],
			"rotation": {"angle": 0, "axis": "y", "origin": [8.03513, 9.08284, -14.32287]},
			"faces": {
				"north": {"uv": [4, 2.875, 4.5, 2.875], "rotation": 270, "texture": "#0"},
				"east": {"uv": [4, 2.875, 4.5, 2.875], "rotation": 270, "texture": "#0"},
				"south": {"uv": [4, 2.875, 4.5, 2.875], "rotation": 270, "texture": "#0"},
				"west": {"uv": [4, 2.875, 4.5, 2.875], "rotation": 270, "texture": "#0"},
				"up": {"uv": [4, 2.875, 4.5, 2.875], "rotation": 270, "texture": "#0"},
				"down": {"uv": [4, 2.875, 4.5, 2.875], "rotation": 270, "texture": "#0"}
			}
		},
		{
			"from": [7.91757, 8.76826, 7.66113],
			"to": [8.72842, 9.12826, 10.03313],
			"rotation": {"angle": 0, "axis": "y", "origin": [8.03513, 9.08284, -14.32287]},
			"faces": {
				"north": {"uv": [13.75, 4.875, 14.25, 4.875], "rotation": 270, "texture": "#0"},
				"east": {"uv": [13.75, 4.875, 14.25, 4.875], "rotation": 270, "texture": "#0"},
				"south": {"uv": [13.75, 4.875, 14.25, 4.875], "rotation": 270, "texture": "#0"},
				"west": {"uv": [13.75, 4.875, 14.25, 4.875], "rotation": 270, "texture": "#0"},
				"up": {"uv": [13.75, 4.875, 14.25, 4.875], "rotation": 270, "texture": "#0"},
				"down": {"uv": [13.75, 4.875, 14.25, 4.875], "rotation": 270, "texture": "#0"}
			}
		},
		{
			"from": [8.59652, 8.47417, 7.98],
			"to": [8.66442, 8.76373, 9.56425],
			"rotation": {"angle": 0, "axis": "y", "origin": [8.11794, 9.07031, -14.324]},
			"faces": {
				"north": {"uv": [2.25, 3.875, 2.25, 3.875], "rotation": 270, "texture": "#0"},
				"east": {"uv": [2.25, 3.875, 2.25, 3.875], "rotation": 270, "texture": "#0"},
				"south": {"uv": [2.25, 3.875, 2.25, 3.875], "rotation": 270, "texture": "#0"},
				"west": {"uv": [2.25, 3.875, 2.25, 3.875], "rotation": 270, "texture": "#0"},
				"up": {"uv": [2.25, 3.875, 2.25, 3.875], "rotation": 270, "texture": "#0"},
				"down": {"uv": [2.25, 3.875, 2.25, 3.875], "rotation": 270, "texture": "#0"}
			}
		},
		{
			"from": [7.95652, 8.7565, 9.44364],
			"to": [8.69642, 9.22825, 10.1812],
			"rotation": {"angle": -22.5, "axis": "x", "origin": [8.32299, 8.9185, 10.21364]},
			"faces": {
				"north": {"uv": [4.375, 3, 4.375, 3], "rotation": 270, "texture": "#0"},
				"east": {"uv": [4.375, 3, 4.375, 3], "rotation": 270, "texture": "#0"},
				"south": {"uv": [4.375, 3, 4.375, 3], "rotation": 270, "texture": "#0"},
				"west": {"uv": [4.375, 3, 4.375, 3], "rotation": 270, "texture": "#0"},
				"up": {"uv": [4.375, 3, 4.375, 3], "rotation": 270, "texture": "#0"},
				"down": {"uv": [4.375, 3, 4.375, 3], "rotation": 270, "texture": "#0"}
			}
		},
		{
			"from": [7.98157, 8.47417, 7.98],
			"to": [8.04947, 8.76373, 9.56425],
			"rotation": {"angle": 0, "axis": "y", "origin": [7.95099, 9.07031, -14.324]},
			"faces": {
				"north": {"uv": [2.25, 3.875, 2.25, 3.875], "rotation": 270, "texture": "#0"},
				"east": {"uv": [2.25, 3.875, 2.25, 3.875], "rotation": 270, "texture": "#0"},
				"south": {"uv": [2.25, 3.875, 2.25, 3.875], "rotation": 270, "texture": "#0"},
				"west": {"uv": [2.25, 3.875, 2.25, 3.875], "rotation": 270, "texture": "#0"},
				"up": {"uv": [2.25, 3.875, 2.25, 3.875], "rotation": 270, "texture": "#0"},
				"down": {"uv": [2.25, 3.875, 2.25, 3.875], "rotation": 270, "texture": "#0"}
			}
		},
		{
			"from": [8.03971, 7.2014, 11.92277],
			"to": [8.61261, 9.6154, 12.73677],
			"rotation": {"angle": -22.5, "axis": "x", "origin": [8.32616, 8.60026, 12.39433]},
			"faces": {
				"north": {"uv": [1, 3, 1, 3.575], "rotation": 90, "texture": "#0"},
				"east": {"uv": [1, 3, 1, 3.575], "rotation": 90, "texture": "#0"},
				"south": {"uv": [1, 3, 1, 3.575], "rotation": 90, "texture": "#0"},
				"west": {"uv": [1, 3, 1, 3.575], "rotation": 90, "texture": "#0"},
				"up": {"uv": [1, 3, 1, 3.575], "rotation": 90, "texture": "#0"},
				"down": {"uv": [1, 3, 1, 3.575], "rotation": 90, "texture": "#0"}
			}
		},
		{
			"from": [8.0398, 9.35767, 11.79419],
			"to": [8.6125, 9.66917, 12.32223],
			"rotation": {"angle": 0, "axis": "y", "origin": [8.32616, 10.10426, 12.39433]},
			"faces": {
				"north": {"uv": [1.375, 4.125, 1.375, 4.125], "texture": "#0"},
				"east": {"uv": [1.375, 4.125, 1.375, 4.125], "texture": "#0"},
				"south": {"uv": [1.375, 4.125, 1.375, 4.125], "texture": "#0"},
				"west": {"uv": [1.375, 4.125, 1.375, 4.125], "texture": "#0"},
				"up": {"uv": [1.375, 4.125, 1.375, 4.125], "texture": "#0"},
				"down": {"uv": [1.375, 4.125, 1.375, 4.125], "texture": "#0"}
			}
		},
		{
			"from": [8.23761, 8.2468, 11.19058],
			"to": [8.39661, 8.3468, 11.35458],
			"rotation": {"angle": -45, "axis": "x", "origin": [8.31711, 8.38338, 11.36295]},
			"faces": {
				"north": {"uv": [6.375, 2.125, 6.375, 2.5], "rotation": 180, "texture": "#0"},
				"east": {"uv": [6.375, 2.125, 6.375, 2.5], "rotation": 180, "texture": "#0"},
				"south": {"uv": [6.375, 2.125, 6.375, 2.5], "rotation": 180, "texture": "#0"},
				"west": {"uv": [6.375, 2.125, 6.375, 2.5], "rotation": 180, "texture": "#0"},
				"up": {"uv": [6.375, 2.125, 6.375, 2.5], "rotation": 180, "texture": "#0"},
				"down": {"uv": [6.375, 2.125, 6.375, 2.5], "rotation": 180, "texture": "#0"}
			}
		},
		{
			"from": [8.23761, 8.37329, 11.39188],
			"to": [8.39661, 8.60529, 11.49188],
			"rotation": {"angle": 0, "axis": "y", "origin": [8.31711, 8.38338, 11.36295]},
			"faces": {
				"north": {"uv": [6.375, 2.125, 6.375, 2.5], "rotation": 90, "texture": "#0"},
				"east": {"uv": [6.375, 2.125, 6.375, 2.5], "rotation": 90, "texture": "#0"},
				"south": {"uv": [6.375, 2.125, 6.375, 2.5], "rotation": 90, "texture": "#0"},
				"west": {"uv": [6.375, 2.125, 6.375, 2.5], "rotation": 90, "texture": "#0"},
				"up": {"uv": [6.375, 2.125, 6.375, 2.5], "rotation": 90, "texture": "#0"},
				"down": {"uv": [6.375, 2.125, 6.375, 2.5], "rotation": 90, "texture": "#0"}
			}
		},
		{
			"from": [8.23761, 8.32339, 11.38593],
			"to": [8.39661, 8.42339, 11.48593],
			"rotation": {"angle": 22.5, "axis": "x", "origin": [8.31711, 8.38338, 11.36295]},
			"faces": {
				"north": {"uv": [6.375, 2.125, 6.375, 2.5], "rotation": 90, "texture": "#0"},
				"east": {"uv": [6.375, 2.125, 6.375, 2.5], "rotation": 90, "texture": "#0"},
				"south": {"uv": [6.375, 2.125, 6.375, 2.5], "rotation": 90, "texture": "#0"},
				"west": {"uv": [6.375, 2.125, 6.375, 2.5], "rotation": 90, "texture": "#0"},
				"up": {"uv": [6.375, 2.125, 6.375, 2.5], "rotation": 90, "texture": "#0"},
				"down": {"uv": [6.375, 2.125, 6.375, 2.5], "rotation": 90, "texture": "#0"}
			}
		},
		{
			"from": [8.23761, 8.53906, 11.46699],
			"to": [8.39661, 8.83906, 11.56699],
			"rotation": {"angle": -22.5, "axis": "x", "origin": [8.31711, 8.38338, 11.36295]},
			"faces": {
				"north": {"uv": [6.375, 2.125, 6.375, 2.5], "rotation": 90, "texture": "#0"},
				"east": {"uv": [6.375, 2.125, 6.375, 2.5], "rotation": 90, "texture": "#0"},
				"south": {"uv": [6.375, 2.125, 6.375, 2.5], "rotation": 90, "texture": "#0"},
				"west": {"uv": [6.375, 2.125, 6.375, 2.5], "rotation": 90, "texture": "#0"},
				"up": {"uv": [6.375, 2.125, 6.375, 2.5], "rotation": 90, "texture": "#0"},
				"down": {"uv": [6.375, 2.125, 6.375, 2.5], "rotation": 90, "texture": "#0"}
			}
		},
		{
			"from": [8.17361, 8.18706, 10.44299],
			"to": [8.46061, 8.74306, 10.54299],
			"rotation": {"angle": -22.5, "axis": "x", "origin": [8.31711, 8.47938, 10.33895]},
			"faces": {
				"north": {"uv": [14.25, 6.375, 14.25, 6.75], "rotation": 90, "texture": "#0"},
				"east": {"uv": [14.25, 6.375, 14.25, 6.75], "rotation": 90, "texture": "#0"},
				"south": {"uv": [14.25, 6.375, 14.25, 6.75], "rotation": 90, "texture": "#0"},
				"west": {"uv": [14.25, 6.375, 14.25, 6.75], "rotation": 90, "texture": "#0"},
				"up": {"uv": [14.25, 6.375, 14.25, 6.75], "rotation": 90, "texture": "#0"},
				"down": {"uv": [14.25, 6.375, 14.25, 6.75], "rotation": 90, "texture": "#0"}
			}
		},
		{
			"from": [8.17361, 8.52629, 10.43214],
			"to": [8.46061, 8.82629, 10.53214],
			"rotation": {"angle": 0, "axis": "y", "origin": [8.31711, 8.81861, 10.32809]},
			"faces": {
				"north": {"uv": [14.25, 6.375, 14.25, 6.75], "rotation": 90, "texture": "#0"},
				"east": {"uv": [14.25, 6.375, 14.25, 6.75], "rotation": 90, "texture": "#0"},
				"south": {"uv": [14.25, 6.375, 14.25, 6.75], "rotation": 90, "texture": "#0"},
				"west": {"uv": [14.25, 6.375, 14.25, 6.75], "rotation": 90, "texture": "#0"},
				"up": {"uv": [14.25, 6.375, 14.25, 6.75], "rotation": 90, "texture": "#0"},
				"down": {"uv": [14.25, 6.375, 14.25, 6.75], "rotation": 90, "texture": "#0"}
			}
		},
		{
			"from": [8.17361, 7.95739, 10.33991],
			"to": [8.46061, 8.05739, 10.73591],
			"rotation": {"angle": 45, "axis": "x", "origin": [8.31711, 7.85334, 10.79558]},
			"faces": {
				"north": {"uv": [14.25, 6.375, 14.25, 6.75], "rotation": 270, "texture": "#0"},
				"east": {"uv": [14.25, 6.375, 14.25, 6.75], "rotation": 180, "texture": "#0"},
				"south": {"uv": [14.25, 6.375, 14.25, 6.75], "rotation": 90, "texture": "#0"},
				"west": {"uv": [14.25, 6.375, 14.25, 6.75], "texture": "#0"},
				"up": {"uv": [14.25, 6.375, 14.25, 6.75], "rotation": 90, "texture": "#0"},
				"down": {"uv": [14.25, 6.375, 14.25, 6.75], "rotation": 270, "texture": "#0"}
			}
		},
		{
			"from": [8.17361, 7.96911, 10.82695],
			"to": [8.46061, 8.06911, 12.24695],
			"rotation": {"angle": 0, "axis": "y", "origin": [8.31711, 7.86507, 11.28263]},
			"faces": {
				"north": {"uv": [14.25, 6.375, 14.25, 6.75], "rotation": 270, "texture": "#0"},
				"east": {"uv": [14.25, 6.375, 14.25, 6.75], "rotation": 180, "texture": "#0"},
				"south": {"uv": [14.25, 6.375, 14.25, 6.75], "rotation": 90, "texture": "#0"},
				"west": {"uv": [14.25, 6.375, 14.25, 6.75], "texture": "#0"},
				"up": {"uv": [14.25, 6.375, 14.25, 6.75], "rotation": 90, "texture": "#0"},
				"down": {"uv": [14.25, 6.375, 14.25, 6.75], "rotation": 270, "texture": "#0"}
			}
		},
		{
			"from": [8.0398, 7.00701, 12.82779],
			"to": [8.6125, 7.15701, 13.06779],
			"rotation": {"angle": 22.5, "axis": "x", "origin": [8.32616, 7.90628, 12.96356]},
			"faces": {
				"north": {"uv": [1, 3, 1, 3], "rotation": 90, "texture": "#0"},
				"east": {"uv": [1, 3, 1, 3], "rotation": 90, "texture": "#0"},
				"south": {"uv": [1, 3, 1, 3], "rotation": 90, "texture": "#0"},
				"west": {"uv": [1, 3, 1, 3], "rotation": 90, "texture": "#0"},
				"up": {"uv": [1, 3, 1, 3], "rotation": 90, "texture": "#0"},
				"down": {"uv": [1, 3, 1, 3], "rotation": 90, "texture": "#0"}
			}
		},
		{
			"from": [8.0398, 7.09515, 12.36342],
			"to": [8.6125, 7.30915, 12.60342],
			"rotation": {"angle": -45, "axis": "x", "origin": [8.32616, 7.93485, 12.61148]},
			"faces": {
				"north": {"uv": [1, 3, 1, 3], "rotation": 90, "texture": "#0"},
				"east": {"uv": [1, 3, 1, 3], "rotation": 90, "texture": "#0"},
				"south": {"uv": [1, 3, 1, 3], "rotation": 90, "texture": "#0"},
				"west": {"uv": [1, 3, 1, 3], "rotation": 90, "texture": "#0"},
				"up": {"uv": [1, 3, 1, 3], "rotation": 90, "texture": "#0"},
				"down": {"uv": [1, 3, 1, 3], "rotation": 90, "texture": "#0"}
			}
		},
		{
			"from": [8.0398, 7.63785, 13.20839],
			"to": [8.6125, 7.74985, 13.35839],
			"rotation": {"angle": 22.5, "axis": "x", "origin": [8.32616, 7.88591, 12.51869]},
			"faces": {
				"north": {"uv": [1, 3, 1, 3], "texture": "#0"},
				"east": {"uv": [1, 3, 1, 3], "texture": "#0"},
				"south": {"uv": [1, 3, 1, 3], "texture": "#0"},
				"west": {"uv": [1, 3, 1, 3], "texture": "#0"},
				"up": {"uv": [1, 3, 1, 3], "texture": "#0"},
				"down": {"uv": [1, 3, 1, 3], "texture": "#0"}
			}
		},
		{
			"from": [8.02171, 9.27841, 12.05726],
			"to": [8.63361, 9.41041, 12.18926],
			"rotation": {"angle": 45, "axis": "x", "origin": [8.31166, 9.37641, 12.12326]},
			"faces": {
				"north": {"uv": [7, 12, 7, 12.125], "texture": "#0"},
				"east": {"uv": [7, 12, 7, 12.125], "texture": "#0"},
				"south": {"uv": [7, 12, 7, 12.125], "texture": "#0"},
				"west": {"uv": [7, 12, 7, 12.125], "texture": "#0"},
				"up": {"uv": [7, 12, 7, 12.125], "texture": "#0"},
				"down": {"uv": [7, 12, 7, 12.125], "texture": "#0"}
			}
		},
		{
			"from": [7.90205, 8.89441, 9.78526],
			"to": [8.73795, 9.02641, 9.91726],
			"rotation": {"angle": 45, "axis": "x", "origin": [8.32, 8.99241, 9.85126]},
			"faces": {
				"north": {"uv": [4.125, 3.75, 4.25, 3.75], "texture": "#0"},
				"east": {"uv": [4.125, 3.75, 4.25, 3.75], "texture": "#0"},
				"south": {"uv": [4.125, 3.75, 4.25, 3.75], "texture": "#0"},
				"west": {"uv": [4.125, 3.75, 4.25, 3.75], "texture": "#0"},
				"up": {"uv": [4.125, 3.75, 4.25, 3.75], "texture": "#0"},
				"down": {"uv": [4.125, 3.75, 4.25, 3.75], "texture": "#0"}
			}
		},
		{
			"from": [7.93405, 9.21441, 7.80126],
			"to": [8.70595, 9.34641, 7.93326],
			"rotation": {"angle": 45, "axis": "x", "origin": [8.32, 9.31241, 7.86726]},
			"faces": {
				"north": {"uv": [14.125, 4.875, 14.125, 5], "texture": "#0"},
				"east": {"uv": [14.125, 4.875, 14.125, 5], "texture": "#0"},
				"south": {"uv": [14.125, 4.875, 14.125, 5], "texture": "#0"},
				"west": {"uv": [14.125, 4.875, 14.125, 5], "texture": "#0"},
				"up": {"uv": [14.125, 4.875, 14.125, 5], "texture": "#0"},
				"down": {"uv": [14.125, 4.875, 14.125, 5], "texture": "#0"}
			}
		},
		{
			"from": [8.0398, 7.06414, 12.36364],
			"to": [8.6125, 7.24614, 12.70364],
			"rotation": {"angle": -22.5, "axis": "x", "origin": [8.32616, 7.93485, 12.61147]},
			"faces": {
				"north": {"uv": [1, 3, 1, 3], "rotation": 90, "texture": "#0"},
				"east": {"uv": [1, 3, 1, 3], "rotation": 90, "texture": "#0"},
				"south": {"uv": [1, 3, 1, 3], "rotation": 90, "texture": "#0"},
				"west": {"uv": [1, 3, 1, 3], "rotation": 90, "texture": "#0"},
				"up": {"uv": [1, 3, 1, 3], "rotation": 90, "texture": "#0"},
				"down": {"uv": [1, 3, 1, 3], "rotation": 90, "texture": "#0"}
			}
		}
	],
	"display": {
		"thirdperson_righthand": {
			"translation": [-1.25, -1.25, -5.5],
			"scale": [1.7, 1.7, 1.7]
		},
		"thirdperson_lefthand": {
			"translation": [0, -1.25, -3.75],
			"scale": [1.7, 1.7, 1.7]
		},
		"firstperson_righthand": {
			"rotation": [1, 1, 0],
			"translation": [-5.25, 5, 4],
			"scale": [1.19, 1.14, 0.87]
		},
		"firstperson_lefthand": {
			"rotation": [1, 1, 0],
			"translation": [-5.25, 5, 4],
			"scale": [1.19, 1.14, 0.87]
		},
		"ground": {
			"translation": [0, 0, -2.75],
			"scale": [1.7, 1.7, 1.7]
		},
		"gui": {
			"rotation": [11, 16, -16],
			"translation": [-2, 0, 0],
			"scale": [2.2, 2.24, 2.83]
		},
		"head": {
			"rotation": [0, -139, 90],
			"translation": [0.75, 6.5, 0.5],
			"scale": [1.36, 1.36, 1.36]
		},
		"fixed": {
			"rotation": [90, 45, -90],
			"translation": [-3, 1, -1.2],
			"scale": [1.7, 1.7, 1.7]
		}
	}
}