{
    "textures": {
        "0": "gci:items/common/mpz",
        "particle": "gci:items/common/mpz"
    },
    "elements": [
        {
            "from": [
                7.7453,
                5.7688,
                8.9375
            ],
            "to": [
                8.27036,
                7.7063,
                10.875
            ],
            "faces": {
                "north": {
                    "uv": [
                        0,
                        4.66667,
                        2.33333,
                        5
                    ],
                    "texture": "#0"
                },
                "east": {
                    "uv": [
                        0,
                        4.66667,
                        2.33333,
                        5
                    ],
                    "texture": "#0"
                },
                "south": {
                    "uv": [
                        0,
                        4.66667,
                        2.33333,
                        5
                    ],
                    "texture": "#0"
                },
                "west": {
                    "uv": [
                        0,
                        4.66667,
                        2.33333,
                        5
                    ],
                    "texture": "#0"
                },
                "up": {
                    "uv": [
                        0,
                        5,
                        2.33333,
                        3
                    ],
                    "texture": "#0"
                },
                "down": {
                    "uv": [
                        0,
                        5,
                        2.33333,
                        3
                    ],
                    "texture": "#0"
                }
            }
        },
        {
            "from": [
                7.6828,
                6.0188,
                9.3125
            ],
            "to": [
                8.33286,
                7.9563,
                9.5
            ],
            "faces": {
                "north": {
                    "uv": [
                        0,
                        4.66667,
                        2.33333,
                        5
                    ],
                    "texture": "#0"
                },
                "east": {
                    "uv": [
                        0,
                        4.66667,
                        2.33333,
                        5
                    ],
                    "texture": "#0"
                },
                "south": {
                    "uv": [
                        0,
                        4.66667,
                        2.33333,
                        5
                    ],
                    "texture": "#0"
                },
                "west": {
                    "uv": [
                        0,
                        4.66667,
                        2.33333,
                        5
                    ],
                    "texture": "#0"
                },
                "up": {
                    "uv": [
                        0,
                        5,
                        2.33333,
                        3
                    ],
                    "texture": "#0"
                },
                "down": {
                    "uv": [
                        0,
                        5,
                        2.33333,
                        3
                    ],
                    "texture": "#0"
                }
            }
        },
        {
            "from": [
                7.6828,
                5.8938,
                9.8125
            ],
            "to": [
                8.33286,
                7.8313,
                10
            ],
            "faces": {
                "north": {
                    "uv": [
                        0,
                        4.66667,
                        2.33333,
                        5
                    ],
                    "texture": "#0"
                },
                "east": {
                    "uv": [
                        0,
                        4.66667,
                        2.33333,
                        5
                    ],
                    "texture": "#0"
                },
                "south": {
                    "uv": [
                        0,
                        4.66667,
                        2.33333,
                        5
                    ],
                    "texture": "#0"
                },
                "west": {
                    "uv": [
                        0,
                        4.66667,
                        2.33333,
                        5
                    ],
                    "texture": "#0"
                },
                "up": {
                    "uv": [
                        0,
                        5,
                        2.33333,
                        3
                    ],
                    "texture": "#0"
                },
                "down": {
                    "uv": [
                        0,
                        5,
                        2.33333,
                        3
                    ],
                    "texture": "#0"
                }
            }
        },
        {
            "from": [
                7.6828,
                5.7688,
                10.3125
            ],
            "to": [
                8.33286,
                7.7063,
                10.5
            ],
            "faces": {
                "north": {
                    "uv": [
                        0,
                        4.66667,
                        2.33333,
                        5
                    ],
                    "texture": "#0"
                },
                "east": {
                    "uv": [
                        0,
                        4.66667,
                        2.33333,
                        5
                    ],
                    "texture": "#0"
                },
                "south": {
                    "uv": [
                        0,
                        4.66667,
                        2.33333,
                        5
                    ],
                    "texture": "#0"
                },
                "west": {
                    "uv": [
                        0,
                        4.66667,
                        2.33333,
                        5
                    ],
                    "texture": "#0"
                },
                "up": {
                    "uv": [
                        0,
                        5,
                        2.33333,
                        3
                    ],
                    "texture": "#0"
                },
                "down": {
                    "uv": [
                        0,
                        5,
                        2.33333,
                        3
                    ],
                    "texture": "#0"
                }
            }
        }
    ],
    "display": {
        "thirdperson_righthand": {
            "translation": [
                0,
                1,
                -3.75
            ],
            "scale": [
                0.9,
                0.9,
                0.9
            ]
        },
        "thirdperson_lefthand": {
            "translation": [
                0,
                1,
                -3.75
            ],
            "scale": [
                0.9,
                0.9,
                0.9
            ]
        },
        "firstperson_righthand": {
            "translation": [
                -2.5,
                3.5,
                -2
            ],
            "scale": [
                1.5,
                1.5,
                1
            ]
        },
        "firstperson_lefthand": {
            "translation": [
                -2.5,
                3.5,
                -2
            ],
            "scale": [
                1.5,
                1.5,
                1
            ]
        },
        "ground": {
            "rotation": [
                0,
                0,
                90
            ],
            "scale": [
                0.8,
                0.8,
                0.8
            ]
        },
        "gui": {
            "rotation": [
                -15,
                130,
                0
            ],
            "scale": [
                0.75,
                0.75,
                0.75
            ]
        },
        "head": {
            "translation": [
                0,
                12,
                0
            ]
        },
        "fixed": {
            "rotation": [
                90,
                45,
                -90
            ],
            "translation": [
                0,
                0.75,
                -1
            ]
        }
    }
}