{
    "textures": {
        "0": "gci:items/common/mpz",
        "particle": "MPZ"
    },
    "elements": [
        {
            "name": "hexadecagon",
            "from": [
                7.54904,
                1.51009,
                24.85106
            ],
            "to": [
                8.45104,
                2.66009,
                25.30965
            ],
            "rotation": {
                "angle": 45,
                "axis": "x",
                "origin": [
                    8.00004,
                    2.08509,
                    25.08035
                ]
            },
            "faces": {
                "north": {
                    "uv": [
                        0,
                        14,
                        2,
                        16
                    ],
                    "texture": "#0"
                },
                "east": {
                    "uv": [
                        0,
                        14,
                        2,
                        16
                    ],
                    "texture": "#0"
                },
                "south": {
                    "uv": [
                        0,
                        14,
                        2,
                        16
                    ],
                    "texture": "#0"
                },
                "west": {
                    "uv": [
                        0,
                        14,
                        2,
                        16
                    ],
                    "texture": "#0"
                },
                "up": {
                    "uv": [
                        0,
                        14,
                        2,
                        16
                    ],
                    "rotation": 90,
                    "texture": "#0"
                },
                "down": {
                    "uv": [
                        0,
                        14,
                        2,
                        16
                    ],
                    "rotation": 270,
                    "texture": "#0"
                }
            }
        },
        {
            "name": "hexadecagon",
            "from": [
                7.54904,
                2.31721,
                25.14438
            ],
            "to": [
                8.45104,
                3.46721,
                28.50297
            ],
            "rotation": {
                "angle": 22.5,
                "axis": "x",
                "origin": [
                    8.00004,
                    2.56721,
                    22.34868
                ]
            },
            "faces": {
                "north": {
                    "uv": [
                        0,
                        14,
                        2,
                        16
                    ],
                    "texture": "#0"
                },
                "east": {
                    "uv": [
                        0,
                        14,
                        2,
                        16
                    ],
                    "texture": "#0"
                },
                "south": {
                    "uv": [
                        0,
                        14,
                        2,
                        16
                    ],
                    "texture": "#0"
                },
                "west": {
                    "uv": [
                        0,
                        14,
                        2,
                        16
                    ],
                    "texture": "#0"
                },
                "up": {
                    "uv": [
                        0,
                        14,
                        2,
                        16
                    ],
                    "rotation": 90,
                    "texture": "#0"
                },
                "down": {
                    "uv": [
                        0,
                        14,
                        2,
                        16
                    ],
                    "rotation": 270,
                    "texture": "#0"
                }
            }
        },
        {
            "name": "hexadecagon",
            "from": [
                7.54904,
                1.75381,
                25.32481
            ],
            "to": [
                8.45104,
                2.65381,
                31.68339
            ],
            "rotation": {
                "angle": 0,
                "axis": "y",
                "origin": [
                    8.00004,
                    2.07881,
                    27.0041
                ]
            },
            "faces": {
                "north": {
                    "uv": [
                        0,
                        14,
                        2,
                        16
                    ],
                    "texture": "#0"
                },
                "east": {
                    "uv": [
                        0,
                        14,
                        2,
                        16
                    ],
                    "texture": "#0"
                },
                "south": {
                    "uv": [
                        0,
                        14,
                        2,
                        16
                    ],
                    "texture": "#0"
                },
                "west": {
                    "uv": [
                        0,
                        14,
                        2,
                        16
                    ],
                    "texture": "#0"
                },
                "up": {
                    "uv": [
                        0,
                        14,
                        2,
                        16
                    ],
                    "rotation": 90,
                    "texture": "#0"
                },
                "down": {
                    "uv": [
                        0,
                        14,
                        2,
                        16
                    ],
                    "rotation": 270,
                    "texture": "#0"
                }
            }
        },
        {
            "name": "hexadecagon",
            "from": [
                7.54904,
                -0.01891,
                27.93883
            ],
            "to": [
                8.45104,
                1.83109,
                31.64742
            ],
            "rotation": {
                "angle": 0,
                "axis": "y",
                "origin": [
                    8.00004,
                    0.23109,
                    25.14312
                ]
            },
            "faces": {
                "north": {
                    "uv": [
                        0,
                        14,
                        2,
                        16
                    ],
                    "texture": "#0"
                },
                "east": {
                    "uv": [
                        0,
                        14,
                        2,
                        16
                    ],
                    "texture": "#0"
                },
                "south": {
                    "uv": [
                        0,
                        14,
                        2,
                        16
                    ],
                    "texture": "#0"
                },
                "west": {
                    "uv": [
                        0,
                        14,
                        2,
                        16
                    ],
                    "texture": "#0"
                },
                "up": {
                    "uv": [
                        0,
                        14,
                        2,
                        16
                    ],
                    "rotation": 90,
                    "texture": "#0"
                },
                "down": {
                    "uv": [
                        0,
                        14,
                        2,
                        16
                    ],
                    "rotation": 270,
                    "texture": "#0"
                }
            }
        },
        {
            "name": "hexadecagon",
            "from": [
                7.54904,
                3.31721,
                26.64438
            ],
            "to": [
                8.45104,
                3.96721,
                28.50297
            ],
            "rotation": {
                "angle": 22.5,
                "axis": "x",
                "origin": [
                    8.00004,
                    2.56721,
                    22.34868
                ]
            },
            "faces": {
                "north": {
                    "uv": [
                        0,
                        14,
                        2,
                        16
                    ],
                    "texture": "#0"
                },
                "east": {
                    "uv": [
                        0,
                        14,
                        2,
                        16
                    ],
                    "texture": "#0"
                },
                "south": {
                    "uv": [
                        0,
                        14,
                        2,
                        16
                    ],
                    "texture": "#0"
                },
                "west": {
                    "uv": [
                        0,
                        14,
                        2,
                        16
                    ],
                    "texture": "#0"
                },
                "up": {
                    "uv": [
                        0,
                        14,
                        2,
                        16
                    ],
                    "rotation": 90,
                    "texture": "#0"
                },
                "down": {
                    "uv": [
                        0,
                        14,
                        2,
                        16
                    ],
                    "rotation": 270,
                    "texture": "#0"
                }
            }
        },
        {
            "name": "hexadecagon",
            "from": [
                7.44904,
                -0.11891,
                31.53883
            ],
            "to": [
                8.55104,
                2.73109,
                31.79742
            ],
            "rotation": {
                "angle": 0,
                "axis": "y",
                "origin": [
                    8.00004,
                    0.23109,
                    25.14312
                ]
            },
            "faces": {
                "north": {
                    "uv": [
                        2.66667,
                        11,
                        4.66667,
                        13
                    ],
                    "texture": "#0"
                },
                "east": {
                    "uv": [
                        2.66667,
                        11,
                        4.66667,
                        13
                    ],
                    "texture": "#0"
                },
                "south": {
                    "uv": [
                        2.66667,
                        11,
                        4.66667,
                        13
                    ],
                    "texture": "#0"
                },
                "west": {
                    "uv": [
                        2.66667,
                        11,
                        4.66667,
                        13
                    ],
                    "texture": "#0"
                },
                "up": {
                    "uv": [
                        2.66667,
                        11,
                        4.66667,
                        13
                    ],
                    "rotation": 90,
                    "texture": "#0"
                },
                "down": {
                    "uv": [
                        2.66667,
                        11,
                        4.66667,
                        13
                    ],
                    "rotation": 270,
                    "texture": "#0"
                }
            }
        }
    ],
    "display": {
        "thirdperson_righthand": {
            "translation": [
                0,
                5,
                -7.25
            ],
            "scale": [
                0.8,
                0.8,
                0.7
            ]
        },
        "thirdperson_lefthand": {
            "translation": [
                0,
                5,
                -7.25
            ],
            "scale": [
                0.8,
                0.8,
                0.7
            ]
        },
        "firstperson_righthand": {
            "translation": [
                -6,
                9.25,
                -3.75
            ]
        },
        "firstperson_lefthand": {
            "translation": [
                -4.75,
                9.25,
                -3.75
            ]
        },
        "ground": {
            "translation": [
                0,
                3.5,
                0
            ],
            "scale": [
                0.8,
                0.8,
                0.8
            ]
        },
        "gui": {
            "rotation": [
                90,
                45,
                -90
            ],
            "translation": [
                2.25,
                1.75,
                0
            ],
            "scale": [
                0.5,
                0.5,
                0.5
            ]
        },
        "fixed": {
            "rotation": [
                90,
                45,
                -90
            ],
            "translation": [
                4,
                3,
                0
            ]
        }
    }
}