{
    "textures": {
        "0": "gci:items/common/mpz",
        "particle": "gci:items/common/mpz"
    },
    "elements": [
        {
            "from": [
                1.41257,
                4.7812,
                -4.6693
            ],
            "to": [
                2.43743,
                4.8812,
                -4.4293
            ],
            "rotation": {
                "angle": 0,
                "axis": "y",
                "origin": [
                    1.925,
                    4.8312,
                    -4.5493
                ]
            },
            "faces": {
                "north": {
                    "uv": [
                        0.5,
                        3.26667,
                        2,
                        4.68333
                    ],
                    "rotation": 270,
                    "texture": "#0"
                },
                "east": {
                    "uv": [
                        0.5,
                        3.26667,
                        2,
                        4.68333
                    ],
                    "rotation": 270,
                    "texture": "#0"
                },
                "south": {
                    "uv": [
                        0.5,
                        3.26667,
                        2,
                        4.68333
                    ],
                    "rotation": 270,
                    "texture": "#0"
                },
                "west": {
                    "uv": [
                        0.5,
                        3.26667,
                        2,
                        4.68333
                    ],
                    "rotation": 270,
                    "texture": "#0"
                },
                "up": {
                    "uv": [
                        0.5,
                        3.26667,
                        2,
                        4.68333
                    ],
                    "rotation": 270,
                    "texture": "#0"
                },
                "down": {
                    "uv": [
                        0.5,
                        3.26667,
                        2,
                        4.68333
                    ],
                    "rotation": 270,
                    "texture": "#0"
                }
            }
        },
        {
            "from": [
                -1.80048,
                -1.45918,
                -4.79031
            ],
            "to": [
                -0.90048,
                -1.25918,
                -4.31031
            ],
            "rotation": {
                "angle": 0,
                "axis": "y",
                "origin": [
                    -0.49597,
                    0.2,
                    -4.55031
                ]
            },
            "faces": {
                "north": {
                    "uv": [
                        11.16667,
                        0.6,
                        12.66667,
                        2.01667
                    ],
                    "rotation": 270,
                    "texture": "#0"
                },
                "east": {
                    "uv": [
                        11.16667,
                        0.6,
                        12.66667,
                        2.01667
                    ],
                    "rotation": 270,
                    "texture": "#0"
                },
                "south": {
                    "uv": [
                        11.16667,
                        0.6,
                        12.66667,
                        2.01667
                    ],
                    "rotation": 270,
                    "texture": "#0"
                },
                "west": {
                    "uv": [
                        11.16667,
                        0.6,
                        12.66667,
                        2.01667
                    ],
                    "rotation": 270,
                    "texture": "#0"
                },
                "up": {
                    "uv": [
                        11.16667,
                        0.6,
                        12.66667,
                        2.01667
                    ],
                    "rotation": 270,
                    "texture": "#0"
                },
                "down": {
                    "uv": [
                        11.16667,
                        0.6,
                        12.66667,
                        2.01667
                    ],
                    "rotation": 270,
                    "texture": "#0"
                }
            }
        },
        {
            "from": [
                -1.42395,
                -1.2744,
                -4.69031
            ],
            "to": [
                -0.82395,
                -1.0744,
                -4.41031
            ],
            "rotation": {
                "angle": 0,
                "axis": "y",
                "origin": [
                    -0.49597,
                    0.2,
                    -4.55031
                ]
            },
            "faces": {
                "north": {
                    "uv": [
                        11.16667,
                        0.6,
                        12.66667,
                        2.01667
                    ],
                    "rotation": 270,
                    "texture": "#0"
                },
                "east": {
                    "uv": [
                        11.16667,
                        0.6,
                        12.66667,
                        2.01667
                    ],
                    "rotation": 270,
                    "texture": "#0"
                },
                "south": {
                    "uv": [
                        11.16667,
                        0.6,
                        12.66667,
                        2.01667
                    ],
                    "rotation": 270,
                    "texture": "#0"
                },
                "west": {
                    "uv": [
                        11.16667,
                        0.6,
                        12.66667,
                        2.01667
                    ],
                    "rotation": 270,
                    "texture": "#0"
                },
                "up": {
                    "uv": [
                        11.16667,
                        0.6,
                        12.66667,
                        2.01667
                    ],
                    "rotation": 270,
                    "texture": "#0"
                },
                "down": {
                    "uv": [
                        11.16667,
                        0.6,
                        12.66667,
                        2.01667
                    ],
                    "rotation": 270,
                    "texture": "#0"
                }
            }
        },
        {
            "from": [
                -0.25101,
                -1.65731,
                -4.69031
            ],
            "to": [
                -0.05101,
                -1.35731,
                -4.41031
            ],
            "rotation": {
                "angle": -45,
                "axis": "z",
                "origin": [
                    -0.49597,
                    0.2,
                    -4.55031
                ]
            },
            "faces": {
                "north": {
                    "uv": [
                        11.16667,
                        0.6,
                        12.66667,
                        2.01667
                    ],
                    "rotation": 270,
                    "texture": "#0"
                },
                "east": {
                    "uv": [
                        11.16667,
                        0.6,
                        12.66667,
                        2.01667
                    ],
                    "rotation": 270,
                    "texture": "#0"
                },
                "south": {
                    "uv": [
                        11.16667,
                        0.6,
                        12.66667,
                        2.01667
                    ],
                    "rotation": 270,
                    "texture": "#0"
                },
                "west": {
                    "uv": [
                        11.16667,
                        0.6,
                        12.66667,
                        2.01667
                    ],
                    "rotation": 270,
                    "texture": "#0"
                },
                "up": {
                    "uv": [
                        11.16667,
                        0.6,
                        12.66667,
                        2.01667
                    ],
                    "rotation": 270,
                    "texture": "#0"
                },
                "down": {
                    "uv": [
                        11.16667,
                        0.6,
                        12.66667,
                        2.01667
                    ],
                    "rotation": 270,
                    "texture": "#0"
                }
            }
        },
        {
            "from": [
                -0.33576,
                -1.48768,
                -4.7893
            ],
            "to": [
                -0.23576,
                5.21232,
                -4.6893
            ],
            "rotation": {
                "angle": -22.5,
                "axis": "z",
                "origin": [
                    -0.49597,
                    0.2,
                    -4.55031
                ]
            },
            "faces": {
                "north": {
                    "uv": [
                        11.16667,
                        0.6,
                        12.66667,
                        2.01667
                    ],
                    "rotation": 180,
                    "texture": "#0"
                },
                "east": {
                    "uv": [
                        11.16667,
                        0.6,
                        12.66667,
                        2.01667
                    ],
                    "rotation": 180,
                    "texture": "#0"
                },
                "south": {
                    "uv": [
                        11.16667,
                        0.6,
                        12.66667,
                        2.01667
                    ],
                    "rotation": 180,
                    "texture": "#0"
                },
                "west": {
                    "uv": [
                        11.16667,
                        0.6,
                        12.66667,
                        2.01667
                    ],
                    "rotation": 180,
                    "texture": "#0"
                },
                "up": {
                    "uv": [
                        11.16667,
                        0.6,
                        12.66667,
                        2.01667
                    ],
                    "rotation": 180,
                    "texture": "#0"
                },
                "down": {
                    "uv": [
                        11.16667,
                        0.6,
                        12.66667,
                        2.01667
                    ],
                    "rotation": 180,
                    "texture": "#0"
                }
            }
        },
        {
            "from": [
                -0.33576,
                -1.48768,
                -4.41131
            ],
            "to": [
                -0.23576,
                5.21232,
                -4.31131
            ],
            "rotation": {
                "angle": -22.5,
                "axis": "z",
                "origin": [
                    -0.49597,
                    0.2,
                    -4.55031
                ]
            },
            "faces": {
                "north": {
                    "uv": [
                        11.16667,
                        0.6,
                        12.66667,
                        2.01667
                    ],
                    "texture": "#0"
                },
                "east": {
                    "uv": [
                        11.16667,
                        0.6,
                        12.66667,
                        2.01667
                    ],
                    "texture": "#0"
                },
                "south": {
                    "uv": [
                        11.16667,
                        0.6,
                        12.66667,
                        2.01667
                    ],
                    "texture": "#0"
                },
                "west": {
                    "uv": [
                        11.16667,
                        0.6,
                        12.66667,
                        2.01667
                    ],
                    "texture": "#0"
                },
                "up": {
                    "uv": [
                        11.16667,
                        0.6,
                        12.66667,
                        2.01667
                    ],
                    "texture": "#0"
                },
                "down": {
                    "uv": [
                        11.16667,
                        0.6,
                        12.66667,
                        2.01667
                    ],
                    "texture": "#0"
                }
            }
        },
        {
            "from": [
                1.41257,
                4.7812,
                -4.6693
            ],
            "to": [
                2.43743,
                4.8812,
                -4.4293
            ],
            "rotation": {
                "angle": 0,
                "axis": "y",
                "origin": [
                    1.925,
                    4.8312,
                    -4.5493
                ]
            },
            "faces": {
                "north": {
                    "uv": [
                        0.5,
                        3.26667,
                        2,
                        4.68333
                    ],
                    "rotation": 270,
                    "texture": "#0"
                },
                "east": {
                    "uv": [
                        0.5,
                        3.26667,
                        2,
                        4.68333
                    ],
                    "rotation": 270,
                    "texture": "#0"
                },
                "south": {
                    "uv": [
                        0.5,
                        3.26667,
                        2,
                        4.68333
                    ],
                    "rotation": 270,
                    "texture": "#0"
                },
                "west": {
                    "uv": [
                        0.5,
                        3.26667,
                        2,
                        4.68333
                    ],
                    "rotation": 270,
                    "texture": "#0"
                },
                "up": {
                    "uv": [
                        0.5,
                        3.26667,
                        2,
                        4.68333
                    ],
                    "rotation": 270,
                    "texture": "#0"
                },
                "down": {
                    "uv": [
                        0.5,
                        3.26667,
                        2,
                        4.68333
                    ],
                    "rotation": 270,
                    "texture": "#0"
                }
            }
        },
        {
            "from": [
                -1.80048,
                -1.45918,
                -4.79031
            ],
            "to": [
                -0.90048,
                -1.25918,
                -4.31031
            ],
            "rotation": {
                "angle": 0,
                "axis": "y",
                "origin": [
                    -0.49597,
                    0.2,
                    -4.55031
                ]
            },
            "faces": {
                "north": {
                    "uv": [
                        11.16667,
                        0.6,
                        12.66667,
                        2.01667
                    ],
                    "rotation": 270,
                    "texture": "#0"
                },
                "east": {
                    "uv": [
                        11.16667,
                        0.6,
                        12.66667,
                        2.01667
                    ],
                    "rotation": 270,
                    "texture": "#0"
                },
                "south": {
                    "uv": [
                        11.16667,
                        0.6,
                        12.66667,
                        2.01667
                    ],
                    "rotation": 270,
                    "texture": "#0"
                },
                "west": {
                    "uv": [
                        11.16667,
                        0.6,
                        12.66667,
                        2.01667
                    ],
                    "rotation": 270,
                    "texture": "#0"
                },
                "up": {
                    "uv": [
                        11.16667,
                        0.6,
                        12.66667,
                        2.01667
                    ],
                    "rotation": 270,
                    "texture": "#0"
                },
                "down": {
                    "uv": [
                        11.16667,
                        0.6,
                        12.66667,
                        2.01667
                    ],
                    "rotation": 270,
                    "texture": "#0"
                }
            }
        },
        {
            "from": [
                -1.42395,
                -1.2744,
                -4.69031
            ],
            "to": [
                -0.82395,
                -1.0744,
                -4.41031
            ],
            "rotation": {
                "angle": 0,
                "axis": "y",
                "origin": [
                    -0.49597,
                    0.2,
                    -4.55031
                ]
            },
            "faces": {
                "north": {
                    "uv": [
                        11.16667,
                        0.6,
                        12.66667,
                        2.01667
                    ],
                    "rotation": 270,
                    "texture": "#0"
                },
                "east": {
                    "uv": [
                        11.16667,
                        0.6,
                        12.66667,
                        2.01667
                    ],
                    "rotation": 270,
                    "texture": "#0"
                },
                "south": {
                    "uv": [
                        11.16667,
                        0.6,
                        12.66667,
                        2.01667
                    ],
                    "rotation": 270,
                    "texture": "#0"
                },
                "west": {
                    "uv": [
                        11.16667,
                        0.6,
                        12.66667,
                        2.01667
                    ],
                    "rotation": 270,
                    "texture": "#0"
                },
                "up": {
                    "uv": [
                        11.16667,
                        0.6,
                        12.66667,
                        2.01667
                    ],
                    "rotation": 270,
                    "texture": "#0"
                },
                "down": {
                    "uv": [
                        11.16667,
                        0.6,
                        12.66667,
                        2.01667
                    ],
                    "rotation": 270,
                    "texture": "#0"
                }
            }
        },
        {
            "from": [
                -0.25101,
                -1.65731,
                -4.69031
            ],
            "to": [
                -0.05101,
                -1.35731,
                -4.41031
            ],
            "rotation": {
                "angle": -45,
                "axis": "z",
                "origin": [
                    -0.49597,
                    0.2,
                    -4.55031
                ]
            },
            "faces": {
                "north": {
                    "uv": [
                        11.16667,
                        0.6,
                        12.66667,
                        2.01667
                    ],
                    "rotation": 270,
                    "texture": "#0"
                },
                "east": {
                    "uv": [
                        11.16667,
                        0.6,
                        12.66667,
                        2.01667
                    ],
                    "rotation": 270,
                    "texture": "#0"
                },
                "south": {
                    "uv": [
                        11.16667,
                        0.6,
                        12.66667,
                        2.01667
                    ],
                    "rotation": 270,
                    "texture": "#0"
                },
                "west": {
                    "uv": [
                        11.16667,
                        0.6,
                        12.66667,
                        2.01667
                    ],
                    "rotation": 270,
                    "texture": "#0"
                },
                "up": {
                    "uv": [
                        11.16667,
                        0.6,
                        12.66667,
                        2.01667
                    ],
                    "rotation": 270,
                    "texture": "#0"
                },
                "down": {
                    "uv": [
                        11.16667,
                        0.6,
                        12.66667,
                        2.01667
                    ],
                    "rotation": 270,
                    "texture": "#0"
                }
            }
        },
        {
            "from": [
                -0.33576,
                -1.48768,
                -4.7893
            ],
            "to": [
                -0.23576,
                5.21232,
                -4.6893
            ],
            "rotation": {
                "angle": -22.5,
                "axis": "z",
                "origin": [
                    -0.49597,
                    0.2,
                    -4.55031
                ]
            },
            "faces": {
                "north": {
                    "uv": [
                        11.16667,
                        0.6,
                        12.66667,
                        2.01667
                    ],
                    "rotation": 180,
                    "texture": "#0"
                },
                "east": {
                    "uv": [
                        11.16667,
                        0.6,
                        12.66667,
                        2.01667
                    ],
                    "rotation": 180,
                    "texture": "#0"
                },
                "south": {
                    "uv": [
                        11.16667,
                        0.6,
                        12.66667,
                        2.01667
                    ],
                    "rotation": 180,
                    "texture": "#0"
                },
                "west": {
                    "uv": [
                        11.16667,
                        0.6,
                        12.66667,
                        2.01667
                    ],
                    "rotation": 180,
                    "texture": "#0"
                },
                "up": {
                    "uv": [
                        11.16667,
                        0.6,
                        12.66667,
                        2.01667
                    ],
                    "rotation": 180,
                    "texture": "#0"
                },
                "down": {
                    "uv": [
                        11.16667,
                        0.6,
                        12.66667,
                        2.01667
                    ],
                    "rotation": 180,
                    "texture": "#0"
                }
            }
        },
        {
            "from": [
                -0.33576,
                -1.48768,
                -4.41131
            ],
            "to": [
                -0.23576,
                5.21232,
                -4.31131
            ],
            "rotation": {
                "angle": -22.5,
                "axis": "z",
                "origin": [
                    -0.49597,
                    0.2,
                    -4.55031
                ]
            },
            "faces": {
                "north": {
                    "uv": [
                        11.16667,
                        0.6,
                        12.66667,
                        2.01667
                    ],
                    "texture": "#0"
                },
                "east": {
                    "uv": [
                        11.16667,
                        0.6,
                        12.66667,
                        2.01667
                    ],
                    "texture": "#0"
                },
                "south": {
                    "uv": [
                        11.16667,
                        0.6,
                        12.66667,
                        2.01667
                    ],
                    "texture": "#0"
                },
                "west": {
                    "uv": [
                        11.16667,
                        0.6,
                        12.66667,
                        2.01667
                    ],
                    "texture": "#0"
                },
                "up": {
                    "uv": [
                        11.16667,
                        0.6,
                        12.66667,
                        2.01667
                    ],
                    "texture": "#0"
                },
                "down": {
                    "uv": [
                        11.16667,
                        0.6,
                        12.66667,
                        2.01667
                    ],
                    "texture": "#0"
                }
            }
        },
        {
            "from": [
                4.08576,
                -1.48768,
                -4.41131
            ],
            "to": [
                4.18576,
                5.21232,
                -4.31131
            ],
            "rotation": {
                "angle": 22.5,
                "axis": "z",
                "origin": [
                    4.34597,
                    0.2,
                    -4.55031
                ]
            },
            "faces": {
                "north": {
                    "uv": [
                        11.16667,
                        0.6,
                        12.66667,
                        2.01667
                    ],
                    "texture": "#0"
                },
                "east": {
                    "uv": [
                        11.16667,
                        0.6,
                        12.66667,
                        2.01667
                    ],
                    "texture": "#0"
                },
                "south": {
                    "uv": [
                        11.16667,
                        0.6,
                        12.66667,
                        2.01667
                    ],
                    "texture": "#0"
                },
                "west": {
                    "uv": [
                        11.16667,
                        0.6,
                        12.66667,
                        2.01667
                    ],
                    "texture": "#0"
                },
                "up": {
                    "uv": [
                        11.16667,
                        0.6,
                        12.66667,
                        2.01667
                    ],
                    "texture": "#0"
                },
                "down": {
                    "uv": [
                        11.16667,
                        0.6,
                        12.66667,
                        2.01667
                    ],
                    "texture": "#0"
                }
            }
        },
        {
            "from": [
                4.08576,
                -1.48768,
                -4.7893
            ],
            "to": [
                4.18576,
                5.21232,
                -4.6893
            ],
            "rotation": {
                "angle": 22.5,
                "axis": "z",
                "origin": [
                    4.34597,
                    0.2,
                    -4.55031
                ]
            },
            "faces": {
                "north": {
                    "uv": [
                        11.16667,
                        0.6,
                        12.66667,
                        2.01667
                    ],
                    "rotation": 180,
                    "texture": "#0"
                },
                "east": {
                    "uv": [
                        11.16667,
                        0.6,
                        12.66667,
                        2.01667
                    ],
                    "rotation": 180,
                    "texture": "#0"
                },
                "south": {
                    "uv": [
                        11.16667,
                        0.6,
                        12.66667,
                        2.01667
                    ],
                    "rotation": 180,
                    "texture": "#0"
                },
                "west": {
                    "uv": [
                        11.16667,
                        0.6,
                        12.66667,
                        2.01667
                    ],
                    "rotation": 180,
                    "texture": "#0"
                },
                "up": {
                    "uv": [
                        11.16667,
                        0.6,
                        12.66667,
                        2.01667
                    ],
                    "rotation": 180,
                    "texture": "#0"
                },
                "down": {
                    "uv": [
                        11.16667,
                        0.6,
                        12.66667,
                        2.01667
                    ],
                    "rotation": 180,
                    "texture": "#0"
                }
            }
        },
        {
            "from": [
                4.75048,
                -1.45918,
                -4.79031
            ],
            "to": [
                5.65048,
                -1.25918,
                -4.31031
            ],
            "rotation": {
                "angle": 0,
                "axis": "y",
                "origin": [
                    4.34597,
                    0.2,
                    -4.55031
                ]
            },
            "faces": {
                "north": {
                    "uv": [
                        11.16667,
                        0.6,
                        12.66667,
                        2.01667
                    ],
                    "rotation": 270,
                    "texture": "#0"
                },
                "east": {
                    "uv": [
                        11.16667,
                        0.6,
                        12.66667,
                        2.01667
                    ],
                    "rotation": 270,
                    "texture": "#0"
                },
                "south": {
                    "uv": [
                        11.16667,
                        0.6,
                        12.66667,
                        2.01667
                    ],
                    "rotation": 270,
                    "texture": "#0"
                },
                "west": {
                    "uv": [
                        11.16667,
                        0.6,
                        12.66667,
                        2.01667
                    ],
                    "rotation": 270,
                    "texture": "#0"
                },
                "up": {
                    "uv": [
                        11.16667,
                        0.6,
                        12.66667,
                        2.01667
                    ],
                    "rotation": 270,
                    "texture": "#0"
                },
                "down": {
                    "uv": [
                        11.16667,
                        0.6,
                        12.66667,
                        2.01667
                    ],
                    "rotation": 270,
                    "texture": "#0"
                }
            }
        },
        {
            "from": [
                4.67395,
                -1.2744,
                -4.69031
            ],
            "to": [
                5.27395,
                -1.0744,
                -4.41031
            ],
            "rotation": {
                "angle": 0,
                "axis": "y",
                "origin": [
                    4.34597,
                    0.2,
                    -4.55031
                ]
            },
            "faces": {
                "north": {
                    "uv": [
                        11.16667,
                        0.6,
                        12.66667,
                        2.01667
                    ],
                    "rotation": 270,
                    "texture": "#0"
                },
                "east": {
                    "uv": [
                        11.16667,
                        0.6,
                        12.66667,
                        2.01667
                    ],
                    "rotation": 270,
                    "texture": "#0"
                },
                "south": {
                    "uv": [
                        11.16667,
                        0.6,
                        12.66667,
                        2.01667
                    ],
                    "rotation": 270,
                    "texture": "#0"
                },
                "west": {
                    "uv": [
                        11.16667,
                        0.6,
                        12.66667,
                        2.01667
                    ],
                    "rotation": 270,
                    "texture": "#0"
                },
                "up": {
                    "uv": [
                        11.16667,
                        0.6,
                        12.66667,
                        2.01667
                    ],
                    "rotation": 270,
                    "texture": "#0"
                },
                "down": {
                    "uv": [
                        11.16667,
                        0.6,
                        12.66667,
                        2.01667
                    ],
                    "rotation": 270,
                    "texture": "#0"
                }
            }
        },
        {
            "from": [
                3.90101,
                -1.65731,
                -4.69031
            ],
            "to": [
                4.10101,
                -1.35731,
                -4.41031
            ],
            "rotation": {
                "angle": 45,
                "axis": "z",
                "origin": [
                    4.34597,
                    0.2,
                    -4.55031
                ]
            },
            "faces": {
                "north": {
                    "uv": [
                        11.16667,
                        0.6,
                        12.66667,
                        2.01667
                    ],
                    "rotation": 270,
                    "texture": "#0"
                },
                "east": {
                    "uv": [
                        11.16667,
                        0.6,
                        12.66667,
                        2.01667
                    ],
                    "rotation": 270,
                    "texture": "#0"
                },
                "south": {
                    "uv": [
                        11.16667,
                        0.6,
                        12.66667,
                        2.01667
                    ],
                    "rotation": 270,
                    "texture": "#0"
                },
                "west": {
                    "uv": [
                        11.16667,
                        0.6,
                        12.66667,
                        2.01667
                    ],
                    "rotation": 270,
                    "texture": "#0"
                },
                "up": {
                    "uv": [
                        11.16667,
                        0.6,
                        12.66667,
                        2.01667
                    ],
                    "rotation": 270,
                    "texture": "#0"
                },
                "down": {
                    "uv": [
                        11.16667,
                        0.6,
                        12.66667,
                        2.01667
                    ],
                    "rotation": 270,
                    "texture": "#0"
                }
            }
        },
        {
            "from": [
                1.41257,
                4.7812,
                -4.6693
            ],
            "to": [
                2.43743,
                4.8812,
                -4.4293
            ],
            "rotation": {
                "angle": 0,
                "axis": "y",
                "origin": [
                    1.925,
                    4.8312,
                    -4.5493
                ]
            },
            "faces": {
                "north": {
                    "uv": [
                        0.5,
                        3.26667,
                        2,
                        4.68333
                    ],
                    "rotation": 270,
                    "texture": "#0"
                },
                "east": {
                    "uv": [
                        0.5,
                        3.26667,
                        2,
                        4.68333
                    ],
                    "rotation": 270,
                    "texture": "#0"
                },
                "south": {
                    "uv": [
                        0.5,
                        3.26667,
                        2,
                        4.68333
                    ],
                    "rotation": 270,
                    "texture": "#0"
                },
                "west": {
                    "uv": [
                        0.5,
                        3.26667,
                        2,
                        4.68333
                    ],
                    "rotation": 270,
                    "texture": "#0"
                },
                "up": {
                    "uv": [
                        0.5,
                        3.26667,
                        2,
                        4.68333
                    ],
                    "rotation": 270,
                    "texture": "#0"
                },
                "down": {
                    "uv": [
                        0.5,
                        3.26667,
                        2,
                        4.68333
                    ],
                    "rotation": 270,
                    "texture": "#0"
                }
            }
        },
        {
            "from": [
                -0.43475,
                -1.48768,
                -4.69031
            ],
            "to": [
                -0.23475,
                5.21232,
                -4.41031
            ],
            "rotation": {
                "angle": -22.5,
                "axis": "z",
                "origin": [
                    -0.49597,
                    0.2,
                    -4.55031
                ]
            },
            "faces": {
                "north": {
                    "uv": [
                        11.16667,
                        0.6,
                        12.66667,
                        2.01667
                    ],
                    "rotation": 270,
                    "texture": "#0"
                },
                "east": {
                    "uv": [
                        11.16667,
                        0.6,
                        12.66667,
                        2.01667
                    ],
                    "rotation": 270,
                    "texture": "#0"
                },
                "south": {
                    "uv": [
                        11.16667,
                        0.6,
                        12.66667,
                        2.01667
                    ],
                    "rotation": 270,
                    "texture": "#0"
                },
                "west": {
                    "uv": [
                        11.16667,
                        0.6,
                        12.66667,
                        2.01667
                    ],
                    "rotation": 270,
                    "texture": "#0"
                },
                "up": {
                    "uv": [
                        11.16667,
                        0.6,
                        12.66667,
                        2.01667
                    ],
                    "rotation": 270,
                    "texture": "#0"
                },
                "down": {
                    "uv": [
                        11.16667,
                        0.6,
                        12.66667,
                        2.01667
                    ],
                    "rotation": 270,
                    "texture": "#0"
                }
            }
        },
        {
            "from": [
                -1.80048,
                -1.45918,
                -4.79031
            ],
            "to": [
                -0.90048,
                -1.25918,
                -4.31031
            ],
            "rotation": {
                "angle": 0,
                "axis": "y",
                "origin": [
                    -0.49597,
                    0.2,
                    -4.55031
                ]
            },
            "faces": {
                "north": {
                    "uv": [
                        11.16667,
                        0.6,
                        12.66667,
                        2.01667
                    ],
                    "rotation": 270,
                    "texture": "#0"
                },
                "east": {
                    "uv": [
                        11.16667,
                        0.6,
                        12.66667,
                        2.01667
                    ],
                    "rotation": 270,
                    "texture": "#0"
                },
                "south": {
                    "uv": [
                        11.16667,
                        0.6,
                        12.66667,
                        2.01667
                    ],
                    "rotation": 270,
                    "texture": "#0"
                },
                "west": {
                    "uv": [
                        11.16667,
                        0.6,
                        12.66667,
                        2.01667
                    ],
                    "rotation": 270,
                    "texture": "#0"
                },
                "up": {
                    "uv": [
                        11.16667,
                        0.6,
                        12.66667,
                        2.01667
                    ],
                    "rotation": 270,
                    "texture": "#0"
                },
                "down": {
                    "uv": [
                        11.16667,
                        0.6,
                        12.66667,
                        2.01667
                    ],
                    "rotation": 270,
                    "texture": "#0"
                }
            }
        },
        {
            "from": [
                -1.42395,
                -1.2744,
                -4.69031
            ],
            "to": [
                -0.82395,
                -1.0744,
                -4.41031
            ],
            "rotation": {
                "angle": 0,
                "axis": "y",
                "origin": [
                    -0.49597,
                    0.2,
                    -4.55031
                ]
            },
            "faces": {
                "north": {
                    "uv": [
                        11.16667,
                        0.6,
                        12.66667,
                        2.01667
                    ],
                    "rotation": 270,
                    "texture": "#0"
                },
                "east": {
                    "uv": [
                        11.16667,
                        0.6,
                        12.66667,
                        2.01667
                    ],
                    "rotation": 270,
                    "texture": "#0"
                },
                "south": {
                    "uv": [
                        11.16667,
                        0.6,
                        12.66667,
                        2.01667
                    ],
                    "rotation": 270,
                    "texture": "#0"
                },
                "west": {
                    "uv": [
                        11.16667,
                        0.6,
                        12.66667,
                        2.01667
                    ],
                    "rotation": 270,
                    "texture": "#0"
                },
                "up": {
                    "uv": [
                        11.16667,
                        0.6,
                        12.66667,
                        2.01667
                    ],
                    "rotation": 270,
                    "texture": "#0"
                },
                "down": {
                    "uv": [
                        11.16667,
                        0.6,
                        12.66667,
                        2.01667
                    ],
                    "rotation": 270,
                    "texture": "#0"
                }
            }
        },
        {
            "from": [
                -0.25101,
                -1.65731,
                -4.69031
            ],
            "to": [
                -0.05101,
                -1.35731,
                -4.41031
            ],
            "rotation": {
                "angle": -45,
                "axis": "z",
                "origin": [
                    -0.49597,
                    0.2,
                    -4.55031
                ]
            },
            "faces": {
                "north": {
                    "uv": [
                        11.16667,
                        0.6,
                        12.66667,
                        2.01667
                    ],
                    "rotation": 270,
                    "texture": "#0"
                },
                "east": {
                    "uv": [
                        11.16667,
                        0.6,
                        12.66667,
                        2.01667
                    ],
                    "rotation": 270,
                    "texture": "#0"
                },
                "south": {
                    "uv": [
                        11.16667,
                        0.6,
                        12.66667,
                        2.01667
                    ],
                    "rotation": 270,
                    "texture": "#0"
                },
                "west": {
                    "uv": [
                        11.16667,
                        0.6,
                        12.66667,
                        2.01667
                    ],
                    "rotation": 270,
                    "texture": "#0"
                },
                "up": {
                    "uv": [
                        11.16667,
                        0.6,
                        12.66667,
                        2.01667
                    ],
                    "rotation": 270,
                    "texture": "#0"
                },
                "down": {
                    "uv": [
                        11.16667,
                        0.6,
                        12.66667,
                        2.01667
                    ],
                    "rotation": 270,
                    "texture": "#0"
                }
            }
        },
        {
            "from": [
                -0.33576,
                -1.48768,
                -4.7893
            ],
            "to": [
                -0.23576,
                5.21232,
                -4.6893
            ],
            "rotation": {
                "angle": -22.5,
                "axis": "z",
                "origin": [
                    -0.49597,
                    0.2,
                    -4.55031
                ]
            },
            "faces": {
                "north": {
                    "uv": [
                        11.16667,
                        0.6,
                        12.66667,
                        2.01667
                    ],
                    "rotation": 180,
                    "texture": "#0"
                },
                "east": {
                    "uv": [
                        11.16667,
                        0.6,
                        12.66667,
                        2.01667
                    ],
                    "rotation": 180,
                    "texture": "#0"
                },
                "south": {
                    "uv": [
                        11.16667,
                        0.6,
                        12.66667,
                        2.01667
                    ],
                    "rotation": 180,
                    "texture": "#0"
                },
                "west": {
                    "uv": [
                        11.16667,
                        0.6,
                        12.66667,
                        2.01667
                    ],
                    "rotation": 180,
                    "texture": "#0"
                },
                "up": {
                    "uv": [
                        11.16667,
                        0.6,
                        12.66667,
                        2.01667
                    ],
                    "rotation": 180,
                    "texture": "#0"
                },
                "down": {
                    "uv": [
                        11.16667,
                        0.6,
                        12.66667,
                        2.01667
                    ],
                    "rotation": 180,
                    "texture": "#0"
                }
            }
        },
        {
            "from": [
                -0.33576,
                -1.48768,
                -4.41131
            ],
            "to": [
                -0.23576,
                5.21232,
                -4.31131
            ],
            "rotation": {
                "angle": -22.5,
                "axis": "z",
                "origin": [
                    -0.49597,
                    0.2,
                    -4.55031
                ]
            },
            "faces": {
                "north": {
                    "uv": [
                        11.16667,
                        0.6,
                        12.66667,
                        2.01667
                    ],
                    "texture": "#0"
                },
                "east": {
                    "uv": [
                        11.16667,
                        0.6,
                        12.66667,
                        2.01667
                    ],
                    "texture": "#0"
                },
                "south": {
                    "uv": [
                        11.16667,
                        0.6,
                        12.66667,
                        2.01667
                    ],
                    "texture": "#0"
                },
                "west": {
                    "uv": [
                        11.16667,
                        0.6,
                        12.66667,
                        2.01667
                    ],
                    "texture": "#0"
                },
                "up": {
                    "uv": [
                        11.16667,
                        0.6,
                        12.66667,
                        2.01667
                    ],
                    "texture": "#0"
                },
                "down": {
                    "uv": [
                        11.16667,
                        0.6,
                        12.66667,
                        2.01667
                    ],
                    "texture": "#0"
                }
            }
        },
        {
            "from": [
                4.08475,
                -1.48768,
                -4.69031
            ],
            "to": [
                4.28475,
                5.21232,
                -4.41031
            ],
            "rotation": {
                "angle": 22.5,
                "axis": "z",
                "origin": [
                    4.34597,
                    0.2,
                    -4.55031
                ]
            },
            "faces": {
                "north": {
                    "uv": [
                        11.16667,
                        0.6,
                        12.66667,
                        2.01667
                    ],
                    "rotation": 270,
                    "texture": "#0"
                },
                "east": {
                    "uv": [
                        11.16667,
                        0.6,
                        12.66667,
                        2.01667
                    ],
                    "rotation": 270,
                    "texture": "#0"
                },
                "south": {
                    "uv": [
                        11.16667,
                        0.6,
                        12.66667,
                        2.01667
                    ],
                    "rotation": 270,
                    "texture": "#0"
                },
                "west": {
                    "uv": [
                        11.16667,
                        0.6,
                        12.66667,
                        2.01667
                    ],
                    "rotation": 270,
                    "texture": "#0"
                },
                "up": {
                    "uv": [
                        11.16667,
                        0.6,
                        12.66667,
                        2.01667
                    ],
                    "rotation": 270,
                    "texture": "#0"
                },
                "down": {
                    "uv": [
                        11.16667,
                        0.6,
                        12.66667,
                        2.01667
                    ],
                    "rotation": 270,
                    "texture": "#0"
                }
            }
        },
        {
            "from": [
                4.08576,
                -1.48768,
                -4.41131
            ],
            "to": [
                4.18576,
                5.21232,
                -4.31131
            ],
            "rotation": {
                "angle": 22.5,
                "axis": "z",
                "origin": [
                    4.34597,
                    0.2,
                    -4.55031
                ]
            },
            "faces": {
                "north": {
                    "uv": [
                        11.16667,
                        0.6,
                        12.66667,
                        2.01667
                    ],
                    "texture": "#0"
                },
                "east": {
                    "uv": [
                        11.16667,
                        0.6,
                        12.66667,
                        2.01667
                    ],
                    "texture": "#0"
                },
                "south": {
                    "uv": [
                        11.16667,
                        0.6,
                        12.66667,
                        2.01667
                    ],
                    "texture": "#0"
                },
                "west": {
                    "uv": [
                        11.16667,
                        0.6,
                        12.66667,
                        2.01667
                    ],
                    "texture": "#0"
                },
                "up": {
                    "uv": [
                        11.16667,
                        0.6,
                        12.66667,
                        2.01667
                    ],
                    "texture": "#0"
                },
                "down": {
                    "uv": [
                        11.16667,
                        0.6,
                        12.66667,
                        2.01667
                    ],
                    "texture": "#0"
                }
            }
        },
        {
            "from": [
                4.08576,
                -1.48768,
                -4.7893
            ],
            "to": [
                4.18576,
                5.21232,
                -4.6893
            ],
            "rotation": {
                "angle": 22.5,
                "axis": "z",
                "origin": [
                    4.34597,
                    0.2,
                    -4.55031
                ]
            },
            "faces": {
                "north": {
                    "uv": [
                        11.16667,
                        0.6,
                        12.66667,
                        2.01667
                    ],
                    "rotation": 180,
                    "texture": "#0"
                },
                "east": {
                    "uv": [
                        11.16667,
                        0.6,
                        12.66667,
                        2.01667
                    ],
                    "rotation": 180,
                    "texture": "#0"
                },
                "south": {
                    "uv": [
                        11.16667,
                        0.6,
                        12.66667,
                        2.01667
                    ],
                    "rotation": 180,
                    "texture": "#0"
                },
                "west": {
                    "uv": [
                        11.16667,
                        0.6,
                        12.66667,
                        2.01667
                    ],
                    "rotation": 180,
                    "texture": "#0"
                },
                "up": {
                    "uv": [
                        11.16667,
                        0.6,
                        12.66667,
                        2.01667
                    ],
                    "rotation": 180,
                    "texture": "#0"
                },
                "down": {
                    "uv": [
                        11.16667,
                        0.6,
                        12.66667,
                        2.01667
                    ],
                    "rotation": 180,
                    "texture": "#0"
                }
            }
        },
        {
            "from": [
                4.75048,
                -1.45918,
                -4.79031
            ],
            "to": [
                5.65048,
                -1.25918,
                -4.31031
            ],
            "rotation": {
                "angle": 0,
                "axis": "y",
                "origin": [
                    4.34597,
                    0.2,
                    -4.55031
                ]
            },
            "faces": {
                "north": {
                    "uv": [
                        11.16667,
                        0.6,
                        12.66667,
                        2.01667
                    ],
                    "rotation": 270,
                    "texture": "#0"
                },
                "east": {
                    "uv": [
                        11.16667,
                        0.6,
                        12.66667,
                        2.01667
                    ],
                    "rotation": 270,
                    "texture": "#0"
                },
                "south": {
                    "uv": [
                        11.16667,
                        0.6,
                        12.66667,
                        2.01667
                    ],
                    "rotation": 270,
                    "texture": "#0"
                },
                "west": {
                    "uv": [
                        11.16667,
                        0.6,
                        12.66667,
                        2.01667
                    ],
                    "rotation": 270,
                    "texture": "#0"
                },
                "up": {
                    "uv": [
                        11.16667,
                        0.6,
                        12.66667,
                        2.01667
                    ],
                    "rotation": 270,
                    "texture": "#0"
                },
                "down": {
                    "uv": [
                        11.16667,
                        0.6,
                        12.66667,
                        2.01667
                    ],
                    "rotation": 270,
                    "texture": "#0"
                }
            }
        },
        {
            "from": [
                4.67395,
                -1.2744,
                -4.69031
            ],
            "to": [
                5.27395,
                -1.0744,
                -4.41031
            ],
            "rotation": {
                "angle": 0,
                "axis": "y",
                "origin": [
                    4.34597,
                    0.2,
                    -4.55031
                ]
            },
            "faces": {
                "north": {
                    "uv": [
                        11.16667,
                        0.6,
                        12.66667,
                        2.01667
                    ],
                    "rotation": 270,
                    "texture": "#0"
                },
                "east": {
                    "uv": [
                        11.16667,
                        0.6,
                        12.66667,
                        2.01667
                    ],
                    "rotation": 270,
                    "texture": "#0"
                },
                "south": {
                    "uv": [
                        11.16667,
                        0.6,
                        12.66667,
                        2.01667
                    ],
                    "rotation": 270,
                    "texture": "#0"
                },
                "west": {
                    "uv": [
                        11.16667,
                        0.6,
                        12.66667,
                        2.01667
                    ],
                    "rotation": 270,
                    "texture": "#0"
                },
                "up": {
                    "uv": [
                        11.16667,
                        0.6,
                        12.66667,
                        2.01667
                    ],
                    "rotation": 270,
                    "texture": "#0"
                },
                "down": {
                    "uv": [
                        11.16667,
                        0.6,
                        12.66667,
                        2.01667
                    ],
                    "rotation": 270,
                    "texture": "#0"
                }
            }
        },
        {
            "from": [
                3.90101,
                -1.65731,
                -4.69031
            ],
            "to": [
                4.10101,
                -1.35731,
                -4.41031
            ],
            "rotation": {
                "angle": 45,
                "axis": "z",
                "origin": [
                    4.34597,
                    0.2,
                    -4.55031
                ]
            },
            "faces": {
                "north": {
                    "uv": [
                        11.16667,
                        0.6,
                        12.66667,
                        2.01667
                    ],
                    "rotation": 270,
                    "texture": "#0"
                },
                "east": {
                    "uv": [
                        11.16667,
                        0.6,
                        12.66667,
                        2.01667
                    ],
                    "rotation": 270,
                    "texture": "#0"
                },
                "south": {
                    "uv": [
                        11.16667,
                        0.6,
                        12.66667,
                        2.01667
                    ],
                    "rotation": 270,
                    "texture": "#0"
                },
                "west": {
                    "uv": [
                        11.16667,
                        0.6,
                        12.66667,
                        2.01667
                    ],
                    "rotation": 270,
                    "texture": "#0"
                },
                "up": {
                    "uv": [
                        11.16667,
                        0.6,
                        12.66667,
                        2.01667
                    ],
                    "rotation": 270,
                    "texture": "#0"
                },
                "down": {
                    "uv": [
                        11.16667,
                        0.6,
                        12.66667,
                        2.01667
                    ],
                    "rotation": 270,
                    "texture": "#0"
                }
            }
        }
    ],
    "display": {
        "thirdperson_righthand": {
            "translation": [
                7.75,
                3.5,
                5.75
            ],
            "scale": [
                1.25,
                1,
                1
            ]
        },
        "thirdperson_lefthand": {
            "translation": [
                -7.5,
                3.5,
                5.75
            ],
            "scale": [
                1.25,
                1,
                1
            ]
        },
        "firstperson_righthand": {
            "translation": [
                3,
                7.5,
                10.25
            ],
            "scale": [
                1.25,
                1,
                1
            ]
        },
        "firstperson_lefthand": {
            "translation": [
                -12,
                7.25,
                10.25
            ],
            "scale": [
                1.25,
                1,
                1
            ]
        },
        "ground": {
            "translation": [
                7,
                4.75,
                9.5
            ],
            "scale": [
                1.25,
                1.12,
                1.12
            ]
        },
        "gui": {
            "rotation": [
                90,
                45,
                -90
            ],
            "translation": [
                7,
                -2.25,
                0
            ],
            "scale": [
                0.9,
                0.9,
                0.9
            ]
        },
        "head": {
            "translation": [
                6,
                11.25,
                6.25
            ]
        },
        "fixed": {
            "rotation": [
                90,
                45,
                -90
            ],
            "translation": [
                8.75,
                -3,
                -7.5
            ],
            "scale": [
                1.15,
                1.15,
                1.15
            ]
        }
    }
}