{
	"credit": "Made with Blockbench",
	"textures": {
		"0": "gci:items/common/all_in_one",
		"particle": "gci:items/common/all_in_one"
	},
	"elements": [
		{
			"from": [2.5, 0, 3],
			"to": [13.5, 1, 4],
			"rotation": {"angle": 0, "axis": "y", "origin": [20.5, 8, 11]},
			"faces": {
				"north": {"uv": [14.25, 6.375, 14.5, 6.625], "texture": "#0"},
				"east": {"uv": [14.25, 6.375, 14.5, 6.625], "texture": "#0"},
				"south": {"uv": [14.25, 6.375, 14.5, 6.625], "texture": "#0"},
				"west": {"uv": [14.25, 6.375, 14.5, 6.625], "texture": "#0"},
				"up": {"uv": [14.25, 6.375, 14.5, 6.625], "texture": "#0"},
				"down": {"uv": [14.25, 6.375, 14.5, 6.625], "texture": "#0"}
			}
		},
		{
			"from": [1.5, 18, 3],
			"to": [14.5, 21, 4],
			"rotation": {"angle": 0, "axis": "y", "origin": [20.5, 9, 11]},
			"faces": {
				"north": {"uv": [14.25, 6.375, 14.5, 6.625], "texture": "#0"},
				"east": {"uv": [14.25, 6.375, 14.5, 6.625], "texture": "#0"},
				"south": {"uv": [14.25, 6.375, 14.5, 6.625], "texture": "#0"},
				"west": {"uv": [14.25, 6.375, 14.5, 6.625], "texture": "#0"},
				"up": {"uv": [14.25, 6.375, 14.5, 6.625], "texture": "#0"},
				"down": {"uv": [14.25, 6.375, 14.5, 6.625], "texture": "#0"}
			}
		},
		{
			"from": [21.18198, 19.63984, 3],
			"to": [22.18198, 21.03984, 4],
			"rotation": {"angle": 45, "axis": "z", "origin": [16.68198, 11.03984, 3.5]},
			"faces": {
				"north": {"uv": [14.25, 6.375, 14.5, 6.625], "texture": "#0"},
				"east": {"uv": [14.25, 6.375, 14.5, 6.625], "texture": "#0"},
				"south": {"uv": [14.25, 6.375, 14.5, 6.625], "texture": "#0"},
				"west": {"uv": [14.25, 6.375, 14.5, 6.625], "texture": "#0"},
				"up": {"uv": [14.25, 6.375, 14.5, 6.625], "texture": "#0"},
				"down": {"uv": [14.25, 6.375, 14.5, 6.625], "texture": "#0"}
			}
		},
		{
			"from": [9.89914, -0.6631, 3],
			"to": [10.89914, 0.7369, 4],
			"rotation": {"angle": 45, "axis": "z", "origin": [5.39914, -9.2631, 3.5]},
			"faces": {
				"north": {"uv": [14.25, 6.375, 14.5, 6.625], "texture": "#0"},
				"east": {"uv": [14.25, 6.375, 14.5, 6.625], "texture": "#0"},
				"south": {"uv": [14.25, 6.375, 14.5, 6.625], "texture": "#0"},
				"west": {"uv": [14.25, 6.375, 14.5, 6.625], "texture": "#0"},
				"up": {"uv": [14.25, 6.375, 14.5, 6.625], "texture": "#0"},
				"down": {"uv": [14.25, 6.375, 14.5, 6.625], "texture": "#0"}
			}
		},
		{
			"from": [-6.18198, 19.63984, 3],
			"to": [-5.18198, 21.03984, 4],
			"rotation": {"angle": -45, "axis": "z", "origin": [-0.68198, 11.03984, 3.5]},
			"faces": {
				"north": {"uv": [14.25, 6.375, 14.5, 6.625], "texture": "#0"},
				"east": {"uv": [14.25, 6.375, 14.5, 6.625], "texture": "#0"},
				"south": {"uv": [14.25, 6.375, 14.5, 6.625], "texture": "#0"},
				"west": {"uv": [14.25, 6.375, 14.5, 6.625], "texture": "#0"},
				"up": {"uv": [14.25, 6.375, 14.5, 6.625], "texture": "#0"},
				"down": {"uv": [14.25, 6.375, 14.5, 6.625], "texture": "#0"}
			}
		},
		{
			"from": [5.10086, -0.6631, 3],
			"to": [6.10086, 0.7369, 4],
			"rotation": {"angle": -45, "axis": "z", "origin": [10.60086, -9.2631, 3.5]},
			"faces": {
				"north": {"uv": [14.25, 6.375, 14.5, 6.625], "texture": "#0"},
				"east": {"uv": [14.25, 6.375, 14.5, 6.625], "texture": "#0"},
				"south": {"uv": [14.25, 6.375, 14.5, 6.625], "texture": "#0"},
				"west": {"uv": [14.25, 6.375, 14.5, 6.625], "texture": "#0"},
				"up": {"uv": [14.25, 6.375, 14.5, 6.625], "texture": "#0"},
				"down": {"uv": [14.25, 6.375, 14.5, 6.625], "texture": "#0"}
			}
		},
		{
			"from": [1.5, 1, 3],
			"to": [14.5, 16, 4],
			"rotation": {"angle": 0, "axis": "y", "origin": [20.5, 9, 11]},
			"faces": {
				"north": {"uv": [14.25, 6.375, 14.5, 6.625], "texture": "#0"},
				"east": {"uv": [14.25, 6.375, 14.5, 6.625], "texture": "#0"},
				"south": {"uv": [14.25, 6.375, 14.5, 6.625], "texture": "#0"},
				"west": {"uv": [14.25, 6.375, 14.5, 6.625], "texture": "#0"},
				"up": {"uv": [14.25, 6.375, 14.5, 6.625], "texture": "#0"},
				"down": {"uv": [14.25, 6.375, 14.5, 6.625], "texture": "#0"}
			}
		},
		{
			"from": [3.5, 1.5, 2.8],
			"to": [12.5, 14.5, 3],
			"rotation": {"angle": 0, "axis": "y", "origin": [20.5, 8.5, 10]},
			"faces": {
				"north": {"uv": [13.625, 4.75, 13.875, 5.125], "texture": "#0"},
				"east": {"uv": [13.625, 4.75, 13.875, 5.125], "texture": "#0"},
				"south": {"uv": [13.625, 4.75, 13.875, 5.125], "texture": "#0"},
				"west": {"uv": [13.625, 4.75, 13.875, 5.125], "texture": "#0"},
				"up": {"uv": [13.625, 4.75, 13.875, 5.125], "texture": "#0"},
				"down": {"uv": [13.625, 4.75, 13.875, 5.125], "texture": "#0"}
			}
		},
		{
			"from": [2.5, 21, 3],
			"to": [13.5, 22, 4],
			"rotation": {"angle": 0, "axis": "y", "origin": [20.5, 29, 11]},
			"faces": {
				"north": {"uv": [14.25, 6.375, 14.5, 6.625], "texture": "#0"},
				"east": {"uv": [14.25, 6.375, 14.5, 6.625], "texture": "#0"},
				"south": {"uv": [14.25, 6.375, 14.5, 6.625], "texture": "#0"},
				"west": {"uv": [14.25, 6.375, 14.5, 6.625], "texture": "#0"},
				"up": {"uv": [14.25, 6.375, 14.5, 6.625], "texture": "#0"},
				"down": {"uv": [14.25, 6.375, 14.5, 6.625], "texture": "#0"}
			}
		},
		{
			"from": [11, 16, 3],
			"to": [14.5, 18, 4],
			"rotation": {"angle": 0, "axis": "y", "origin": [20.5, 7, 11]},
			"faces": {
				"north": {"uv": [14.25, 6.375, 14.5, 6.625], "texture": "#0"},
				"east": {"uv": [14.25, 6.375, 14.5, 6.625], "texture": "#0"},
				"south": {"uv": [14.25, 6.375, 14.5, 6.625], "texture": "#0"},
				"west": {"uv": [14.25, 6.375, 14.5, 6.625], "texture": "#0"},
				"up": {"uv": [14.25, 6.375, 14.5, 6.625], "texture": "#0"},
				"down": {"uv": [14.25, 6.375, 14.5, 6.625], "texture": "#0"}
			}
		},
		{
			"from": [1.5, 16, 3],
			"to": [5, 18, 4],
			"rotation": {"angle": 0, "axis": "y", "origin": [20.5, 7, 11]},
			"faces": {
				"north": {"uv": [14.25, 6.375, 14.5, 6.625], "texture": "#0"},
				"east": {"uv": [14.25, 6.375, 14.5, 6.625], "texture": "#0"},
				"south": {"uv": [14.25, 6.375, 14.5, 6.625], "texture": "#0"},
				"west": {"uv": [14.25, 6.375, 14.5, 6.625], "texture": "#0"},
				"up": {"uv": [14.25, 6.375, 14.5, 6.625], "texture": "#0"},
				"down": {"uv": [14.25, 6.375, 14.5, 6.625], "texture": "#0"}
			}
		},
		{
			"from": [4, 18, 2.5],
			"to": [12, 19, 3],
			"rotation": {"angle": 0, "axis": "y", "origin": [20.5, 9, 11]},
			"faces": {
				"north": {"uv": [9.375, 9.875, 9.625, 10.15], "texture": "#0"},
				"east": {"uv": [9.375, 9.875, 9.625, 10.15], "texture": "#0"},
				"south": {"uv": [9.375, 9.875, 9.625, 10.15], "texture": "#0"},
				"west": {"uv": [9.375, 9.875, 9.625, 10.15], "texture": "#0"},
				"up": {"uv": [9.375, 9.875, 9.625, 10.15], "texture": "#0"},
				"down": {"uv": [9.375, 9.875, 9.625, 10.15], "texture": "#0"}
			}
		},
		{
			"from": [4, 15, 2.5],
			"to": [12, 16, 3],
			"rotation": {"angle": 0, "axis": "y", "origin": [20.5, 6, 11]},
			"faces": {
				"north": {"uv": [9.375, 9.875, 9.625, 10.15], "texture": "#0"},
				"east": {"uv": [9.375, 9.875, 9.625, 10.15], "texture": "#0"},
				"south": {"uv": [9.375, 9.875, 9.625, 10.15], "texture": "#0"},
				"west": {"uv": [9.375, 9.875, 9.625, 10.15], "texture": "#0"},
				"up": {"uv": [9.375, 9.875, 9.625, 10.15], "texture": "#0"},
				"down": {"uv": [9.375, 9.875, 9.625, 10.15], "texture": "#0"}
			}
		},
		{
			"from": [11, 16, 2.5],
			"to": [12, 18, 3],
			"rotation": {"angle": 0, "axis": "y", "origin": [11.5, 14, 3.4]},
			"faces": {
				"north": {"uv": [9.375, 9.875, 9.625, 10.15], "rotation": 90, "texture": "#0"},
				"east": {"uv": [9.375, 9.875, 9.625, 10.15], "texture": "#0"},
				"south": {"uv": [9.375, 9.875, 9.625, 10.15], "texture": "#0"},
				"west": {"uv": [9.375, 9.875, 9.625, 10.15], "texture": "#0"},
				"up": {"uv": [9.375, 9.875, 9.625, 10.15], "texture": "#0"},
				"down": {"uv": [9.375, 9.875, 9.625, 10.15], "texture": "#0"}
			}
		},
		{
			"from": [4, 16, 2.5],
			"to": [5, 18, 3],
			"rotation": {"angle": 0, "axis": "y", "origin": [4.5, 14, 3.4]},
			"faces": {
				"north": {"uv": [9.375, 9.875, 9.625, 10.15], "rotation": 90, "texture": "#0"},
				"east": {"uv": [9.375, 9.875, 9.625, 10.15], "texture": "#0"},
				"south": {"uv": [9.375, 9.875, 9.625, 10.15], "texture": "#0"},
				"west": {"uv": [9.375, 9.875, 9.625, 10.15], "texture": "#0"},
				"up": {"uv": [9.375, 9.875, 9.625, 10.15], "texture": "#0"},
				"down": {"uv": [9.375, 9.875, 9.625, 10.15], "texture": "#0"}
			}
		},
		{
			"from": [7.5, 9, 4],
			"to": [8.5, 13, 4.5],
			"rotation": {"angle": 0, "axis": "y", "origin": [20.5, 9, 11]},
			"faces": {
				"north": {"uv": [2.875, 3.375, 3, 3.5], "texture": "#0"},
				"east": {"uv": [2.875, 3.375, 3, 3.5], "texture": "#0"},
				"south": {"uv": [2.875, 3.375, 3, 3.5], "texture": "#0"},
				"west": {"uv": [2.875, 3.375, 3, 3.5], "texture": "#0"},
				"up": {"uv": [2.875, 3.375, 3, 3.5], "texture": "#0"},
				"down": {"uv": [2.875, 3.375, 3, 3.5], "texture": "#0"}
			}
		},
		{
			"from": [7.5, 13, 4],
			"to": [8.5, 13.7, 9.2],
			"rotation": {"angle": 0, "axis": "y", "origin": [8, 13.25, 6]},
			"faces": {
				"north": {"uv": [2.875, 3.375, 3, 3.5], "texture": "#0"},
				"east": {"uv": [2.875, 3.375, 3, 3.5], "texture": "#0"},
				"south": {"uv": [2.875, 3.375, 3, 3.5], "texture": "#0"},
				"west": {"uv": [2.875, 3.375, 3, 3.5], "rotation": 270, "texture": "#0"},
				"up": {"uv": [2.875, 3.375, 3, 3.5], "texture": "#0"},
				"down": {"uv": [2.875, 3.375, 3, 3.5], "texture": "#0"}
			}
		},
		{
			"from": [7.5, 8.3, 4],
			"to": [8.5, 9, 9.2],
			"rotation": {"angle": 0, "axis": "y", "origin": [8, 9.875, 6.875]},
			"faces": {
				"north": {"uv": [2.875, 3.375, 3, 3.5], "texture": "#0"},
				"east": {"uv": [2.875, 3.375, 3, 3.5], "texture": "#0"},
				"south": {"uv": [2.875, 3.375, 3, 3.5], "texture": "#0"},
				"west": {"uv": [2.875, 3.375, 3, 3.5], "rotation": 90, "texture": "#0"},
				"up": {"uv": [2.875, 3.375, 3, 3.5], "texture": "#0"},
				"down": {"uv": [2.875, 3.375, 3, 3.5], "texture": "#0"}
			}
		},
		{
			"from": [7.5, 9, 8.5],
			"to": [8.5, 13, 9.2],
			"rotation": {"angle": 0, "axis": "y", "origin": [8, 9.875, 7.875]},
			"faces": {
				"north": {"uv": [2.875, 3.375, 3, 3.5], "texture": "#0"},
				"east": {"uv": [2.875, 3.375, 3, 3.5], "texture": "#0"},
				"south": {"uv": [2.875, 3.375, 3, 3.5], "texture": "#0"},
				"west": {"uv": [2.875, 3.375, 3, 3.5], "rotation": 180, "texture": "#0"},
				"up": {"uv": [2.875, 3.375, 3, 3.5], "texture": "#0"},
				"down": {"uv": [2.875, 3.375, 3, 3.5], "texture": "#0"}
			}
		},
		{
			"from": [21.68198, 19.63984, 2.8001],
			"to": [22.18198, 21.03984, 3.0001],
			"rotation": {"angle": 45, "axis": "z", "origin": [16.68198, 11.03984, 3.5]},
			"faces": {
				"north": {"uv": [9.375, 9.875, 9.625, 10.15], "texture": "#0"},
				"east": {"uv": [9.375, 9.875, 9.625, 10.15], "texture": "#0"},
				"south": {"uv": [9.375, 9.875, 9.625, 10.15], "texture": "#0"},
				"west": {"uv": [9.375, 9.875, 9.625, 10.15], "texture": "#0"},
				"up": {"uv": [9.375, 9.875, 9.625, 10.15], "texture": "#0"},
				"down": {"uv": [9.375, 9.875, 9.625, 10.15], "texture": "#0"}
			}
		},
		{
			"from": [-6.18198, 19.63984, 2.8001],
			"to": [-5.68198, 21.03984, 3.0001],
			"rotation": {"angle": -45, "axis": "z", "origin": [-0.68198, 11.03984, 3.5]},
			"faces": {
				"north": {"uv": [9.375, 9.875, 9.625, 10.15], "texture": "#0"},
				"east": {"uv": [9.375, 9.875, 9.625, 10.15], "texture": "#0"},
				"south": {"uv": [9.375, 9.875, 9.625, 10.15], "texture": "#0"},
				"west": {"uv": [9.375, 9.875, 9.625, 10.15], "texture": "#0"},
				"up": {"uv": [9.375, 9.875, 9.625, 10.15], "texture": "#0"},
				"down": {"uv": [9.375, 9.875, 9.625, 10.15], "texture": "#0"}
			}
		},
		{
			"from": [9.89914, -0.6631, 2.8001],
			"to": [10.39914, 0.7369, 3.0001],
			"rotation": {"angle": 45, "axis": "z", "origin": [5.39914, -9.2631, 3.5]},
			"faces": {
				"north": {"uv": [9.375, 9.875, 9.625, 10.15], "texture": "#0"},
				"east": {"uv": [9.375, 9.875, 9.625, 10.15], "texture": "#0"},
				"south": {"uv": [9.375, 9.875, 9.625, 10.15], "texture": "#0"},
				"west": {"uv": [9.375, 9.875, 9.625, 10.15], "texture": "#0"},
				"up": {"uv": [9.375, 9.875, 9.625, 10.15], "texture": "#0"},
				"down": {"uv": [9.375, 9.875, 9.625, 10.15], "texture": "#0"}
			}
		},
		{
			"from": [5.60086, -0.6631, 2.8001],
			"to": [6.10086, 0.7369, 3.0001],
			"rotation": {"angle": -45, "axis": "z", "origin": [10.60086, -9.2631, 3.5]},
			"faces": {
				"north": {"uv": [9.375, 9.875, 9.625, 10.15], "texture": "#0"},
				"east": {"uv": [9.375, 9.875, 9.625, 10.15], "texture": "#0"},
				"south": {"uv": [9.375, 9.875, 9.625, 10.15], "texture": "#0"},
				"west": {"uv": [9.375, 9.875, 9.625, 10.15], "texture": "#0"},
				"up": {"uv": [9.375, 9.875, 9.625, 10.15], "texture": "#0"},
				"down": {"uv": [9.375, 9.875, 9.625, 10.15], "texture": "#0"}
			}
		},
		{
			"from": [2.5, 21.5, 2.8],
			"to": [13.5, 22, 3],
			"rotation": {"angle": 0, "axis": "y", "origin": [20.5, 29, 10]},
			"faces": {
				"north": {"uv": [9.375, 9.875, 9.625, 10.15], "texture": "#0"},
				"east": {"uv": [9.375, 9.875, 9.625, 10.15], "texture": "#0"},
				"south": {"uv": [9.375, 9.875, 9.625, 10.15], "texture": "#0"},
				"west": {"uv": [9.375, 9.875, 9.625, 10.15], "texture": "#0"},
				"up": {"uv": [9.375, 9.875, 9.625, 10.15], "texture": "#0"},
				"down": {"uv": [9.375, 9.875, 9.625, 10.15], "texture": "#0"}
			}
		},
		{
			"from": [2.5, 0, 2.8],
			"to": [13.5, 0.5, 3],
			"rotation": {"angle": 0, "axis": "y", "origin": [20.5, 8, 10]},
			"faces": {
				"north": {"uv": [9.375, 9.875, 9.625, 10.15], "texture": "#0"},
				"east": {"uv": [9.375, 9.875, 9.625, 10.15], "texture": "#0"},
				"south": {"uv": [9.375, 9.875, 9.625, 10.15], "texture": "#0"},
				"west": {"uv": [9.375, 9.875, 9.625, 10.15], "texture": "#0"},
				"up": {"uv": [9.375, 9.875, 9.625, 10.15], "texture": "#0"},
				"down": {"uv": [9.375, 9.875, 9.625, 10.15], "texture": "#0"}
			}
		},
		{
			"from": [1.51005, 1.01005, 2.8],
			"to": [2.01005, 21.01005, 3],
			"rotation": {"angle": 0, "axis": "y", "origin": [20.51005, 7.01005, 11]},
			"faces": {
				"north": {"uv": [9.375, 9.875, 9.625, 10.15], "texture": "#0"},
				"east": {"uv": [9.375, 9.875, 9.625, 10.15], "texture": "#0"},
				"south": {"uv": [9.375, 9.875, 9.625, 10.15], "texture": "#0"},
				"west": {"uv": [9.375, 9.875, 9.625, 10.15], "texture": "#0"},
				"up": {"uv": [9.375, 9.875, 9.625, 10.15], "texture": "#0"},
				"down": {"uv": [9.375, 9.875, 9.625, 10.15], "texture": "#0"}
			}
		},
		{
			"from": [13.98995, 1.01005, 2.8],
			"to": [14.48995, 21.01005, 3],
			"rotation": {"angle": 0, "axis": "y", "origin": [-4.51005, 7.01005, 11]},
			"faces": {
				"north": {"uv": [9.375, 9.875, 9.625, 10.15], "texture": "#0"},
				"east": {"uv": [9.375, 9.875, 9.625, 10.15], "texture": "#0"},
				"south": {"uv": [9.375, 9.875, 9.625, 10.15], "texture": "#0"},
				"west": {"uv": [9.375, 9.875, 9.625, 10.15], "texture": "#0"},
				"up": {"uv": [9.375, 9.875, 9.625, 10.15], "texture": "#0"},
				"down": {"uv": [9.375, 9.875, 9.625, 10.15], "texture": "#0"}
			}
		},
		{
			"from": [8.7, 18.575, 3],
			"to": [9.7, 18.625, 3],
			"rotation": {"angle": -45, "axis": "z", "origin": [7.2, 18.8, 3.25]},
			"faces": {
				"north": {"uv": [0.875, 9.875, 1, 10], "texture": "#0"},
				"east": {"uv": [0.875, 9.875, 1, 10], "texture": "#0"},
				"south": {"uv": [2.875, 8.25, 3, 8.375], "texture": "#0"},
				"west": {"uv": [0.875, 9.875, 1, 10], "texture": "#0"},
				"up": {"uv": [0.875, 9.875, 1, 10], "texture": "#0"},
				"down": {"uv": [0.875, 9.875, 1, 10], "texture": "#0"}
			}
		},
		{
			"from": [7.8, 17.875, 3],
			"to": [9.8, 17.925, 3],
			"rotation": {"angle": -45, "axis": "z", "origin": [7.3, 18.1, 3.25]},
			"faces": {
				"north": {"uv": [0.875, 9.875, 1, 10], "texture": "#0"},
				"east": {"uv": [0.875, 9.875, 1, 10], "texture": "#0"},
				"south": {"uv": [2.875, 8.25, 3, 8.375], "texture": "#0"},
				"west": {"uv": [0.875, 9.875, 1, 10], "texture": "#0"},
				"up": {"uv": [0.875, 9.875, 1, 10], "texture": "#0"},
				"down": {"uv": [0.875, 9.875, 1, 10], "texture": "#0"}
			}
		},
		{
			"from": [7.2, 18.375, 3],
			"to": [8.8, 18.425, 3],
			"rotation": {"angle": -45, "axis": "z", "origin": [6.3, 18.6, 3.25]},
			"faces": {
				"north": {"uv": [0.875, 9.875, 1, 10], "texture": "#0"},
				"east": {"uv": [0.875, 9.875, 1, 10], "texture": "#0"},
				"south": {"uv": [2.875, 8.25, 3, 8.375], "texture": "#0"},
				"west": {"uv": [0.875, 9.875, 1, 10], "texture": "#0"},
				"up": {"uv": [0.875, 9.875, 1, 10], "texture": "#0"},
				"down": {"uv": [0.875, 9.875, 1, 10], "texture": "#0"}
			}
		}
	],
	"display": {
		"thirdperson_righthand": {
			"rotation": [0, -90, 0],
			"translation": [-1.5, -5, 2.5]
		},
		"thirdperson_lefthand": {
			"rotation": [0, -90, 0],
			"translation": [-1.5, -5, 2.5]
		},
		"firstperson_righthand": {
			"rotation": [0, -87, 0],
			"translation": [-2.5, -5.25, 1.25]
		},
		"firstperson_lefthand": {
			"rotation": [0, -87, 0],
			"translation": [-2.5, -5.25, 1.25]
		},
		"ground": {
			"rotation": [-90, 0, 0],
			"translation": [0, 2, 0]
		},
		"gui": {
			"rotation": [0, -180, 44],
			"translation": [-1, -1.25, 0],
			"scale": [0.6, 0.6, 0.6]
		},
		"head": {
			"translation": [0, -18.75, 0.5],
			"scale": [2, 2, 2]
		},
		"fixed": {
			"translation": [0, -3, 3]
		}
	}
}