{
	"credit": "Made with Blockbench",
	"texture_size": [32, 32],
	"textures": {
		"2": "gci:items/bonesword_short"
	},
	"elements": [
		{
			"from": [7.45, -3.95, 8.65],
			"to": [8.55, 2.35, 10.75],
			"rotation": {"angle": 22.5, "axis": "x", "origin": [8, 5.75717, 9.3]},
			"faces": {
				"north": {"uv": [4, 6, 4.5, 9], "texture": "#2"},
				"east": {"uv": [4, 0, 5, 3], "texture": "#2"},
				"south": {"uv": [4.5, 6, 5, 9], "texture": "#2"},
				"west": {"uv": [4, 3, 5, 6], "texture": "#2"},
				"up": {"uv": [8, 2.5, 7.5, 1.5], "texture": "#2"},
				"down": {"uv": [2.5, 7.5, 2, 8.5], "texture": "#2"}
			}
		},
		{
			"from": [7.05, -4.56064, 4.08984],
			"to": [8.95, -2.26064, 6.18984],
			"rotation": {"angle": 45, "axis": "x", "origin": [8, -3.41064, 5.13984]},
			"faces": {
				"north": {"uv": [6.5, 0, 7.5, 1], "texture": "#2"},
				"east": {"uv": [6.5, 1, 7.5, 2], "texture": "#2"},
				"south": {"uv": [2, 6.5, 3, 7.5], "texture": "#2"},
				"west": {"uv": [6.5, 2, 7.5, 3], "texture": "#2"},
				"up": {"uv": [4, 7.5, 3, 6.5], "texture": "#2"},
				"down": {"uv": [7.5, 3, 6.5, 4], "texture": "#2"}
			}
		},
		{
			"from": [7.85, 2.15, 8.35],
			"to": [8.15, 10.45, 9.45],
			"rotation": {"angle": 0, "axis": "y", "origin": [8, 5.55717, 8]},
			"faces": {
				"north": {"uv": [9, 3.5, 9.5, 7.5], "texture": "#2"},
				"east": {"uv": [9.5, 3.5, 10, 7.5], "texture": "#2"},
				"south": {"uv": [10, 3.5, 10.5, 7.5], "texture": "#2"},
				"west": {"uv": [8.5, 3.5, 9, 7.5], "texture": "#2"},
				"up": {"uv": [8.5, 3.5, 8, 3], "texture": "#2"},
				"down": {"uv": [8.5, 3.5, 8, 4], "texture": "#2"}
			}
		},
		{
			"from": [7.75, 5.55, 7.45],
			"to": [8.25, 10.85, 8.55],
			"rotation": {"angle": 0, "axis": "y", "origin": [8, 2.45717, 8]},
			"faces": {
				"north": {"uv": [3.5, 0, 4, 6.5], "texture": "#2"},
				"east": {"uv": [0.5, 5.5, 1, 8], "texture": "#2"},
				"south": {"uv": [1, 3.5, 1.5, 10], "texture": "#2"},
				"west": {"uv": [1.5, 5.5, 2, 8], "texture": "#2"},
				"up": {"uv": [8.5, 7.5, 8, 7], "texture": "#2"},
				"down": {"uv": [8.5, 7.5, 8, 8], "texture": "#2"}
			}
		},
		{
			"from": [7.85, 2.15, 7.25],
			"to": [8.15, 5.15, 8.35],
			"rotation": {"angle": 0, "axis": "y", "origin": [8, 5.55717, 8]},
			"faces": {
				"north": {"uv": [11.5, 1.5, 12, 2.5], "texture": "#2"},
				"east": {"uv": [11, 1.5, 11.5, 2.5], "texture": "#2"},
				"south": {"uv": [12, 1.5, 12.5, 2.5], "texture": "#2"},
				"west": {"uv": [10.5, 1.5, 11, 2.5], "texture": "#2"},
				"up": {"uv": [13, 0.5, 12.5, 0], "texture": "#2"},
				"down": {"uv": [13, 0.5, 12.5, 1], "texture": "#2"}
			}
		},
		{
			"from": [7.395, -4.265, 8.545],
			"to": [8.605, 2.665, 10.855],
			"rotation": {"angle": 22.5, "axis": "x", "origin": [8, 5.75717, 9.3]},
			"faces": {
				"north": {"uv": [6, 0, 6.5, 3.5], "texture": "#2"},
				"east": {"uv": [0, 0, 1, 3.5], "texture": "#2"},
				"south": {"uv": [6, 3.5, 6.5, 7], "texture": "#2"},
				"west": {"uv": [1, 0, 2, 3.5], "texture": "#2"},
				"up": {"uv": [3, 8.5, 2.5, 7.5], "texture": "#2"},
				"down": {"uv": [8, 2.5, 7.5, 3.5], "texture": "#2"}
			}
		},
		{
			"from": [7.95, 11.28033, 7.35208],
			"to": [8.05, 13.73033, 8.30208],
			"rotation": {"angle": 45, "axis": "x", "origin": [8, 12.50533, 7.82708]},
			"faces": {
				"north": {"uv": [3, 7.5, 3.5, 8.5], "texture": "#2"},
				"east": {"uv": [3.5, 7.5, 4, 8.5], "texture": "#2"},
				"south": {"uv": [7.5, 3.5, 8, 4.5], "texture": "#2"},
				"west": {"uv": [7.5, 4.5, 8, 5.5], "texture": "#2"},
				"up": {"uv": [8.5, 4.5, 8, 4], "texture": "#2"},
				"down": {"uv": [8.5, 4.5, 8, 5], "texture": "#2"}
			}
		},
		{
			"from": [7.85, 6.79874, 14.6642],
			"to": [8.15, 9.24874, 16.3142],
			"rotation": {"angle": -45, "axis": "x", "origin": [8, 1.55717, 8]},
			"faces": {
				"north": {"uv": [7.5, 7.5, 8, 8.5], "texture": "#2"},
				"east": {"uv": [6.5, 4, 7.5, 5], "texture": "#2"},
				"south": {"uv": [8, 0, 8.5, 1], "texture": "#2"},
				"west": {"uv": [6.5, 5, 7.5, 6], "texture": "#2"},
				"up": {"uv": [8.5, 2, 8, 1], "texture": "#2"},
				"down": {"uv": [8.5, 2, 8, 3], "texture": "#2"}
			}
		},
		{
			"from": [7.95, 6.525, 6.625],
			"to": [8.05, 11.975, 7.575],
			"rotation": {"angle": 0, "axis": "y", "origin": [8, 5.55717, 8]},
			"faces": {
				"north": {"uv": [5, 0.5, 5.5, 3], "texture": "#2"},
				"east": {"uv": [5, 4.5, 5.5, 7], "texture": "#2"},
				"south": {"uv": [5.5, 0.5, 6, 3], "texture": "#2"},
				"west": {"uv": [5.5, 4.5, 6, 7], "texture": "#2"},
				"up": {"uv": [5.5, 8.5, 5, 8], "texture": "#2"},
				"down": {"uv": [8.5, 5, 8, 5.5], "texture": "#2"}
			}
		},
		{
			"from": [7.95, 4.52752, 7.10004],
			"to": [8.05, 6.97752, 8.05004],
			"rotation": {"angle": -22.5, "axis": "x", "origin": [8, 5.55717, 8]},
			"faces": {
				"north": {"uv": [7.5, 5.5, 8, 6.5], "texture": "#2"},
				"east": {"uv": [6.5, 7.5, 7, 8.5], "texture": "#2"},
				"south": {"uv": [7.5, 6.5, 8, 7.5], "texture": "#2"},
				"west": {"uv": [7, 7.5, 7.5, 8.5], "texture": "#2"},
				"up": {"uv": [6, 8.5, 5.5, 8], "texture": "#2"},
				"down": {"uv": [8.5, 5.5, 8, 6], "texture": "#2"}
			}
		}
	],
	"display": {
		"thirdperson_righthand": {
			"rotation": [-18, 0, 0],
			"translation": [0, 6.25, -0.5]
		},
		"thirdperson_lefthand": {
			"rotation": [-18, 0, 0],
			"translation": [0, 6.25, -0.5]
		},
		"firstperson_righthand": {
			"rotation": [-38.61, 2.79, 5.21],
			"translation": [0, 8, -1.5]
		},
		"firstperson_lefthand": {
			"rotation": [-38.61, 2.79, 5.21],
			"translation": [0, 8, -1.5]
		},
		"ground": {
			"translation": [0, 7.75, 0],
			"scale": [0.8, 0.8, 0.8]
		},
		"gui": {
			"rotation": [-90, 35.5, 90],
			"translation": [-2, 3.25, 0]
		},
		"fixed": {
			"rotation": [-90, -49.25, 90],
			"translation": [-2, -1.5, -1.5]
		}
	}
}