{
	"credit": "Made with Blockbench",
	"parent": "item/generated",
	"textures": {
		"layer0": "gci:items/simple/hook_pudge"
	},
	"display": {
		"thirdperson_righthand": {
			"rotation": [0, -90, 30],
			"translation": [0, 5.75, 1.75],
			"scale": [0.85, 0.85, 0.85]
		},
		"thirdperson_lefthand": {
			"rotation": [0, -90, 30],
			"translation": [0, 3, -3.5],
			"scale": [0.85, 0.85, 0.85]
		},
		"fixed": {
			"translation": [0, 0, -1.5],
			"scale": [0.85, 0.85, 0.85]
		}
	}
}