{
  "parent": "item/generated",
  "textures": {
    "layer0": "gci:items/simple/joint"
  },

"display": {
    "thirdperson_righthand": {
        "rotation": [ 356, 284, 328 ],
        "translation": [ -0.25, 1.75, 0.25 ],
        "scale": [ 0.25, 0.37, 0.93 ]
    },
    "thirdperson_lefthand": {
      "rotation": [ 356, 284, 328 ],
      "translation": [ -0.25, 1.75, 0.25 ],
      "scale": [ 0.25, 0.37, 0.93 ]
    },
    "firstperson_righthand": {
        "rotation": [ -25, -90, 0 ],
        "translation": [ 1.13, 3.20, 1.13 ],
        "scale": [ 0.68, 0.68, 0.68 ]
    }
  }
}

