{
	"credit": "Made with Blockbench",
	"textures": {
		"0": "gci:items/common/mpz",
		"particle": "gci:items/common/mpz"
	},
	"elements": [
		{
			"from": [7.87782, 6.39633, 11.01884],
			"to": [8.27782, 9.99633, 11.41884],
			"rotation": {"angle": -22.5, "axis": "x", "origin": [8.07782, 9.19633, 11.21884]},
			"faces": {
				"north": {"uv": [6, 11, 7, 13], "rotation": 180, "texture": "#0"},
				"east": {"uv": [6, 11, 7, 13], "rotation": 180, "texture": "#0"},
				"south": {"uv": [6, 11, 7, 13], "rotation": 180, "texture": "#0"},
				"west": {"uv": [6, 11, 7, 13], "rotation": 180, "texture": "#0"},
				"up": {"uv": [6, 11, 7, 13], "rotation": 180, "texture": "#0"},
				"down": {"uv": [6, 11, 7, 13], "rotation": 180, "texture": "#0"}
			}
		},
		{
			"from": [7.87782, 9.66546, 10.12854],
			"to": [8.27782, 10.06546, 11.02854],
			"rotation": {"angle": 22.5, "axis": "x", "origin": [8.07782, 9.86546, 10.92854]},
			"faces": {
				"north": {"uv": [6, 11, 7, 13], "rotation": 180, "texture": "#0"},
				"east": {"uv": [6, 11, 7, 13], "rotation": 180, "texture": "#0"},
				"south": {"uv": [6, 11, 7, 13], "rotation": 180, "texture": "#0"},
				"west": {"uv": [6, 11, 7, 13], "rotation": 180, "texture": "#0"},
				"up": {"uv": [6, 11, 7, 13], "rotation": 180, "texture": "#0"},
				"down": {"uv": [6, 11, 7, 13], "rotation": 180, "texture": "#0"}
			}
		},
		{
			"from": [7.87782, 5.92343, 11.78421],
			"to": [8.27782, 6.82343, 12.18421],
			"rotation": {"angle": 22.5, "axis": "x", "origin": [8.07782, 6.02343, 11.98421]},
			"faces": {
				"north": {"uv": [6, 11, 7, 13], "rotation": 180, "texture": "#0"},
				"east": {"uv": [6, 11, 7, 13], "rotation": 180, "texture": "#0"},
				"south": {"uv": [6, 11, 7, 13], "rotation": 180, "texture": "#0"},
				"west": {"uv": [6, 11, 7, 13], "rotation": 180, "texture": "#0"},
				"up": {"uv": [6, 11, 7, 13], "rotation": 180, "texture": "#0"},
				"down": {"uv": [6, 11, 7, 13], "rotation": 180, "texture": "#0"}
			}
		},
		{
			"from": [7.87782, 10.29298, 9.15815],
			"to": [8.27782, 10.69298, 10.35815],
			"rotation": {"angle": -22.5, "axis": "x", "origin": [8.37782, 10.29298, 11.15815]},
			"faces": {
				"north": {"uv": [6, 11, 7, 13], "rotation": 180, "texture": "#0"},
				"east": {"uv": [6, 11, 7, 13], "rotation": 180, "texture": "#0"},
				"south": {"uv": [6, 11, 7, 13], "rotation": 180, "texture": "#0"},
				"west": {"uv": [6, 11, 7, 13], "rotation": 180, "texture": "#0"},
				"up": {"uv": [6, 11, 7, 13], "rotation": 180, "texture": "#0"},
				"down": {"uv": [6, 11, 7, 13], "rotation": 180, "texture": "#0"}
			}
		},
		{
			"from": [7.87782, 6.16066, 10.86982],
			"to": [8.27782, 6.56066, 12.06982],
			"rotation": {"angle": -22.5, "axis": "x", "origin": [8.37782, 6.16066, 12.86982]},
			"faces": {
				"north": {"uv": [6, 11, 7, 13], "rotation": 180, "texture": "#0"},
				"east": {"uv": [6, 11, 7, 13], "rotation": 180, "texture": "#0"},
				"south": {"uv": [6, 11, 7, 13], "rotation": 180, "texture": "#0"},
				"west": {"uv": [6, 11, 7, 13], "rotation": 180, "texture": "#0"},
				"up": {"uv": [6, 11, 7, 13], "rotation": 180, "texture": "#0"},
				"down": {"uv": [6, 11, 7, 13], "rotation": 180, "texture": "#0"}
			}
		},
		{
			"from": [7.01421, 0, 8.98579],
			"to": [9.01421, 0.5, 14.98579],
			"rotation": {"angle": 0, "axis": "y", "origin": [8.01421, 0.25, 11.98579]},
			"faces": {
				"north": {"uv": [6, 11, 7, 13], "rotation": 90, "texture": "#0"},
				"east": {"uv": [6, 11, 7, 13], "rotation": 90, "texture": "#0"},
				"south": {"uv": [6, 11, 7, 13], "rotation": 90, "texture": "#0"},
				"west": {"uv": [6, 11, 7, 13], "rotation": 90, "texture": "#0"},
				"up": {"uv": [6, 11, 7, 13], "rotation": 90, "texture": "#0"},
				"down": {"uv": [6, 11, 7, 13], "rotation": 90, "texture": "#0"}
			}
		},
		{
			"from": [6.71421, 1.16708, 9.2531],
			"to": [9.31421, 1.66708, 13.9531],
			"rotation": {"angle": -22.5, "axis": "x", "origin": [8.01421, 1.41708, 12.2531]},
			"faces": {
				"north": {"uv": [6, 11, 7, 13], "rotation": 90, "texture": "#0"},
				"east": {"uv": [6, 11, 7, 13], "rotation": 90, "texture": "#0"},
				"south": {"uv": [6, 11, 7, 13], "rotation": 90, "texture": "#0"},
				"west": {"uv": [6, 11, 7, 13], "rotation": 90, "texture": "#0"},
				"up": {"uv": [6, 11, 7, 13], "rotation": 90, "texture": "#0"},
				"down": {"uv": [6, 11, 7, 13], "rotation": 90, "texture": "#0"}
			}
		},
		{
			"from": [6.71421, 0.43667, 13.61936],
			"to": [7.01421, 1.83667, 13.91936],
			"rotation": {"angle": 0, "axis": "y", "origin": [10.71421, 1.58667, 16.61936]},
			"faces": {
				"north": {"uv": [6, 11, 7, 13], "rotation": 90, "texture": "#0"},
				"east": {"uv": [6, 11, 7, 13], "rotation": 90, "texture": "#0"},
				"south": {"uv": [6, 11, 7, 13], "rotation": 90, "texture": "#0"},
				"west": {"uv": [6, 11, 7, 13], "rotation": 90, "texture": "#0"},
				"up": {"uv": [6, 11, 7, 13], "rotation": 90, "texture": "#0"},
				"down": {"uv": [6, 11, 7, 13], "rotation": 90, "texture": "#0"}
			}
		},
		{
			"from": [9.01421, 0.43667, 13.61936],
			"to": [9.31421, 1.83667, 13.91936],
			"rotation": {"angle": 0, "axis": "y", "origin": [14.61421, 1.58667, 16.61936]},
			"faces": {
				"north": {"uv": [6, 11, 7, 13], "rotation": 90, "texture": "#0"},
				"east": {"uv": [6, 11, 7, 13], "rotation": 90, "texture": "#0"},
				"south": {"uv": [6, 11, 7, 13], "rotation": 90, "texture": "#0"},
				"west": {"uv": [6, 11, 7, 13], "rotation": 90, "texture": "#0"},
				"up": {"uv": [6, 11, 7, 13], "rotation": 90, "texture": "#0"},
				"down": {"uv": [6, 11, 7, 13], "rotation": 90, "texture": "#0"}
			}
		},
		{
			"from": [7.91421, 0.43667, 13.61936],
			"to": [8.21421, 1.83667, 13.91936],
			"rotation": {"angle": 0, "axis": "y", "origin": [14.61421, 1.58667, 16.61936]},
			"faces": {
				"north": {"uv": [6, 11, 7, 13], "rotation": 90, "texture": "#0"},
				"east": {"uv": [6, 11, 7, 13], "rotation": 90, "texture": "#0"},
				"south": {"uv": [6, 11, 7, 13], "rotation": 90, "texture": "#0"},
				"west": {"uv": [6, 11, 7, 13], "rotation": 90, "texture": "#0"},
				"up": {"uv": [6, 11, 7, 13], "rotation": 90, "texture": "#0"},
				"down": {"uv": [6, 11, 7, 13], "rotation": 90, "texture": "#0"}
			}
		},
		{
			"from": [5.01421, 0, 10.98579],
			"to": [11.01421, 0.5, 12.98579],
			"rotation": {"angle": 0, "axis": "y", "origin": [8.01421, 0.25, 11.98579]},
			"faces": {
				"north": {"uv": [6, 11, 7, 13], "rotation": 270, "texture": "#0"},
				"east": {"uv": [6, 11, 7, 13], "rotation": 270, "texture": "#0"},
				"south": {"uv": [6, 11, 7, 13], "rotation": 270, "texture": "#0"},
				"west": {"uv": [6, 11, 7, 13], "rotation": 270, "texture": "#0"},
				"up": {"uv": [6, 11, 7, 13], "rotation": 270, "texture": "#0"},
				"down": {"uv": [6, 11, 7, 13], "rotation": 270, "texture": "#0"}
			}
		},
		{
			"from": [4.84264, 0, 8.57157],
			"to": [7.67264, 0.5, 10.57157],
			"rotation": {"angle": 45, "axis": "y", "origin": [7.84264, 0.25, 9.57157]},
			"faces": {
				"north": {"uv": [6, 11, 7, 13], "rotation": 270, "texture": "#0"},
				"east": {"uv": [6, 11, 7, 13], "rotation": 270, "texture": "#0"},
				"south": {"uv": [6, 11, 7, 13], "rotation": 270, "texture": "#0"},
				"west": {"uv": [6, 11, 7, 13], "rotation": 270, "texture": "#0"},
				"up": {"uv": [6, 11, 7, 13], "rotation": 270, "texture": "#0"},
				"down": {"uv": [6, 11, 7, 13], "rotation": 270, "texture": "#0"}
			}
		},
		{
			"from": [7.42843, 0, 11.15736],
			"to": [10.25843, 0.5, 13.15736],
			"rotation": {"angle": 45, "axis": "y", "origin": [10.42843, 0.25, 12.15736]},
			"faces": {
				"north": {"uv": [6, 11, 7, 13], "rotation": 270, "texture": "#0"},
				"east": {"uv": [6, 11, 7, 13], "rotation": 270, "texture": "#0"},
				"south": {"uv": [6, 11, 7, 13], "rotation": 270, "texture": "#0"},
				"west": {"uv": [6, 11, 7, 13], "rotation": 270, "texture": "#0"},
				"up": {"uv": [6, 11, 7, 13], "rotation": 270, "texture": "#0"},
				"down": {"uv": [6, 11, 7, 13], "rotation": 270, "texture": "#0"}
			}
		},
		{
			"from": [5.18634, 0, 10.57023],
			"to": [7.18634, 0.5, 13.40023],
			"rotation": {"angle": 45, "axis": "y", "origin": [8.01477, 0.25, 11.98523]},
			"faces": {
				"north": {"uv": [6, 11, 7, 13], "rotation": 90, "texture": "#0"},
				"east": {"uv": [6, 11, 7, 13], "rotation": 90, "texture": "#0"},
				"south": {"uv": [6, 11, 7, 13], "rotation": 90, "texture": "#0"},
				"west": {"uv": [6, 11, 7, 13], "rotation": 90, "texture": "#0"},
				"up": {"uv": [6, 11, 7, 13], "rotation": 90, "texture": "#0"},
				"down": {"uv": [6, 11, 7, 13], "rotation": 90, "texture": "#0"}
			}
		},
		{
			"from": [8.8432, 0, 10.57023],
			"to": [10.8432, 0.5, 13.40023],
			"rotation": {"angle": 45, "axis": "y", "origin": [8.01477, 0.25, 11.98523]},
			"faces": {
				"north": {"uv": [6, 11, 7, 13], "rotation": 90, "texture": "#0"},
				"east": {"uv": [6, 11, 7, 13], "rotation": 90, "texture": "#0"},
				"south": {"uv": [6, 11, 7, 13], "rotation": 90, "texture": "#0"},
				"west": {"uv": [6, 11, 7, 13], "rotation": 90, "texture": "#0"},
				"up": {"uv": [6, 11, 7, 13], "rotation": 90, "texture": "#0"},
				"down": {"uv": [6, 11, 7, 13], "rotation": 90, "texture": "#0"}
			}
		},
		{
			"from": [7.51421, 0.74958, 7.22006],
			"to": [8.51421, 17.14958, 7.62006],
			"rotation": {"angle": -22.5, "axis": "x", "origin": [8.01726, 8.84958, 8.42412]},
			"faces": {
				"north": {"uv": [6, 11, 7, 13], "texture": "#0"},
				"east": {"uv": [6, 11, 7, 13], "texture": "#0"},
				"south": {"uv": [6, 11, 7, 13], "texture": "#0"},
				"west": {"uv": [6, 11, 7, 13], "texture": "#0"},
				"up": {"uv": [6, 11, 7, 13], "texture": "#0"},
				"down": {"uv": [6, 11, 7, 13], "texture": "#0"}
			}
		},
		{
			"from": [6.80711, 0.74958, 7.92716],
			"to": [7.20711, 17.14958, 8.92716],
			"rotation": {"angle": -22.5, "axis": "x", "origin": [8.01726, 8.84958, 8.42412]},
			"faces": {
				"north": {"uv": [6, 11, 7, 13], "texture": "#0"},
				"east": {"uv": [6, 11, 7, 13], "texture": "#0"},
				"south": {"uv": [6, 11, 7, 13], "texture": "#0"},
				"west": {"uv": [6, 11, 7, 13], "texture": "#0"},
				"up": {"uv": [6, 11, 7, 13], "texture": "#0"},
				"down": {"uv": [6, 11, 7, 13], "texture": "#0"}
			}
		},
		{
			"from": [7.51421, 0.74958, 9.23427],
			"to": [8.51421, 17.14958, 9.63427],
			"rotation": {"angle": -22.5, "axis": "x", "origin": [8.01726, 8.84958, 8.42412]},
			"faces": {
				"north": {"uv": [6, 11, 7, 13], "texture": "#0"},
				"east": {"uv": [6, 11, 7, 13], "texture": "#0"},
				"south": {"uv": [6, 11, 7, 13], "texture": "#0"},
				"west": {"uv": [6, 11, 7, 13], "texture": "#0"},
				"up": {"uv": [6, 11, 7, 13], "texture": "#0"},
				"down": {"uv": [6, 11, 7, 13], "texture": "#0"}
			}
		},
		{
			"from": [8.82132, 0.74958, 7.92716],
			"to": [9.22132, 17.14958, 8.92716],
			"rotation": {"angle": -22.5, "axis": "x", "origin": [8.01726, 8.84958, 8.42412]},
			"faces": {
				"north": {"uv": [6, 11, 7, 13], "texture": "#0"},
				"east": {"uv": [6, 11, 7, 13], "texture": "#0"},
				"south": {"uv": [6, 11, 7, 13], "texture": "#0"},
				"west": {"uv": [6, 11, 7, 13], "texture": "#0"},
				"up": {"uv": [6, 11, 7, 13], "texture": "#0"},
				"down": {"uv": [6, 11, 7, 13], "texture": "#0"}
			}
		},
		{
			"from": [7.41421, 0.74958, 7.32006],
			"to": [7.73421, 17.14958, 7.64006],
			"rotation": {"angle": -22.5, "axis": "x", "origin": [8.01726, 8.84958, 8.42412]},
			"faces": {
				"north": {"uv": [6, 11, 7, 13], "texture": "#0"},
				"east": {"uv": [6, 11, 7, 13], "texture": "#0"},
				"south": {"uv": [6, 11, 7, 13], "texture": "#0"},
				"west": {"uv": [6, 11, 7, 13], "texture": "#0"},
				"up": {"uv": [6, 11, 7, 13], "texture": "#0"},
				"down": {"uv": [6, 11, 7, 13], "texture": "#0"}
			}
		},
		{
			"from": [8.80132, 0.74958, 8.70716],
			"to": [9.12132, 17.14958, 9.02716],
			"rotation": {"angle": -22.5, "axis": "x", "origin": [8.01726, 8.84958, 8.42412]},
			"faces": {
				"north": {"uv": [6, 11, 7, 13], "texture": "#0"},
				"east": {"uv": [6, 11, 7, 13], "texture": "#0"},
				"south": {"uv": [6, 11, 7, 13], "texture": "#0"},
				"west": {"uv": [6, 11, 7, 13], "texture": "#0"},
				"up": {"uv": [6, 11, 7, 13], "texture": "#0"},
				"down": {"uv": [6, 11, 7, 13], "texture": "#0"}
			}
		},
		{
			"from": [7.31421, 0.74958, 7.42006],
			"to": [7.63421, 17.14958, 7.74006],
			"rotation": {"angle": -22.5, "axis": "x", "origin": [8.01726, 8.84958, 8.42412]},
			"faces": {
				"north": {"uv": [6, 11, 7, 13], "texture": "#0"},
				"east": {"uv": [6, 11, 7, 13], "texture": "#0"},
				"south": {"uv": [6, 11, 7, 13], "texture": "#0"},
				"west": {"uv": [6, 11, 7, 13], "texture": "#0"},
				"up": {"uv": [6, 11, 7, 13], "texture": "#0"},
				"down": {"uv": [6, 11, 7, 13], "texture": "#0"}
			}
		},
		{
			"from": [7.21421, 0.74958, 7.52006],
			"to": [7.53421, 17.14958, 7.84006],
			"rotation": {"angle": -22.5, "axis": "x", "origin": [8.01726, 8.84958, 8.42412]},
			"faces": {
				"north": {"uv": [6, 11, 7, 13], "texture": "#0"},
				"east": {"uv": [6, 11, 7, 13], "texture": "#0"},
				"south": {"uv": [6, 11, 7, 13], "texture": "#0"},
				"west": {"uv": [6, 11, 7, 13], "texture": "#0"},
				"up": {"uv": [6, 11, 7, 13], "texture": "#0"},
				"down": {"uv": [6, 11, 7, 13], "texture": "#0"}
			}
		},
		{
			"from": [7.11421, 0.74958, 7.62006],
			"to": [7.43421, 17.14958, 7.94006],
			"rotation": {"angle": -22.5, "axis": "x", "origin": [8.01726, 8.84958, 8.42412]},
			"faces": {
				"north": {"uv": [6, 11, 7, 13], "texture": "#0"},
				"east": {"uv": [6, 11, 7, 13], "texture": "#0"},
				"south": {"uv": [6, 11, 7, 13], "texture": "#0"},
				"west": {"uv": [6, 11, 7, 13], "texture": "#0"},
				"up": {"uv": [6, 11, 7, 13], "texture": "#0"},
				"down": {"uv": [6, 11, 7, 13], "texture": "#0"}
			}
		},
		{
			"from": [7.01421, 0.74958, 7.72006],
			"to": [7.33421, 17.14958, 8.04006],
			"rotation": {"angle": -22.5, "axis": "x", "origin": [8.01726, 8.84958, 8.42412]},
			"faces": {
				"north": {"uv": [6, 11, 7, 13], "texture": "#0"},
				"east": {"uv": [6, 11, 7, 13], "texture": "#0"},
				"south": {"uv": [6, 11, 7, 13], "texture": "#0"},
				"west": {"uv": [6, 11, 7, 13], "texture": "#0"},
				"up": {"uv": [6, 11, 7, 13], "texture": "#0"},
				"down": {"uv": [6, 11, 7, 13], "texture": "#0"}
			}
		},
		{
			"from": [6.91421, 0.74958, 7.82006],
			"to": [7.23421, 17.14958, 8.14006],
			"rotation": {"angle": -22.5, "axis": "x", "origin": [8.01726, 8.84958, 8.42412]},
			"faces": {
				"north": {"uv": [6, 11, 7, 13], "texture": "#0"},
				"east": {"uv": [6, 11, 7, 13], "texture": "#0"},
				"south": {"uv": [6, 11, 7, 13], "texture": "#0"},
				"west": {"uv": [6, 11, 7, 13], "texture": "#0"},
				"up": {"uv": [6, 11, 7, 13], "texture": "#0"},
				"down": {"uv": [6, 11, 7, 13], "texture": "#0"}
			}
		},
		{
			"from": [8.30132, 0.74958, 9.20716],
			"to": [8.62132, 17.14958, 9.52716],
			"rotation": {"angle": -22.5, "axis": "x", "origin": [8.01726, 8.84958, 8.42412]},
			"faces": {
				"north": {"uv": [6, 11, 7, 13], "texture": "#0"},
				"east": {"uv": [6, 11, 7, 13], "texture": "#0"},
				"south": {"uv": [6, 11, 7, 13], "texture": "#0"},
				"west": {"uv": [6, 11, 7, 13], "texture": "#0"},
				"up": {"uv": [6, 11, 7, 13], "texture": "#0"},
				"down": {"uv": [6, 11, 7, 13], "texture": "#0"}
			}
		},
		{
			"from": [8.40132, 0.74958, 9.10716],
			"to": [8.72132, 17.14958, 9.42716],
			"rotation": {"angle": -22.5, "axis": "x", "origin": [8.01726, 8.84958, 8.42412]},
			"faces": {
				"north": {"uv": [6, 11, 7, 13], "texture": "#0"},
				"east": {"uv": [6, 11, 7, 13], "texture": "#0"},
				"south": {"uv": [6, 11, 7, 13], "texture": "#0"},
				"west": {"uv": [6, 11, 7, 13], "texture": "#0"},
				"up": {"uv": [6, 11, 7, 13], "texture": "#0"},
				"down": {"uv": [6, 11, 7, 13], "texture": "#0"}
			}
		},
		{
			"from": [8.50132, 0.74958, 9.00716],
			"to": [8.82132, 17.14958, 9.32716],
			"rotation": {"angle": -22.5, "axis": "x", "origin": [8.01726, 8.84958, 8.42412]},
			"faces": {
				"north": {"uv": [6, 11, 7, 13], "texture": "#0"},
				"east": {"uv": [6, 11, 7, 13], "texture": "#0"},
				"south": {"uv": [6, 11, 7, 13], "texture": "#0"},
				"west": {"uv": [6, 11, 7, 13], "texture": "#0"},
				"up": {"uv": [6, 11, 7, 13], "texture": "#0"},
				"down": {"uv": [6, 11, 7, 13], "texture": "#0"}
			}
		},
		{
			"from": [8.60132, 0.74958, 8.90716],
			"to": [8.92132, 17.14958, 9.22716],
			"rotation": {"angle": -22.5, "axis": "x", "origin": [8.01726, 8.84958, 8.42412]},
			"faces": {
				"north": {"uv": [6, 11, 7, 13], "texture": "#0"},
				"east": {"uv": [6, 11, 7, 13], "texture": "#0"},
				"south": {"uv": [6, 11, 7, 13], "texture": "#0"},
				"west": {"uv": [6, 11, 7, 13], "texture": "#0"},
				"up": {"uv": [6, 11, 7, 13], "texture": "#0"},
				"down": {"uv": [6, 11, 7, 13], "texture": "#0"}
			}
		},
		{
			"from": [8.70132, 0.74958, 8.80716],
			"to": [9.02132, 17.14958, 9.12716],
			"rotation": {"angle": -22.5, "axis": "x", "origin": [8.01726, 8.84958, 8.42412]},
			"faces": {
				"north": {"uv": [6, 11, 7, 13], "texture": "#0"},
				"east": {"uv": [6, 11, 7, 13], "texture": "#0"},
				"south": {"uv": [6, 11, 7, 13], "texture": "#0"},
				"west": {"uv": [6, 11, 7, 13], "texture": "#0"},
				"up": {"uv": [6, 11, 7, 13], "texture": "#0"},
				"down": {"uv": [6, 11, 7, 13], "texture": "#0"}
			}
		},
		{
			"from": [7.41421, 0.74958, 9.20716],
			"to": [7.73421, 17.14958, 9.52716],
			"rotation": {"angle": -22.5, "axis": "x", "origin": [8.01726, 8.84958, 8.42412]},
			"faces": {
				"north": {"uv": [6, 11, 7, 13], "texture": "#0"},
				"east": {"uv": [6, 11, 7, 13], "texture": "#0"},
				"south": {"uv": [6, 11, 7, 13], "texture": "#0"},
				"west": {"uv": [6, 11, 7, 13], "texture": "#0"},
				"up": {"uv": [6, 11, 7, 13], "texture": "#0"},
				"down": {"uv": [6, 11, 7, 13], "texture": "#0"}
			}
		},
		{
			"from": [7.31421, 0.74958, 9.10716],
			"to": [7.63421, 17.14958, 9.42716],
			"rotation": {"angle": -22.5, "axis": "x", "origin": [8.01726, 8.84958, 8.42412]},
			"faces": {
				"north": {"uv": [6, 11, 7, 13], "texture": "#0"},
				"east": {"uv": [6, 11, 7, 13], "texture": "#0"},
				"south": {"uv": [6, 11, 7, 13], "texture": "#0"},
				"west": {"uv": [6, 11, 7, 13], "texture": "#0"},
				"up": {"uv": [6, 11, 7, 13], "texture": "#0"},
				"down": {"uv": [6, 11, 7, 13], "texture": "#0"}
			}
		},
		{
			"from": [7.21421, 0.74958, 9.00716],
			"to": [7.53421, 17.14958, 9.32716],
			"rotation": {"angle": -22.5, "axis": "x", "origin": [8.01726, 8.84958, 8.42412]},
			"faces": {
				"north": {"uv": [6, 11, 7, 13], "texture": "#0"},
				"east": {"uv": [6, 11, 7, 13], "texture": "#0"},
				"south": {"uv": [6, 11, 7, 13], "texture": "#0"},
				"west": {"uv": [6, 11, 7, 13], "texture": "#0"},
				"up": {"uv": [6, 11, 7, 13], "texture": "#0"},
				"down": {"uv": [6, 11, 7, 13], "texture": "#0"}
			}
		},
		{
			"from": [7.11421, 0.74958, 8.90716],
			"to": [7.43421, 17.14958, 9.22716],
			"rotation": {"angle": -22.5, "axis": "x", "origin": [8.01726, 8.84958, 8.42412]},
			"faces": {
				"north": {"uv": [6, 11, 7, 13], "texture": "#0"},
				"east": {"uv": [6, 11, 7, 13], "texture": "#0"},
				"south": {"uv": [6, 11, 7, 13], "texture": "#0"},
				"west": {"uv": [6, 11, 7, 13], "texture": "#0"},
				"up": {"uv": [6, 11, 7, 13], "texture": "#0"},
				"down": {"uv": [6, 11, 7, 13], "texture": "#0"}
			}
		},
		{
			"from": [7.01421, 0.74958, 8.80716],
			"to": [7.33421, 17.14958, 9.12716],
			"rotation": {"angle": -22.5, "axis": "x", "origin": [8.01726, 8.84958, 8.42412]},
			"faces": {
				"north": {"uv": [6, 11, 7, 13], "texture": "#0"},
				"east": {"uv": [6, 11, 7, 13], "texture": "#0"},
				"south": {"uv": [6, 11, 7, 13], "texture": "#0"},
				"west": {"uv": [6, 11, 7, 13], "texture": "#0"},
				"up": {"uv": [6, 11, 7, 13], "texture": "#0"},
				"down": {"uv": [6, 11, 7, 13], "texture": "#0"}
			}
		},
		{
			"from": [6.91421, 0.74958, 8.70716],
			"to": [7.23421, 17.14958, 9.02716],
			"rotation": {"angle": -22.5, "axis": "x", "origin": [8.01726, 8.84958, 8.42412]},
			"faces": {
				"north": {"uv": [6, 11, 7, 13], "texture": "#0"},
				"east": {"uv": [6, 11, 7, 13], "texture": "#0"},
				"south": {"uv": [6, 11, 7, 13], "texture": "#0"},
				"west": {"uv": [6, 11, 7, 13], "texture": "#0"},
				"up": {"uv": [6, 11, 7, 13], "texture": "#0"},
				"down": {"uv": [6, 11, 7, 13], "texture": "#0"}
			}
		},
		{
			"from": [8.80132, 0.74958, 7.82006],
			"to": [9.12132, 17.14958, 8.14006],
			"rotation": {"angle": -22.5, "axis": "x", "origin": [8.01726, 8.84958, 8.42412]},
			"faces": {
				"north": {"uv": [6, 11, 7, 13], "texture": "#0"},
				"east": {"uv": [6, 11, 7, 13], "texture": "#0"},
				"south": {"uv": [6, 11, 7, 13], "texture": "#0"},
				"west": {"uv": [6, 11, 7, 13], "texture": "#0"},
				"up": {"uv": [6, 11, 7, 13], "texture": "#0"},
				"down": {"uv": [6, 11, 7, 13], "texture": "#0"}
			}
		},
		{
			"from": [8.70132, 0.74958, 7.72006],
			"to": [9.02132, 17.14958, 8.04006],
			"rotation": {"angle": -22.5, "axis": "x", "origin": [8.01726, 8.84958, 8.42412]},
			"faces": {
				"north": {"uv": [6, 11, 7, 13], "texture": "#0"},
				"east": {"uv": [6, 11, 7, 13], "texture": "#0"},
				"south": {"uv": [6, 11, 7, 13], "texture": "#0"},
				"west": {"uv": [6, 11, 7, 13], "texture": "#0"},
				"up": {"uv": [6, 11, 7, 13], "texture": "#0"},
				"down": {"uv": [6, 11, 7, 13], "texture": "#0"}
			}
		},
		{
			"from": [8.60132, 0.74958, 7.62006],
			"to": [8.92132, 17.14958, 7.94006],
			"rotation": {"angle": -22.5, "axis": "x", "origin": [8.01726, 8.84958, 8.42412]},
			"faces": {
				"north": {"uv": [6, 11, 7, 13], "texture": "#0"},
				"east": {"uv": [6, 11, 7, 13], "texture": "#0"},
				"south": {"uv": [6, 11, 7, 13], "texture": "#0"},
				"west": {"uv": [6, 11, 7, 13], "texture": "#0"},
				"up": {"uv": [6, 11, 7, 13], "texture": "#0"},
				"down": {"uv": [6, 11, 7, 13], "texture": "#0"}
			}
		},
		{
			"from": [8.50132, 0.74958, 7.52006],
			"to": [8.82132, 17.14958, 7.84006],
			"rotation": {"angle": -22.5, "axis": "x", "origin": [8.01726, 8.84958, 8.42412]},
			"faces": {
				"north": {"uv": [6, 11, 7, 13], "texture": "#0"},
				"east": {"uv": [6, 11, 7, 13], "texture": "#0"},
				"south": {"uv": [6, 11, 7, 13], "texture": "#0"},
				"west": {"uv": [6, 11, 7, 13], "texture": "#0"},
				"up": {"uv": [6, 11, 7, 13], "texture": "#0"},
				"down": {"uv": [6, 11, 7, 13], "texture": "#0"}
			}
		},
		{
			"from": [8.40132, 0.74958, 7.42006],
			"to": [8.72132, 17.14958, 7.74006],
			"rotation": {"angle": -22.5, "axis": "x", "origin": [8.01726, 8.84958, 8.42412]},
			"faces": {
				"north": {"uv": [6, 11, 7, 13], "texture": "#0"},
				"east": {"uv": [6, 11, 7, 13], "texture": "#0"},
				"south": {"uv": [6, 11, 7, 13], "texture": "#0"},
				"west": {"uv": [6, 11, 7, 13], "texture": "#0"},
				"up": {"uv": [6, 11, 7, 13], "texture": "#0"},
				"down": {"uv": [6, 11, 7, 13], "texture": "#0"}
			}
		},
		{
			"from": [8.30132, 0.74958, 7.32006],
			"to": [8.62132, 17.14958, 7.64006],
			"rotation": {"angle": -22.5, "axis": "x", "origin": [8.01726, 8.84958, 8.42412]},
			"faces": {
				"north": {"uv": [6, 11, 7, 13], "texture": "#0"},
				"east": {"uv": [6, 11, 7, 13], "texture": "#0"},
				"south": {"uv": [6, 11, 7, 13], "texture": "#0"},
				"west": {"uv": [6, 11, 7, 13], "texture": "#0"},
				"up": {"uv": [6, 11, 7, 13], "texture": "#0"},
				"down": {"uv": [6, 11, 7, 13], "texture": "#0"}
			}
		},
		{
			"from": [9.05061, 12.99298, 5.75815],
			"to": [9.45061, 13.39298, 6.65815],
			"rotation": {"angle": 0, "axis": "y", "origin": [9.25061, 13.19298, 6.20815]},
			"faces": {
				"north": {"uv": [6, 11, 7, 13], "texture": "#0"},
				"east": {"uv": [6, 11, 7, 13], "texture": "#0"},
				"south": {"uv": [6, 11, 7, 13], "texture": "#0"},
				"west": {"uv": [6, 11, 7, 13], "texture": "#0"},
				"up": {"uv": [6, 11, 7, 13], "texture": "#0"},
				"down": {"uv": [6, 11, 7, 13], "texture": "#0"}
			}
		},
		{
			"from": [8.79099, 12.99298, 5.13138],
			"to": [9.19099, 13.39298, 6.03138],
			"rotation": {"angle": 45, "axis": "y", "origin": [8.99099, 13.19298, 5.58138]},
			"faces": {
				"north": {"uv": [6, 11, 7, 13], "rotation": 180, "texture": "#0"},
				"east": {"uv": [6, 11, 7, 13], "rotation": 180, "texture": "#0"},
				"south": {"uv": [6, 11, 7, 13], "rotation": 180, "texture": "#0"},
				"west": {"uv": [6, 11, 7, 13], "rotation": 180, "texture": "#0"},
				"up": {"uv": [6, 11, 7, 13], "rotation": 180, "texture": "#0"},
				"down": {"uv": [6, 11, 7, 13], "rotation": 180, "texture": "#0"}
			}
		},
		{
			"from": [7.21421, 12.99298, 5.12176],
			"to": [8.81421, 13.39298, 5.52176],
			"rotation": {"angle": 0, "axis": "y", "origin": [8.01421, 13.19298, 5.32176]},
			"faces": {
				"north": {"uv": [6, 11, 7, 13], "rotation": 90, "texture": "#0"},
				"east": {"uv": [6, 11, 7, 13], "rotation": 90, "texture": "#0"},
				"south": {"uv": [6, 11, 7, 13], "rotation": 90, "texture": "#0"},
				"west": {"uv": [6, 11, 7, 13], "rotation": 90, "texture": "#0"},
				"up": {"uv": [6, 11, 7, 13], "rotation": 90, "texture": "#0"},
				"down": {"uv": [6, 11, 7, 13], "rotation": 90, "texture": "#0"}
			}
		},
		{
			"from": [6.68995, 12.99298, 5.62886],
			"to": [7.58995, 13.39298, 6.02886],
			"rotation": {"angle": 45, "axis": "y", "origin": [6.78995, 13.19298, 5.82886]},
			"faces": {
				"north": {"uv": [6, 11, 7, 13], "rotation": 90, "texture": "#0"},
				"east": {"uv": [6, 11, 7, 13], "rotation": 90, "texture": "#0"},
				"south": {"uv": [6, 11, 7, 13], "rotation": 90, "texture": "#0"},
				"west": {"uv": [6, 11, 7, 13], "rotation": 90, "texture": "#0"},
				"up": {"uv": [6, 11, 7, 13], "rotation": 90, "texture": "#0"},
				"down": {"uv": [6, 11, 7, 13], "rotation": 90, "texture": "#0"}
			}
		},
		{
			"from": [6.57782, 12.99298, 5.75815],
			"to": [6.97782, 13.39298, 6.65815],
			"rotation": {"angle": 0, "axis": "y", "origin": [8.37782, 13.19298, 6.55815]},
			"faces": {
				"north": {"uv": [6, 11, 7, 13], "rotation": 180, "texture": "#0"},
				"east": {"uv": [6, 11, 7, 13], "rotation": 180, "texture": "#0"},
				"south": {"uv": [6, 11, 7, 13], "rotation": 180, "texture": "#0"},
				"west": {"uv": [6, 11, 7, 13], "rotation": 180, "texture": "#0"},
				"up": {"uv": [6, 11, 7, 13], "rotation": 180, "texture": "#0"},
				"down": {"uv": [6, 11, 7, 13], "rotation": 180, "texture": "#0"}
			}
		},
		{
			"from": [7.21421, 12.69246, 4.92922],
			"to": [8.81421, 12.90046, 5.42922],
			"rotation": {"angle": 22.5, "axis": "x", "origin": [8.01421, 12.79646, 5.17922]},
			"faces": {
				"north": {"uv": [9.33333, 0.66667, 9.66667, 2.33333], "rotation": 90, "texture": "#0"},
				"east": {"uv": [9.33333, 0.66667, 9.66667, 2.33333], "rotation": 90, "texture": "#0"},
				"south": {"uv": [9.33333, 0.66667, 9.66667, 2.33333], "rotation": 90, "texture": "#0"},
				"west": {"uv": [9.33333, 0.66667, 9.66667, 2.33333], "rotation": 90, "texture": "#0"},
				"up": {"uv": [9.33333, 0.66667, 9.66667, 2.33333], "rotation": 90, "texture": "#0"},
				"down": {"uv": [9.33333, 0.66667, 9.66667, 2.33333], "rotation": 90, "texture": "#0"}
			}
		},
		{
			"from": [7.21421, 12.69246, 4.92922],
			"to": [8.81421, 12.90046, 5.42922],
			"rotation": {"angle": -22.5, "axis": "x", "origin": [8.01421, 12.79646, 5.17922]},
			"faces": {
				"north": {"uv": [9.33333, 0.66667, 9.66667, 2.33333], "rotation": 90, "texture": "#0"},
				"east": {"uv": [9.33333, 0.66667, 9.66667, 2.33333], "rotation": 90, "texture": "#0"},
				"south": {"uv": [9.33333, 0.66667, 9.66667, 2.33333], "rotation": 90, "texture": "#0"},
				"west": {"uv": [9.33333, 0.66667, 9.66667, 2.33333], "rotation": 90, "texture": "#0"},
				"up": {"uv": [9.33333, 0.66667, 9.66667, 2.33333], "rotation": 90, "texture": "#0"},
				"down": {"uv": [9.33333, 0.66667, 9.66667, 2.33333], "rotation": 90, "texture": "#0"}
			}
		},
		{
			"from": [7.21421, 12.54646, 5.07522],
			"to": [8.81421, 13.04646, 5.28322],
			"rotation": {"angle": 22.5, "axis": "x", "origin": [8.01421, 12.79646, 5.17922]},
			"faces": {
				"north": {"uv": [9.33333, 0.66667, 9.66667, 2.33333], "rotation": 90, "texture": "#0"},
				"east": {"uv": [9.33333, 0.66667, 9.66667, 2.33333], "rotation": 90, "texture": "#0"},
				"south": {"uv": [9.33333, 0.66667, 9.66667, 2.33333], "rotation": 90, "texture": "#0"},
				"west": {"uv": [9.33333, 0.66667, 9.66667, 2.33333], "rotation": 90, "texture": "#0"},
				"up": {"uv": [9.33333, 0.66667, 9.66667, 2.33333], "rotation": 90, "texture": "#0"},
				"down": {"uv": [9.33333, 0.66667, 9.66667, 2.33333], "rotation": 90, "texture": "#0"}
			}
		},
		{
			"from": [7.21421, 12.54646, 5.07522],
			"to": [8.81421, 13.04646, 5.28322],
			"rotation": {"angle": -22.5, "axis": "x", "origin": [8.01421, 12.79646, 5.17922]},
			"faces": {
				"north": {"uv": [9.33333, 0.66667, 9.66667, 2.33333], "rotation": 90, "texture": "#0"},
				"east": {"uv": [9.33333, 0.66667, 9.66667, 2.33333], "rotation": 90, "texture": "#0"},
				"south": {"uv": [9.33333, 0.66667, 9.66667, 2.33333], "rotation": 90, "texture": "#0"},
				"west": {"uv": [9.33333, 0.66667, 9.66667, 2.33333], "rotation": 90, "texture": "#0"},
				"up": {"uv": [9.33333, 0.66667, 9.66667, 2.33333], "rotation": 90, "texture": "#0"},
				"down": {"uv": [9.33333, 0.66667, 9.66667, 2.33333], "rotation": 90, "texture": "#0"}
			}
		},
		{
			"from": [5.81421, 12.74441, 5.05424],
			"to": [10.61421, 12.84841, 5.30424],
			"rotation": {"angle": -22.5, "axis": "x", "origin": [7.96421, 12.74299, 5.17923]},
			"faces": {
				"north": {"uv": [9.33333, 0.66667, 9.66667, 2.33333], "rotation": 90, "texture": "#0"},
				"east": {"uv": [9.33333, 0.66667, 9.66667, 2.33333], "rotation": 90, "texture": "#0"},
				"south": {"uv": [9.33333, 0.66667, 9.66667, 2.33333], "rotation": 90, "texture": "#0"},
				"west": {"uv": [9.33333, 0.66667, 9.66667, 2.33333], "rotation": 90, "texture": "#0"},
				"up": {"uv": [9.33333, 0.66667, 9.66667, 2.33333], "rotation": 90, "texture": "#0"},
				"down": {"uv": [9.33333, 0.66667, 9.66667, 2.33333], "rotation": 90, "texture": "#0"}
			}
		},
		{
			"from": [5.81421, 12.72877, 5.01646],
			"to": [10.61421, 12.83277, 5.26646],
			"rotation": {"angle": 22.5, "axis": "x", "origin": [7.96421, 12.74299, 5.17923]},
			"faces": {
				"north": {"uv": [9.33333, 0.66667, 9.66667, 2.33333], "rotation": 90, "texture": "#0"},
				"east": {"uv": [9.33333, 0.66667, 9.66667, 2.33333], "rotation": 90, "texture": "#0"},
				"south": {"uv": [9.33333, 0.66667, 9.66667, 2.33333], "rotation": 90, "texture": "#0"},
				"west": {"uv": [9.33333, 0.66667, 9.66667, 2.33333], "rotation": 90, "texture": "#0"},
				"up": {"uv": [9.33333, 0.66667, 9.66667, 2.33333], "rotation": 90, "texture": "#0"},
				"down": {"uv": [9.33333, 0.66667, 9.66667, 2.33333], "rotation": 90, "texture": "#0"}
			}
		},
		{
			"from": [5.81421, 12.67141, 5.12724],
			"to": [10.61421, 12.92141, 5.23124],
			"rotation": {"angle": -22.5, "axis": "x", "origin": [7.96421, 12.74299, 5.17923]},
			"faces": {
				"north": {"uv": [9.33333, 0.66667, 9.66667, 2.33333], "rotation": 90, "texture": "#0"},
				"east": {"uv": [9.33333, 0.66667, 9.66667, 2.33333], "rotation": 90, "texture": "#0"},
				"south": {"uv": [9.33333, 0.66667, 9.66667, 2.33333], "rotation": 90, "texture": "#0"},
				"west": {"uv": [9.33333, 0.66667, 9.66667, 2.33333], "rotation": 90, "texture": "#0"},
				"up": {"uv": [9.33333, 0.66667, 9.66667, 2.33333], "rotation": 90, "texture": "#0"},
				"down": {"uv": [9.33333, 0.66667, 9.66667, 2.33333], "rotation": 90, "texture": "#0"}
			}
		},
		{
			"from": [5.81421, 12.65577, 5.08946],
			"to": [10.61421, 12.90577, 5.19346],
			"rotation": {"angle": 22.5, "axis": "x", "origin": [7.96421, 12.74299, 5.17923]},
			"faces": {
				"north": {"uv": [9.33333, 0.66667, 9.66667, 2.33333], "rotation": 90, "texture": "#0"},
				"east": {"uv": [9.33333, 0.66667, 9.66667, 2.33333], "rotation": 90, "texture": "#0"},
				"south": {"uv": [9.33333, 0.66667, 9.66667, 2.33333], "rotation": 90, "texture": "#0"},
				"west": {"uv": [9.33333, 0.66667, 9.66667, 2.33333], "rotation": 90, "texture": "#0"},
				"up": {"uv": [9.33333, 0.66667, 9.66667, 2.33333], "rotation": 90, "texture": "#0"},
				"down": {"uv": [9.33333, 0.66667, 9.66667, 2.33333], "rotation": 90, "texture": "#0"}
			}
		},
		{
			"from": [5.71421, 12.00046, 4.82922],
			"to": [10.21421, 12.40046, 5.52922],
			"rotation": {"angle": -22.5, "axis": "x", "origin": [7.96421, 12.74299, 5.17923]},
			"faces": {
				"north": {"uv": [9.33333, 0.66667, 9.66667, 2.33333], "rotation": 90, "texture": "#0"},
				"east": {"uv": [9.33333, 0.66667, 9.66667, 2.33333], "rotation": 90, "texture": "#0"},
				"south": {"uv": [9.33333, 0.66667, 9.66667, 2.33333], "rotation": 90, "texture": "#0"},
				"west": {"uv": [9.33333, 0.66667, 9.66667, 2.33333], "rotation": 90, "texture": "#0"},
				"up": {"uv": [9.33333, 0.66667, 9.66667, 2.33333], "rotation": 90, "texture": "#0"},
				"down": {"uv": [9.33333, 0.66667, 9.66667, 2.33333], "rotation": 90, "texture": "#0"}
			}
		},
		{
			"from": [9.81421, 12.40046, 4.82922],
			"to": [10.21421, 13.20046, 5.52922],
			"rotation": {"angle": -22.5, "axis": "x", "origin": [8.26421, 12.74299, 5.17923]},
			"faces": {
				"north": {"uv": [9.33333, 0.66667, 9.66667, 2.33333], "rotation": 180, "texture": "#0"},
				"east": {"uv": [9.33333, 0.66667, 9.66667, 2.33333], "rotation": 180, "texture": "#0"},
				"south": {"uv": [9.33333, 0.66667, 9.66667, 2.33333], "rotation": 180, "texture": "#0"},
				"west": {"uv": [9.33333, 0.66667, 9.66667, 2.33333], "rotation": 180, "texture": "#0"},
				"up": {"uv": [9.33333, 0.66667, 9.66667, 2.33333], "rotation": 180, "texture": "#0"},
				"down": {"uv": [9.33333, 0.66667, 9.66667, 2.33333], "rotation": 180, "texture": "#0"}
			}
		},
		{
			"from": [5.71421, 12.40046, 4.82922],
			"to": [6.11421, 13.20046, 5.52922],
			"rotation": {"angle": -22.5, "axis": "x", "origin": [7.66421, 12.74299, 5.17923]},
			"faces": {
				"north": {"uv": [9.33333, 0.66667, 9.66667, 2.33333], "rotation": 180, "texture": "#0"},
				"east": {"uv": [9.33333, 0.66667, 9.66667, 2.33333], "rotation": 180, "texture": "#0"},
				"south": {"uv": [9.33333, 0.66667, 9.66667, 2.33333], "rotation": 180, "texture": "#0"},
				"west": {"uv": [9.33333, 0.66667, 9.66667, 2.33333], "rotation": 180, "texture": "#0"},
				"up": {"uv": [9.33333, 0.66667, 9.66667, 2.33333], "rotation": 180, "texture": "#0"},
				"down": {"uv": [9.33333, 0.66667, 9.66667, 2.33333], "rotation": 180, "texture": "#0"}
			}
		},
		{
			"from": [5.71421, 8.50046, 4.82922],
			"to": [10.21421, 8.90046, 5.52922],
			"rotation": {"angle": -22.5, "axis": "x", "origin": [7.96421, 12.74299, 5.17923]},
			"faces": {
				"north": {"uv": [9.33333, 0.66667, 9.66667, 2.33333], "rotation": 90, "texture": "#0"},
				"east": {"uv": [9.33333, 0.66667, 9.66667, 2.33333], "rotation": 90, "texture": "#0"},
				"south": {"uv": [9.33333, 0.66667, 9.66667, 2.33333], "rotation": 90, "texture": "#0"},
				"west": {"uv": [9.33333, 0.66667, 9.66667, 2.33333], "rotation": 90, "texture": "#0"},
				"up": {"uv": [9.33333, 0.66667, 9.66667, 2.33333], "rotation": 90, "texture": "#0"},
				"down": {"uv": [9.33333, 0.66667, 9.66667, 2.33333], "rotation": 90, "texture": "#0"}
			}
		},
		{
			"from": [7.91021, 6.64298, 4.87576],
			"to": [8.11821, 12.14298, 5.37576],
			"rotation": {"angle": -22.5, "axis": "x", "origin": [8.01421, 12.94298, 5.12576]},
			"faces": {
				"north": {"uv": [9.33333, 0.66667, 9.66667, 2.33333], "rotation": 180, "texture": "#0"},
				"east": {"uv": [9.33333, 0.66667, 9.66667, 2.33333], "rotation": 180, "texture": "#0"},
				"south": {"uv": [9.33333, 0.66667, 9.66667, 2.33333], "rotation": 180, "texture": "#0"},
				"west": {"uv": [9.33333, 0.66667, 9.66667, 2.33333], "rotation": 180, "texture": "#0"},
				"up": {"uv": [9.33333, 0.66667, 9.66667, 2.33333], "rotation": 180, "texture": "#0"},
				"down": {"uv": [9.33333, 0.66667, 9.66667, 2.33333], "rotation": 180, "texture": "#0"}
			}
		},
		{
			"from": [7.76421, 6.64298, 5.02176],
			"to": [8.26421, 12.14298, 5.22976],
			"rotation": {"angle": -22.5, "axis": "x", "origin": [8.01421, 12.94298, 5.12576]},
			"faces": {
				"north": {"uv": [9.33333, 0.66667, 9.66667, 2.33333], "rotation": 180, "texture": "#0"},
				"east": {"uv": [9.33333, 0.66667, 9.66667, 2.33333], "rotation": 180, "texture": "#0"},
				"south": {"uv": [9.33333, 0.66667, 9.66667, 2.33333], "rotation": 180, "texture": "#0"},
				"west": {"uv": [9.33333, 0.66667, 9.66667, 2.33333], "rotation": 180, "texture": "#0"},
				"up": {"uv": [9.33333, 0.66667, 9.66667, 2.33333], "rotation": 180, "texture": "#0"},
				"down": {"uv": [9.33333, 0.66667, 9.66667, 2.33333], "rotation": 180, "texture": "#0"}
			}
		},
		{
			"from": [9.81421, 0.00989, 7.39034],
			"to": [10.21421, 9.00989, 8.09034],
			"rotation": {"angle": -22.5, "axis": "x", "origin": [10.01421, 6.55989, 7.74034]},
			"faces": {
				"north": {"uv": [9.33333, 0.66667, 9.66667, 2.33333], "rotation": 180, "texture": "#0"},
				"east": {"uv": [9.33333, 0.66667, 9.66667, 2.33333], "rotation": 180, "texture": "#0"},
				"south": {"uv": [9.33333, 0.66667, 9.66667, 2.33333], "rotation": 180, "texture": "#0"},
				"west": {"uv": [9.33333, 0.66667, 9.66667, 2.33333], "rotation": 180, "texture": "#0"},
				"up": {"uv": [9.33333, 0.66667, 9.66667, 2.33333], "rotation": 180, "texture": "#0"},
				"down": {"uv": [9.33333, 0.66667, 9.66667, 2.33333], "rotation": 180, "texture": "#0"}
			}
		},
		{
			"from": [5.71421, 0.00989, 7.39034],
			"to": [6.11421, 9.00989, 8.09034],
			"rotation": {"angle": -22.5, "axis": "x", "origin": [5.91421, 6.55989, 7.74034]},
			"faces": {
				"north": {"uv": [9.33333, 0.66667, 9.66667, 2.33333], "rotation": 180, "texture": "#0"},
				"east": {"uv": [9.33333, 0.66667, 9.66667, 2.33333], "rotation": 180, "texture": "#0"},
				"south": {"uv": [9.33333, 0.66667, 9.66667, 2.33333], "rotation": 180, "texture": "#0"},
				"west": {"uv": [9.33333, 0.66667, 9.66667, 2.33333], "rotation": 180, "texture": "#0"},
				"up": {"uv": [9.33333, 0.66667, 9.66667, 2.33333], "rotation": 180, "texture": "#0"},
				"down": {"uv": [9.33333, 0.66667, 9.66667, 2.33333], "rotation": 180, "texture": "#0"}
			}
		},
		{
			"from": [5.41421, 1.4, 9.38579],
			"to": [6.41421, 1.9, 11.78579],
			"rotation": {"angle": -22.5, "axis": "x", "origin": [8.01421, 0.25, 11.98579]},
			"faces": {
				"north": {"uv": [9.33333, 0.66667, 9.66667, 2.33333], "rotation": 90, "texture": "#0"},
				"east": {"uv": [9.33333, 0.66667, 9.66667, 2.33333], "rotation": 90, "texture": "#0"},
				"south": {"uv": [9.33333, 0.66667, 9.66667, 2.33333], "rotation": 90, "texture": "#0"},
				"west": {"uv": [9.33333, 0.66667, 9.66667, 2.33333], "rotation": 90, "texture": "#0"},
				"up": {"uv": [9.33333, 0.66667, 9.66667, 2.33333], "rotation": 90, "texture": "#0"},
				"down": {"uv": [9.33333, 0.66667, 9.66667, 2.33333], "rotation": 90, "texture": "#0"}
			}
		},
		{
			"from": [9.51421, 1.4, 9.38579],
			"to": [10.51421, 1.9, 11.78579],
			"rotation": {"angle": -22.5, "axis": "x", "origin": [8.01421, 0.25, 11.98579]},
			"faces": {
				"north": {"uv": [9.33333, 0.66667, 9.66667, 2.33333], "rotation": 90, "texture": "#0"},
				"east": {"uv": [9.33333, 0.66667, 9.66667, 2.33333], "rotation": 90, "texture": "#0"},
				"south": {"uv": [9.33333, 0.66667, 9.66667, 2.33333], "rotation": 90, "texture": "#0"},
				"west": {"uv": [9.33333, 0.66667, 9.66667, 2.33333], "rotation": 90, "texture": "#0"},
				"up": {"uv": [9.33333, 0.66667, 9.66667, 2.33333], "rotation": 90, "texture": "#0"},
				"down": {"uv": [9.33333, 0.66667, 9.66667, 2.33333], "rotation": 90, "texture": "#0"}
			}
		},
		{
			"from": [7.11021, 6.34298, 4.87576],
			"to": [8.81821, 6.64298, 5.37576],
			"rotation": {"angle": -22.5, "axis": "x", "origin": [8.01421, 12.94298, 5.12576]},
			"faces": {
				"north": {"uv": [9.33333, 0.66667, 9.66667, 2.33333], "rotation": 180, "texture": "#0"},
				"east": {"uv": [9.33333, 0.66667, 9.66667, 2.33333], "rotation": 180, "texture": "#0"},
				"south": {"uv": [9.33333, 0.66667, 9.66667, 2.33333], "rotation": 180, "texture": "#0"},
				"west": {"uv": [9.33333, 0.66667, 9.66667, 2.33333], "rotation": 180, "texture": "#0"},
				"up": {"uv": [9.33333, 0.66667, 9.66667, 2.33333], "rotation": 180, "texture": "#0"},
				"down": {"uv": [9.33333, 0.66667, 9.66667, 2.33333], "rotation": 180, "texture": "#0"}
			}
		},
		{
			"from": [10.41421, 12.69246, 4.92922],
			"to": [10.81421, 12.90046, 5.42922],
			"rotation": {"angle": 45, "axis": "x", "origin": [10.01421, 12.79646, 5.17922]},
			"faces": {
				"north": {"uv": [9.33333, 0.66667, 9.66667, 2.33333], "rotation": 90, "texture": "#0"},
				"east": {"uv": [9.33333, 0.66667, 9.66667, 2.33333], "rotation": 90, "texture": "#0"},
				"south": {"uv": [9.33333, 0.66667, 9.66667, 2.33333], "rotation": 90, "texture": "#0"},
				"west": {"uv": [9.33333, 0.66667, 9.66667, 2.33333], "rotation": 90, "texture": "#0"},
				"up": {"uv": [9.33333, 0.66667, 9.66667, 2.33333], "rotation": 90, "texture": "#0"},
				"down": {"uv": [9.33333, 0.66667, 9.66667, 2.33333], "rotation": 90, "texture": "#0"}
			}
		},
		{
			"from": [10.41421, 12.69246, 4.42922],
			"to": [10.81421, 12.90046, 5.92922],
			"rotation": {"angle": 0, "axis": "y", "origin": [10.01421, 12.79646, 5.17922]},
			"faces": {
				"north": {"uv": [9.33333, 0.66667, 9.66667, 2.33333], "rotation": 90, "texture": "#0"},
				"east": {"uv": [9.33333, 0.66667, 9.66667, 2.33333], "rotation": 90, "texture": "#0"},
				"south": {"uv": [9.33333, 0.66667, 9.66667, 2.33333], "rotation": 90, "texture": "#0"},
				"west": {"uv": [9.33333, 0.66667, 9.66667, 2.33333], "rotation": 90, "texture": "#0"},
				"up": {"uv": [9.33333, 0.66667, 9.66667, 2.33333], "rotation": 90, "texture": "#0"},
				"down": {"uv": [9.33333, 0.66667, 9.66667, 2.33333], "rotation": 90, "texture": "#0"}
			}
		},
		{
			"from": [10.41421, 12.54646, 5.07522],
			"to": [10.81421, 13.04646, 5.28322],
			"rotation": {"angle": 45, "axis": "x", "origin": [10.01421, 12.79646, 5.17922]},
			"faces": {
				"north": {"uv": [9.33333, 0.66667, 9.66667, 2.33333], "rotation": 90, "texture": "#0"},
				"east": {"uv": [9.33333, 0.66667, 9.66667, 2.33333], "rotation": 90, "texture": "#0"},
				"south": {"uv": [9.33333, 0.66667, 9.66667, 2.33333], "rotation": 90, "texture": "#0"},
				"west": {"uv": [9.33333, 0.66667, 9.66667, 2.33333], "rotation": 90, "texture": "#0"},
				"up": {"uv": [9.33333, 0.66667, 9.66667, 2.33333], "rotation": 90, "texture": "#0"},
				"down": {"uv": [9.33333, 0.66667, 9.66667, 2.33333], "rotation": 90, "texture": "#0"}
			}
		},
		{
			"from": [10.41421, 12.04646, 5.07522],
			"to": [10.81421, 13.54646, 5.28322],
			"rotation": {"angle": 0, "axis": "y", "origin": [10.01421, 12.79646, 5.17922]},
			"faces": {
				"north": {"uv": [9.33333, 0.66667, 9.66667, 2.33333], "rotation": 90, "texture": "#0"},
				"east": {"uv": [9.33333, 0.66667, 9.66667, 2.33333], "rotation": 90, "texture": "#0"},
				"south": {"uv": [9.33333, 0.66667, 9.66667, 2.33333], "rotation": 90, "texture": "#0"},
				"west": {"uv": [9.33333, 0.66667, 9.66667, 2.33333], "rotation": 90, "texture": "#0"},
				"up": {"uv": [9.33333, 0.66667, 9.66667, 2.33333], "rotation": 90, "texture": "#0"},
				"down": {"uv": [9.33333, 0.66667, 9.66667, 2.33333], "rotation": 90, "texture": "#0"}
			}
		}
	],
	"display": {
		"thirdperson_righthand": {
			"rotation": [22.5, 0, 0],
			"translation": [0, -0.9, -2]
		},
		"thirdperson_lefthand": {
			"rotation": [22.5, 0, 0],
			"translation": [0, -0.9, -2]
		},
		"firstperson_righthand": {
			"rotation": [-66, 0, 0],
			"translation": [0, -0.5, 4]
		},
		"firstperson_lefthand": {
			"rotation": [-66, 0, 0],
			"translation": [-2.25, 0, 4.75]
		},
		"ground": {
			"translation": [0, 6.25, 0]
		},
		"gui": {
			"rotation": [0, 62, 0],
			"scale": [0.85, 0.85, 0.85]
		},
		"head": {
			"translation": [0, 14.5, -1.25]
		},
		"fixed": {
			"rotation": [20, -12.5, -55],
			"translation": [1, 0.25, -3.25]
		}
	},
	"groups": [
		{
			"name": "base",
			"origin": [8.87132, 7.35, 6.99858],
			"children": [
				{
					"name": "grip",
					"origin": [8.37782, 13.19298, 6.55815],
					"children": [0, 1, 2, 3, 4]
				},
				{
					"name": "paw",
					"origin": [8.01477, 0.25, 11.98523],
					"children": [5, 6, 7, 8, 9, 10, 11, 12, 13, 14]
				},
				{
					"name": "barrel",
					"origin": [8, 8, 8],
					"children": [15, 16, 17, 18, 19, 20, 21, 22, 23, 24, 25, 26, 27, 28, 29, 30, 31, 32, 33, 34, 35, 36, 37, 38, 39, 40, 41, 42]
				},
				{
					"name": "holder",
					"origin": [9.25061, 13.19298, 6.20815],
					"children": [43, 44, 45, 46, 47]
				},
				{
					"name": "mortar_stand_off",
					"origin": [8, 8, 8],
					"children": [48, 49, 50, 51, 52, 53, 54, 55, 56, 57, 58, 59, 60, 61, 62, 63, 64, 65, 66,
						{
							"name": "regulator",
							"origin": [8, 8, 8],
							"children": [67, 68, 69, 70]
						}
					]
				}
			]
		}
	]
}