{
  "parent": "item/generated",
  "textures": {
    "layer0": "gci:items/simple/pencil"
  },
  "display": {
    "thirdperson_righthand": {
        "rotation": [ 0, 0, 322 ],
        "translation": [ 0.00, 1.25, 0.75 ],
        "scale": [ 0.24, 0.36, 0.98 ]
    },
    "thirdperson_lefthand": {
      "rotation": [ 0, 0, 322 ],
      "translation": [ 0.00, 1.25, 0.75 ],
      "scale": [ 0.24, 0.36, 0.98 ]
    },
    "firstperson_righthand": {
        "rotation": [ 334, 318, 338 ],
        "translation": [ 3.25, 0.00, 0.00 ],
        "scale": [ 0.50, 0.55, 0.83 ]
    }

}


}