{
	"credit": "Made with Blockbench",
	"texture_size": [32, 32],
	"textures": {
		"0": "gci:items/simple/chekhovbot",
		"particle": "gci:items/simple/chekhovbot"
	},
	"elements": [
		{
			"from": [6.25761, 18.27996, 6.29523],
			"to": [9.40916, 20.89744, 7.31052],
			"rotation": {"angle": 0, "axis": "y", "origin": [7.81855, 13.00653, 7.38218]},
			"faces": {
				"north": {"uv": [0.625, 3.125, 0.625, 3.125], "texture": "#0"},
				"east": {"uv": [0.625, 3.125, 0.625, 3.125], "texture": "#0"},
				"south": {"uv": [0.625, 3.125, 0.625, 3.125], "texture": "#0"},
				"west": {"uv": [0.625, 3.125, 0.625, 3.125], "texture": "#0"},
				"up": {"uv": [0.625, 3.125, 0.625, 3.125], "texture": "#0"},
				"down": {"uv": [0.625, 3.125, 0.625, 3.125], "texture": "#0"}
			}
		},
		{
			"from": [7.50377, 18.23545, 6.29523],
			"to": [8.16301, 18.49414, 7.31052],
			"rotation": {"angle": 0, "axis": "y", "origin": [7.81855, 10.60322, 7.38218]},
			"faces": {
				"north": {"uv": [0.625, 3.125, 0.625, 3.125], "texture": "#0"},
				"east": {"uv": [0.625, 3.125, 0.625, 3.125], "texture": "#0"},
				"south": {"uv": [0.625, 3.125, 0.625, 3.125], "texture": "#0"},
				"west": {"uv": [0.625, 3.125, 0.625, 3.125], "texture": "#0"},
				"up": {"uv": [0.625, 3.125, 0.625, 3.125], "texture": "#0"},
				"down": {"uv": [0.625, 3.125, 0.625, 3.125], "texture": "#0"}
			}
		},
		{
			"from": [6.79168, 15.25357, 6.29523],
			"to": [8.56356, 15.51226, 7.31052],
			"rotation": {"angle": 0, "axis": "y", "origin": [7.81855, 7.62135, 7.38218]},
			"faces": {
				"north": {"uv": [0.625, 3.125, 0.625, 3.125], "texture": "#0"},
				"east": {"uv": [0.625, 3.125, 0.625, 3.125], "texture": "#0"},
				"south": {"uv": [0.625, 3.125, 0.625, 3.125], "texture": "#0"},
				"west": {"uv": [0.625, 3.125, 0.625, 3.125], "texture": "#0"},
				"up": {"uv": [0.625, 3.125, 0.625, 3.125], "texture": "#0"},
				"down": {"uv": [0.625, 3.125, 0.625, 3.125], "texture": "#0"}
			}
		},
		{
			"from": [6.83618, 15.4951, 6.29523],
			"to": [8.69707, 16.64391, 7.31052],
			"rotation": {"angle": 0, "axis": "y", "origin": [8.39174, 17.2084, 6.80287]},
			"faces": {
				"north": {"uv": [0.625, 3.125, 0.625, 3.125], "rotation": 180, "texture": "#0"},
				"east": {"uv": [0.625, 3.125, 0.625, 3.125], "rotation": 180, "texture": "#0"},
				"south": {"uv": [0.625, 3.125, 0.625, 3.125], "rotation": 180, "texture": "#0"},
				"west": {"uv": [0.625, 3.125, 0.625, 3.125], "rotation": 180, "texture": "#0"},
				"up": {"uv": [0.625, 3.125, 0.625, 3.125], "rotation": 180, "texture": "#0"},
				"down": {"uv": [0.625, 3.125, 0.625, 3.125], "rotation": 180, "texture": "#0"}
			}
		},
		{
			"from": [7.50377, 13.40334, 6.29523],
			"to": [8.16301, 13.66203, 7.31052],
			"rotation": {"angle": 0, "axis": "y", "origin": [8.39174, 14.22652, 6.80287]},
			"faces": {
				"north": {"uv": [0.625, 3.125, 0.625, 3.125], "rotation": 180, "texture": "#0"},
				"east": {"uv": [0.625, 3.125, 0.625, 3.125], "rotation": 180, "texture": "#0"},
				"south": {"uv": [0.625, 3.125, 0.625, 3.125], "rotation": 180, "texture": "#0"},
				"west": {"uv": [0.625, 3.125, 0.625, 3.125], "rotation": 180, "texture": "#0"},
				"up": {"uv": [0.625, 3.125, 0.625, 3.125], "rotation": 180, "texture": "#0"},
				"down": {"uv": [0.625, 3.125, 0.625, 3.125], "rotation": 180, "texture": "#0"}
			}
		},
		{
			"from": [6.77893, 17.11006, 6.29523],
			"to": [7.03762, 17.7693, 7.31052],
			"rotation": {"angle": 0, "axis": "y", "origin": [7.04375, 17.1126, 6.80287]},
			"faces": {
				"north": {"uv": [0.625, 3.125, 0.625, 3.125], "rotation": 90, "texture": "#0"},
				"east": {"uv": [0.625, 3.125, 0.625, 3.125], "rotation": 270, "texture": "#0"},
				"south": {"uv": [0.625, 3.125, 0.625, 3.125], "rotation": 270, "texture": "#0"},
				"west": {"uv": [0.625, 3.125, 0.625, 3.125], "rotation": 270, "texture": "#0"},
				"up": {"uv": [0.625, 3.125, 0.625, 3.125], "rotation": 270, "texture": "#0"},
				"down": {"uv": [0.625, 3.125, 0.625, 3.125], "rotation": 270, "texture": "#0"}
			}
		},
		{
			"from": [6.77893, 14.12818, 6.29523],
			"to": [7.03762, 14.78742, 7.31052],
			"rotation": {"angle": 0, "axis": "y", "origin": [7.04375, 14.13072, 6.80287]},
			"faces": {
				"north": {"uv": [0.625, 3.125, 0.625, 3.125], "rotation": 90, "texture": "#0"},
				"east": {"uv": [0.625, 3.125, 0.625, 3.125], "rotation": 270, "texture": "#0"},
				"south": {"uv": [0.625, 3.125, 0.625, 3.125], "rotation": 270, "texture": "#0"},
				"west": {"uv": [0.625, 3.125, 0.625, 3.125], "rotation": 270, "texture": "#0"},
				"up": {"uv": [0.625, 3.125, 0.625, 3.125], "rotation": 270, "texture": "#0"},
				"down": {"uv": [0.625, 3.125, 0.625, 3.125], "rotation": 270, "texture": "#0"}
			}
		},
		{
			"from": [8.62916, 17.11006, 6.29523],
			"to": [8.88785, 17.7693, 7.31052],
			"rotation": {"angle": 0, "axis": "y", "origin": [8.39174, 17.2084, 6.80287]},
			"faces": {
				"north": {"uv": [0.625, 3.125, 0.625, 3.125], "rotation": 270, "texture": "#0"},
				"east": {"uv": [0.625, 3.125, 0.625, 3.125], "rotation": 90, "texture": "#0"},
				"south": {"uv": [0.625, 3.125, 0.625, 3.125], "rotation": 90, "texture": "#0"},
				"west": {"uv": [0.625, 3.125, 0.625, 3.125], "rotation": 90, "texture": "#0"},
				"up": {"uv": [0.625, 3.125, 0.625, 3.125], "rotation": 90, "texture": "#0"},
				"down": {"uv": [0.625, 3.125, 0.625, 3.125], "rotation": 90, "texture": "#0"}
			}
		},
		{
			"from": [8.62916, 14.12818, 6.29523],
			"to": [8.88785, 14.78742, 7.31052],
			"rotation": {"angle": 0, "axis": "y", "origin": [8.39174, 14.22652, 6.80287]},
			"faces": {
				"north": {"uv": [0.625, 3.125, 0.625, 3.125], "rotation": 270, "texture": "#0"},
				"east": {"uv": [0.625, 3.125, 0.625, 3.125], "rotation": 90, "texture": "#0"},
				"south": {"uv": [0.625, 3.125, 0.625, 3.125], "rotation": 90, "texture": "#0"},
				"west": {"uv": [0.625, 3.125, 0.625, 3.125], "rotation": 90, "texture": "#0"},
				"up": {"uv": [0.625, 3.125, 0.625, 3.125], "rotation": 90, "texture": "#0"},
				"down": {"uv": [0.625, 3.125, 0.625, 3.125], "rotation": 90, "texture": "#0"}
			}
		},
		{
			"from": [6.84961, 17.96449, 6.29523],
			"to": [7.50885, 18.44571, 7.31052],
			"rotation": {"angle": 45, "axis": "z", "origin": [7.17923, 18.09383, 6.80287]},
			"faces": {
				"north": {"uv": [0.625, 3.125, 0.625, 3.125], "texture": "#0"},
				"east": {"uv": [0.625, 3.125, 0.625, 3.125], "texture": "#0"},
				"south": {"uv": [0.625, 3.125, 0.625, 3.125], "texture": "#0"},
				"west": {"uv": [0.625, 3.125, 0.625, 3.125], "texture": "#0"},
				"up": {"uv": [0.625, 3.125, 0.625, 3.125], "texture": "#0"},
				"down": {"uv": [0.625, 3.125, 0.625, 3.125], "texture": "#0"}
			}
		},
		{
			"from": [6.84961, 14.98261, 6.29523],
			"to": [7.50885, 15.55284, 7.31052],
			"rotation": {"angle": 45, "axis": "z", "origin": [7.17923, 15.11196, 6.80287]},
			"faces": {
				"north": {"uv": [0.625, 3.125, 0.625, 3.125], "texture": "#0"},
				"east": {"uv": [0.625, 3.125, 0.625, 3.125], "texture": "#0"},
				"south": {"uv": [0.625, 3.125, 0.625, 3.125], "texture": "#0"},
				"west": {"uv": [0.625, 3.125, 0.625, 3.125], "texture": "#0"},
				"up": {"uv": [0.625, 3.125, 0.625, 3.125], "texture": "#0"},
				"down": {"uv": [0.625, 3.125, 0.625, 3.125], "texture": "#0"}
			}
		},
		{
			"from": [7.83085, 16.31174, 6.29523],
			"to": [8.49009, 16.97098, 7.31052],
			"rotation": {"angle": 45, "axis": "z", "origin": [8.39174, 17.2084, 6.80287]},
			"faces": {
				"north": {"uv": [0.625, 3.125, 0.625, 3.125], "rotation": 180, "texture": "#0"},
				"east": {"uv": [0.625, 3.125, 0.625, 3.125], "rotation": 180, "texture": "#0"},
				"south": {"uv": [0.625, 3.125, 0.625, 3.125], "rotation": 180, "texture": "#0"},
				"west": {"uv": [0.625, 3.125, 0.625, 3.125], "rotation": 180, "texture": "#0"},
				"up": {"uv": [0.625, 3.125, 0.625, 3.125], "rotation": 180, "texture": "#0"},
				"down": {"uv": [0.625, 3.125, 0.625, 3.125], "rotation": 180, "texture": "#0"}
			}
		},
		{
			"from": [7.83085, 13.50789, 6.29523],
			"to": [8.49009, 13.98911, 7.31052],
			"rotation": {"angle": 45, "axis": "z", "origin": [8.39174, 14.22652, 6.80287]},
			"faces": {
				"north": {"uv": [0.625, 3.125, 0.625, 3.125], "rotation": 180, "texture": "#0"},
				"east": {"uv": [0.625, 3.125, 0.625, 3.125], "rotation": 180, "texture": "#0"},
				"south": {"uv": [0.625, 3.125, 0.625, 3.125], "rotation": 180, "texture": "#0"},
				"west": {"uv": [0.625, 3.125, 0.625, 3.125], "rotation": 180, "texture": "#0"},
				"up": {"uv": [0.625, 3.125, 0.625, 3.125], "rotation": 180, "texture": "#0"},
				"down": {"uv": [0.625, 3.125, 0.625, 3.125], "rotation": 180, "texture": "#0"}
			}
		},
		{
			"from": [6.46739, 16.4559, 6.29523],
			"to": [7.03762, 17.11514, 7.31052],
			"rotation": {"angle": 45, "axis": "z", "origin": [7.04375, 17.1126, 6.80287]},
			"faces": {
				"north": {"uv": [0.625, 3.125, 0.625, 3.125], "rotation": 90, "texture": "#0"},
				"east": {"uv": [0.625, 3.125, 0.625, 3.125], "rotation": 270, "texture": "#0"},
				"south": {"uv": [0.625, 3.125, 0.625, 3.125], "rotation": 270, "texture": "#0"},
				"west": {"uv": [0.625, 3.125, 0.625, 3.125], "rotation": 270, "texture": "#0"},
				"up": {"uv": [0.625, 3.125, 0.625, 3.125], "rotation": 270, "texture": "#0"},
				"down": {"uv": [0.625, 3.125, 0.625, 3.125], "rotation": 270, "texture": "#0"}
			}
		},
		{
			"from": [6.24486, 13.47403, 6.29523],
			"to": [7.03762, 14.13327, 7.31052],
			"rotation": {"angle": 45, "axis": "z", "origin": [7.04375, 14.13072, 6.80287]},
			"faces": {
				"north": {"uv": [0.625, 3.125, 0.625, 3.125], "rotation": 90, "texture": "#0"},
				"east": {"uv": [0.625, 3.125, 0.625, 3.125], "rotation": 270, "texture": "#0"},
				"south": {"uv": [0.625, 3.125, 0.625, 3.125], "rotation": 270, "texture": "#0"},
				"west": {"uv": [0.625, 3.125, 0.625, 3.125], "rotation": 270, "texture": "#0"},
				"up": {"uv": [0.625, 3.125, 0.625, 3.125], "rotation": 270, "texture": "#0"},
				"down": {"uv": [0.625, 3.125, 0.625, 3.125], "rotation": 270, "texture": "#0"}
			}
		},
		{
			"from": [8.95624, 17.43714, 6.29523],
			"to": [9.88251, 18.09637, 7.31052],
			"rotation": {"angle": 45, "axis": "z", "origin": [8.39174, 17.2084, 6.80287]},
			"faces": {
				"north": {"uv": [0.625, 3.125, 0.625, 3.125], "rotation": 270, "texture": "#0"},
				"east": {"uv": [0.625, 3.125, 0.625, 3.125], "rotation": 90, "texture": "#0"},
				"south": {"uv": [0.625, 3.125, 0.625, 3.125], "rotation": 90, "texture": "#0"},
				"west": {"uv": [0.625, 3.125, 0.625, 3.125], "rotation": 90, "texture": "#0"},
				"up": {"uv": [0.625, 3.125, 0.625, 3.125], "rotation": 90, "texture": "#0"},
				"down": {"uv": [0.625, 3.125, 0.625, 3.125], "rotation": 90, "texture": "#0"}
			}
		},
		{
			"from": [8.95624, 14.45526, 6.29523],
			"to": [10.06053, 15.1145, 7.31052],
			"rotation": {"angle": 45, "axis": "z", "origin": [8.39174, 14.22652, 6.80287]},
			"faces": {
				"north": {"uv": [0.625, 3.125, 0.625, 3.125], "rotation": 270, "texture": "#0"},
				"east": {"uv": [0.625, 3.125, 0.625, 3.125], "rotation": 90, "texture": "#0"},
				"south": {"uv": [0.625, 3.125, 0.625, 3.125], "rotation": 90, "texture": "#0"},
				"west": {"uv": [0.625, 3.125, 0.625, 3.125], "rotation": 90, "texture": "#0"},
				"up": {"uv": [0.625, 3.125, 0.625, 3.125], "rotation": 90, "texture": "#0"},
				"down": {"uv": [0.625, 3.125, 0.625, 3.125], "rotation": 90, "texture": "#0"}
			}
		},
		{
			"from": [6.25761, 8.17718, 6.29523],
			"to": [9.40916, 13.64303, 7.31052],
			"rotation": {"angle": 0, "axis": "y", "origin": [7.81855, 13.00653, 7.38218]},
			"faces": {
				"north": {"uv": [0.625, 3.125, 0.625, 3.125], "texture": "#0"},
				"east": {"uv": [0.625, 3.125, 0.625, 3.125], "texture": "#0"},
				"south": {"uv": [0.625, 3.125, 0.625, 3.125], "texture": "#0"},
				"west": {"uv": [0.625, 3.125, 0.625, 3.125], "texture": "#0"},
				"up": {"uv": [0.625, 3.125, 0.625, 3.125], "texture": "#0"},
				"down": {"uv": [0.625, 3.125, 0.625, 3.125], "texture": "#0"}
			}
		},
		{
			"from": [6.25761, 8.17718, 6.29523],
			"to": [7.05037, 19.16172, 7.31052],
			"rotation": {"angle": 0, "axis": "y", "origin": [7.81855, 13.00653, 7.38218]},
			"faces": {
				"north": {"uv": [0.625, 3.125, 0.625, 3.125], "texture": "#0"},
				"east": {"uv": [0.625, 3.125, 0.625, 3.125], "texture": "#0"},
				"south": {"uv": [0.625, 3.125, 0.625, 3.125], "texture": "#0"},
				"west": {"uv": [0.625, 3.125, 0.625, 3.125], "texture": "#0"},
				"up": {"uv": [0.625, 3.125, 0.625, 3.125], "texture": "#0"},
				"down": {"uv": [0.625, 3.125, 0.625, 3.125], "texture": "#0"}
			}
		},
		{
			"from": [8.61641, 8.17718, 6.29523],
			"to": [9.40916, 19.16172, 7.31052],
			"rotation": {"angle": 0, "axis": "y", "origin": [10.17735, 13.00653, 7.38218]},
			"faces": {
				"north": {"uv": [0.625, 3.125, 0.625, 3.125], "texture": "#0"},
				"east": {"uv": [0.625, 3.125, 0.625, 3.125], "texture": "#0"},
				"south": {"uv": [0.625, 3.125, 0.625, 3.125], "texture": "#0"},
				"west": {"uv": [0.625, 3.125, 0.625, 3.125], "texture": "#0"},
				"up": {"uv": [0.625, 3.125, 0.625, 3.125], "texture": "#0"},
				"down": {"uv": [0.625, 3.125, 0.625, 3.125], "texture": "#0"}
			}
		},
		{
			"from": [6.25761, 20.1383, 4.65265],
			"to": [9.40916, 31.11625, 5.67809],
			"rotation": {"angle": 22.5, "axis": "x", "origin": [7.81855, 16.38895, 7.38218]},
			"faces": {
				"north": {"uv": [0.625, 3.125, 0.625, 3.125], "texture": "#0"},
				"east": {"uv": [3.625, 5, 3.625, 5], "texture": "#0"},
				"south": {"uv": [0.625, 3.125, 0.625, 3.125], "texture": "#0"},
				"west": {"uv": [0.625, 3.125, 0.625, 3.125], "texture": "#0"},
				"up": {"uv": [0.625, 3.125, 0.625, 3.125], "texture": "#0"},
				"down": {"uv": [0.625, 3.125, 0.625, 3.125], "texture": "#0"}
			}
		},
		{
			"from": [10.00454, 8.3107, 5.08402],
			"to": [10.44125, 21.24944, 8.56623],
			"rotation": {"angle": 0, "axis": "y", "origin": [7.6935, 13.00653, 7.38218]},
			"faces": {
				"north": {"uv": [1.5, 15.25, 1.5, 15.25], "texture": "#0"},
				"east": {"uv": [1.25, 15.75, 1.25, 15.75], "texture": "#0"},
				"south": {"uv": [1.5, 15.25, 1.5, 15.25], "texture": "#0"},
				"west": {"uv": [14.25, 10.75, 14.25, 10.75], "texture": "#0"},
				"up": {"uv": [1.5, 15.25, 1.5, 15.25], "texture": "#0"},
				"down": {"uv": [1.5, 15.25, 1.5, 15.25], "texture": "#0"}
			}
		},
		{
			"from": [10.00454, 20.8029, 7.43541],
			"to": [10.44125, 31.89032, 10.93213],
			"rotation": {"angle": 22.5, "axis": "x", "origin": [7.6935, 26.93678, 7.38218]},
			"faces": {
				"north": {"uv": [1.5, 15.25, 1.5, 15.25], "texture": "#0"},
				"east": {"uv": [1.25, 15.75, 1.25, 15.75], "texture": "#0"},
				"south": {"uv": [1.5, 15.25, 1.5, 15.25], "texture": "#0"},
				"west": {"uv": [14.25, 10.75, 14.25, 10.75], "texture": "#0"},
				"up": {"uv": [1.5, 15.25, 1.5, 15.25], "texture": "#0"},
				"down": {"uv": [1.5, 15.25, 1.5, 15.25], "texture": "#0"}
			}
		},
		{
			"from": [9.373, 8.17718, 6.19666],
			"to": [10.38829, 20.89744, 7.40909],
			"rotation": {"angle": 0, "axis": "y", "origin": [7.3735, 13.00653, 7.38218]},
			"faces": {
				"north": {"uv": [7.375, 7.5, 7.375, 7.5], "texture": "#0"},
				"east": {"uv": [3.625, 5, 3.625, 5], "texture": "#0"},
				"south": {"uv": [8.75, 9, 8.75, 9], "texture": "#0"},
				"west": {"uv": [8.75, 9, 8.75, 9], "texture": "#0"},
				"up": {"uv": [8.75, 9, 8.75, 9], "texture": "#0"},
				"down": {"uv": [8.75, 9, 8.75, 9], "texture": "#0"}
			}
		},
		{
			"from": [9.373, 20.07615, 7.88145],
			"to": [10.38829, 31.09953, 9.13042],
			"rotation": {"angle": 22.5, "axis": "x", "origin": [7.3735, 24.72181, 9.10351]},
			"faces": {
				"north": {"uv": [7.375, 7.5, 7.375, 7.5], "texture": "#0"},
				"east": {"uv": [3.625, 5, 3.625, 5], "texture": "#0"},
				"south": {"uv": [8.75, 9, 8.75, 9], "texture": "#0"},
				"west": {"uv": [8.75, 9, 8.75, 9], "texture": "#0"},
				"up": {"uv": [8.75, 9, 8.75, 9], "texture": "#0"},
				"down": {"uv": [8.75, 9, 8.75, 9], "texture": "#0"}
			}
		},
		{
			"from": [5.66506, 8.3107, 5.08402],
			"to": [5.87924, 21.05744, 8.52173],
			"rotation": {"angle": 0, "axis": "y", "origin": [3.04248, 13.00653, 7.38218]},
			"faces": {
				"north": {"uv": [1.5, 15.25, 1.5, 15.25], "texture": "#0"},
				"east": {"uv": [1.5, 15.25, 1.5, 15.25], "texture": "#0"},
				"south": {"uv": [1.5, 15.25, 1.5, 15.25], "texture": "#0"},
				"west": {"uv": [1.5, 15.25, 1.5, 15.25], "texture": "#0"},
				"up": {"uv": [1.5, 15.25, 1.5, 15.25], "texture": "#0"},
				"down": {"uv": [1.5, 15.25, 1.5, 15.25], "texture": "#0"}
			}
		},
		{
			"from": [5.66506, 20.62551, 7.50888],
			"to": [5.87924, 31.89032, 10.95163],
			"rotation": {"angle": 22.5, "axis": "x", "origin": [3.04248, 26.93678, 7.38218]},
			"faces": {
				"north": {"uv": [1.5, 15.25, 1.5, 15.25], "texture": "#0"},
				"east": {"uv": [1.5, 15.25, 1.5, 15.25], "texture": "#0"},
				"south": {"uv": [1.5, 15.25, 1.5, 15.25], "texture": "#0"},
				"west": {"uv": [1.5, 15.25, 1.5, 15.25], "texture": "#0"},
				"up": {"uv": [1.5, 15.25, 1.5, 15.25], "texture": "#0"},
				"down": {"uv": [1.5, 15.25, 1.5, 15.25], "texture": "#0"}
			}
		},
		{
			"from": [5.63453, 8.17718, 5.57358],
			"to": [6.24927, 20.89744, 8.03217],
			"rotation": {"angle": 0, "axis": "y", "origin": [3.23448, 13.00653, 7.38218]},
			"faces": {
				"north": {"uv": [8.75, 9, 8.75, 9], "texture": "#0"},
				"east": {"uv": [3.625, 5, 3.625, 5], "texture": "#0"},
				"south": {"uv": [8.75, 9, 8.75, 9], "texture": "#0"},
				"west": {"uv": [8.75, 9, 8.75, 9], "texture": "#0"},
				"up": {"uv": [8.75, 9, 8.75, 9], "texture": "#0"},
				"down": {"uv": [8.75, 9, 8.75, 9], "texture": "#0"}
			}
		},
		{
			"from": [5.63453, 19.65402, 7.24748],
			"to": [6.24927, 31.12812, 9.70607],
			"rotation": {"angle": 22.5, "axis": "x", "origin": [3.23448, 24.48336, 9.05608]},
			"faces": {
				"north": {"uv": [8.75, 9, 8.75, 9], "texture": "#0"},
				"east": {"uv": [3.625, 5, 3.625, 5], "texture": "#0"},
				"south": {"uv": [8.75, 9, 8.75, 9], "texture": "#0"},
				"west": {"uv": [8.75, 9, 8.75, 9], "texture": "#0"},
				"up": {"uv": [8.75, 9, 8.75, 9], "texture": "#0"},
				"down": {"uv": [8.75, 9, 8.75, 9], "texture": "#0"}
			}
		},
		{
			"from": [7.48572, 0.78359, 9.75798],
			"to": [8.11986, 1.20185, 10.96779],
			"rotation": {"angle": 22.5, "axis": "x", "origin": [7.80504, 2.04114, 9.90814]},
			"faces": {
				"north": {"uv": [3.5, 3, 3.5, 3], "rotation": 180, "texture": "#0"},
				"east": {"uv": [3.5, 3, 3.5, 3], "rotation": 180, "texture": "#0"},
				"south": {"uv": [3.5, 3, 3.5, 3], "rotation": 180, "texture": "#0"},
				"west": {"uv": [3.5, 3, 3.5, 3], "rotation": 180, "texture": "#0"},
				"up": {"uv": [3.5, 3, 3.5, 3], "texture": "#0"},
				"down": {"uv": [3.5, 3, 3.5, 3], "texture": "#0"}
			}
		},
		{
			"from": [7.41376, 1.25809, 8.91274],
			"to": [8.26377, 2.44682, 9.63991],
			"rotation": {"angle": -22.5, "axis": "x", "origin": [7.80504, 2.04114, 9.90814]},
			"faces": {
				"north": {"uv": [2.875, 2.875, 2.875, 2.875], "rotation": 270, "texture": "#0"},
				"east": {"uv": [2.875, 2.875, 2.875, 2.875], "rotation": 270, "texture": "#0"},
				"south": {"uv": [2.875, 2.875, 2.875, 2.875], "rotation": 270, "texture": "#0"},
				"west": {"uv": [2.875, 2.875, 2.875, 2.875], "rotation": 270, "texture": "#0"},
				"up": {"uv": [2.875, 2.875, 2.875, 2.875], "rotation": 90, "texture": "#0"},
				"down": {"uv": [2.875, 2.875, 2.875, 2.875], "rotation": 90, "texture": "#0"}
			}
		},
		{
			"from": [7.41376, 1.62414, 8.91743],
			"to": [8.26377, 3.01384, 9.58754],
			"rotation": {"angle": 22.5, "axis": "x", "origin": [7.80504, 2.04114, 9.90814]},
			"faces": {
				"north": {"uv": [2.875, 2.875, 2.875, 2.875], "rotation": 270, "texture": "#0"},
				"east": {"uv": [2.875, 2.875, 2.875, 2.875], "rotation": 270, "texture": "#0"},
				"south": {"uv": [2.875, 2.875, 2.875, 2.875], "rotation": 270, "texture": "#0"},
				"west": {"uv": [2.875, 2.875, 2.875, 2.875], "rotation": 270, "texture": "#0"},
				"up": {"uv": [2.875, 2.875, 2.875, 2.875], "rotation": 90, "texture": "#0"},
				"down": {"uv": [2.875, 2.875, 2.875, 2.875], "rotation": 90, "texture": "#0"}
			}
		},
		{
			"from": [7.48572, 0.4738, 10.40588],
			"to": [8.11986, 0.82044, 10.9684],
			"rotation": {"angle": 0, "axis": "y", "origin": [7.80504, 2.04114, 9.90814]},
			"faces": {
				"north": {"uv": [3.5, 3, 3.5, 3], "rotation": 180, "texture": "#0"},
				"east": {"uv": [3.5, 3, 3.5, 3], "rotation": 180, "texture": "#0"},
				"south": {"uv": [3.5, 3, 3.5, 3], "rotation": 180, "texture": "#0"},
				"west": {"uv": [3.5, 3, 3.5, 3], "rotation": 180, "texture": "#0"},
				"up": {"uv": [3.5, 3, 3.5, 3], "texture": "#0"},
				"down": {"uv": [3.5, 3, 3.5, 3], "texture": "#0"}
			}
		},
		{
			"from": [7.48572, 1.66364, 9.82969],
			"to": [8.11986, 2.01028, 10.24829],
			"rotation": {"angle": -22.5, "axis": "x", "origin": [7.80504, 2.04114, 9.90814]},
			"faces": {
				"north": {"uv": [3.5, 3, 3.5, 3], "texture": "#0"},
				"east": {"uv": [3.5, 3, 3.5, 3], "texture": "#0"},
				"south": {"uv": [3.5, 3, 3.5, 3], "texture": "#0"},
				"west": {"uv": [3.5, 3, 3.5, 3], "texture": "#0"},
				"up": {"uv": [3.5, 3, 3.5, 3], "rotation": 180, "texture": "#0"},
				"down": {"uv": [3.5, 3, 3.5, 3], "rotation": 180, "texture": "#0"}
			}
		},
		{
			"from": [7.48572, 0.59152, 10.18883],
			"to": [8.11986, 1.15403, 10.53546],
			"rotation": {"angle": -45, "axis": "x", "origin": [7.80504, 2.04114, 9.90814]},
			"faces": {
				"north": {"uv": [3.5, 3, 3.5, 3], "rotation": 180, "texture": "#0"},
				"east": {"uv": [3.5, 3, 3.5, 3], "rotation": 180, "texture": "#0"},
				"south": {"uv": [3.5, 3, 3.5, 3], "rotation": 180, "texture": "#0"},
				"west": {"uv": [3.5, 3, 3.5, 3], "rotation": 180, "texture": "#0"},
				"up": {"uv": [3.5, 3, 3.5, 3], "texture": "#0"},
				"down": {"uv": [3.5, 3, 3.5, 3], "texture": "#0"}
			}
		},
		{
			"from": [7.48572, 1.02325, 9.26126],
			"to": [8.11986, 1.29793, 9.60789],
			"rotation": {"angle": -22.5, "axis": "x", "origin": [7.80504, 2.04114, 9.90814]},
			"faces": {
				"north": {"uv": [3.5, 3, 3.5, 3], "texture": "#0"},
				"east": {"uv": [3.5, 3, 3.5, 3], "texture": "#0"},
				"south": {"uv": [3.5, 3, 3.5, 3], "texture": "#0"},
				"west": {"uv": [3.5, 3, 3.5, 3], "texture": "#0"},
				"up": {"uv": [3.5, 3, 3.5, 3], "rotation": 180, "texture": "#0"},
				"down": {"uv": [3.5, 3, 3.5, 3], "rotation": 180, "texture": "#0"}
			}
		},
		{
			"from": [7.48572, 1.93492, 9.39819],
			"to": [8.11986, 2.28122, 10.96779],
			"rotation": {"angle": 22.5, "axis": "x", "origin": [7.80504, 2.04114, 9.90814]},
			"faces": {
				"north": {"uv": [3.5, 3, 3.5, 3], "rotation": 180, "texture": "#0"},
				"east": {"uv": [3.5, 3, 3.5, 3], "rotation": 180, "texture": "#0"},
				"south": {"uv": [3.5, 3, 3.5, 3], "rotation": 180, "texture": "#0"},
				"west": {"uv": [3.5, 3, 3.5, 3], "rotation": 180, "texture": "#0"},
				"up": {"uv": [3.5, 3, 3.5, 3], "texture": "#0"},
				"down": {"uv": [3.5, 3, 3.5, 3], "texture": "#0"}
			}
		},
		{
			"from": [7.48572, 1.74571, 10.92308],
			"to": [8.11986, 2.06596, 11.48748],
			"rotation": {"angle": 22.5, "axis": "x", "origin": [7.80504, 2.04114, 9.90814]},
			"faces": {
				"north": {"uv": [3.5, 3, 3.5, 3], "rotation": 180, "texture": "#0"},
				"east": {"uv": [3.5, 3, 3.5, 3], "rotation": 180, "texture": "#0"},
				"south": {"uv": [3.5, 3, 3.5, 3], "rotation": 180, "texture": "#0"},
				"west": {"uv": [3.5, 3, 3.5, 3], "rotation": 180, "texture": "#0"},
				"up": {"uv": [3.5, 3, 3.5, 3], "texture": "#0"},
				"down": {"uv": [3.5, 3, 3.5, 3], "texture": "#0"}
			}
		},
		{
			"from": [7.48572, 0.99885, 11.02257],
			"to": [8.11986, 1.32458, 11.48748],
			"rotation": {"angle": 22.5, "axis": "x", "origin": [7.80504, 2.04114, 9.90814]},
			"faces": {
				"north": {"uv": [3.5, 3, 3.5, 3], "rotation": 180, "texture": "#0"},
				"east": {"uv": [3.5, 3, 3.5, 3], "rotation": 180, "texture": "#0"},
				"south": {"uv": [3.5, 3, 3.5, 3], "rotation": 180, "texture": "#0"},
				"west": {"uv": [3.5, 3, 3.5, 3], "rotation": 180, "texture": "#0"},
				"up": {"uv": [3.5, 3, 3.5, 3], "texture": "#0"},
				"down": {"uv": [3.5, 3, 3.5, 3], "texture": "#0"}
			}
		},
		{
			"from": [7.48572, 0.42071, 9.79653],
			"to": [8.11986, 0.74643, 10.18948],
			"rotation": {"angle": -22.5, "axis": "x", "origin": [7.80504, 2.04114, 9.90814]},
			"faces": {
				"north": {"uv": [3.5, 3, 3.5, 3], "rotation": 180, "texture": "#0"},
				"east": {"uv": [3.5, 3, 3.5, 3], "rotation": 180, "texture": "#0"},
				"south": {"uv": [3.5, 3, 3.5, 3], "rotation": 180, "texture": "#0"},
				"west": {"uv": [3.5, 3, 3.5, 3], "rotation": 180, "texture": "#0"},
				"up": {"uv": [3.5, 3, 3.5, 3], "texture": "#0"},
				"down": {"uv": [3.5, 3, 3.5, 3], "texture": "#0"}
			}
		},
		{
			"from": [7.48572, 1.11457, 10.41691],
			"to": [8.11986, 1.50752, 10.74264],
			"rotation": {"angle": -22.5, "axis": "x", "origin": [7.80504, 2.04114, 9.90814]},
			"faces": {
				"north": {"uv": [3.5, 3, 3.5, 3], "rotation": 270, "texture": "#0"},
				"east": {"uv": [3.5, 3, 3.5, 3], "rotation": 270, "texture": "#0"},
				"south": {"uv": [3.5, 3, 3.5, 3], "rotation": 270, "texture": "#0"},
				"west": {"uv": [3.5, 3, 3.5, 3], "rotation": 270, "texture": "#0"},
				"up": {"uv": [3.5, 3, 3.5, 3], "rotation": 90, "texture": "#0"},
				"down": {"uv": [3.5, 3, 3.5, 3], "rotation": 90, "texture": "#0"}
			}
		},
		{
			"from": [7.3418, 1.71874, 8.60665],
			"to": [8.19181, 2.28122, 10.1196],
			"rotation": {"angle": 22.5, "axis": "x", "origin": [7.80504, 2.04114, 9.90814]},
			"faces": {
				"north": {"uv": [2.875, 2.875, 2.875, 2.875], "texture": "#0"},
				"east": {"uv": [2.875, 2.875, 2.875, 2.875], "texture": "#0"},
				"south": {"uv": [2.875, 2.875, 2.875, 2.875], "texture": "#0"},
				"west": {"uv": [2.875, 2.875, 2.875, 2.875], "texture": "#0"},
				"up": {"uv": [2.875, 2.875, 2.875, 2.875], "rotation": 180, "texture": "#0"},
				"down": {"uv": [2.875, 2.875, 2.875, 2.875], "rotation": 180, "texture": "#0"}
			}
		},
		{
			"from": [7.26985, 2.3649, 9.36687],
			"to": [8.33573, 2.58259, 9.56956],
			"rotation": {"angle": -22.5, "axis": "x", "origin": [7.80504, 2.04114, 9.90814]},
			"faces": {
				"north": {"uv": [5.375, 8.375, 5.375, 8.375], "rotation": 90, "texture": "#0"},
				"east": {"uv": [5.375, 8.375, 5.375, 8.375], "rotation": 90, "texture": "#0"},
				"south": {"uv": [5.375, 8.375, 5.375, 8.375], "rotation": 90, "texture": "#0"},
				"west": {"uv": [5.375, 8.375, 5.375, 8.375], "rotation": 90, "texture": "#0"},
				"up": {"uv": [5.375, 8.375, 5.375, 8.375], "rotation": 270, "texture": "#0"},
				"down": {"uv": [5.375, 8.375, 5.375, 8.375], "rotation": 270, "texture": "#0"}
			}
		},
		{
			"from": [7.3418, 2.73346, 8.75988],
			"to": [8.19181, 9.42743, 9.32236],
			"rotation": {"angle": -22.5, "axis": "x", "origin": [7.80504, 2.04114, 9.90814]},
			"faces": {
				"north": {"uv": [2.875, 2.875, 2.875, 2.875], "rotation": 270, "texture": "#0"},
				"east": {"uv": [2.875, 2.875, 2.875, 2.875], "rotation": 270, "texture": "#0"},
				"south": {"uv": [2.875, 2.875, 2.875, 2.875], "rotation": 270, "texture": "#0"},
				"west": {"uv": [2.875, 2.875, 2.875, 2.875], "rotation": 270, "texture": "#0"},
				"up": {"uv": [2.875, 2.875, 2.875, 2.875], "rotation": 90, "texture": "#0"},
				"down": {"uv": [2.875, 2.875, 2.875, 2.875], "rotation": 90, "texture": "#0"}
			}
		},
		{
			"from": [7.14192, 4.48132, 7.48037],
			"to": [8.3917, 4.82894, 7.74303],
			"rotation": {"angle": -22.5, "axis": "x", "origin": [7.76681, 4.7051, 8.46121]},
			"faces": {
				"north": {"uv": [2.375, 1.75, 2.375, 1.75], "rotation": 270, "texture": "#0"},
				"east": {"uv": [2.375, 1.75, 2.375, 1.75], "rotation": 270, "texture": "#0"},
				"south": {"uv": [2.375, 1.75, 2.375, 1.75], "rotation": 270, "texture": "#0"},
				"west": {"uv": [2.375, 1.75, 2.375, 1.75], "rotation": 270, "texture": "#0"},
				"up": {"uv": [2.375, 1.75, 2.375, 1.75], "rotation": 90, "texture": "#0"},
				"down": {"uv": [2.375, 1.75, 2.375, 1.75], "rotation": 90, "texture": "#0"}
			}
		},
		{
			"from": [7.14192, 4.48132, 9.27933],
			"to": [8.3917, 4.82894, 9.54199],
			"rotation": {"angle": -22.5, "axis": "x", "origin": [7.76681, 4.7051, 8.46121]},
			"faces": {
				"north": {"uv": [2.5, 1.375, 2.5, 1.375], "rotation": 270, "texture": "#0"},
				"east": {"uv": [2.5, 1.375, 2.5, 1.375], "rotation": 270, "texture": "#0"},
				"south": {"uv": [2.5, 1.375, 2.5, 1.375], "rotation": 270, "texture": "#0"},
				"west": {"uv": [2.5, 1.375, 2.5, 1.375], "rotation": 270, "texture": "#0"},
				"up": {"uv": [2.5, 1.375, 2.5, 1.375], "rotation": 90, "texture": "#0"},
				"down": {"uv": [2.5, 1.375, 2.5, 1.375], "rotation": 90, "texture": "#0"}
			}
		},
		{
			"from": [8.19131, 4.48132, 7.53034],
			"to": [8.3917, 4.82894, 9.29214],
			"rotation": {"angle": -22.5, "axis": "x", "origin": [7.76681, 4.7051, 8.46121]},
			"faces": {
				"north": {"uv": [2.25, 1.25, 2.25, 1.625], "rotation": 270, "texture": "#0"},
				"east": {"uv": [2.25, 1.25, 2.25, 1.625], "rotation": 270, "texture": "#0"},
				"south": {"uv": [2.25, 1.25, 2.25, 1.625], "rotation": 270, "texture": "#0"},
				"west": {"uv": [2.25, 1.25, 2.25, 1.625], "rotation": 270, "texture": "#0"},
				"up": {"uv": [2.25, 1.25, 2.25, 1.625], "rotation": 180, "texture": "#0"},
				"down": {"uv": [2.25, 1.25, 2.25, 1.625], "texture": "#0"}
			}
		},
		{
			"from": [8.19131, 3.84258, 7.83631],
			"to": [8.3917, 4.1902, 9.59811],
			"rotation": {"angle": -22.5, "axis": "x", "origin": [7.76681, 3.96642, 8.76718]},
			"faces": {
				"north": {"uv": [2.25, 1.25, 2.25, 1.625], "rotation": 270, "texture": "#0"},
				"east": {"uv": [2.25, 1.25, 2.25, 1.625], "rotation": 270, "texture": "#0"},
				"south": {"uv": [2.25, 1.25, 2.25, 1.625], "rotation": 270, "texture": "#0"},
				"west": {"uv": [2.25, 1.25, 2.25, 1.625], "rotation": 270, "texture": "#0"},
				"up": {"uv": [2.25, 1.25, 2.25, 1.625], "rotation": 180, "texture": "#0"},
				"down": {"uv": [2.25, 1.25, 2.25, 1.625], "texture": "#0"}
			}
		},
		{
			"from": [7.14192, 4.48245, 10.30898],
			"to": [8.3917, 4.83008, 10.57164],
			"rotation": {"angle": -22.5, "axis": "x", "origin": [7.80504, 2.04114, 9.90814]},
			"faces": {
				"north": {"uv": [2.375, 1.75, 2.375, 1.75], "rotation": 90, "texture": "#0"},
				"east": {"uv": [2.375, 1.75, 2.375, 1.75], "rotation": 90, "texture": "#0"},
				"south": {"uv": [2.375, 1.75, 2.375, 1.75], "rotation": 90, "texture": "#0"},
				"west": {"uv": [2.375, 1.75, 2.375, 1.75], "rotation": 90, "texture": "#0"},
				"up": {"uv": [2.375, 1.75, 2.375, 1.75], "rotation": 90, "texture": "#0"},
				"down": {"uv": [2.375, 1.75, 2.375, 1.75], "rotation": 90, "texture": "#0"}
			}
		},
		{
			"from": [7.14192, 3.84258, 9.5853],
			"to": [8.3917, 4.1902, 9.84796],
			"rotation": {"angle": -22.5, "axis": "x", "origin": [7.76681, 3.96642, 8.76718]},
			"faces": {
				"north": {"uv": [2.5, 1.375, 2.5, 1.375], "rotation": 270, "texture": "#0"},
				"east": {"uv": [2.5, 1.375, 2.5, 1.375], "rotation": 270, "texture": "#0"},
				"south": {"uv": [2.5, 1.375, 2.5, 1.375], "rotation": 270, "texture": "#0"},
				"west": {"uv": [2.5, 1.375, 2.5, 1.375], "rotation": 270, "texture": "#0"},
				"up": {"uv": [2.5, 1.375, 2.5, 1.375], "rotation": 90, "texture": "#0"},
				"down": {"uv": [2.5, 1.375, 2.5, 1.375], "rotation": 90, "texture": "#0"}
			}
		},
		{
			"from": [8.19131, 4.48245, 8.75988],
			"to": [8.3917, 4.83008, 10.52167],
			"rotation": {"angle": -22.5, "axis": "x", "origin": [7.80504, 2.04114, 9.90814]},
			"faces": {
				"north": {"uv": [2.25, 1.25, 2.25, 1.625], "rotation": 90, "texture": "#0"},
				"east": {"uv": [2.25, 1.25, 2.25, 1.625], "rotation": 90, "texture": "#0"},
				"south": {"uv": [2.25, 1.25, 2.25, 1.625], "rotation": 90, "texture": "#0"},
				"west": {"uv": [2.25, 1.25, 2.25, 1.625], "rotation": 90, "texture": "#0"},
				"up": {"uv": [2.25, 1.25, 2.25, 1.625], "texture": "#0"},
				"down": {"uv": [2.25, 1.25, 2.25, 1.625], "rotation": 180, "texture": "#0"}
			}
		},
		{
			"from": [7.14192, 4.48245, 8.51002],
			"to": [8.3917, 4.83008, 8.77268],
			"rotation": {"angle": -22.5, "axis": "x", "origin": [7.80504, 2.04114, 9.90814]},
			"faces": {
				"north": {"uv": [2.5, 1.375, 2.5, 1.375], "rotation": 90, "texture": "#0"},
				"east": {"uv": [2.5, 1.375, 2.5, 1.375], "rotation": 90, "texture": "#0"},
				"south": {"uv": [2.5, 1.375, 2.5, 1.375], "rotation": 90, "texture": "#0"},
				"west": {"uv": [2.5, 1.375, 2.5, 1.375], "rotation": 90, "texture": "#0"},
				"up": {"uv": [2.5, 1.375, 2.5, 1.375], "rotation": 90, "texture": "#0"},
				"down": {"uv": [2.5, 1.375, 2.5, 1.375], "rotation": 90, "texture": "#0"}
			}
		},
		{
			"from": [7.14192, 3.84258, 7.78634],
			"to": [8.3917, 4.1902, 8.049],
			"rotation": {"angle": -22.5, "axis": "x", "origin": [7.76681, 3.96642, 8.76718]},
			"faces": {
				"north": {"uv": [2.375, 1.75, 2.375, 1.75], "rotation": 270, "texture": "#0"},
				"east": {"uv": [2.375, 1.75, 2.375, 1.75], "rotation": 270, "texture": "#0"},
				"south": {"uv": [2.375, 1.75, 2.375, 1.75], "rotation": 270, "texture": "#0"},
				"west": {"uv": [2.375, 1.75, 2.375, 1.75], "rotation": 270, "texture": "#0"},
				"up": {"uv": [2.375, 1.75, 2.375, 1.75], "rotation": 90, "texture": "#0"},
				"down": {"uv": [2.375, 1.75, 2.375, 1.75], "rotation": 90, "texture": "#0"}
			}
		},
		{
			"from": [7.14192, 3.78286, 8.51002],
			"to": [8.3917, 4.13048, 8.77268],
			"rotation": {"angle": -22.5, "axis": "x", "origin": [7.80504, 2.04114, 9.90814]},
			"faces": {
				"north": {"uv": [2.5, 1.375, 2.5, 1.375], "rotation": 90, "texture": "#0"},
				"east": {"uv": [2.5, 1.375, 2.5, 1.375], "rotation": 90, "texture": "#0"},
				"south": {"uv": [2.5, 1.375, 2.5, 1.375], "rotation": 90, "texture": "#0"},
				"west": {"uv": [2.5, 1.375, 2.5, 1.375], "rotation": 90, "texture": "#0"},
				"up": {"uv": [2.5, 1.375, 2.5, 1.375], "rotation": 90, "texture": "#0"},
				"down": {"uv": [2.5, 1.375, 2.5, 1.375], "rotation": 90, "texture": "#0"}
			}
		},
		{
			"from": [8.19131, 3.78286, 8.75988],
			"to": [8.3917, 4.13048, 10.52167],
			"rotation": {"angle": -22.5, "axis": "x", "origin": [7.80504, 2.04114, 9.90814]},
			"faces": {
				"north": {"uv": [2.25, 1.25, 2.25, 1.625], "rotation": 90, "texture": "#0"},
				"east": {"uv": [2.25, 1.25, 2.25, 1.625], "rotation": 90, "texture": "#0"},
				"south": {"uv": [2.25, 1.25, 2.25, 1.625], "rotation": 90, "texture": "#0"},
				"west": {"uv": [2.25, 1.25, 2.25, 1.625], "rotation": 90, "texture": "#0"},
				"up": {"uv": [2.25, 1.25, 2.25, 1.625], "texture": "#0"},
				"down": {"uv": [2.25, 1.25, 2.25, 1.625], "rotation": 180, "texture": "#0"}
			}
		},
		{
			"from": [7.14192, 3.78286, 10.30898],
			"to": [8.3917, 4.13048, 10.57164],
			"rotation": {"angle": -22.5, "axis": "x", "origin": [7.80504, 2.04114, 9.90814]},
			"faces": {
				"north": {"uv": [2.375, 1.75, 2.375, 1.75], "rotation": 90, "texture": "#0"},
				"east": {"uv": [2.375, 1.75, 2.375, 1.75], "rotation": 90, "texture": "#0"},
				"south": {"uv": [2.375, 1.75, 2.375, 1.75], "rotation": 90, "texture": "#0"},
				"west": {"uv": [2.375, 1.75, 2.375, 1.75], "rotation": 90, "texture": "#0"},
				"up": {"uv": [2.375, 1.75, 2.375, 1.75], "rotation": 90, "texture": "#0"},
				"down": {"uv": [2.375, 1.75, 2.375, 1.75], "rotation": 90, "texture": "#0"}
			}
		},
		{
			"from": [7.14192, 3.78286, 8.75988],
			"to": [7.3423, 4.13048, 10.52167],
			"rotation": {"angle": -22.5, "axis": "x", "origin": [7.80504, 2.04114, 9.90814]},
			"faces": {
				"north": {"uv": [2.75, 1.375, 2.75, 1.75], "rotation": 90, "texture": "#0"},
				"east": {"uv": [2.75, 1.375, 2.75, 1.75], "rotation": 90, "texture": "#0"},
				"south": {"uv": [2.75, 1.375, 2.75, 1.75], "rotation": 90, "texture": "#0"},
				"west": {"uv": [2.25, 1.25, 2.25, 1.625], "rotation": 270, "texture": "#0"},
				"up": {"uv": [2.25, 1.25, 2.25, 1.625], "texture": "#0"},
				"down": {"uv": [2.25, 1.25, 2.25, 1.625], "rotation": 180, "texture": "#0"}
			}
		},
		{
			"from": [7.14192, 3.84258, 7.83631],
			"to": [7.3423, 4.1902, 9.59811],
			"rotation": {"angle": -22.5, "axis": "x", "origin": [7.76681, 3.96642, 8.76718]},
			"faces": {
				"north": {"uv": [2.75, 1.375, 2.75, 1.75], "rotation": 270, "texture": "#0"},
				"east": {"uv": [2.75, 1.375, 2.75, 1.75], "rotation": 270, "texture": "#0"},
				"south": {"uv": [2.75, 1.375, 2.75, 1.75], "rotation": 270, "texture": "#0"},
				"west": {"uv": [2.25, 1.25, 2.25, 1.625], "rotation": 90, "texture": "#0"},
				"up": {"uv": [2.25, 1.25, 2.25, 1.625], "rotation": 180, "texture": "#0"},
				"down": {"uv": [2.25, 1.25, 2.25, 1.625], "texture": "#0"}
			}
		},
		{
			"from": [7.14192, 4.48245, 8.75988],
			"to": [7.3423, 4.83008, 10.52167],
			"rotation": {"angle": -22.5, "axis": "x", "origin": [7.80504, 2.04114, 9.90814]},
			"faces": {
				"north": {"uv": [2.75, 1.375, 2.75, 1.75], "rotation": 90, "texture": "#0"},
				"east": {"uv": [2.75, 1.375, 2.75, 1.75], "rotation": 90, "texture": "#0"},
				"south": {"uv": [2.75, 1.375, 2.75, 1.75], "rotation": 90, "texture": "#0"},
				"west": {"uv": [2.25, 1.25, 2.25, 1.625], "rotation": 270, "texture": "#0"},
				"up": {"uv": [2.25, 1.25, 2.25, 1.625], "texture": "#0"},
				"down": {"uv": [2.25, 1.25, 2.25, 1.625], "rotation": 180, "texture": "#0"}
			}
		},
		{
			"from": [7.14192, 4.48132, 7.53034],
			"to": [7.3423, 4.82894, 9.29214],
			"rotation": {"angle": -22.5, "axis": "x", "origin": [7.76681, 4.7051, 8.46121]},
			"faces": {
				"north": {"uv": [2.75, 1.375, 2.75, 1.75], "rotation": 270, "texture": "#0"},
				"east": {"uv": [2.75, 1.375, 2.75, 1.75], "rotation": 270, "texture": "#0"},
				"south": {"uv": [2.75, 1.375, 2.75, 1.75], "rotation": 270, "texture": "#0"},
				"west": {"uv": [2.25, 1.25, 2.25, 1.625], "rotation": 90, "texture": "#0"},
				"up": {"uv": [2.25, 1.25, 2.25, 1.625], "rotation": 180, "texture": "#0"},
				"down": {"uv": [2.25, 1.25, 2.25, 1.625], "texture": "#0"}
			}
		},
		{
			"from": [7.14192, 5.88051, 7.48037],
			"to": [8.3917, 6.22813, 7.74303],
			"rotation": {"angle": -22.5, "axis": "x", "origin": [7.76681, 4.7051, 8.46121]},
			"faces": {
				"north": {"uv": [2.375, 1.75, 2.375, 1.75], "rotation": 270, "texture": "#0"},
				"east": {"uv": [2.375, 1.75, 2.375, 1.75], "rotation": 270, "texture": "#0"},
				"south": {"uv": [2.375, 1.75, 2.375, 1.75], "rotation": 270, "texture": "#0"},
				"west": {"uv": [2.375, 1.75, 2.375, 1.75], "rotation": 270, "texture": "#0"},
				"up": {"uv": [2.375, 1.75, 2.375, 1.75], "rotation": 90, "texture": "#0"},
				"down": {"uv": [2.375, 1.75, 2.375, 1.75], "rotation": 90, "texture": "#0"}
			}
		},
		{
			"from": [7.14192, 5.88051, 9.27933],
			"to": [8.3917, 6.22813, 9.54199],
			"rotation": {"angle": -22.5, "axis": "x", "origin": [7.76681, 4.7051, 8.46121]},
			"faces": {
				"north": {"uv": [2.5, 1.375, 2.5, 1.375], "rotation": 270, "texture": "#0"},
				"east": {"uv": [2.5, 1.375, 2.5, 1.375], "rotation": 270, "texture": "#0"},
				"south": {"uv": [2.5, 1.375, 2.5, 1.375], "rotation": 270, "texture": "#0"},
				"west": {"uv": [2.5, 1.375, 2.5, 1.375], "rotation": 270, "texture": "#0"},
				"up": {"uv": [2.5, 1.375, 2.5, 1.375], "rotation": 90, "texture": "#0"},
				"down": {"uv": [2.5, 1.375, 2.5, 1.375], "rotation": 90, "texture": "#0"}
			}
		},
		{
			"from": [8.19131, 5.88051, 7.53034],
			"to": [8.3917, 6.22813, 9.29214],
			"rotation": {"angle": -22.5, "axis": "x", "origin": [7.76681, 4.7051, 8.46121]},
			"faces": {
				"north": {"uv": [2.25, 1.25, 2.25, 1.625], "rotation": 270, "texture": "#0"},
				"east": {"uv": [2.25, 1.25, 2.25, 1.625], "rotation": 270, "texture": "#0"},
				"south": {"uv": [2.25, 1.25, 2.25, 1.625], "rotation": 270, "texture": "#0"},
				"west": {"uv": [2.25, 1.25, 2.25, 1.625], "rotation": 270, "texture": "#0"},
				"up": {"uv": [2.25, 1.25, 2.25, 1.625], "rotation": 180, "texture": "#0"},
				"down": {"uv": [2.25, 1.25, 2.25, 1.625], "texture": "#0"}
			}
		},
		{
			"from": [8.19131, 5.24177, 7.83631],
			"to": [8.3917, 5.5894, 9.59811],
			"rotation": {"angle": -22.5, "axis": "x", "origin": [7.76681, 3.96642, 8.76718]},
			"faces": {
				"north": {"uv": [2.25, 1.25, 2.25, 1.625], "rotation": 270, "texture": "#0"},
				"east": {"uv": [2.25, 1.25, 2.25, 1.625], "rotation": 270, "texture": "#0"},
				"south": {"uv": [2.25, 1.25, 2.25, 1.625], "rotation": 270, "texture": "#0"},
				"west": {"uv": [2.25, 1.25, 2.25, 1.625], "rotation": 270, "texture": "#0"},
				"up": {"uv": [2.25, 1.25, 2.25, 1.625], "rotation": 180, "texture": "#0"},
				"down": {"uv": [2.25, 1.25, 2.25, 1.625], "texture": "#0"}
			}
		},
		{
			"from": [7.14192, 5.88165, 10.30898],
			"to": [8.3917, 6.22927, 10.57164],
			"rotation": {"angle": -22.5, "axis": "x", "origin": [7.80504, 2.04114, 9.90814]},
			"faces": {
				"north": {"uv": [2.375, 1.75, 2.375, 1.75], "rotation": 90, "texture": "#0"},
				"east": {"uv": [2.375, 1.75, 2.375, 1.75], "rotation": 90, "texture": "#0"},
				"south": {"uv": [2.375, 1.75, 2.375, 1.75], "rotation": 90, "texture": "#0"},
				"west": {"uv": [2.375, 1.75, 2.375, 1.75], "rotation": 90, "texture": "#0"},
				"up": {"uv": [2.375, 1.75, 2.375, 1.75], "rotation": 90, "texture": "#0"},
				"down": {"uv": [2.375, 1.75, 2.375, 1.75], "rotation": 90, "texture": "#0"}
			}
		},
		{
			"from": [7.14192, 5.24177, 9.5853],
			"to": [8.3917, 5.5894, 9.84796],
			"rotation": {"angle": -22.5, "axis": "x", "origin": [7.76681, 3.96642, 8.76718]},
			"faces": {
				"north": {"uv": [2.5, 1.375, 2.5, 1.375], "rotation": 270, "texture": "#0"},
				"east": {"uv": [2.5, 1.375, 2.5, 1.375], "rotation": 270, "texture": "#0"},
				"south": {"uv": [2.5, 1.375, 2.5, 1.375], "rotation": 270, "texture": "#0"},
				"west": {"uv": [2.5, 1.375, 2.5, 1.375], "rotation": 270, "texture": "#0"},
				"up": {"uv": [2.5, 1.375, 2.5, 1.375], "rotation": 90, "texture": "#0"},
				"down": {"uv": [2.5, 1.375, 2.5, 1.375], "rotation": 90, "texture": "#0"}
			}
		},
		{
			"from": [8.19131, 5.88165, 8.75988],
			"to": [8.3917, 6.22927, 10.52167],
			"rotation": {"angle": -22.5, "axis": "x", "origin": [7.80504, 2.04114, 9.90814]},
			"faces": {
				"north": {"uv": [2.25, 1.25, 2.25, 1.625], "rotation": 90, "texture": "#0"},
				"east": {"uv": [2.25, 1.25, 2.25, 1.625], "rotation": 90, "texture": "#0"},
				"south": {"uv": [2.25, 1.25, 2.25, 1.625], "rotation": 90, "texture": "#0"},
				"west": {"uv": [2.25, 1.25, 2.25, 1.625], "rotation": 90, "texture": "#0"},
				"up": {"uv": [2.25, 1.25, 2.25, 1.625], "texture": "#0"},
				"down": {"uv": [2.25, 1.25, 2.25, 1.625], "rotation": 180, "texture": "#0"}
			}
		},
		{
			"from": [7.14192, 5.88165, 8.51002],
			"to": [8.3917, 6.22927, 8.77268],
			"rotation": {"angle": -22.5, "axis": "x", "origin": [7.80504, 2.04114, 9.90814]},
			"faces": {
				"north": {"uv": [2.5, 1.375, 2.5, 1.375], "rotation": 90, "texture": "#0"},
				"east": {"uv": [2.5, 1.375, 2.5, 1.375], "rotation": 90, "texture": "#0"},
				"south": {"uv": [2.5, 1.375, 2.5, 1.375], "rotation": 90, "texture": "#0"},
				"west": {"uv": [2.5, 1.375, 2.5, 1.375], "rotation": 90, "texture": "#0"},
				"up": {"uv": [2.5, 1.375, 2.5, 1.375], "rotation": 90, "texture": "#0"},
				"down": {"uv": [2.5, 1.375, 2.5, 1.375], "rotation": 90, "texture": "#0"}
			}
		},
		{
			"from": [7.14192, 5.24177, 7.78634],
			"to": [8.3917, 5.5894, 8.049],
			"rotation": {"angle": -22.5, "axis": "x", "origin": [7.76681, 3.96642, 8.76718]},
			"faces": {
				"north": {"uv": [2.375, 1.75, 2.375, 1.75], "rotation": 270, "texture": "#0"},
				"east": {"uv": [2.375, 1.75, 2.375, 1.75], "rotation": 270, "texture": "#0"},
				"south": {"uv": [2.375, 1.75, 2.375, 1.75], "rotation": 270, "texture": "#0"},
				"west": {"uv": [2.375, 1.75, 2.375, 1.75], "rotation": 270, "texture": "#0"},
				"up": {"uv": [2.375, 1.75, 2.375, 1.75], "rotation": 90, "texture": "#0"},
				"down": {"uv": [2.375, 1.75, 2.375, 1.75], "rotation": 90, "texture": "#0"}
			}
		},
		{
			"from": [7.14192, 5.18205, 8.51002],
			"to": [8.3917, 5.52967, 8.77268],
			"rotation": {"angle": -22.5, "axis": "x", "origin": [7.80504, 2.04114, 9.90814]},
			"faces": {
				"north": {"uv": [2.5, 1.375, 2.5, 1.375], "rotation": 90, "texture": "#0"},
				"east": {"uv": [2.5, 1.375, 2.5, 1.375], "rotation": 90, "texture": "#0"},
				"south": {"uv": [2.5, 1.375, 2.5, 1.375], "rotation": 90, "texture": "#0"},
				"west": {"uv": [2.5, 1.375, 2.5, 1.375], "rotation": 90, "texture": "#0"},
				"up": {"uv": [2.5, 1.375, 2.5, 1.375], "rotation": 90, "texture": "#0"},
				"down": {"uv": [2.5, 1.375, 2.5, 1.375], "rotation": 90, "texture": "#0"}
			}
		},
		{
			"from": [8.19131, 5.18205, 8.75988],
			"to": [8.3917, 5.52967, 10.52167],
			"rotation": {"angle": -22.5, "axis": "x", "origin": [7.80504, 2.04114, 9.90814]},
			"faces": {
				"north": {"uv": [2.25, 1.25, 2.25, 1.625], "rotation": 90, "texture": "#0"},
				"east": {"uv": [2.25, 1.25, 2.25, 1.625], "rotation": 90, "texture": "#0"},
				"south": {"uv": [2.25, 1.25, 2.25, 1.625], "rotation": 90, "texture": "#0"},
				"west": {"uv": [2.25, 1.25, 2.25, 1.625], "rotation": 90, "texture": "#0"},
				"up": {"uv": [2.25, 1.25, 2.25, 1.625], "texture": "#0"},
				"down": {"uv": [2.25, 1.25, 2.25, 1.625], "rotation": 180, "texture": "#0"}
			}
		},
		{
			"from": [7.14192, 5.18205, 10.30898],
			"to": [8.3917, 5.52967, 10.57164],
			"rotation": {"angle": -22.5, "axis": "x", "origin": [7.80504, 2.04114, 9.90814]},
			"faces": {
				"north": {"uv": [2.375, 1.75, 2.375, 1.75], "rotation": 90, "texture": "#0"},
				"east": {"uv": [2.375, 1.75, 2.375, 1.75], "rotation": 90, "texture": "#0"},
				"south": {"uv": [2.375, 1.75, 2.375, 1.75], "rotation": 90, "texture": "#0"},
				"west": {"uv": [2.375, 1.75, 2.375, 1.75], "rotation": 90, "texture": "#0"},
				"up": {"uv": [2.375, 1.75, 2.375, 1.75], "rotation": 90, "texture": "#0"},
				"down": {"uv": [2.375, 1.75, 2.375, 1.75], "rotation": 90, "texture": "#0"}
			}
		},
		{
			"from": [7.14192, 5.18205, 8.75988],
			"to": [7.3423, 5.52967, 10.52167],
			"rotation": {"angle": -22.5, "axis": "x", "origin": [7.80504, 2.04114, 9.90814]},
			"faces": {
				"north": {"uv": [2.75, 1.375, 2.75, 1.75], "rotation": 90, "texture": "#0"},
				"east": {"uv": [2.75, 1.375, 2.75, 1.75], "rotation": 90, "texture": "#0"},
				"south": {"uv": [2.75, 1.375, 2.75, 1.75], "rotation": 90, "texture": "#0"},
				"west": {"uv": [2.25, 1.25, 2.25, 1.625], "rotation": 270, "texture": "#0"},
				"up": {"uv": [2.25, 1.25, 2.25, 1.625], "texture": "#0"},
				"down": {"uv": [2.25, 1.25, 2.25, 1.625], "rotation": 180, "texture": "#0"}
			}
		},
		{
			"from": [7.14192, 5.24177, 7.83631],
			"to": [7.3423, 5.5894, 9.59811],
			"rotation": {"angle": -22.5, "axis": "x", "origin": [7.76681, 3.96642, 8.76718]},
			"faces": {
				"north": {"uv": [2.75, 1.375, 2.75, 1.75], "rotation": 270, "texture": "#0"},
				"east": {"uv": [2.75, 1.375, 2.75, 1.75], "rotation": 270, "texture": "#0"},
				"south": {"uv": [2.75, 1.375, 2.75, 1.75], "rotation": 270, "texture": "#0"},
				"west": {"uv": [2.25, 1.25, 2.25, 1.625], "rotation": 90, "texture": "#0"},
				"up": {"uv": [2.25, 1.25, 2.25, 1.625], "rotation": 180, "texture": "#0"},
				"down": {"uv": [2.25, 1.25, 2.25, 1.625], "texture": "#0"}
			}
		},
		{
			"from": [7.14192, 5.88165, 8.75988],
			"to": [7.3423, 6.22927, 10.52167],
			"rotation": {"angle": -22.5, "axis": "x", "origin": [7.80504, 2.04114, 9.90814]},
			"faces": {
				"north": {"uv": [2.75, 1.375, 2.75, 1.75], "rotation": 90, "texture": "#0"},
				"east": {"uv": [2.75, 1.375, 2.75, 1.75], "rotation": 90, "texture": "#0"},
				"south": {"uv": [2.75, 1.375, 2.75, 1.75], "rotation": 90, "texture": "#0"},
				"west": {"uv": [2.25, 1.25, 2.25, 1.625], "rotation": 270, "texture": "#0"},
				"up": {"uv": [2.25, 1.25, 2.25, 1.625], "texture": "#0"},
				"down": {"uv": [2.25, 1.25, 2.25, 1.625], "rotation": 180, "texture": "#0"}
			}
		},
		{
			"from": [7.14192, 5.88051, 7.53034],
			"to": [7.3423, 6.22813, 9.29214],
			"rotation": {"angle": -22.5, "axis": "x", "origin": [7.76681, 4.7051, 8.46121]},
			"faces": {
				"north": {"uv": [2.75, 1.375, 2.75, 1.75], "rotation": 270, "texture": "#0"},
				"east": {"uv": [2.75, 1.375, 2.75, 1.75], "rotation": 270, "texture": "#0"},
				"south": {"uv": [2.75, 1.375, 2.75, 1.75], "rotation": 270, "texture": "#0"},
				"west": {"uv": [2.25, 1.25, 2.25, 1.625], "rotation": 90, "texture": "#0"},
				"up": {"uv": [2.25, 1.25, 2.25, 1.625], "rotation": 180, "texture": "#0"},
				"down": {"uv": [2.25, 1.25, 2.25, 1.625], "texture": "#0"}
			}
		},
		{
			"from": [7.14192, 3.08212, 7.48037],
			"to": [8.3917, 3.42974, 7.74303],
			"rotation": {"angle": -22.5, "axis": "x", "origin": [7.76681, 4.7051, 8.46121]},
			"faces": {
				"north": {"uv": [2.375, 1.75, 2.375, 1.75], "rotation": 270, "texture": "#0"},
				"east": {"uv": [2.375, 1.75, 2.375, 1.75], "rotation": 270, "texture": "#0"},
				"south": {"uv": [2.375, 1.75, 2.375, 1.75], "rotation": 270, "texture": "#0"},
				"west": {"uv": [2.375, 1.75, 2.375, 1.75], "rotation": 270, "texture": "#0"},
				"up": {"uv": [2.375, 1.75, 2.375, 1.75], "rotation": 90, "texture": "#0"},
				"down": {"uv": [2.375, 1.75, 2.375, 1.75], "rotation": 90, "texture": "#0"}
			}
		},
		{
			"from": [7.14192, 3.08212, 9.27933],
			"to": [8.3917, 3.42974, 9.54199],
			"rotation": {"angle": -22.5, "axis": "x", "origin": [7.76681, 4.7051, 8.46121]},
			"faces": {
				"north": {"uv": [2.5, 1.375, 2.5, 1.375], "rotation": 270, "texture": "#0"},
				"east": {"uv": [2.5, 1.375, 2.5, 1.375], "rotation": 270, "texture": "#0"},
				"south": {"uv": [2.5, 1.375, 2.5, 1.375], "rotation": 270, "texture": "#0"},
				"west": {"uv": [2.5, 1.375, 2.5, 1.375], "rotation": 270, "texture": "#0"},
				"up": {"uv": [2.5, 1.375, 2.5, 1.375], "rotation": 90, "texture": "#0"},
				"down": {"uv": [2.5, 1.375, 2.5, 1.375], "rotation": 90, "texture": "#0"}
			}
		},
		{
			"from": [8.19131, 3.08212, 7.53034],
			"to": [8.3917, 3.42974, 9.29214],
			"rotation": {"angle": -22.5, "axis": "x", "origin": [7.76681, 4.7051, 8.46121]},
			"faces": {
				"north": {"uv": [2.25, 1.25, 2.25, 1.625], "rotation": 270, "texture": "#0"},
				"east": {"uv": [2.25, 1.25, 2.25, 1.625], "rotation": 270, "texture": "#0"},
				"south": {"uv": [2.25, 1.25, 2.25, 1.625], "rotation": 270, "texture": "#0"},
				"west": {"uv": [2.25, 1.25, 2.25, 1.625], "rotation": 270, "texture": "#0"},
				"up": {"uv": [2.25, 1.25, 2.25, 1.625], "rotation": 180, "texture": "#0"},
				"down": {"uv": [2.25, 1.25, 2.25, 1.625], "texture": "#0"}
			}
		},
		{
			"from": [8.19131, 2.44339, 7.83631],
			"to": [8.3917, 2.79101, 9.59811],
			"rotation": {"angle": -22.5, "axis": "x", "origin": [7.76681, 3.96642, 8.76718]},
			"faces": {
				"north": {"uv": [2.25, 1.25, 2.25, 1.625], "rotation": 270, "texture": "#0"},
				"east": {"uv": [2.25, 1.25, 2.25, 1.625], "rotation": 270, "texture": "#0"},
				"south": {"uv": [2.25, 1.25, 2.25, 1.625], "rotation": 270, "texture": "#0"},
				"west": {"uv": [2.25, 1.25, 2.25, 1.625], "rotation": 270, "texture": "#0"},
				"up": {"uv": [2.25, 1.25, 2.25, 1.625], "rotation": 180, "texture": "#0"},
				"down": {"uv": [2.25, 1.25, 2.25, 1.625], "texture": "#0"}
			}
		},
		{
			"from": [7.14192, 3.08326, 10.30898],
			"to": [8.3917, 3.43088, 10.57164],
			"rotation": {"angle": -22.5, "axis": "x", "origin": [7.80504, 2.04114, 9.90814]},
			"faces": {
				"north": {"uv": [2.375, 1.75, 2.375, 1.75], "rotation": 90, "texture": "#0"},
				"east": {"uv": [2.375, 1.75, 2.375, 1.75], "rotation": 90, "texture": "#0"},
				"south": {"uv": [2.375, 1.75, 2.375, 1.75], "rotation": 90, "texture": "#0"},
				"west": {"uv": [2.375, 1.75, 2.375, 1.75], "rotation": 90, "texture": "#0"},
				"up": {"uv": [2.375, 1.75, 2.375, 1.75], "rotation": 90, "texture": "#0"},
				"down": {"uv": [2.375, 1.75, 2.375, 1.75], "rotation": 90, "texture": "#0"}
			}
		},
		{
			"from": [7.14192, 2.44339, 9.5853],
			"to": [8.3917, 2.79101, 9.84796],
			"rotation": {"angle": -22.5, "axis": "x", "origin": [7.76681, 3.96642, 8.76718]},
			"faces": {
				"north": {"uv": [2.5, 1.375, 2.5, 1.375], "rotation": 270, "texture": "#0"},
				"east": {"uv": [2.5, 1.375, 2.5, 1.375], "rotation": 270, "texture": "#0"},
				"south": {"uv": [2.5, 1.375, 2.5, 1.375], "rotation": 270, "texture": "#0"},
				"west": {"uv": [2.5, 1.375, 2.5, 1.375], "rotation": 270, "texture": "#0"},
				"up": {"uv": [2.5, 1.375, 2.5, 1.375], "rotation": 90, "texture": "#0"},
				"down": {"uv": [2.5, 1.375, 2.5, 1.375], "rotation": 90, "texture": "#0"}
			}
		},
		{
			"from": [8.19131, 3.08326, 8.75988],
			"to": [8.3917, 3.43088, 10.52167],
			"rotation": {"angle": -22.5, "axis": "x", "origin": [7.80504, 2.04114, 9.90814]},
			"faces": {
				"north": {"uv": [2.25, 1.25, 2.25, 1.625], "rotation": 90, "texture": "#0"},
				"east": {"uv": [2.25, 1.25, 2.25, 1.625], "rotation": 90, "texture": "#0"},
				"south": {"uv": [2.25, 1.25, 2.25, 1.625], "rotation": 90, "texture": "#0"},
				"west": {"uv": [2.25, 1.25, 2.25, 1.625], "rotation": 90, "texture": "#0"},
				"up": {"uv": [2.25, 1.25, 2.25, 1.625], "texture": "#0"},
				"down": {"uv": [2.25, 1.25, 2.25, 1.625], "rotation": 180, "texture": "#0"}
			}
		},
		{
			"from": [7.14192, 3.08326, 8.51002],
			"to": [8.3917, 3.43088, 8.77268],
			"rotation": {"angle": -22.5, "axis": "x", "origin": [7.80504, 2.04114, 9.90814]},
			"faces": {
				"north": {"uv": [2.5, 1.375, 2.5, 1.375], "rotation": 90, "texture": "#0"},
				"east": {"uv": [2.5, 1.375, 2.5, 1.375], "rotation": 90, "texture": "#0"},
				"south": {"uv": [2.5, 1.375, 2.5, 1.375], "rotation": 90, "texture": "#0"},
				"west": {"uv": [2.5, 1.375, 2.5, 1.375], "rotation": 90, "texture": "#0"},
				"up": {"uv": [2.5, 1.375, 2.5, 1.375], "rotation": 90, "texture": "#0"},
				"down": {"uv": [2.5, 1.375, 2.5, 1.375], "rotation": 90, "texture": "#0"}
			}
		},
		{
			"from": [7.14192, 2.44339, 7.78634],
			"to": [8.3917, 2.79101, 8.049],
			"rotation": {"angle": -22.5, "axis": "x", "origin": [7.76681, 3.96642, 8.76718]},
			"faces": {
				"north": {"uv": [2.375, 1.75, 2.375, 1.75], "rotation": 270, "texture": "#0"},
				"east": {"uv": [2.375, 1.75, 2.375, 1.75], "rotation": 270, "texture": "#0"},
				"south": {"uv": [2.375, 1.75, 2.375, 1.75], "rotation": 270, "texture": "#0"},
				"west": {"uv": [2.375, 1.75, 2.375, 1.75], "rotation": 270, "texture": "#0"},
				"up": {"uv": [2.375, 1.75, 2.375, 1.75], "rotation": 90, "texture": "#0"},
				"down": {"uv": [2.375, 1.75, 2.375, 1.75], "rotation": 90, "texture": "#0"}
			}
		},
		{
			"from": [7.14192, 2.44339, 7.83631],
			"to": [7.3423, 2.79101, 9.59811],
			"rotation": {"angle": -22.5, "axis": "x", "origin": [7.76681, 3.96642, 8.76718]},
			"faces": {
				"north": {"uv": [2.75, 1.375, 2.75, 1.75], "rotation": 270, "texture": "#0"},
				"east": {"uv": [2.75, 1.375, 2.75, 1.75], "rotation": 270, "texture": "#0"},
				"south": {"uv": [2.75, 1.375, 2.75, 1.75], "rotation": 270, "texture": "#0"},
				"west": {"uv": [2.25, 1.25, 2.25, 1.625], "rotation": 90, "texture": "#0"},
				"up": {"uv": [2.25, 1.25, 2.25, 1.625], "rotation": 180, "texture": "#0"},
				"down": {"uv": [2.25, 1.25, 2.25, 1.625], "texture": "#0"}
			}
		},
		{
			"from": [7.14192, 3.08326, 8.75988],
			"to": [7.3423, 3.43088, 10.52167],
			"rotation": {"angle": -22.5, "axis": "x", "origin": [7.80504, 2.04114, 9.90814]},
			"faces": {
				"north": {"uv": [2.75, 1.375, 2.75, 1.75], "rotation": 90, "texture": "#0"},
				"east": {"uv": [2.75, 1.375, 2.75, 1.75], "rotation": 90, "texture": "#0"},
				"south": {"uv": [2.75, 1.375, 2.75, 1.75], "rotation": 90, "texture": "#0"},
				"west": {"uv": [2.25, 1.25, 2.25, 1.625], "rotation": 270, "texture": "#0"},
				"up": {"uv": [2.25, 1.25, 2.25, 1.625], "texture": "#0"},
				"down": {"uv": [2.25, 1.25, 2.25, 1.625], "rotation": 180, "texture": "#0"}
			}
		},
		{
			"from": [7.14192, 3.08212, 7.53034],
			"to": [7.3423, 3.42974, 9.29214],
			"rotation": {"angle": -22.5, "axis": "x", "origin": [7.76681, 4.7051, 8.46121]},
			"faces": {
				"north": {"uv": [2.75, 1.375, 2.75, 1.75], "rotation": 270, "texture": "#0"},
				"east": {"uv": [2.75, 1.375, 2.75, 1.75], "rotation": 270, "texture": "#0"},
				"south": {"uv": [2.75, 1.375, 2.75, 1.75], "rotation": 270, "texture": "#0"},
				"west": {"uv": [2.25, 1.25, 2.25, 1.625], "rotation": 90, "texture": "#0"},
				"up": {"uv": [2.25, 1.25, 2.25, 1.625], "rotation": 180, "texture": "#0"},
				"down": {"uv": [2.25, 1.25, 2.25, 1.625], "texture": "#0"}
			}
		},
		{
			"from": [7.41376, 2.95564, 9.80676],
			"to": [8.26377, 9.64961, 10.36925],
			"rotation": {"angle": -22.5, "axis": "x", "origin": [7.80504, 2.04114, 9.90814]},
			"faces": {
				"north": {"uv": [2.875, 2.875, 2.875, 2.875], "rotation": 270, "texture": "#0"},
				"east": {"uv": [2.875, 2.875, 2.875, 2.875], "rotation": 270, "texture": "#0"},
				"south": {"uv": [2.875, 2.875, 2.875, 2.875], "rotation": 270, "texture": "#0"},
				"west": {"uv": [2.875, 2.875, 2.875, 2.875], "rotation": 270, "texture": "#0"},
				"up": {"uv": [2.875, 2.875, 2.875, 2.875], "rotation": 90, "texture": "#0"},
				"down": {"uv": [2.875, 2.875, 2.875, 2.875], "rotation": 90, "texture": "#0"}
			}
		},
		{
			"from": [7.31382, 8.14695, 7.0629],
			"to": [8.36371, 11.49284, 7.62539],
			"rotation": {"angle": 0, "axis": "y", "origin": [7.83877, 6.04707, 8.44351]},
			"faces": {
				"north": {"uv": [4.75, 9.5, 4.75, 9.5], "rotation": 270, "texture": "#0"},
				"east": {"uv": [4.75, 9.5, 4.75, 9.5], "rotation": 270, "texture": "#0"},
				"south": {"uv": [4.75, 9.5, 4.75, 9.5], "rotation": 270, "texture": "#0"},
				"west": {"uv": [4.75, 9.5, 4.75, 9.5], "rotation": 270, "texture": "#0"},
				"up": {"uv": [4.75, 9.5, 4.75, 9.5], "rotation": 270, "texture": "#0"},
				"down": {"uv": [4.75, 9.5, 4.75, 9.5], "rotation": 270, "texture": "#0"}
			}
		},
		{
			"from": [7.16391, 8.14695, 6.21339],
			"to": [8.36371, 11.64276, 6.77588],
			"rotation": {"angle": 0, "axis": "y", "origin": [7.83877, 6.04707, 8.44351]},
			"faces": {
				"north": {"uv": [4.75, 9.5, 4.75, 9.5], "rotation": 270, "texture": "#0"},
				"east": {"uv": [4.75, 9.5, 4.75, 9.5], "rotation": 270, "texture": "#0"},
				"south": {"uv": [4.75, 9.5, 4.75, 9.5], "rotation": 270, "texture": "#0"},
				"west": {"uv": [4.75, 9.5, 4.75, 9.5], "rotation": 270, "texture": "#0"},
				"up": {"uv": [4.75, 9.5, 4.75, 9.5], "rotation": 270, "texture": "#0"},
				"down": {"uv": [4.75, 9.5, 4.75, 9.5], "rotation": 270, "texture": "#0"}
			}
		},
		{
			"from": [7.3418, 8.42576, 6.02067],
			"to": [8.19181, 11.49284, 6.77588],
			"rotation": {"angle": 0, "axis": "y", "origin": [7.83877, 6.04707, 8.44351]},
			"faces": {
				"north": {"uv": [2.875, 2.875, 2.875, 2.875], "rotation": 270, "texture": "#0"},
				"east": {"uv": [2.875, 2.875, 2.875, 2.875], "rotation": 270, "texture": "#0"},
				"south": {"uv": [2.875, 2.875, 2.875, 2.875], "rotation": 270, "texture": "#0"},
				"west": {"uv": [2.875, 2.875, 2.875, 2.875], "rotation": 270, "texture": "#0"},
				"up": {"uv": [2.875, 2.875, 2.875, 2.875], "rotation": 90, "texture": "#0"},
				"down": {"uv": [2.875, 2.875, 2.875, 2.875], "rotation": 90, "texture": "#0"}
			}
		},
		{
			"from": [7.58249, 10.78357, 5.9707],
			"to": [7.93275, 11.13387, 7.37554],
			"rotation": {"angle": -45, "axis": "z", "origin": [7.76681, 10.95872, 6.37329]},
			"faces": {
				"north": {"uv": [4.75, 3.5, 4.75, 3.5], "texture": "#0"},
				"east": {"uv": [4.75, 3.5, 4.75, 3.5], "texture": "#0"},
				"south": {"uv": [4.75, 3.5, 4.75, 3.5], "texture": "#0"},
				"west": {"uv": [4.75, 3.5, 4.75, 3.5], "texture": "#0"},
				"up": {"uv": [4.75, 3.5, 4.75, 3.5], "texture": "#0"},
				"down": {"uv": [4.75, 3.5, 4.75, 3.5], "texture": "#0"}
			}
		},
		{
			"from": [7.63246, 10.78357, 6.52038],
			"to": [7.98273, 11.13387, 7.67536],
			"rotation": {"angle": -45, "axis": "z", "origin": [7.81678, 10.95872, 6.37329]},
			"faces": {
				"north": {"uv": [3.125, 3.625, 3.125, 3.625], "texture": "#0"},
				"east": {"uv": [3.125, 3.625, 3.125, 3.625], "texture": "#0"},
				"south": {"uv": [3.125, 3.625, 3.125, 3.625], "texture": "#0"},
				"west": {"uv": [3.125, 3.625, 3.125, 3.625], "texture": "#0"},
				"up": {"uv": [3.125, 3.625, 3.125, 3.625], "texture": "#0"},
				"down": {"uv": [3.125, 3.625, 3.125, 3.625], "texture": "#0"}
			}
		},
		{
			"from": [7.58249, 9.98404, 5.9707],
			"to": [7.93275, 10.33433, 7.37554],
			"rotation": {"angle": -45, "axis": "z", "origin": [7.76681, 10.15918, 6.37329]},
			"faces": {
				"north": {"uv": [4.75, 3.5, 4.75, 3.5], "texture": "#0"},
				"east": {"uv": [4.75, 3.5, 4.75, 3.5], "texture": "#0"},
				"south": {"uv": [4.75, 3.5, 4.75, 3.5], "texture": "#0"},
				"west": {"uv": [4.75, 3.5, 4.75, 3.5], "texture": "#0"},
				"up": {"uv": [4.75, 3.5, 4.75, 3.5], "texture": "#0"},
				"down": {"uv": [4.75, 3.5, 4.75, 3.5], "texture": "#0"}
			}
		},
		{
			"from": [7.63246, 9.98404, 6.52038],
			"to": [7.98273, 10.33433, 7.67536],
			"rotation": {"angle": -45, "axis": "z", "origin": [7.81678, 10.15918, 6.37329]},
			"faces": {
				"north": {"uv": [3.125, 3.625, 3.125, 3.625], "texture": "#0"},
				"east": {"uv": [3.125, 3.625, 3.125, 3.625], "texture": "#0"},
				"south": {"uv": [3.125, 3.625, 3.125, 3.625], "texture": "#0"},
				"west": {"uv": [3.125, 3.625, 3.125, 3.625], "texture": "#0"},
				"up": {"uv": [3.125, 3.625, 3.125, 3.625], "texture": "#0"},
				"down": {"uv": [3.125, 3.625, 3.125, 3.625], "texture": "#0"}
			}
		},
		{
			"from": [7.58249, 9.13452, 5.9707],
			"to": [7.93275, 9.48482, 7.37554],
			"rotation": {"angle": -45, "axis": "z", "origin": [7.76681, 9.30967, 6.37329]},
			"faces": {
				"north": {"uv": [4.75, 3.5, 4.75, 3.5], "texture": "#0"},
				"east": {"uv": [4.75, 3.5, 4.75, 3.5], "texture": "#0"},
				"south": {"uv": [4.75, 3.5, 4.75, 3.5], "texture": "#0"},
				"west": {"uv": [4.75, 3.5, 4.75, 3.5], "texture": "#0"},
				"up": {"uv": [4.75, 3.5, 4.75, 3.5], "texture": "#0"},
				"down": {"uv": [4.75, 3.5, 4.75, 3.5], "texture": "#0"}
			}
		},
		{
			"from": [7.63246, 9.13452, 6.52038],
			"to": [7.98273, 9.48482, 7.67536],
			"rotation": {"angle": -45, "axis": "z", "origin": [7.81678, 9.30967, 6.37329]},
			"faces": {
				"north": {"uv": [3.125, 3.625, 3.125, 3.625], "texture": "#0"},
				"east": {"uv": [3.125, 3.625, 3.125, 3.625], "texture": "#0"},
				"south": {"uv": [3.125, 3.625, 3.125, 3.625], "texture": "#0"},
				"west": {"uv": [3.125, 3.625, 3.125, 3.625], "texture": "#0"},
				"up": {"uv": [3.125, 3.625, 3.125, 3.625], "texture": "#0"},
				"down": {"uv": [3.125, 3.625, 3.125, 3.625], "texture": "#0"}
			}
		}
	],
	"display": {
		"thirdperson_righthand": {
			"rotation": [31.75, 0, 0],
			"translation": [0, 2.25, 2],
			"scale": [1.13, 1.31, 1.22]
		},
		"thirdperson_lefthand": {
			"rotation": [31.75, 0, 0],
			"translation": [0, 1.5, 1.5]
		},
		"firstperson_righthand": {
			"rotation": [29, 0, 0],
			"translation": [-2, 1.5, 0]
		},
		"firstperson_lefthand": {
			"rotation": [29, 0, 0],
			"translation": [-2, 1.75, 0]
		},
		"ground": {
			"rotation": [-17, -15, -16]
		},
		"gui": {
			"rotation": [-42, 152, 51],
			"translation": [-4, -2, 0],
			"scale": [0.65, 0.66, 0.73]
		},
		"head": {
			"translation": [0, 13, 0]
		},
		"fixed": {
			"rotation": [90, 125, 90],
			"translation": [-6, 10, -3.5],
			"scale": [1.13, 1.31, 1.22]
		}
	},
	"groups": [
		{
			"name": "group",
			"origin": [7.82047, 13.04035, 7.52233],
			"children": [0, 1, 2, 3, 4, 5, 6, 7, 8, 9, 10, 11, 12, 13, 14, 15, 16, 17, 18, 19, 20]
		},
		{
			"name": "group",
			"origin": [4.52447, 18.86032, 8.72589],
			"children": [21, 22, 23, 24, 25, 26, 27, 28]
		},
		{
			"name": "group",
			"origin": [7.79914, 5.45077, 9.18895],
			"children": [29, 30, 31, 32, 33, 34, 35, 36, 37, 38, 39, 40, 41, 42, 43,
				{
					"name": "group",
					"origin": [7.77566, 4.93633, 8.10842],
					"children": [44, 45, 46, 47, 48, 49, 50, 51, 52, 53, 54, 55, 56, 57, 58, 59]
				},
				{
					"name": "group",
					"origin": [7.77566, 4.93633, 8.10842],
					"children": [60, 61, 62, 63, 64, 65, 66, 67, 68, 69, 70, 71, 72, 73, 74, 75]
				},
				{
					"name": "group",
					"origin": [7.77566, 4.93633, 8.10842],
					"children": [76, 77, 78, 79, 80, 81, 82, 83, 84, 85, 86, 87]
				}, 88, 89, 90, 91, 92, 93, 94, 95, 96, 97]
		}
	]
}
