{
	"credit": "Made with Blockbench",
	"textures": {
		"0": "gci:items/common/all_in_one",
		"particle": "gci:items/common/all_in_one"
	},
	"elements": [
		{
			"from": [8.1, 2, 7],
			"to": [8.9, 8, 7.3],
			"rotation": {"angle": 0, "axis": "y", "origin": [16, 11, 15]},
			"faces": {
				"north": {"uv": [6.875, 10.25, 7, 10.375], "texture": "#0"},
				"east": {"uv": [6.875, 10.25, 7, 10.375], "texture": "#0"},
				"south": {"uv": [6.875, 10.25, 7, 10.375], "texture": "#0"},
				"west": {"uv": [6.875, 10.25, 7, 10.375], "texture": "#0"},
				"up": {"uv": [6.875, 10.25, 7, 10.375], "texture": "#0"},
				"down": {"uv": [6.875, 10.25, 7, 10.375], "texture": "#0"}
			}
		},
		{
			"from": [8.1, 2, 8],
			"to": [8.9, 8, 8.3],
			"rotation": {"angle": 0, "axis": "y", "origin": [16, 11, 16]},
			"faces": {
				"north": {"uv": [6.875, 10.25, 7, 10.375], "texture": "#0"},
				"east": {"uv": [6.875, 10.25, 7, 10.375], "texture": "#0"},
				"south": {"uv": [6.875, 10.25, 7, 10.375], "texture": "#0"},
				"west": {"uv": [6.875, 10.25, 7, 10.375], "texture": "#0"},
				"up": {"uv": [6.875, 10.25, 7, 10.375], "texture": "#0"},
				"down": {"uv": [6.875, 10.25, 7, 10.375], "texture": "#0"}
			}
		},
		{
			"from": [7.85, 2, 7.25],
			"to": [8.15, 8, 8.05],
			"rotation": {"angle": 0, "axis": "y", "origin": [8.5, 3.5, 7.65]},
			"faces": {
				"north": {"uv": [6.875, 10.25, 7, 10.375], "texture": "#0"},
				"east": {"uv": [6.875, 10.25, 7, 10.375], "texture": "#0"},
				"south": {"uv": [6.875, 10.25, 7, 10.375], "texture": "#0"},
				"west": {"uv": [6.875, 10.25, 7, 10.375], "texture": "#0"},
				"up": {"uv": [6.875, 10.25, 7, 10.375], "texture": "#0"},
				"down": {"uv": [6.875, 10.25, 7, 10.375], "texture": "#0"}
			}
		},
		{
			"from": [8.85, 2, 7.25],
			"to": [9.15, 8, 8.05],
			"rotation": {"angle": 0, "axis": "y", "origin": [8.5, 3.5, 7.65]},
			"faces": {
				"north": {"uv": [6.875, 10.25, 7, 10.375], "texture": "#0"},
				"east": {"uv": [6.875, 10.25, 7, 10.375], "texture": "#0"},
				"south": {"uv": [6.875, 10.25, 7, 10.375], "texture": "#0"},
				"west": {"uv": [6.875, 10.25, 7, 10.375], "texture": "#0"},
				"up": {"uv": [6.875, 10.25, 7, 10.375], "texture": "#0"},
				"down": {"uv": [6.875, 10.25, 7, 10.375], "texture": "#0"}
			}
		},
		{
			"from": [8.97, 2, 7.62],
			"to": [9.27, 8, 7.97],
			"rotation": {"angle": -45, "axis": "y", "origin": [8.6901, 3.5, 7.6901]},
			"faces": {
				"north": {"uv": [6.875, 10.25, 7, 10.375], "texture": "#0"},
				"east": {"uv": [6.875, 10.25, 7, 10.375], "texture": "#0"},
				"south": {"uv": [6.875, 10.25, 7, 10.375], "texture": "#0"},
				"west": {"uv": [6.875, 10.25, 7, 10.375], "texture": "#0"},
				"up": {"uv": [6.875, 10.25, 7, 10.375], "texture": "#0"},
				"down": {"uv": [6.875, 10.25, 7, 10.375], "texture": "#0"}
			}
		},
		{
			"from": [7.925, 2, 7.072],
			"to": [8.275, 8, 7.372],
			"rotation": {"angle": 45, "axis": "y", "origin": [8.1, 3.5, 7.25]},
			"faces": {
				"north": {"uv": [6.875, 10.25, 7, 10.375], "texture": "#0"},
				"east": {"uv": [6.875, 10.25, 7, 10.375], "texture": "#0"},
				"south": {"uv": [6.875, 10.25, 7, 10.375], "texture": "#0"},
				"west": {"uv": [6.875, 10.25, 7, 10.375], "texture": "#0"},
				"up": {"uv": [6.875, 10.25, 7, 10.375], "texture": "#0"},
				"down": {"uv": [6.875, 10.25, 7, 10.375], "texture": "#0"}
			}
		},
		{
			"from": [8.789, 2, 7.064],
			"to": [9.139, 8, 7.364],
			"rotation": {"angle": -45, "axis": "y", "origin": [8.91991, 3.5, 7.16826]},
			"faces": {
				"north": {"uv": [6.875, 10.25, 7, 10.375], "texture": "#0"},
				"east": {"uv": [6.875, 10.25, 7, 10.375], "texture": "#0"},
				"south": {"uv": [6.875, 10.25, 7, 10.375], "texture": "#0"},
				"west": {"uv": [6.875, 10.25, 7, 10.375], "texture": "#0"},
				"up": {"uv": [6.875, 10.25, 7, 10.375], "texture": "#0"},
				"down": {"uv": [6.875, 10.25, 7, 10.375], "texture": "#0"}
			}
		},
		{
			"from": [7.989, 2, 7.918],
			"to": [8.339, 8, 8.218],
			"rotation": {"angle": -45, "axis": "y", "origin": [8.11991, 3.5, 7.96826]},
			"faces": {
				"north": {"uv": [6.875, 10.25, 7, 10.375], "texture": "#0"},
				"east": {"uv": [6.875, 10.25, 7, 10.375], "texture": "#0"},
				"south": {"uv": [6.875, 10.25, 7, 10.375], "texture": "#0"},
				"west": {"uv": [6.875, 10.25, 7, 10.375], "texture": "#0"},
				"up": {"uv": [6.875, 10.25, 7, 10.375], "texture": "#0"},
				"down": {"uv": [6.875, 10.25, 7, 10.375], "texture": "#0"}
			}
		},
		{
			"from": [9.064, 1.8, 7.644],
			"to": [9.424, 2.7, 8.064],
			"rotation": {"angle": -45, "axis": "y", "origin": [8.72812, 3.3, 7.72812]},
			"faces": {
				"north": {"uv": [6.875, 10.25, 7, 10.375], "texture": "#0"},
				"east": {"uv": [6.875, 10.25, 7, 10.375], "texture": "#0"},
				"south": {"uv": [6.875, 10.25, 7, 10.375], "texture": "#0"},
				"west": {"uv": [6.875, 10.25, 7, 10.375], "texture": "#0"},
				"up": {"uv": [6.875, 10.25, 7, 10.375], "texture": "#0"},
				"down": {"uv": [6.875, 10.25, 7, 10.375], "texture": "#0"}
			}
		},
		{
			"from": [8.02, 1.8, 8.1],
			"to": [8.98, 2.7, 8.46],
			"rotation": {"angle": 0, "axis": "y", "origin": [17.5, 10.8, 17.7]},
			"faces": {
				"north": {"uv": [6.875, 10.25, 7, 10.375], "texture": "#0"},
				"east": {"uv": [6.875, 10.25, 7, 10.375], "texture": "#0"},
				"south": {"uv": [6.875, 10.25, 7, 10.375], "texture": "#0"},
				"west": {"uv": [6.875, 10.25, 7, 10.375], "texture": "#0"},
				"up": {"uv": [6.875, 10.25, 7, 10.375], "texture": "#0"},
				"down": {"uv": [6.875, 10.25, 7, 10.375], "texture": "#0"}
			}
		},
		{
			"from": [7.8868, 1.8, 8.0016],
			"to": [8.3068, 2.7, 8.3616],
			"rotation": {"angle": -45, "axis": "y", "origin": [8.04389, 3.3, 8.06191]},
			"faces": {
				"north": {"uv": [6.875, 10.25, 7, 10.375], "texture": "#0"},
				"east": {"uv": [6.875, 10.25, 7, 10.375], "texture": "#0"},
				"south": {"uv": [6.875, 10.25, 7, 10.375], "texture": "#0"},
				"west": {"uv": [6.875, 10.25, 7, 10.375], "texture": "#0"},
				"up": {"uv": [6.875, 10.25, 7, 10.375], "texture": "#0"},
				"down": {"uv": [6.875, 10.25, 7, 10.375], "texture": "#0"}
			}
		},
		{
			"from": [7.72, 1.8, 7.2],
			"to": [8.08, 2.7, 8.16],
			"rotation": {"angle": 0, "axis": "y", "origin": [8.5, 3.3, 7.68]},
			"faces": {
				"north": {"uv": [6.875, 10.25, 7, 10.375], "texture": "#0"},
				"east": {"uv": [6.875, 10.25, 7, 10.375], "texture": "#0"},
				"south": {"uv": [6.875, 10.25, 7, 10.375], "texture": "#0"},
				"west": {"uv": [6.875, 10.25, 7, 10.375], "texture": "#0"},
				"up": {"uv": [6.875, 10.25, 7, 10.375], "texture": "#0"},
				"down": {"uv": [6.875, 10.25, 7, 10.375], "texture": "#0"}
			}
		},
		{
			"from": [7.81, 1.8, 6.9864],
			"to": [8.23, 2.7, 7.3464],
			"rotation": {"angle": 45, "axis": "y", "origin": [8.02, 3.3, 7.2]},
			"faces": {
				"north": {"uv": [6.875, 10.25, 7, 10.375], "texture": "#0"},
				"east": {"uv": [6.875, 10.25, 7, 10.375], "texture": "#0"},
				"south": {"uv": [6.875, 10.25, 7, 10.375], "texture": "#0"},
				"west": {"uv": [6.875, 10.25, 7, 10.375], "texture": "#0"},
				"up": {"uv": [6.875, 10.25, 7, 10.375], "texture": "#0"},
				"down": {"uv": [6.875, 10.25, 7, 10.375], "texture": "#0"}
			}
		},
		{
			"from": [8.02, 1.8, 6.9],
			"to": [8.98, 2.7, 8.16],
			"rotation": {"angle": 0, "axis": "y", "origin": [17.5, 10.8, 16.5]},
			"faces": {
				"north": {"uv": [6.875, 10.25, 7, 10.375], "texture": "#0"},
				"east": {"uv": [6.875, 10.25, 7, 10.375], "texture": "#0"},
				"south": {"uv": [6.875, 10.25, 7, 10.375], "texture": "#0"},
				"west": {"uv": [6.875, 10.25, 7, 10.375], "texture": "#0"},
				"up": {"uv": [6.875, 10.25, 7, 10.375], "texture": "#0"},
				"down": {"uv": [6.875, 10.25, 7, 10.375], "texture": "#0"}
			}
		},
		{
			"from": [8.92, 1.8, 7.2],
			"to": [9.28, 2.7, 8.16],
			"rotation": {"angle": 0, "axis": "y", "origin": [8.5, 3.3, 7.68]},
			"faces": {
				"north": {"uv": [6.875, 10.25, 7, 10.375], "texture": "#0"},
				"east": {"uv": [6.875, 10.25, 7, 10.375], "texture": "#0"},
				"south": {"uv": [6.875, 10.25, 7, 10.375], "texture": "#0"},
				"west": {"uv": [6.875, 10.25, 7, 10.375], "texture": "#0"},
				"up": {"uv": [6.875, 10.25, 7, 10.375], "texture": "#0"},
				"down": {"uv": [6.875, 10.25, 7, 10.375], "texture": "#0"}
			}
		},
		{
			"from": [8.8468, 1.8, 6.9768],
			"to": [9.2668, 2.7, 7.3368],
			"rotation": {"angle": -45, "axis": "y", "origin": [9.00389, 3.3, 7.10191]},
			"faces": {
				"north": {"uv": [6.875, 10.25, 7, 10.375], "texture": "#0"},
				"east": {"uv": [6.875, 10.25, 7, 10.375], "texture": "#0"},
				"south": {"uv": [6.875, 10.25, 7, 10.375], "texture": "#0"},
				"west": {"uv": [6.875, 10.25, 7, 10.375], "texture": "#0"},
				"up": {"uv": [6.875, 10.25, 7, 10.375], "texture": "#0"},
				"down": {"uv": [6.875, 10.25, 7, 10.375], "texture": "#0"}
			}
		},
		{
			"from": [8.85, 8, 7.25],
			"to": [9.35, 8.3, 8.05],
			"rotation": {"angle": 0, "axis": "y", "origin": [8.5, 3.8, 7.65]},
			"faces": {
				"north": {"uv": [6.875, 10.25, 7, 10.375], "texture": "#0"},
				"east": {"uv": [6.875, 10.25, 7, 10.375], "texture": "#0"},
				"south": {"uv": [6.875, 10.25, 7, 10.375], "texture": "#0"},
				"west": {"uv": [6.875, 10.25, 7, 10.375], "texture": "#0"},
				"up": {"uv": [6.875, 10.25, 7, 10.375], "texture": "#0"},
				"down": {"uv": [6.875, 10.25, 7, 10.375], "texture": "#0"}
			}
		},
		{
			"from": [8.1, 8, 6.8],
			"to": [8.9, 8.3, 7.3],
			"rotation": {"angle": 0, "axis": "y", "origin": [16, 11.3, 15]},
			"faces": {
				"north": {"uv": [6.875, 10.25, 7, 10.375], "texture": "#0"},
				"east": {"uv": [6.875, 10.25, 7, 10.375], "texture": "#0"},
				"south": {"uv": [6.875, 10.25, 7, 10.375], "texture": "#0"},
				"west": {"uv": [6.875, 10.25, 7, 10.375], "texture": "#0"},
				"up": {"uv": [6.875, 10.25, 7, 10.375], "texture": "#0"},
				"down": {"uv": [6.875, 10.25, 7, 10.375], "texture": "#0"}
			}
		},
		{
			"from": [7.65, 8, 7.25],
			"to": [8.15, 8.3, 8.05],
			"rotation": {"angle": 0, "axis": "y", "origin": [8.5, 3.8, 7.65]},
			"faces": {
				"north": {"uv": [6.875, 10.25, 7, 10.375], "texture": "#0"},
				"east": {"uv": [6.875, 10.25, 7, 10.375], "texture": "#0"},
				"south": {"uv": [6.875, 10.25, 7, 10.375], "texture": "#0"},
				"west": {"uv": [6.875, 10.25, 7, 10.375], "texture": "#0"},
				"up": {"uv": [6.875, 10.25, 7, 10.375], "texture": "#0"},
				"down": {"uv": [6.875, 10.25, 7, 10.375], "texture": "#0"}
			}
		},
		{
			"from": [8.1, 8, 8],
			"to": [8.9, 8.3, 8.5],
			"rotation": {"angle": 0, "axis": "y", "origin": [16, 11.3, 16]},
			"faces": {
				"north": {"uv": [6.875, 10.25, 7, 10.375], "texture": "#0"},
				"east": {"uv": [6.875, 10.25, 7, 10.375], "texture": "#0"},
				"south": {"uv": [6.875, 10.25, 7, 10.375], "texture": "#0"},
				"west": {"uv": [6.875, 10.25, 7, 10.375], "texture": "#0"},
				"up": {"uv": [6.875, 10.25, 7, 10.375], "texture": "#0"},
				"down": {"uv": [6.875, 10.25, 7, 10.375], "texture": "#0"}
			}
		},
		{
			"from": [8.746, 8, 7.805],
			"to": [9.246, 8.3, 8.44],
			"rotation": {"angle": -45, "axis": "y", "origin": [9, 8.15, 8.05]},
			"faces": {
				"north": {"uv": [6.875, 10.25, 7, 10.375], "texture": "#0"},
				"east": {"uv": [6.875, 10.25, 7, 10.375], "texture": "#0"},
				"south": {"uv": [6.875, 10.25, 7, 10.375], "texture": "#0"},
				"west": {"uv": [6.875, 10.25, 7, 10.375], "texture": "#0"},
				"up": {"uv": [6.875, 10.25, 7, 10.375], "texture": "#0"},
				"down": {"uv": [6.875, 10.25, 7, 10.375], "texture": "#0"}
			}
		},
		{
			"from": [7.846, 8, 6.905],
			"to": [8.346, 8.3, 7.54],
			"rotation": {"angle": -45, "axis": "y", "origin": [8.1, 8.15, 7.15]},
			"faces": {
				"north": {"uv": [6.875, 10.25, 7, 10.375], "texture": "#0"},
				"east": {"uv": [6.875, 10.25, 7, 10.375], "texture": "#0"},
				"south": {"uv": [6.875, 10.25, 7, 10.375], "texture": "#0"},
				"west": {"uv": [6.875, 10.25, 7, 10.375], "texture": "#0"},
				"up": {"uv": [6.875, 10.25, 7, 10.375], "texture": "#0"},
				"down": {"uv": [6.875, 10.25, 7, 10.375], "texture": "#0"}
			}
		},
		{
			"from": [7.75, 8, 7.805],
			"to": [8.25, 8.3, 8.44],
			"rotation": {"angle": 45, "axis": "y", "origin": [8, 8.15, 8.05]},
			"faces": {
				"north": {"uv": [6.875, 10.25, 7, 10.375], "texture": "#0"},
				"east": {"uv": [6.875, 10.25, 7, 10.375], "texture": "#0"},
				"south": {"uv": [6.875, 10.25, 7, 10.375], "texture": "#0"},
				"west": {"uv": [6.875, 10.25, 7, 10.375], "texture": "#0"},
				"up": {"uv": [6.875, 10.25, 7, 10.375], "texture": "#0"},
				"down": {"uv": [6.875, 10.25, 7, 10.375], "texture": "#0"}
			}
		},
		{
			"from": [8.65, 8, 6.905],
			"to": [9.15, 8.3, 7.54],
			"rotation": {"angle": 45, "axis": "y", "origin": [8.9, 8.15, 7.15]},
			"faces": {
				"north": {"uv": [6.875, 10.25, 7, 10.375], "texture": "#0"},
				"east": {"uv": [6.875, 10.25, 7, 10.375], "texture": "#0"},
				"south": {"uv": [6.875, 10.25, 7, 10.375], "texture": "#0"},
				"west": {"uv": [6.875, 10.25, 7, 10.375], "texture": "#0"},
				"up": {"uv": [6.875, 10.25, 7, 10.375], "texture": "#0"},
				"down": {"uv": [6.875, 10.25, 7, 10.375], "texture": "#0"}
			}
		},
		{
			"from": [8.3, 3.4, 7.15],
			"to": [8.7, 13.4, 7.35],
			"rotation": {"angle": 0, "axis": "y", "origin": [16, 12.4, 15.05]},
			"faces": {
				"north": {"uv": [4.5, 9.75, 4.625, 9.875], "texture": "#0"},
				"east": {"uv": [4.625, 9.625, 4.75, 9.75], "texture": "#0"},
				"south": {"uv": [4.5, 9.75, 4.625, 9.875], "texture": "#0"},
				"west": {"uv": [4.5, 9.75, 4.625, 9.875], "texture": "#0"},
				"up": {"uv": [4.5, 9.75, 4.625, 9.875], "texture": "#0"},
				"down": {"uv": [4.5, 9.75, 4.625, 9.875], "texture": "#0"}
			}
		},
		{
			"from": [8.3, 3.4, 7.95],
			"to": [8.7, 13.4, 8.15],
			"rotation": {"angle": 0, "axis": "y", "origin": [16, 12.4, 0.25]},
			"faces": {
				"north": {"uv": [4.5, 9.75, 4.625, 9.875], "texture": "#0"},
				"east": {"uv": [4.625, 9.625, 4.75, 9.75], "texture": "#0"},
				"south": {"uv": [4.5, 9.75, 4.625, 9.875], "texture": "#0"},
				"west": {"uv": [4.5, 9.75, 4.625, 9.875], "texture": "#0"},
				"up": {"uv": [4.5, 9.75, 4.625, 9.875], "texture": "#0"},
				"down": {"uv": [4.5, 9.75, 4.625, 9.875], "texture": "#0"}
			}
		},
		{
			"from": [8.8, 3.4, 7.45],
			"to": [9, 13.4, 7.85],
			"rotation": {"angle": 0, "axis": "y", "origin": [8.45, 6.4, 7.65]},
			"faces": {
				"north": {"uv": [4.5, 9.75, 4.625, 9.875], "texture": "#0"},
				"east": {"uv": [3.375, 9.5, 3.5, 9.625], "texture": "#0"},
				"south": {"uv": [4.5, 9.75, 4.625, 9.875], "texture": "#0"},
				"west": {"uv": [4.5, 9.75, 4.625, 9.875], "texture": "#0"},
				"up": {"uv": [4.5, 9.75, 4.625, 9.875], "texture": "#0"},
				"down": {"uv": [4.5, 9.75, 4.625, 9.875], "texture": "#0"}
			}
		},
		{
			"from": [8, 3.4, 7.45],
			"to": [8.2, 13.4, 7.85],
			"rotation": {"angle": 0, "axis": "y", "origin": [8.55, 6.4, 7.65]},
			"faces": {
				"north": {"uv": [4.5, 9.75, 4.625, 9.875], "texture": "#0"},
				"east": {"uv": [4.625, 9.625, 4.75, 9.75], "texture": "#0"},
				"south": {"uv": [4.5, 9.75, 4.625, 9.875], "texture": "#0"},
				"west": {"uv": [4.5, 9.75, 4.625, 9.875], "texture": "#0"},
				"up": {"uv": [4.5, 9.75, 4.625, 9.875], "texture": "#0"},
				"down": {"uv": [4.5, 9.75, 4.625, 9.875], "texture": "#0"}
			}
		},
		{
			"from": [8.825, 3.4, 7.4],
			"to": [9.025, 13.4, 7.83],
			"rotation": {"angle": -45, "axis": "y", "origin": [8.475, 6.4, 7.6]},
			"faces": {
				"north": {"uv": [4.5, 9.75, 4.625, 9.875], "texture": "#0"},
				"east": {"uv": [4.625, 9.625, 4.75, 9.75], "texture": "#0"},
				"south": {"uv": [4.5, 9.75, 4.625, 9.875], "texture": "#0"},
				"west": {"uv": [4.5, 9.75, 4.625, 9.875], "texture": "#0"},
				"up": {"uv": [4.5, 9.75, 4.625, 9.875], "texture": "#0"},
				"down": {"uv": [4.5, 9.75, 4.625, 9.875], "texture": "#0"}
			}
		},
		{
			"from": [8.25, 3.4, 6.84],
			"to": [8.45, 13.4, 7.27],
			"rotation": {"angle": -45, "axis": "y", "origin": [7.9, 6.4, 7.05]},
			"faces": {
				"north": {"uv": [4.5, 9.75, 4.625, 9.875], "texture": "#0"},
				"east": {"uv": [4.625, 9.625, 4.75, 9.75], "texture": "#0"},
				"south": {"uv": [4.5, 9.75, 4.625, 9.875], "texture": "#0"},
				"west": {"uv": [4.5, 9.75, 4.625, 9.875], "texture": "#0"},
				"up": {"uv": [4.5, 9.75, 4.625, 9.875], "texture": "#0"},
				"down": {"uv": [4.5, 9.75, 4.625, 9.875], "texture": "#0"}
			}
		},
		{
			"from": [8.8, 3.4, 7.475],
			"to": [9, 13.4, 7.905],
			"rotation": {"angle": 45, "axis": "y", "origin": [8.45, 6.4, 7.675]},
			"faces": {
				"north": {"uv": [4.5, 9.75, 4.625, 9.875], "texture": "#0"},
				"east": {"uv": [4.625, 9.625, 4.75, 9.75], "texture": "#0"},
				"south": {"uv": [4.5, 9.75, 4.625, 9.875], "texture": "#0"},
				"west": {"uv": [4.5, 9.75, 4.625, 9.875], "texture": "#0"},
				"up": {"uv": [4.5, 9.75, 4.625, 9.875], "texture": "#0"},
				"down": {"uv": [4.5, 9.75, 4.625, 9.875], "texture": "#0"}
			}
		},
		{
			"from": [8.245, 3.4, 8.055],
			"to": [8.445, 13.4, 8.485],
			"rotation": {"angle": 45, "axis": "y", "origin": [7.875, 6.4, 8.25]},
			"faces": {
				"north": {"uv": [4.5, 9.75, 4.625, 9.875], "texture": "#0"},
				"east": {"uv": [4.625, 9.625, 4.75, 9.75], "texture": "#0"},
				"south": {"uv": [4.5, 9.75, 4.625, 9.875], "texture": "#0"},
				"west": {"uv": [4.5, 9.75, 4.625, 9.875], "texture": "#0"},
				"up": {"uv": [4.5, 9.75, 4.625, 9.875], "texture": "#0"},
				"down": {"uv": [4.5, 9.75, 4.625, 9.875], "texture": "#0"}
			}
		},
		{
			"from": [8.6, 12.7, 7.525],
			"to": [8.8, 18.5, 7.775],
			"rotation": {"angle": 0, "axis": "y", "origin": [8.25, 16.4, 7.65]},
			"faces": {
				"north": {"uv": [4.5, 9.75, 4.625, 9.875], "texture": "#0"},
				"east": {"uv": [4.625, 9.625, 4.75, 9.75], "texture": "#0"},
				"south": {"uv": [4.5, 9.75, 4.625, 9.875], "texture": "#0"},
				"west": {"uv": [4.5, 9.75, 4.625, 9.875], "texture": "#0"},
				"up": {"uv": [4.5, 9.75, 4.625, 9.875], "texture": "#0"},
				"down": {"uv": [4.5, 9.75, 4.625, 9.875], "texture": "#0"}
			}
		},
		{
			"from": [8.375, 12.7, 7.35],
			"to": [8.625, 18.5, 7.55],
			"rotation": {"angle": 0, "axis": "y", "origin": [8.5, 18.4, 7.45]},
			"faces": {
				"north": {"uv": [4.5, 9.75, 4.625, 9.875], "texture": "#0"},
				"east": {"uv": [4.625, 9.625, 4.75, 9.75], "texture": "#0"},
				"south": {"uv": [4.5, 9.75, 4.625, 9.875], "texture": "#0"},
				"west": {"uv": [4.5, 9.75, 4.625, 9.875], "texture": "#0"},
				"up": {"uv": [4.5, 9.75, 4.625, 9.875], "texture": "#0"},
				"down": {"uv": [4.5, 9.75, 4.625, 9.875], "texture": "#0"}
			}
		},
		{
			"from": [8.2, 12.7, 7.525],
			"to": [8.4, 18.5, 7.775],
			"rotation": {"angle": 0, "axis": "y", "origin": [7.85, 16.4, 7.65]},
			"faces": {
				"north": {"uv": [4.5, 9.75, 4.625, 9.875], "texture": "#0"},
				"east": {"uv": [4.625, 9.625, 4.75, 9.75], "texture": "#0"},
				"south": {"uv": [4.5, 9.75, 4.625, 9.875], "texture": "#0"},
				"west": {"uv": [4.5, 9.75, 4.625, 9.875], "texture": "#0"},
				"up": {"uv": [4.5, 9.75, 4.625, 9.875], "texture": "#0"},
				"down": {"uv": [4.5, 9.75, 4.625, 9.875], "texture": "#0"}
			}
		},
		{
			"from": [8.375, 12.7, 7.75],
			"to": [8.625, 18.5, 7.95],
			"rotation": {"angle": 0, "axis": "y", "origin": [8.5, 18.4, 7.85]},
			"faces": {
				"north": {"uv": [4.5, 9.75, 4.625, 9.875], "texture": "#0"},
				"east": {"uv": [4.625, 9.625, 4.75, 9.75], "texture": "#0"},
				"south": {"uv": [4.5, 9.75, 4.625, 9.875], "texture": "#0"},
				"west": {"uv": [4.5, 9.75, 4.625, 9.875], "texture": "#0"},
				"up": {"uv": [4.5, 9.75, 4.625, 9.875], "texture": "#0"},
				"down": {"uv": [4.5, 9.75, 4.625, 9.875], "texture": "#0"}
			}
		},
		{
			"from": [8.675, 12.7, 7.35],
			"to": [8.875, 18.5, 7.6],
			"rotation": {"angle": -45, "axis": "y", "origin": [8.325, 16.4, 7.475]},
			"faces": {
				"north": {"uv": [4.5, 9.75, 4.625, 9.875], "texture": "#0"},
				"east": {"uv": [4.625, 9.625, 4.75, 9.75], "texture": "#0"},
				"south": {"uv": [4.5, 9.75, 4.625, 9.875], "texture": "#0"},
				"west": {"uv": [4.5, 9.75, 4.625, 9.875], "texture": "#0"},
				"up": {"uv": [4.5, 9.75, 4.625, 9.875], "texture": "#0"},
				"down": {"uv": [4.5, 9.75, 4.625, 9.875], "texture": "#0"}
			}
		},
		{
			"from": [8.38, 12.7, 7.06],
			"to": [8.58, 18.5, 7.31],
			"rotation": {"angle": -45, "axis": "y", "origin": [8.025, 16.4, 7.2]},
			"faces": {
				"north": {"uv": [4.5, 9.75, 4.625, 9.875], "texture": "#0"},
				"east": {"uv": [4.625, 9.625, 4.75, 9.75], "texture": "#0"},
				"south": {"uv": [4.5, 9.75, 4.625, 9.875], "texture": "#0"},
				"west": {"uv": [4.5, 9.75, 4.625, 9.875], "texture": "#0"},
				"up": {"uv": [4.5, 9.75, 4.625, 9.875], "texture": "#0"},
				"down": {"uv": [4.5, 9.75, 4.625, 9.875], "texture": "#0"}
			}
		},
		{
			"from": [8.37661, 12.7, 7.75296],
			"to": [8.62661, 18.5, 7.95296],
			"rotation": {"angle": -45, "axis": "y", "origin": [8.50027, 15.6, 7.65216]},
			"faces": {
				"north": {"uv": [4.5, 9.75, 4.625, 9.875], "texture": "#0"},
				"east": {"uv": [4.625, 9.625, 4.75, 9.75], "texture": "#0"},
				"south": {"uv": [4.5, 9.75, 4.625, 9.875], "texture": "#0"},
				"west": {"uv": [4.5, 9.75, 4.625, 9.875], "texture": "#0"},
				"up": {"uv": [4.5, 9.75, 4.625, 9.875], "texture": "#0"},
				"down": {"uv": [4.5, 9.75, 4.625, 9.875], "texture": "#0"}
			}
		},
		{
			"from": [8.37393, 12.7, 7.35137],
			"to": [8.62393, 18.5, 7.55137],
			"rotation": {"angle": -45, "axis": "y", "origin": [8.50027, 15.6, 7.65216]},
			"faces": {
				"north": {"uv": [4.5, 9.75, 4.625, 9.875], "texture": "#0"},
				"east": {"uv": [4.625, 9.625, 4.75, 9.75], "texture": "#0"},
				"south": {"uv": [4.5, 9.75, 4.625, 9.875], "texture": "#0"},
				"west": {"uv": [4.5, 9.75, 4.625, 9.875], "texture": "#0"},
				"up": {"uv": [4.5, 9.75, 4.625, 9.875], "texture": "#0"},
				"down": {"uv": [4.5, 9.75, 4.625, 9.875], "texture": "#0"}
			}
		},
		{
			"from": [8.8, 18.4, 7.45],
			"to": [9, 19.3, 7.85],
			"rotation": {"angle": 0, "axis": "y", "origin": [8.45, 19.5, 7.65]},
			"faces": {
				"north": {"uv": [13.75, 4.875, 13.875, 5], "texture": "#0"},
				"east": {"uv": [13.75, 4.875, 13.875, 5], "texture": "#0"},
				"south": {"uv": [13.75, 4.875, 13.875, 5], "texture": "#0"},
				"west": {"uv": [13.75, 4.875, 13.875, 5], "texture": "#0"},
				"up": {"uv": [13.75, 4.875, 13.875, 5], "texture": "#0"},
				"down": {"uv": [13.75, 4.875, 13.875, 5], "texture": "#0"}
			}
		},
		{
			"from": [8.1, 18.4, 7.475],
			"to": [9, 19.3, 7.905],
			"rotation": {"angle": 45, "axis": "y", "origin": [8.45, 19.5, 7.675]},
			"faces": {
				"north": {"uv": [13.75, 4.875, 13.875, 5], "texture": "#0"},
				"east": {"uv": [13.75, 4.875, 13.875, 5], "texture": "#0"},
				"south": {"uv": [13.75, 4.875, 13.875, 5], "texture": "#0"},
				"west": {"uv": [13.75, 4.875, 13.875, 5], "texture": "#0"},
				"up": {"uv": [13.75, 4.875, 13.875, 5], "texture": "#0"},
				"down": {"uv": [13.75, 4.875, 13.875, 5], "texture": "#0"}
			}
		},
		{
			"from": [8.245, 18.4, 8.055],
			"to": [8.445, 19.3, 8.485],
			"rotation": {"angle": 45, "axis": "y", "origin": [7.875, 19.5, 8.25]},
			"faces": {
				"north": {"uv": [13.75, 4.875, 13.875, 5], "texture": "#0"},
				"east": {"uv": [13.75, 4.875, 13.875, 5], "texture": "#0"},
				"south": {"uv": [13.75, 4.875, 13.875, 5], "texture": "#0"},
				"west": {"uv": [13.75, 4.875, 13.875, 5], "texture": "#0"},
				"up": {"uv": [13.75, 4.875, 13.875, 5], "texture": "#0"},
				"down": {"uv": [13.75, 4.875, 13.875, 5], "texture": "#0"}
			}
		},
		{
			"from": [8, 18.4, 7.45],
			"to": [8.2, 19.3, 7.85],
			"rotation": {"angle": 0, "axis": "y", "origin": [8.55, 19.5, 7.65]},
			"faces": {
				"north": {"uv": [13.75, 4.875, 13.875, 5], "texture": "#0"},
				"east": {"uv": [13.75, 4.875, 13.875, 5], "texture": "#0"},
				"south": {"uv": [13.75, 4.875, 13.875, 5], "texture": "#0"},
				"west": {"uv": [13.75, 4.875, 13.875, 5], "texture": "#0"},
				"up": {"uv": [13.75, 4.875, 13.875, 5], "texture": "#0"},
				"down": {"uv": [13.75, 4.875, 13.875, 5], "texture": "#0"}
			}
		},
		{
			"from": [8.25, 18.4, 6.84],
			"to": [8.45, 19.3, 7.27],
			"rotation": {"angle": -45, "axis": "y", "origin": [7.9, 19.5, 7.05]},
			"faces": {
				"north": {"uv": [13.75, 4.875, 13.875, 5], "texture": "#0"},
				"east": {"uv": [13.75, 4.875, 13.875, 5], "texture": "#0"},
				"south": {"uv": [13.75, 4.875, 13.875, 5], "texture": "#0"},
				"west": {"uv": [13.75, 4.875, 13.875, 5], "texture": "#0"},
				"up": {"uv": [13.75, 4.875, 13.875, 5], "texture": "#0"},
				"down": {"uv": [13.75, 4.875, 13.875, 5], "texture": "#0"}
			}
		},
		{
			"from": [8.3, 18.4, 7.15],
			"to": [8.7, 19.3, 7.35],
			"rotation": {"angle": 0, "axis": "y", "origin": [16, 25.5, 15.05]},
			"faces": {
				"north": {"uv": [13.75, 4.875, 13.875, 5], "texture": "#0"},
				"east": {"uv": [13.75, 4.875, 13.875, 5], "texture": "#0"},
				"south": {"uv": [13.75, 4.875, 13.875, 5], "texture": "#0"},
				"west": {"uv": [13.75, 4.875, 13.875, 5], "texture": "#0"},
				"up": {"uv": [13.75, 4.875, 13.875, 5], "texture": "#0"},
				"down": {"uv": [13.75, 4.875, 13.875, 5], "texture": "#0"}
			}
		},
		{
			"from": [8.125, 18.4, 7.4],
			"to": [9.025, 19.3, 7.83],
			"rotation": {"angle": -45, "axis": "y", "origin": [8.475, 19.5, 7.6]},
			"faces": {
				"north": {"uv": [13.75, 4.875, 13.875, 5], "texture": "#0"},
				"east": {"uv": [13.75, 4.875, 13.875, 5], "texture": "#0"},
				"south": {"uv": [13.75, 4.875, 13.875, 5], "texture": "#0"},
				"west": {"uv": [13.75, 4.875, 13.875, 5], "texture": "#0"},
				"up": {"uv": [13.75, 4.875, 13.875, 5], "texture": "#0"},
				"down": {"uv": [13.75, 4.875, 13.875, 5], "texture": "#0"}
			}
		},
		{
			"from": [8.3, 18.4, 7.95],
			"to": [8.7, 19.3, 8.15],
			"rotation": {"angle": 0, "axis": "y", "origin": [16, 25.5, 0.25]},
			"faces": {
				"north": {"uv": [13.75, 4.875, 13.875, 5], "texture": "#0"},
				"east": {"uv": [13.75, 4.875, 13.875, 5], "texture": "#0"},
				"south": {"uv": [13.75, 4.875, 13.875, 5], "texture": "#0"},
				"west": {"uv": [13.75, 4.875, 13.875, 5], "texture": "#0"},
				"up": {"uv": [13.75, 4.875, 13.875, 5], "texture": "#0"},
				"down": {"uv": [13.75, 4.875, 13.875, 5], "texture": "#0"}
			}
		}
	],
	"display": {
		"thirdperson_righthand": {
			"translation": [-1, 1, 1.75]
		},
		"thirdperson_lefthand": {
			"translation": [0, 1, 1.75]
		},
		"firstperson_righthand": {
			"rotation": [-22.25, 0, 0],
			"translation": [0.5, 2.25, 1.75]
		},
		"firstperson_lefthand": {
			"rotation": [-22.25, 0, 0],
			"translation": [0.5, 2.25, 1.75]
		},
		"ground": {
			"rotation": [0, 0, 90]
		},
		"gui": {
			"rotation": [0, 0, 42.75],
			"translation": [1, -1.75, 0]
		},
		"fixed": {
			"rotation": [0, 0, -44.25],
			"translation": [-1.5, -1.75, 0]
		}
	}
}
