{
	"credit": "Made with Blockbench",
	"textures": {
		"0": "gci:items/common/mpz",
		"particle": "gci:items/common/mpz"
	},
	"elements": [
		{
			"name": "cube4",
			"from": [7, 2.6, 7.3],
			"to": [7.2, 17.9, 7.7],
			"rotation": {"angle": 0, "axis": "y", "origin": [7.46569, 6.9, 7.5]},
			"faces": {
				"north": {"uv": [3.333, 14, 4.333, 15.666], "texture": "#0"},
				"east": {"uv": [3.333, 14, 4.333, 15.666], "texture": "#0"},
				"south": {"uv": [3.333, 14, 4.333, 15.666], "texture": "#0"},
				"west": {"uv": [3.333, 14, 4.333, 15.666], "texture": "#0"},
				"up": {"uv": [3.333, 14, 4.333, 15.666], "texture": "#0"},
				"down": {"uv": [3.333, 14, 4.333, 15.666], "texture": "#0"}
			}
		},
		{
			"name": "cube8",
			"from": [7.27071, 2.6, 7.02218],
			"to": [7.67071, 17.9, 7.22218],
			"rotation": {"angle": 45, "axis": "y", "origin": [7.47071, 6.9, 7.48787]},
			"faces": {
				"north": {"uv": [3.333, 14, 4.333, 15.666], "texture": "#0"},
				"east": {"uv": [3.333, 14, 4.333, 15.666], "texture": "#0"},
				"south": {"uv": [3.333, 14, 4.333, 15.666], "texture": "#0"},
				"west": {"uv": [3.333, 14, 4.333, 15.666], "texture": "#0"},
				"up": {"uv": [3.333, 14, 4.333, 15.666], "texture": "#0"},
				"down": {"uv": [3.333, 14, 4.333, 15.666], "texture": "#0"}
			}
		},
		{
			"name": "cube5",
			"from": [7.00503, 2.6, 7.31213],
			"to": [7.20503, 17.9, 7.71213],
			"rotation": {"angle": 45, "axis": "y", "origin": [7.47071, 6.9, 7.51213]},
			"faces": {
				"north": {"uv": [3.333, 14, 4.333, 15.666], "texture": "#0"},
				"east": {"uv": [3.333, 14, 4.333, 15.666], "texture": "#0"},
				"south": {"uv": [3.333, 14, 4.333, 15.666], "texture": "#0"},
				"west": {"uv": [3.333, 14, 4.333, 15.666], "texture": "#0"},
				"up": {"uv": [3.333, 14, 4.333, 15.666], "texture": "#0"},
				"down": {"uv": [3.333, 14, 4.333, 15.666], "texture": "#0"}
			}
		},
		{
			"name": "cube5",
			"from": [7.28284, 2.6, 7.01716],
			"to": [7.68284, 17.9, 7.21716],
			"rotation": {"angle": 0, "axis": "y", "origin": [7.48284, 6.9, 7.48284]},
			"faces": {
				"north": {"uv": [3.333, 14, 4.333, 15.666], "texture": "#0"},
				"east": {"uv": [3.333, 14, 4.333, 15.666], "texture": "#0"},
				"south": {"uv": [3.333, 14, 4.333, 15.666], "texture": "#0"},
				"west": {"uv": [3.333, 14, 4.333, 15.666], "texture": "#0"},
				"up": {"uv": [3.333, 14, 4.333, 15.666], "texture": "#0"},
				"down": {"uv": [3.333, 14, 4.333, 15.666], "texture": "#0"}
			}
		},
		{
			"name": "cube7",
			"from": [7.76066, 2.6, 7.28787],
			"to": [7.96066, 17.9, 7.68787],
			"rotation": {"angle": 45, "axis": "y", "origin": [7.49497, 6.9, 7.48787]},
			"faces": {
				"north": {"uv": [3.333, 14, 4.333, 15.666], "texture": "#0"},
				"east": {"uv": [3.333, 14, 4.333, 15.666], "texture": "#0"},
				"south": {"uv": [3.333, 14, 4.333, 15.666], "texture": "#0"},
				"west": {"uv": [3.333, 14, 4.333, 15.666], "texture": "#0"},
				"up": {"uv": [3.333, 14, 4.333, 15.666], "texture": "#0"},
				"down": {"uv": [3.333, 14, 4.333, 15.666], "texture": "#0"}
			}
		},
		{
			"name": "cube6",
			"from": [7.76569, 2.6, 7.3],
			"to": [7.96569, 17.9, 7.7],
			"rotation": {"angle": 0, "axis": "y", "origin": [7.5, 6.9, 7.5]},
			"faces": {
				"north": {"uv": [3.333, 14, 4.333, 15.666], "texture": "#0"},
				"east": {"uv": [3.333, 14, 4.333, 15.666], "texture": "#0"},
				"south": {"uv": [3.333, 14, 4.333, 15.666], "texture": "#0"},
				"west": {"uv": [3.333, 14, 4.333, 15.666], "texture": "#0"},
				"up": {"uv": [3.333, 14, 4.333, 15.666], "texture": "#0"},
				"down": {"uv": [3.333, 14, 4.333, 15.666], "texture": "#0"}
			}
		},
		{
			"name": "cube7",
			"from": [7.76066, 2.6, 7.31213],
			"to": [7.96066, 17.9, 7.71213],
			"rotation": {"angle": -45, "axis": "y", "origin": [7.49497, 6.9, 7.51213]},
			"faces": {
				"north": {"uv": [3.333, 14, 4.333, 15.666], "texture": "#0"},
				"east": {"uv": [3.333, 14, 4.333, 15.666], "texture": "#0"},
				"south": {"uv": [3.333, 14, 4.333, 15.666], "texture": "#0"},
				"west": {"uv": [3.333, 14, 4.333, 15.666], "texture": "#0"},
				"up": {"uv": [3.333, 14, 4.333, 15.666], "texture": "#0"},
				"down": {"uv": [3.333, 14, 4.333, 15.666], "texture": "#0"}
			}
		},
		{
			"name": "cube6",
			"from": [7.28284, 2.6, 7.78284],
			"to": [7.68284, 17.9, 7.98284],
			"rotation": {"angle": 0, "axis": "y", "origin": [7.48284, 6.9, 8.24853]},
			"faces": {
				"north": {"uv": [3.333, 14, 4.333, 15.666], "texture": "#0"},
				"east": {"uv": [3.333, 14, 4.333, 15.666], "texture": "#0"},
				"south": {"uv": [3.333, 14, 4.333, 15.666], "texture": "#0"},
				"west": {"uv": [3.333, 14, 4.333, 15.666], "texture": "#0"},
				"up": {"uv": [3.333, 14, 4.333, 15.666], "texture": "#0"},
				"down": {"uv": [3.333, 14, 4.333, 15.666], "texture": "#0"}
			}
		},
		{
			"name": "cube5",
			"from": [6.95343, 2.68, 7.28],
			"to": [7.17343, 3.12, 7.72],
			"rotation": {"angle": 0, "axis": "y", "origin": [7.46569, 7.3, 7.5]},
			"faces": {
				"north": {"uv": [0.66667, 14, 1.66667, 15.666], "texture": "#0"},
				"east": {"uv": [0.66667, 14, 1.66667, 15.666], "texture": "#0"},
				"south": {"uv": [0.66667, 14, 1.66667, 15.666], "texture": "#0"},
				"west": {"uv": [0.66667, 14, 1.66667, 15.666], "texture": "#0"},
				"up": {"uv": [0.66667, 14, 1.66667, 15.666], "texture": "#0"},
				"down": {"uv": [0.66667, 14, 1.66667, 15.666], "texture": "#0"}
			}
		},
		{
			"name": "cube9",
			"from": [7.25121, 2.68, 6.9744],
			"to": [7.69121, 3.12, 7.1944],
			"rotation": {"angle": 45, "axis": "y", "origin": [7.47121, 7.3, 7.48665]},
			"faces": {
				"north": {"uv": [0.66667, 14, 1.66667, 15.666], "texture": "#0"},
				"east": {"uv": [0.66667, 14, 1.66667, 15.666], "texture": "#0"},
				"south": {"uv": [0.66667, 14, 1.66667, 15.666], "texture": "#0"},
				"west": {"uv": [0.66667, 14, 1.66667, 15.666], "texture": "#0"},
				"up": {"uv": [0.66667, 14, 1.66667, 15.666], "texture": "#0"},
				"down": {"uv": [0.66667, 14, 1.66667, 15.666], "texture": "#0"}
			}
		},
		{
			"name": "cube6",
			"from": [6.95896, 2.68, 7.29335],
			"to": [7.17896, 3.12, 7.73335],
			"rotation": {"angle": 45, "axis": "y", "origin": [7.47121, 7.3, 7.51335]},
			"faces": {
				"north": {"uv": [0.66667, 14, 1.66667, 15.666], "texture": "#0"},
				"east": {"uv": [0.66667, 14, 1.66667, 15.666], "texture": "#0"},
				"south": {"uv": [0.66667, 14, 1.66667, 15.666], "texture": "#0"},
				"west": {"uv": [0.66667, 14, 1.66667, 15.666], "texture": "#0"},
				"up": {"uv": [0.66667, 14, 1.66667, 15.666], "texture": "#0"},
				"down": {"uv": [0.66667, 14, 1.66667, 15.666], "texture": "#0"}
			}
		},
		{
			"name": "cube6",
			"from": [7.26456, 2.68, 6.96887],
			"to": [7.70456, 3.12, 7.18887],
			"rotation": {"angle": 0, "axis": "y", "origin": [7.48456, 7.3, 7.48113]},
			"faces": {
				"north": {"uv": [0.66667, 14, 1.66667, 15.666], "texture": "#0"},
				"east": {"uv": [0.66667, 14, 1.66667, 15.666], "texture": "#0"},
				"south": {"uv": [0.66667, 14, 1.66667, 15.666], "texture": "#0"},
				"west": {"uv": [0.66667, 14, 1.66667, 15.666], "texture": "#0"},
				"up": {"uv": [0.66667, 14, 1.66667, 15.666], "texture": "#0"},
				"down": {"uv": [0.66667, 14, 1.66667, 15.666], "texture": "#0"}
			}
		},
		{
			"name": "cube8",
			"from": [7.79016, 2.68, 7.26665],
			"to": [8.01016, 3.12, 7.70665],
			"rotation": {"angle": 45, "axis": "y", "origin": [7.4979, 7.3, 7.48665]},
			"faces": {
				"north": {"uv": [0.66667, 14, 1.66667, 15.666], "texture": "#0"},
				"east": {"uv": [0.66667, 14, 1.66667, 15.666], "texture": "#0"},
				"south": {"uv": [0.66667, 14, 1.66667, 15.666], "texture": "#0"},
				"west": {"uv": [0.66667, 14, 1.66667, 15.666], "texture": "#0"},
				"up": {"uv": [0.66667, 14, 1.66667, 15.666], "texture": "#0"},
				"down": {"uv": [0.66667, 14, 1.66667, 15.666], "texture": "#0"}
			}
		},
		{
			"name": "cube7",
			"from": [7.79569, 2.68, 7.28],
			"to": [8.01569, 3.12, 7.72],
			"rotation": {"angle": 0, "axis": "y", "origin": [7.50343, 7.3, 7.5]},
			"faces": {
				"north": {"uv": [0.66667, 14, 1.66667, 15.666], "texture": "#0"},
				"east": {"uv": [0.66667, 14, 1.66667, 15.666], "texture": "#0"},
				"south": {"uv": [0.66667, 14, 1.66667, 15.666], "texture": "#0"},
				"west": {"uv": [0.66667, 14, 1.66667, 15.666], "texture": "#0"},
				"up": {"uv": [0.66667, 14, 1.66667, 15.666], "texture": "#0"},
				"down": {"uv": [0.66667, 14, 1.66667, 15.666], "texture": "#0"}
			}
		},
		{
			"name": "cube8",
			"from": [7.79016, 2.68, 7.29335],
			"to": [8.01016, 3.12, 7.73335],
			"rotation": {"angle": -45, "axis": "y", "origin": [7.4979, 7.3, 7.51335]},
			"faces": {
				"north": {"uv": [0.66667, 14, 1.66667, 15.666], "texture": "#0"},
				"east": {"uv": [0.66667, 14, 1.66667, 15.666], "texture": "#0"},
				"south": {"uv": [0.66667, 14, 1.66667, 15.666], "texture": "#0"},
				"west": {"uv": [0.66667, 14, 1.66667, 15.666], "texture": "#0"},
				"up": {"uv": [0.66667, 14, 1.66667, 15.666], "texture": "#0"},
				"down": {"uv": [0.66667, 14, 1.66667, 15.666], "texture": "#0"}
			}
		},
		{
			"name": "cube7",
			"from": [7.26456, 2.68, 7.81113],
			"to": [7.70456, 3.12, 8.03113],
			"rotation": {"angle": 0, "axis": "y", "origin": [7.48456, 7.3, 8.32338]},
			"faces": {
				"north": {"uv": [0.66667, 14, 1.66667, 15.666], "texture": "#0"},
				"east": {"uv": [0.66667, 14, 1.66667, 15.666], "texture": "#0"},
				"south": {"uv": [0.66667, 14, 1.66667, 15.666], "texture": "#0"},
				"west": {"uv": [0.66667, 14, 1.66667, 15.666], "texture": "#0"},
				"up": {"uv": [0.66667, 14, 1.66667, 15.666], "texture": "#0"},
				"down": {"uv": [0.66667, 14, 1.66667, 15.666], "texture": "#0"}
			}
		},
		{
			"name": "cube6",
			"from": [6.95343, 3.38, 7.28],
			"to": [7.17343, 3.82, 7.72],
			"rotation": {"angle": 0, "axis": "y", "origin": [7.46569, 8, 7.5]},
			"faces": {
				"north": {"uv": [0.66667, 14, 1.66667, 15.666], "texture": "#0"},
				"east": {"uv": [0.66667, 14, 1.66667, 15.666], "texture": "#0"},
				"south": {"uv": [0.66667, 14, 1.66667, 15.666], "texture": "#0"},
				"west": {"uv": [0.66667, 14, 1.66667, 15.666], "texture": "#0"},
				"up": {"uv": [0.66667, 14, 1.66667, 15.666], "texture": "#0"},
				"down": {"uv": [0.66667, 14, 1.66667, 15.666], "texture": "#0"}
			}
		},
		{
			"name": "cube10",
			"from": [7.25121, 3.38, 6.9744],
			"to": [7.69121, 3.82, 7.1944],
			"rotation": {"angle": 45, "axis": "y", "origin": [7.47121, 8, 7.48665]},
			"faces": {
				"north": {"uv": [0.66667, 14, 1.66667, 15.666], "texture": "#0"},
				"east": {"uv": [0.66667, 14, 1.66667, 15.666], "texture": "#0"},
				"south": {"uv": [0.66667, 14, 1.66667, 15.666], "texture": "#0"},
				"west": {"uv": [0.66667, 14, 1.66667, 15.666], "texture": "#0"},
				"up": {"uv": [0.66667, 14, 1.66667, 15.666], "texture": "#0"},
				"down": {"uv": [0.66667, 14, 1.66667, 15.666], "texture": "#0"}
			}
		},
		{
			"name": "cube7",
			"from": [6.95896, 3.38, 7.29335],
			"to": [7.17896, 3.82, 7.73335],
			"rotation": {"angle": 45, "axis": "y", "origin": [7.47121, 8, 7.51335]},
			"faces": {
				"north": {"uv": [0.66667, 14, 1.66667, 15.666], "texture": "#0"},
				"east": {"uv": [0.66667, 14, 1.66667, 15.666], "texture": "#0"},
				"south": {"uv": [0.66667, 14, 1.66667, 15.666], "texture": "#0"},
				"west": {"uv": [0.66667, 14, 1.66667, 15.666], "texture": "#0"},
				"up": {"uv": [0.66667, 14, 1.66667, 15.666], "texture": "#0"},
				"down": {"uv": [0.66667, 14, 1.66667, 15.666], "texture": "#0"}
			}
		},
		{
			"name": "cube7",
			"from": [7.26456, 3.38, 6.96887],
			"to": [7.70456, 3.82, 7.18887],
			"rotation": {"angle": 0, "axis": "y", "origin": [7.48456, 8, 7.48113]},
			"faces": {
				"north": {"uv": [0.66667, 14, 1.66667, 15.666], "texture": "#0"},
				"east": {"uv": [0.66667, 14, 1.66667, 15.666], "texture": "#0"},
				"south": {"uv": [0.66667, 14, 1.66667, 15.666], "texture": "#0"},
				"west": {"uv": [0.66667, 14, 1.66667, 15.666], "texture": "#0"},
				"up": {"uv": [0.66667, 14, 1.66667, 15.666], "texture": "#0"},
				"down": {"uv": [0.66667, 14, 1.66667, 15.666], "texture": "#0"}
			}
		},
		{
			"name": "cube9",
			"from": [7.79016, 3.38, 7.26665],
			"to": [8.01016, 3.82, 7.70665],
			"rotation": {"angle": 45, "axis": "y", "origin": [7.4979, 8, 7.48665]},
			"faces": {
				"north": {"uv": [0.66667, 14, 1.66667, 15.666], "texture": "#0"},
				"east": {"uv": [0.66667, 14, 1.66667, 15.666], "texture": "#0"},
				"south": {"uv": [0.66667, 14, 1.66667, 15.666], "texture": "#0"},
				"west": {"uv": [0.66667, 14, 1.66667, 15.666], "texture": "#0"},
				"up": {"uv": [0.66667, 14, 1.66667, 15.666], "texture": "#0"},
				"down": {"uv": [0.66667, 14, 1.66667, 15.666], "texture": "#0"}
			}
		},
		{
			"name": "cube8",
			"from": [7.79569, 3.38, 7.28],
			"to": [8.01569, 3.82, 7.72],
			"rotation": {"angle": 0, "axis": "y", "origin": [7.50343, 8, 7.5]},
			"faces": {
				"north": {"uv": [0.66667, 14, 1.66667, 15.666], "texture": "#0"},
				"east": {"uv": [0.66667, 14, 1.66667, 15.666], "texture": "#0"},
				"south": {"uv": [0.66667, 14, 1.66667, 15.666], "texture": "#0"},
				"west": {"uv": [0.66667, 14, 1.66667, 15.666], "texture": "#0"},
				"up": {"uv": [0.66667, 14, 1.66667, 15.666], "texture": "#0"},
				"down": {"uv": [0.66667, 14, 1.66667, 15.666], "texture": "#0"}
			}
		},
		{
			"name": "cube9",
			"from": [7.79016, 3.38, 7.29335],
			"to": [8.01016, 3.82, 7.73335],
			"rotation": {"angle": -45, "axis": "y", "origin": [7.4979, 8, 7.51335]},
			"faces": {
				"north": {"uv": [0.66667, 14, 1.66667, 15.666], "texture": "#0"},
				"east": {"uv": [0.66667, 14, 1.66667, 15.666], "texture": "#0"},
				"south": {"uv": [0.66667, 14, 1.66667, 15.666], "texture": "#0"},
				"west": {"uv": [0.66667, 14, 1.66667, 15.666], "texture": "#0"},
				"up": {"uv": [0.66667, 14, 1.66667, 15.666], "texture": "#0"},
				"down": {"uv": [0.66667, 14, 1.66667, 15.666], "texture": "#0"}
			}
		},
		{
			"name": "cube8",
			"from": [7.26456, 3.38, 7.81113],
			"to": [7.70456, 3.82, 8.03113],
			"rotation": {"angle": 0, "axis": "y", "origin": [7.48456, 8, 8.32338]},
			"faces": {
				"north": {"uv": [0.66667, 14, 1.66667, 15.666], "texture": "#0"},
				"east": {"uv": [0.66667, 14, 1.66667, 15.666], "texture": "#0"},
				"south": {"uv": [0.66667, 14, 1.66667, 15.666], "texture": "#0"},
				"west": {"uv": [0.66667, 14, 1.66667, 15.666], "texture": "#0"},
				"up": {"uv": [0.66667, 14, 1.66667, 15.666], "texture": "#0"},
				"down": {"uv": [0.66667, 14, 1.66667, 15.666], "texture": "#0"}
			}
		},
		{
			"name": "cube7",
			"from": [6.95343, 4.08, 7.28],
			"to": [7.17343, 4.52, 7.72],
			"rotation": {"angle": 0, "axis": "y", "origin": [7.46569, 8.7, 7.5]},
			"faces": {
				"north": {"uv": [0.66667, 14, 1.66667, 15.666], "texture": "#0"},
				"east": {"uv": [0.66667, 14, 1.66667, 15.666], "texture": "#0"},
				"south": {"uv": [0.66667, 14, 1.66667, 15.666], "texture": "#0"},
				"west": {"uv": [0.66667, 14, 1.66667, 15.666], "texture": "#0"},
				"up": {"uv": [0.66667, 14, 1.66667, 15.666], "texture": "#0"},
				"down": {"uv": [0.66667, 14, 1.66667, 15.666], "texture": "#0"}
			}
		},
		{
			"name": "cube11",
			"from": [7.25121, 4.08, 6.9744],
			"to": [7.69121, 4.52, 7.1944],
			"rotation": {"angle": 45, "axis": "y", "origin": [7.47121, 8.7, 7.48665]},
			"faces": {
				"north": {"uv": [0.66667, 14, 1.66667, 15.666], "texture": "#0"},
				"east": {"uv": [0.66667, 14, 1.66667, 15.666], "texture": "#0"},
				"south": {"uv": [0.66667, 14, 1.66667, 15.666], "texture": "#0"},
				"west": {"uv": [0.66667, 14, 1.66667, 15.666], "texture": "#0"},
				"up": {"uv": [0.66667, 14, 1.66667, 15.666], "texture": "#0"},
				"down": {"uv": [0.66667, 14, 1.66667, 15.666], "texture": "#0"}
			}
		},
		{
			"name": "cube8",
			"from": [6.95896, 4.08, 7.29335],
			"to": [7.17896, 4.52, 7.73335],
			"rotation": {"angle": 45, "axis": "y", "origin": [7.47121, 8.7, 7.51335]},
			"faces": {
				"north": {"uv": [0.66667, 14, 1.66667, 15.666], "texture": "#0"},
				"east": {"uv": [0.66667, 14, 1.66667, 15.666], "texture": "#0"},
				"south": {"uv": [0.66667, 14, 1.66667, 15.666], "texture": "#0"},
				"west": {"uv": [0.66667, 14, 1.66667, 15.666], "texture": "#0"},
				"up": {"uv": [0.66667, 14, 1.66667, 15.666], "texture": "#0"},
				"down": {"uv": [0.66667, 14, 1.66667, 15.666], "texture": "#0"}
			}
		},
		{
			"name": "cube8",
			"from": [7.26456, 4.08, 6.96887],
			"to": [7.70456, 4.52, 7.18887],
			"rotation": {"angle": 0, "axis": "y", "origin": [7.48456, 8.7, 7.48113]},
			"faces": {
				"north": {"uv": [0.66667, 14, 1.66667, 15.666], "texture": "#0"},
				"east": {"uv": [0.66667, 14, 1.66667, 15.666], "texture": "#0"},
				"south": {"uv": [0.66667, 14, 1.66667, 15.666], "texture": "#0"},
				"west": {"uv": [0.66667, 14, 1.66667, 15.666], "texture": "#0"},
				"up": {"uv": [0.66667, 14, 1.66667, 15.666], "texture": "#0"},
				"down": {"uv": [0.66667, 14, 1.66667, 15.666], "texture": "#0"}
			}
		},
		{
			"name": "cube10",
			"from": [7.79016, 4.08, 7.26665],
			"to": [8.01016, 4.52, 7.70665],
			"rotation": {"angle": 45, "axis": "y", "origin": [7.4979, 8.7, 7.48665]},
			"faces": {
				"north": {"uv": [0.66667, 14, 1.66667, 15.666], "texture": "#0"},
				"east": {"uv": [0.66667, 14, 1.66667, 15.666], "texture": "#0"},
				"south": {"uv": [0.66667, 14, 1.66667, 15.666], "texture": "#0"},
				"west": {"uv": [0.66667, 14, 1.66667, 15.666], "texture": "#0"},
				"up": {"uv": [0.66667, 14, 1.66667, 15.666], "texture": "#0"},
				"down": {"uv": [0.66667, 14, 1.66667, 15.666], "texture": "#0"}
			}
		},
		{
			"name": "cube9",
			"from": [7.79569, 4.08, 7.28],
			"to": [8.01569, 4.52, 7.72],
			"rotation": {"angle": 0, "axis": "y", "origin": [7.50343, 8.7, 7.5]},
			"faces": {
				"north": {"uv": [0.66667, 14, 1.66667, 15.666], "texture": "#0"},
				"east": {"uv": [0.66667, 14, 1.66667, 15.666], "texture": "#0"},
				"south": {"uv": [0.66667, 14, 1.66667, 15.666], "texture": "#0"},
				"west": {"uv": [0.66667, 14, 1.66667, 15.666], "texture": "#0"},
				"up": {"uv": [0.66667, 14, 1.66667, 15.666], "texture": "#0"},
				"down": {"uv": [0.66667, 14, 1.66667, 15.666], "texture": "#0"}
			}
		},
		{
			"name": "cube10",
			"from": [7.79016, 4.08, 7.29335],
			"to": [8.01016, 4.52, 7.73335],
			"rotation": {"angle": -45, "axis": "y", "origin": [7.4979, 8.7, 7.51335]},
			"faces": {
				"north": {"uv": [0.66667, 14, 1.66667, 15.666], "texture": "#0"},
				"east": {"uv": [0.66667, 14, 1.66667, 15.666], "texture": "#0"},
				"south": {"uv": [0.66667, 14, 1.66667, 15.666], "texture": "#0"},
				"west": {"uv": [0.66667, 14, 1.66667, 15.666], "texture": "#0"},
				"up": {"uv": [0.66667, 14, 1.66667, 15.666], "texture": "#0"},
				"down": {"uv": [0.66667, 14, 1.66667, 15.666], "texture": "#0"}
			}
		},
		{
			"name": "cube9",
			"from": [7.26456, 4.08, 7.81113],
			"to": [7.70456, 4.52, 8.03113],
			"rotation": {"angle": 0, "axis": "y", "origin": [7.48456, 8.7, 8.32338]},
			"faces": {
				"north": {"uv": [0.66667, 14, 1.66667, 15.666], "texture": "#0"},
				"east": {"uv": [0.66667, 14, 1.66667, 15.666], "texture": "#0"},
				"south": {"uv": [0.66667, 14, 1.66667, 15.666], "texture": "#0"},
				"west": {"uv": [0.66667, 14, 1.66667, 15.666], "texture": "#0"},
				"up": {"uv": [0.66667, 14, 1.66667, 15.666], "texture": "#0"},
				"down": {"uv": [0.66667, 14, 1.66667, 15.666], "texture": "#0"}
			}
		},
		{
			"name": "cube8",
			"from": [6.95343, 4.78, 7.28],
			"to": [7.17343, 5.22, 7.72],
			"rotation": {"angle": 0, "axis": "y", "origin": [7.46569, 9.4, 7.5]},
			"faces": {
				"north": {"uv": [0.66667, 14, 1.66667, 15.666], "texture": "#0"},
				"east": {"uv": [0.66667, 14, 1.66667, 15.666], "texture": "#0"},
				"south": {"uv": [0.66667, 14, 1.66667, 15.666], "texture": "#0"},
				"west": {"uv": [0.66667, 14, 1.66667, 15.666], "texture": "#0"},
				"up": {"uv": [0.66667, 14, 1.66667, 15.666], "texture": "#0"},
				"down": {"uv": [0.66667, 14, 1.66667, 15.666], "texture": "#0"}
			}
		},
		{
			"name": "cube12",
			"from": [7.25121, 4.78, 6.9744],
			"to": [7.69121, 5.22, 7.1944],
			"rotation": {"angle": 45, "axis": "y", "origin": [7.47121, 9.4, 7.48665]},
			"faces": {
				"north": {"uv": [0.66667, 14, 1.66667, 15.666], "texture": "#0"},
				"east": {"uv": [0.66667, 14, 1.66667, 15.666], "texture": "#0"},
				"south": {"uv": [0.66667, 14, 1.66667, 15.666], "texture": "#0"},
				"west": {"uv": [0.66667, 14, 1.66667, 15.666], "texture": "#0"},
				"up": {"uv": [0.66667, 14, 1.66667, 15.666], "texture": "#0"},
				"down": {"uv": [0.66667, 14, 1.66667, 15.666], "texture": "#0"}
			}
		},
		{
			"name": "cube9",
			"from": [6.95896, 4.78, 7.29335],
			"to": [7.17896, 5.22, 7.73335],
			"rotation": {"angle": 45, "axis": "y", "origin": [7.47121, 9.4, 7.51335]},
			"faces": {
				"north": {"uv": [0.66667, 14, 1.66667, 15.666], "texture": "#0"},
				"east": {"uv": [0.66667, 14, 1.66667, 15.666], "texture": "#0"},
				"south": {"uv": [0.66667, 14, 1.66667, 15.666], "texture": "#0"},
				"west": {"uv": [0.66667, 14, 1.66667, 15.666], "texture": "#0"},
				"up": {"uv": [0.66667, 14, 1.66667, 15.666], "texture": "#0"},
				"down": {"uv": [0.66667, 14, 1.66667, 15.666], "texture": "#0"}
			}
		},
		{
			"name": "cube9",
			"from": [7.26456, 4.78, 6.96887],
			"to": [7.70456, 5.22, 7.18887],
			"rotation": {"angle": 0, "axis": "y", "origin": [7.48456, 9.4, 7.48113]},
			"faces": {
				"north": {"uv": [0.66667, 14, 1.66667, 15.666], "texture": "#0"},
				"east": {"uv": [0.66667, 14, 1.66667, 15.666], "texture": "#0"},
				"south": {"uv": [0.66667, 14, 1.66667, 15.666], "texture": "#0"},
				"west": {"uv": [0.66667, 14, 1.66667, 15.666], "texture": "#0"},
				"up": {"uv": [0.66667, 14, 1.66667, 15.666], "texture": "#0"},
				"down": {"uv": [0.66667, 14, 1.66667, 15.666], "texture": "#0"}
			}
		},
		{
			"name": "cube11",
			"from": [7.79016, 4.78, 7.26665],
			"to": [8.01016, 5.22, 7.70665],
			"rotation": {"angle": 45, "axis": "y", "origin": [7.4979, 9.4, 7.48665]},
			"faces": {
				"north": {"uv": [0.66667, 14, 1.66667, 15.666], "texture": "#0"},
				"east": {"uv": [0.66667, 14, 1.66667, 15.666], "texture": "#0"},
				"south": {"uv": [0.66667, 14, 1.66667, 15.666], "texture": "#0"},
				"west": {"uv": [0.66667, 14, 1.66667, 15.666], "texture": "#0"},
				"up": {"uv": [0.66667, 14, 1.66667, 15.666], "texture": "#0"},
				"down": {"uv": [0.66667, 14, 1.66667, 15.666], "texture": "#0"}
			}
		},
		{
			"name": "cube10",
			"from": [7.79569, 4.78, 7.28],
			"to": [8.01569, 5.22, 7.72],
			"rotation": {"angle": 0, "axis": "y", "origin": [7.50343, 9.4, 7.5]},
			"faces": {
				"north": {"uv": [0.66667, 14, 1.66667, 15.666], "texture": "#0"},
				"east": {"uv": [0.66667, 14, 1.66667, 15.666], "texture": "#0"},
				"south": {"uv": [0.66667, 14, 1.66667, 15.666], "texture": "#0"},
				"west": {"uv": [0.66667, 14, 1.66667, 15.666], "texture": "#0"},
				"up": {"uv": [0.66667, 14, 1.66667, 15.666], "texture": "#0"},
				"down": {"uv": [0.66667, 14, 1.66667, 15.666], "texture": "#0"}
			}
		},
		{
			"name": "cube11",
			"from": [7.79016, 4.78, 7.29335],
			"to": [8.01016, 5.22, 7.73335],
			"rotation": {"angle": -45, "axis": "y", "origin": [7.4979, 9.4, 7.51335]},
			"faces": {
				"north": {"uv": [0.66667, 14, 1.66667, 15.666], "texture": "#0"},
				"east": {"uv": [0.66667, 14, 1.66667, 15.666], "texture": "#0"},
				"south": {"uv": [0.66667, 14, 1.66667, 15.666], "texture": "#0"},
				"west": {"uv": [0.66667, 14, 1.66667, 15.666], "texture": "#0"},
				"up": {"uv": [0.66667, 14, 1.66667, 15.666], "texture": "#0"},
				"down": {"uv": [0.66667, 14, 1.66667, 15.666], "texture": "#0"}
			}
		},
		{
			"name": "cube10",
			"from": [7.26456, 4.78, 7.81113],
			"to": [7.70456, 5.22, 8.03113],
			"rotation": {"angle": 0, "axis": "y", "origin": [7.48456, 9.4, 8.32338]},
			"faces": {
				"north": {"uv": [0.66667, 14, 1.66667, 15.666], "texture": "#0"},
				"east": {"uv": [0.66667, 14, 1.66667, 15.666], "texture": "#0"},
				"south": {"uv": [0.66667, 14, 1.66667, 15.666], "texture": "#0"},
				"west": {"uv": [0.66667, 14, 1.66667, 15.666], "texture": "#0"},
				"up": {"uv": [0.66667, 14, 1.66667, 15.666], "texture": "#0"},
				"down": {"uv": [0.66667, 14, 1.66667, 15.666], "texture": "#0"}
			}
		},
		{
			"name": "cube9",
			"from": [6.95343, 5.38, 7.28],
			"to": [7.17343, 5.82, 7.72],
			"rotation": {"angle": 0, "axis": "y", "origin": [7.46569, 10, 7.5]},
			"faces": {
				"north": {"uv": [0.66667, 14, 1.66667, 15.666], "texture": "#0"},
				"east": {"uv": [0.66667, 14, 1.66667, 15.666], "texture": "#0"},
				"south": {"uv": [0.66667, 14, 1.66667, 15.666], "texture": "#0"},
				"west": {"uv": [0.66667, 14, 1.66667, 15.666], "texture": "#0"},
				"up": {"uv": [0.66667, 14, 1.66667, 15.666], "texture": "#0"},
				"down": {"uv": [0.66667, 14, 1.66667, 15.666], "texture": "#0"}
			}
		},
		{
			"name": "cube13",
			"from": [7.25121, 5.38, 6.9744],
			"to": [7.69121, 5.82, 7.1944],
			"rotation": {"angle": 45, "axis": "y", "origin": [7.47121, 10, 7.48665]},
			"faces": {
				"north": {"uv": [0.66667, 14, 1.66667, 15.666], "texture": "#0"},
				"east": {"uv": [0.66667, 14, 1.66667, 15.666], "texture": "#0"},
				"south": {"uv": [0.66667, 14, 1.66667, 15.666], "texture": "#0"},
				"west": {"uv": [0.66667, 14, 1.66667, 15.666], "texture": "#0"},
				"up": {"uv": [0.66667, 14, 1.66667, 15.666], "texture": "#0"},
				"down": {"uv": [0.66667, 14, 1.66667, 15.666], "texture": "#0"}
			}
		},
		{
			"name": "cube10",
			"from": [6.95896, 5.38, 7.29335],
			"to": [7.17896, 5.82, 7.73335],
			"rotation": {"angle": 45, "axis": "y", "origin": [7.47121, 10, 7.51335]},
			"faces": {
				"north": {"uv": [0.66667, 14, 1.66667, 15.666], "texture": "#0"},
				"east": {"uv": [0.66667, 14, 1.66667, 15.666], "texture": "#0"},
				"south": {"uv": [0.66667, 14, 1.66667, 15.666], "texture": "#0"},
				"west": {"uv": [0.66667, 14, 1.66667, 15.666], "texture": "#0"},
				"up": {"uv": [0.66667, 14, 1.66667, 15.666], "texture": "#0"},
				"down": {"uv": [0.66667, 14, 1.66667, 15.666], "texture": "#0"}
			}
		},
		{
			"name": "cube10",
			"from": [7.26456, 5.38, 6.96887],
			"to": [7.70456, 5.82, 7.18887],
			"rotation": {"angle": 0, "axis": "y", "origin": [7.48456, 10, 7.48113]},
			"faces": {
				"north": {"uv": [0.66667, 14, 1.66667, 15.666], "texture": "#0"},
				"east": {"uv": [0.66667, 14, 1.66667, 15.666], "texture": "#0"},
				"south": {"uv": [0.66667, 14, 1.66667, 15.666], "texture": "#0"},
				"west": {"uv": [0.66667, 14, 1.66667, 15.666], "texture": "#0"},
				"up": {"uv": [0.66667, 14, 1.66667, 15.666], "texture": "#0"},
				"down": {"uv": [0.66667, 14, 1.66667, 15.666], "texture": "#0"}
			}
		},
		{
			"name": "cube12",
			"from": [7.79016, 5.38, 7.26665],
			"to": [8.01016, 5.82, 7.70665],
			"rotation": {"angle": 45, "axis": "y", "origin": [7.4979, 10, 7.48665]},
			"faces": {
				"north": {"uv": [0.66667, 14, 1.66667, 15.666], "texture": "#0"},
				"east": {"uv": [0.66667, 14, 1.66667, 15.666], "texture": "#0"},
				"south": {"uv": [0.66667, 14, 1.66667, 15.666], "texture": "#0"},
				"west": {"uv": [0.66667, 14, 1.66667, 15.666], "texture": "#0"},
				"up": {"uv": [0.66667, 14, 1.66667, 15.666], "texture": "#0"},
				"down": {"uv": [0.66667, 14, 1.66667, 15.666], "texture": "#0"}
			}
		},
		{
			"name": "cube11",
			"from": [7.79569, 5.38, 7.28],
			"to": [8.01569, 5.82, 7.72],
			"rotation": {"angle": 0, "axis": "y", "origin": [7.50343, 10, 7.5]},
			"faces": {
				"north": {"uv": [0.66667, 14, 1.66667, 15.666], "texture": "#0"},
				"east": {"uv": [0.66667, 14, 1.66667, 15.666], "texture": "#0"},
				"south": {"uv": [0.66667, 14, 1.66667, 15.666], "texture": "#0"},
				"west": {"uv": [0.66667, 14, 1.66667, 15.666], "texture": "#0"},
				"up": {"uv": [0.66667, 14, 1.66667, 15.666], "texture": "#0"},
				"down": {"uv": [0.66667, 14, 1.66667, 15.666], "texture": "#0"}
			}
		},
		{
			"name": "cube12",
			"from": [7.79016, 5.38, 7.29335],
			"to": [8.01016, 5.82, 7.73335],
			"rotation": {"angle": -45, "axis": "y", "origin": [7.4979, 10, 7.51335]},
			"faces": {
				"north": {"uv": [0.66667, 14, 1.66667, 15.666], "texture": "#0"},
				"east": {"uv": [0.66667, 14, 1.66667, 15.666], "texture": "#0"},
				"south": {"uv": [0.66667, 14, 1.66667, 15.666], "texture": "#0"},
				"west": {"uv": [0.66667, 14, 1.66667, 15.666], "texture": "#0"},
				"up": {"uv": [0.66667, 14, 1.66667, 15.666], "texture": "#0"},
				"down": {"uv": [0.66667, 14, 1.66667, 15.666], "texture": "#0"}
			}
		},
		{
			"name": "cube11",
			"from": [7.26456, 5.38, 7.81113],
			"to": [7.70456, 5.82, 8.03113],
			"rotation": {"angle": 0, "axis": "y", "origin": [7.48456, 10, 8.32338]},
			"faces": {
				"north": {"uv": [0.66667, 14, 1.66667, 15.666], "texture": "#0"},
				"east": {"uv": [0.66667, 14, 1.66667, 15.666], "texture": "#0"},
				"south": {"uv": [0.66667, 14, 1.66667, 15.666], "texture": "#0"},
				"west": {"uv": [0.66667, 14, 1.66667, 15.666], "texture": "#0"},
				"up": {"uv": [0.66667, 14, 1.66667, 15.666], "texture": "#0"},
				"down": {"uv": [0.66667, 14, 1.66667, 15.666], "texture": "#0"}
			}
		},
		{
			"name": "cube10",
			"from": [6.95343, 5.98, 7.28],
			"to": [7.17343, 6.42, 7.72],
			"rotation": {"angle": 0, "axis": "y", "origin": [7.46569, 10.6, 7.5]},
			"faces": {
				"north": {"uv": [0.66667, 14, 1.66667, 15.666], "texture": "#0"},
				"east": {"uv": [0.66667, 14, 1.66667, 15.666], "texture": "#0"},
				"south": {"uv": [0.66667, 14, 1.66667, 15.666], "texture": "#0"},
				"west": {"uv": [0.66667, 14, 1.66667, 15.666], "texture": "#0"},
				"up": {"uv": [0.66667, 14, 1.66667, 15.666], "texture": "#0"},
				"down": {"uv": [0.66667, 14, 1.66667, 15.666], "texture": "#0"}
			}
		},
		{
			"name": "cube14",
			"from": [7.25121, 5.98, 6.9744],
			"to": [7.69121, 6.42, 7.1944],
			"rotation": {"angle": 45, "axis": "y", "origin": [7.47121, 10.6, 7.48665]},
			"faces": {
				"north": {"uv": [0.66667, 14, 1.66667, 15.666], "texture": "#0"},
				"east": {"uv": [0.66667, 14, 1.66667, 15.666], "texture": "#0"},
				"south": {"uv": [0.66667, 14, 1.66667, 15.666], "texture": "#0"},
				"west": {"uv": [0.66667, 14, 1.66667, 15.666], "texture": "#0"},
				"up": {"uv": [0.66667, 14, 1.66667, 15.666], "texture": "#0"},
				"down": {"uv": [0.66667, 14, 1.66667, 15.666], "texture": "#0"}
			}
		},
		{
			"name": "cube11",
			"from": [6.95896, 5.98, 7.29335],
			"to": [7.17896, 6.42, 7.73335],
			"rotation": {"angle": 45, "axis": "y", "origin": [7.47121, 10.6, 7.51335]},
			"faces": {
				"north": {"uv": [0.66667, 14, 1.66667, 15.666], "texture": "#0"},
				"east": {"uv": [0.66667, 14, 1.66667, 15.666], "texture": "#0"},
				"south": {"uv": [0.66667, 14, 1.66667, 15.666], "texture": "#0"},
				"west": {"uv": [0.66667, 14, 1.66667, 15.666], "texture": "#0"},
				"up": {"uv": [0.66667, 14, 1.66667, 15.666], "texture": "#0"},
				"down": {"uv": [0.66667, 14, 1.66667, 15.666], "texture": "#0"}
			}
		},
		{
			"name": "cube11",
			"from": [7.26456, 5.98, 6.96887],
			"to": [7.70456, 6.42, 7.18887],
			"rotation": {"angle": 0, "axis": "y", "origin": [7.48456, 10.6, 7.48113]},
			"faces": {
				"north": {"uv": [0.66667, 14, 1.66667, 15.666], "texture": "#0"},
				"east": {"uv": [0.66667, 14, 1.66667, 15.666], "texture": "#0"},
				"south": {"uv": [0.66667, 14, 1.66667, 15.666], "texture": "#0"},
				"west": {"uv": [0.66667, 14, 1.66667, 15.666], "texture": "#0"},
				"up": {"uv": [0.66667, 14, 1.66667, 15.666], "texture": "#0"},
				"down": {"uv": [0.66667, 14, 1.66667, 15.666], "texture": "#0"}
			}
		},
		{
			"name": "cube13",
			"from": [7.79016, 5.98, 7.26665],
			"to": [8.01016, 6.42, 7.70665],
			"rotation": {"angle": 45, "axis": "y", "origin": [7.4979, 10.6, 7.48665]},
			"faces": {
				"north": {"uv": [0.66667, 14, 1.66667, 15.666], "texture": "#0"},
				"east": {"uv": [0.66667, 14, 1.66667, 15.666], "texture": "#0"},
				"south": {"uv": [0.66667, 14, 1.66667, 15.666], "texture": "#0"},
				"west": {"uv": [0.66667, 14, 1.66667, 15.666], "texture": "#0"},
				"up": {"uv": [0.66667, 14, 1.66667, 15.666], "texture": "#0"},
				"down": {"uv": [0.66667, 14, 1.66667, 15.666], "texture": "#0"}
			}
		},
		{
			"name": "cube12",
			"from": [7.79569, 5.98, 7.28],
			"to": [8.01569, 6.42, 7.72],
			"rotation": {"angle": 0, "axis": "y", "origin": [7.50343, 10.6, 7.5]},
			"faces": {
				"north": {"uv": [0.66667, 14, 1.66667, 15.666], "texture": "#0"},
				"east": {"uv": [0.66667, 14, 1.66667, 15.666], "texture": "#0"},
				"south": {"uv": [0.66667, 14, 1.66667, 15.666], "texture": "#0"},
				"west": {"uv": [0.66667, 14, 1.66667, 15.666], "texture": "#0"},
				"up": {"uv": [0.66667, 14, 1.66667, 15.666], "texture": "#0"},
				"down": {"uv": [0.66667, 14, 1.66667, 15.666], "texture": "#0"}
			}
		},
		{
			"name": "cube13",
			"from": [7.79016, 5.98, 7.29335],
			"to": [8.01016, 6.42, 7.73335],
			"rotation": {"angle": -45, "axis": "y", "origin": [7.4979, 10.6, 7.51335]},
			"faces": {
				"north": {"uv": [0.66667, 14, 1.66667, 15.666], "texture": "#0"},
				"east": {"uv": [0.66667, 14, 1.66667, 15.666], "texture": "#0"},
				"south": {"uv": [0.66667, 14, 1.66667, 15.666], "texture": "#0"},
				"west": {"uv": [0.66667, 14, 1.66667, 15.666], "texture": "#0"},
				"up": {"uv": [0.66667, 14, 1.66667, 15.666], "texture": "#0"},
				"down": {"uv": [0.66667, 14, 1.66667, 15.666], "texture": "#0"}
			}
		},
		{
			"name": "cube12",
			"from": [7.26456, 5.98, 7.81113],
			"to": [7.70456, 6.42, 8.03113],
			"rotation": {"angle": 0, "axis": "y", "origin": [7.48456, 10.6, 8.32338]},
			"faces": {
				"north": {"uv": [0.66667, 14, 1.66667, 15.666], "texture": "#0"},
				"east": {"uv": [0.66667, 14, 1.66667, 15.666], "texture": "#0"},
				"south": {"uv": [0.66667, 14, 1.66667, 15.666], "texture": "#0"},
				"west": {"uv": [0.66667, 14, 1.66667, 15.666], "texture": "#0"},
				"up": {"uv": [0.66667, 14, 1.66667, 15.666], "texture": "#0"},
				"down": {"uv": [0.66667, 14, 1.66667, 15.666], "texture": "#0"}
			}
		},
		{
			"from": [-0.75355, 10.87731, 3.25],
			"to": [-0.35355, 11.07731, 7.15],
			"rotation": {"angle": 45, "axis": "z", "origin": [6.94645, 18.87731, 11]},
			"faces": {
				"north": {"uv": [3.333, 14, 4.333, 15.666], "texture": "#0"},
				"east": {"uv": [3.333, 14, 4.333, 15.666], "texture": "#0"},
				"south": {"uv": [3.333, 14, 4.333, 15.666], "texture": "#0"},
				"west": {"uv": [3.333, 14, 4.333, 15.666], "texture": "#0"},
				"up": {"uv": [3.333, 14, 4.333, 15.666], "texture": "#0"},
				"down": {"uv": [3.333, 14, 4.333, 15.666], "texture": "#0"}
			}
		},
		{
			"from": [7.01716, 7.51716, 3.25],
			"to": [7.21716, 7.91716, 7.15],
			"rotation": {"angle": 0, "axis": "y", "origin": [15.01716, 0.21716, 11]},
			"faces": {
				"north": {"uv": [3.333, 14, 4.333, 15.666], "rotation": 270, "texture": "#0"},
				"east": {"uv": [3.333, 14, 4.333, 15.666], "rotation": 270, "texture": "#0"},
				"south": {"uv": [3.333, 14, 4.333, 15.666], "rotation": 270, "texture": "#0"},
				"west": {"uv": [3.333, 14, 4.333, 15.666], "rotation": 270, "texture": "#0"},
				"up": {"uv": [3.333, 14, 4.333, 15.666], "rotation": 270, "texture": "#0"},
				"down": {"uv": [3.333, 14, 4.333, 15.666], "rotation": 270, "texture": "#0"}
			}
		},
		{
			"from": [10.41873, -0.27071, 3.25],
			"to": [10.81873, -0.07071, 7.15],
			"rotation": {"angle": -45, "axis": "z", "origin": [18.11873, 7.72929, 11]},
			"faces": {
				"north": {"uv": [3.333, 14, 4.333, 15.666], "texture": "#0"},
				"east": {"uv": [3.333, 14, 4.333, 15.666], "texture": "#0"},
				"south": {"uv": [3.333, 14, 4.333, 15.666], "texture": "#0"},
				"west": {"uv": [3.333, 14, 4.333, 15.666], "texture": "#0"},
				"up": {"uv": [3.333, 14, 4.333, 15.666], "texture": "#0"},
				"down": {"uv": [3.333, 14, 4.333, 15.666], "texture": "#0"}
			}
		},
		{
			"from": [7.3, 7.23431, 3.25],
			"to": [7.7, 7.43431, 7.15],
			"rotation": {"angle": 0, "axis": "y", "origin": [15, 15.23431, 11]},
			"faces": {
				"north": {"uv": [3.333, 14, 4.333, 15.666], "texture": "#0"},
				"east": {"uv": [3.333, 14, 4.333, 15.666], "texture": "#0"},
				"south": {"uv": [3.333, 14, 4.333, 15.666], "texture": "#0"},
				"west": {"uv": [3.333, 14, 4.333, 15.666], "texture": "#0"},
				"up": {"uv": [3.333, 14, 4.333, 15.666], "texture": "#0"},
				"down": {"uv": [3.333, 14, 4.333, 15.666], "texture": "#0"}
			}
		},
		{
			"from": [-0.21213, 10.33589, 3.25],
			"to": [0.18787, 10.53589, 7.15],
			"rotation": {"angle": 45, "axis": "z", "origin": [7.48787, 18.33589, 11]},
			"faces": {
				"north": {"uv": [3.333, 14, 4.333, 15.666], "texture": "#0"},
				"east": {"uv": [3.333, 14, 4.333, 15.666], "texture": "#0"},
				"south": {"uv": [3.333, 14, 4.333, 15.666], "texture": "#0"},
				"west": {"uv": [3.333, 14, 4.333, 15.666], "texture": "#0"},
				"up": {"uv": [3.333, 14, 4.333, 15.666], "texture": "#0"},
				"down": {"uv": [3.333, 14, 4.333, 15.666], "texture": "#0"}
			}
		},
		{
			"from": [7.78284, 7.51716, 3.25],
			"to": [7.98284, 7.91716, 7.15],
			"rotation": {"angle": 0, "axis": "y", "origin": [15.78284, 0.21716, 11]},
			"faces": {
				"north": {"uv": [3.333, 14, 4.333, 15.666], "rotation": 270, "texture": "#0"},
				"east": {"uv": [3.333, 14, 4.333, 15.666], "rotation": 270, "texture": "#0"},
				"south": {"uv": [3.333, 14, 4.333, 15.666], "rotation": 270, "texture": "#0"},
				"west": {"uv": [3.333, 14, 4.333, 15.666], "rotation": 270, "texture": "#0"},
				"up": {"uv": [3.333, 14, 4.333, 15.666], "rotation": 270, "texture": "#0"},
				"down": {"uv": [3.333, 14, 4.333, 15.666], "rotation": 270, "texture": "#0"}
			}
		},
		{
			"from": [7.3, 8, 3.25],
			"to": [7.7, 8.2, 7.15],
			"rotation": {"angle": 0, "axis": "y", "origin": [15, 16, 11]},
			"faces": {
				"north": {"uv": [3.333, 14, 4.333, 15.666], "texture": "#0"},
				"east": {"uv": [3.333, 14, 4.333, 15.666], "texture": "#0"},
				"south": {"uv": [3.333, 14, 4.333, 15.666], "texture": "#0"},
				"west": {"uv": [3.333, 14, 4.333, 15.666], "texture": "#0"},
				"up": {"uv": [3.333, 14, 4.333, 15.666], "texture": "#0"},
				"down": {"uv": [3.333, 14, 4.333, 15.666], "texture": "#0"}
			}
		},
		{
			"from": [10.96016, 0.27071, 3.25],
			"to": [11.36016, 0.47071, 7.15],
			"rotation": {"angle": -45, "axis": "z", "origin": [18.66016, 8.27071, 11]},
			"faces": {
				"north": {"uv": [3.333, 14, 4.333, 15.666], "texture": "#0"},
				"east": {"uv": [3.333, 14, 4.333, 15.666], "texture": "#0"},
				"south": {"uv": [3.333, 14, 4.333, 15.666], "texture": "#0"},
				"west": {"uv": [3.333, 14, 4.333, 15.666], "texture": "#0"},
				"up": {"uv": [3.333, 14, 4.333, 15.666], "texture": "#0"},
				"down": {"uv": [3.333, 14, 4.333, 15.666], "texture": "#0"}
			}
		},
		{
			"from": [-1.57891, 11.19333, 6.555],
			"to": [-1.13891, 11.41333, 7.345],
			"rotation": {"angle": 45, "axis": "z", "origin": [6.89109, 19.99333, 11.58]},
			"faces": {
				"north": {"uv": [1, 14, 2, 15.666], "texture": "#0"},
				"east": {"uv": [1, 14, 2, 15.666], "texture": "#0"},
				"south": {"uv": [1, 14, 2, 15.666], "texture": "#0"},
				"west": {"uv": [1, 14, 2, 15.666], "texture": "#0"},
				"up": {"uv": [1, 14, 2, 15.666], "texture": "#0"},
				"down": {"uv": [1, 14, 2, 15.666], "texture": "#0"}
			}
		},
		{
			"from": [6.96887, 7.49716, 6.555],
			"to": [7.18887, 7.93716, 7.345],
			"rotation": {"angle": 0, "axis": "y", "origin": [15.76887, -0.53284, 11.58]},
			"faces": {
				"north": {"uv": [1, 14, 2, 15.666], "rotation": 270, "texture": "#0"},
				"east": {"uv": [1, 14, 2, 15.666], "rotation": 270, "texture": "#0"},
				"south": {"uv": [1, 14, 2, 15.666], "rotation": 270, "texture": "#0"},
				"west": {"uv": [1, 14, 2, 15.666], "rotation": 270, "texture": "#0"},
				"up": {"uv": [1, 14, 2, 15.666], "rotation": 270, "texture": "#0"},
				"down": {"uv": [1, 14, 2, 15.666], "rotation": 270, "texture": "#0"}
			}
		},
		{
			"from": [10.71061, -1.0695, 6.555],
			"to": [11.15061, -0.8495, 7.345],
			"rotation": {"angle": -45, "axis": "z", "origin": [19.18061, 7.7305, 11.58]},
			"faces": {
				"north": {"uv": [1, 14, 2, 15.666], "texture": "#0"},
				"east": {"uv": [1, 14, 2, 15.666], "texture": "#0"},
				"south": {"uv": [1, 14, 2, 15.666], "texture": "#0"},
				"west": {"uv": [1, 14, 2, 15.666], "texture": "#0"},
				"up": {"uv": [1, 14, 2, 15.666], "texture": "#0"},
				"down": {"uv": [1, 14, 2, 15.666], "texture": "#0"}
			}
		},
		{
			"from": [7.28, 7.18603, 6.555],
			"to": [7.72, 7.40603, 7.345],
			"rotation": {"angle": 0, "axis": "y", "origin": [15.75, 15.98603, 11.58]},
			"faces": {
				"north": {"uv": [1, 14, 2, 15.666], "texture": "#0"},
				"east": {"uv": [1, 14, 2, 15.666], "texture": "#0"},
				"south": {"uv": [1, 14, 2, 15.666], "texture": "#0"},
				"west": {"uv": [1, 14, 2, 15.666], "texture": "#0"},
				"up": {"uv": [1, 14, 2, 15.666], "texture": "#0"},
				"down": {"uv": [1, 14, 2, 15.666], "texture": "#0"}
			}
		},
		{
			"from": [-0.98335, 10.59776, 6.555],
			"to": [-0.54335, 10.81776, 7.345],
			"rotation": {"angle": 45, "axis": "z", "origin": [7.48665, 19.39776, 11.58]},
			"faces": {
				"north": {"uv": [1, 14, 2, 15.666], "texture": "#0"},
				"east": {"uv": [1, 14, 2, 15.666], "texture": "#0"},
				"south": {"uv": [1, 14, 2, 15.666], "texture": "#0"},
				"west": {"uv": [1, 14, 2, 15.666], "texture": "#0"},
				"up": {"uv": [1, 14, 2, 15.666], "texture": "#0"},
				"down": {"uv": [1, 14, 2, 15.666], "texture": "#0"}
			}
		},
		{
			"from": [7.81113, 7.49716, 6.555],
			"to": [8.03113, 7.93716, 7.345],
			"rotation": {"angle": 0, "axis": "y", "origin": [16.61113, -0.53284, 11.58]},
			"faces": {
				"north": {"uv": [1, 14, 2, 15.666], "rotation": 270, "texture": "#0"},
				"east": {"uv": [1, 14, 2, 15.666], "rotation": 270, "texture": "#0"},
				"south": {"uv": [1, 14, 2, 15.666], "rotation": 270, "texture": "#0"},
				"west": {"uv": [1, 14, 2, 15.666], "rotation": 270, "texture": "#0"},
				"up": {"uv": [1, 14, 2, 15.666], "rotation": 270, "texture": "#0"},
				"down": {"uv": [1, 14, 2, 15.666], "rotation": 270, "texture": "#0"}
			}
		},
		{
			"from": [7.28, 8.02828, 6.555],
			"to": [7.72, 8.24828, 7.345],
			"rotation": {"angle": 0, "axis": "y", "origin": [15.75, 16.82828, 11.58]},
			"faces": {
				"north": {"uv": [1, 14, 2, 15.666], "texture": "#0"},
				"east": {"uv": [1, 14, 2, 15.666], "texture": "#0"},
				"south": {"uv": [1, 14, 2, 15.666], "texture": "#0"},
				"west": {"uv": [1, 14, 2, 15.666], "texture": "#0"},
				"up": {"uv": [1, 14, 2, 15.666], "texture": "#0"},
				"down": {"uv": [1, 14, 2, 15.666], "texture": "#0"}
			}
		},
		{
			"from": [11.30617, -0.47393, 6.555],
			"to": [11.74617, -0.25393, 7.345],
			"rotation": {"angle": -45, "axis": "z", "origin": [19.77617, 8.32607, 11.58]},
			"faces": {
				"north": {"uv": [1, 14, 2, 15.666], "texture": "#0"},
				"east": {"uv": [1, 14, 2, 15.666], "texture": "#0"},
				"south": {"uv": [1, 14, 2, 15.666], "texture": "#0"},
				"west": {"uv": [1, 14, 2, 15.666], "texture": "#0"},
				"up": {"uv": [1, 14, 2, 15.666], "texture": "#0"},
				"down": {"uv": [1, 14, 2, 15.666], "texture": "#0"}
			}
		},
		{
			"from": [-1.57891, 11.19333, 5.855],
			"to": [-1.13891, 11.41333, 6.345],
			"rotation": {"angle": 45, "axis": "z", "origin": [6.89109, 19.99333, 10.58]},
			"faces": {
				"north": {"uv": [1, 14, 2, 15.666], "texture": "#0"},
				"east": {"uv": [1, 14, 2, 15.666], "texture": "#0"},
				"south": {"uv": [1, 14, 2, 15.666], "texture": "#0"},
				"west": {"uv": [1, 14, 2, 15.666], "texture": "#0"},
				"up": {"uv": [1, 14, 2, 15.666], "texture": "#0"},
				"down": {"uv": [1, 14, 2, 15.666], "texture": "#0"}
			}
		},
		{
			"from": [6.96887, 7.49716, 5.855],
			"to": [7.18887, 7.93716, 6.345],
			"rotation": {"angle": 0, "axis": "y", "origin": [15.76887, -0.53284, 10.58]},
			"faces": {
				"north": {"uv": [1, 14, 2, 15.666], "rotation": 270, "texture": "#0"},
				"east": {"uv": [1, 14, 2, 15.666], "rotation": 270, "texture": "#0"},
				"south": {"uv": [1, 14, 2, 15.666], "rotation": 270, "texture": "#0"},
				"west": {"uv": [1, 14, 2, 15.666], "rotation": 270, "texture": "#0"},
				"up": {"uv": [1, 14, 2, 15.666], "rotation": 270, "texture": "#0"},
				"down": {"uv": [1, 14, 2, 15.666], "rotation": 270, "texture": "#0"}
			}
		},
		{
			"from": [10.71061, -1.0695, 5.855],
			"to": [11.15061, -0.8495, 6.345],
			"rotation": {"angle": -45, "axis": "z", "origin": [19.18061, 7.7305, 10.58]},
			"faces": {
				"north": {"uv": [1, 14, 2, 15.666], "texture": "#0"},
				"east": {"uv": [1, 14, 2, 15.666], "texture": "#0"},
				"south": {"uv": [1, 14, 2, 15.666], "texture": "#0"},
				"west": {"uv": [1, 14, 2, 15.666], "texture": "#0"},
				"up": {"uv": [1, 14, 2, 15.666], "texture": "#0"},
				"down": {"uv": [1, 14, 2, 15.666], "texture": "#0"}
			}
		},
		{
			"from": [7.28, 7.18603, 5.855],
			"to": [7.72, 7.40603, 6.345],
			"rotation": {"angle": 0, "axis": "y", "origin": [15.75, 15.98603, 10.58]},
			"faces": {
				"north": {"uv": [1, 14, 2, 15.666], "texture": "#0"},
				"east": {"uv": [1, 14, 2, 15.666], "texture": "#0"},
				"south": {"uv": [1, 14, 2, 15.666], "texture": "#0"},
				"west": {"uv": [1, 14, 2, 15.666], "texture": "#0"},
				"up": {"uv": [1, 14, 2, 15.666], "texture": "#0"},
				"down": {"uv": [1, 14, 2, 15.666], "texture": "#0"}
			}
		},
		{
			"from": [-0.98335, 10.59776, 5.855],
			"to": [-0.54335, 10.81776, 6.345],
			"rotation": {"angle": 45, "axis": "z", "origin": [7.48665, 19.39776, 10.58]},
			"faces": {
				"north": {"uv": [1, 14, 2, 15.666], "texture": "#0"},
				"east": {"uv": [1, 14, 2, 15.666], "texture": "#0"},
				"south": {"uv": [1, 14, 2, 15.666], "texture": "#0"},
				"west": {"uv": [1, 14, 2, 15.666], "texture": "#0"},
				"up": {"uv": [1, 14, 2, 15.666], "texture": "#0"},
				"down": {"uv": [1, 14, 2, 15.666], "texture": "#0"}
			}
		},
		{
			"from": [7.81113, 7.49716, 5.855],
			"to": [8.03113, 7.93716, 6.345],
			"rotation": {"angle": 0, "axis": "y", "origin": [16.61113, -0.53284, 10.58]},
			"faces": {
				"north": {"uv": [1, 14, 2, 15.666], "rotation": 270, "texture": "#0"},
				"east": {"uv": [1, 14, 2, 15.666], "rotation": 270, "texture": "#0"},
				"south": {"uv": [1, 14, 2, 15.666], "rotation": 270, "texture": "#0"},
				"west": {"uv": [1, 14, 2, 15.666], "rotation": 270, "texture": "#0"},
				"up": {"uv": [1, 14, 2, 15.666], "rotation": 270, "texture": "#0"},
				"down": {"uv": [1, 14, 2, 15.666], "rotation": 270, "texture": "#0"}
			}
		},
		{
			"from": [7.28, 8.02828, 5.855],
			"to": [7.72, 8.24828, 6.345],
			"rotation": {"angle": 0, "axis": "y", "origin": [15.75, 16.82828, 10.58]},
			"faces": {
				"north": {"uv": [1, 14, 2, 15.666], "texture": "#0"},
				"east": {"uv": [1, 14, 2, 15.666], "texture": "#0"},
				"south": {"uv": [1, 14, 2, 15.666], "texture": "#0"},
				"west": {"uv": [1, 14, 2, 15.666], "texture": "#0"},
				"up": {"uv": [1, 14, 2, 15.666], "texture": "#0"},
				"down": {"uv": [1, 14, 2, 15.666], "texture": "#0"}
			}
		},
		{
			"from": [11.30617, -0.47393, 5.855],
			"to": [11.74617, -0.25393, 6.345],
			"rotation": {"angle": -45, "axis": "z", "origin": [19.77617, 8.32607, 10.58]},
			"faces": {
				"north": {"uv": [1, 14, 2, 15.666], "texture": "#0"},
				"east": {"uv": [1, 14, 2, 15.666], "texture": "#0"},
				"south": {"uv": [1, 14, 2, 15.666], "texture": "#0"},
				"west": {"uv": [1, 14, 2, 15.666], "texture": "#0"},
				"up": {"uv": [1, 14, 2, 15.666], "texture": "#0"},
				"down": {"uv": [1, 14, 2, 15.666], "texture": "#0"}
			}
		},
		{
			"from": [-1.57891, 11.19333, 5.155],
			"to": [-1.13891, 11.41333, 5.645],
			"rotation": {"angle": 45, "axis": "z", "origin": [6.89109, 19.99333, 9.88]},
			"faces": {
				"north": {"uv": [1, 14, 2, 15.666], "texture": "#0"},
				"east": {"uv": [1, 14, 2, 15.666], "texture": "#0"},
				"south": {"uv": [1, 14, 2, 15.666], "texture": "#0"},
				"west": {"uv": [1, 14, 2, 15.666], "texture": "#0"},
				"up": {"uv": [1, 14, 2, 15.666], "texture": "#0"},
				"down": {"uv": [1, 14, 2, 15.666], "texture": "#0"}
			}
		},
		{
			"from": [6.96887, 7.49716, 5.155],
			"to": [7.18887, 7.93716, 5.645],
			"rotation": {"angle": 0, "axis": "y", "origin": [15.76887, -0.53284, 9.88]},
			"faces": {
				"north": {"uv": [1, 14, 2, 15.666], "rotation": 270, "texture": "#0"},
				"east": {"uv": [1, 14, 2, 15.666], "rotation": 270, "texture": "#0"},
				"south": {"uv": [1, 14, 2, 15.666], "rotation": 270, "texture": "#0"},
				"west": {"uv": [1, 14, 2, 15.666], "rotation": 270, "texture": "#0"},
				"up": {"uv": [1, 14, 2, 15.666], "rotation": 270, "texture": "#0"},
				"down": {"uv": [1, 14, 2, 15.666], "rotation": 270, "texture": "#0"}
			}
		},
		{
			"from": [10.71061, -1.0695, 5.155],
			"to": [11.15061, -0.8495, 5.645],
			"rotation": {"angle": -45, "axis": "z", "origin": [19.18061, 7.7305, 9.88]},
			"faces": {
				"north": {"uv": [1, 14, 2, 15.666], "texture": "#0"},
				"east": {"uv": [1, 14, 2, 15.666], "texture": "#0"},
				"south": {"uv": [1, 14, 2, 15.666], "texture": "#0"},
				"west": {"uv": [1, 14, 2, 15.666], "texture": "#0"},
				"up": {"uv": [1, 14, 2, 15.666], "texture": "#0"},
				"down": {"uv": [1, 14, 2, 15.666], "texture": "#0"}
			}
		},
		{
			"from": [7.28, 7.18603, 5.155],
			"to": [7.72, 7.40603, 5.645],
			"rotation": {"angle": 0, "axis": "y", "origin": [15.75, 15.98603, 9.88]},
			"faces": {
				"north": {"uv": [1, 14, 2, 15.666], "texture": "#0"},
				"east": {"uv": [1, 14, 2, 15.666], "texture": "#0"},
				"south": {"uv": [1, 14, 2, 15.666], "texture": "#0"},
				"west": {"uv": [1, 14, 2, 15.666], "texture": "#0"},
				"up": {"uv": [1, 14, 2, 15.666], "texture": "#0"},
				"down": {"uv": [1, 14, 2, 15.666], "texture": "#0"}
			}
		},
		{
			"from": [-0.98335, 10.59776, 5.155],
			"to": [-0.54335, 10.81776, 5.645],
			"rotation": {"angle": 45, "axis": "z", "origin": [7.48665, 19.39776, 9.88]},
			"faces": {
				"north": {"uv": [1, 14, 2, 15.666], "texture": "#0"},
				"east": {"uv": [1, 14, 2, 15.666], "texture": "#0"},
				"south": {"uv": [1, 14, 2, 15.666], "texture": "#0"},
				"west": {"uv": [1, 14, 2, 15.666], "texture": "#0"},
				"up": {"uv": [1, 14, 2, 15.666], "texture": "#0"},
				"down": {"uv": [1, 14, 2, 15.666], "texture": "#0"}
			}
		},
		{
			"from": [7.81113, 7.49716, 5.155],
			"to": [8.03113, 7.93716, 5.645],
			"rotation": {"angle": 0, "axis": "y", "origin": [16.61113, -0.53284, 9.88]},
			"faces": {
				"north": {"uv": [1, 14, 2, 15.666], "rotation": 270, "texture": "#0"},
				"east": {"uv": [1, 14, 2, 15.666], "rotation": 270, "texture": "#0"},
				"south": {"uv": [1, 14, 2, 15.666], "rotation": 270, "texture": "#0"},
				"west": {"uv": [1, 14, 2, 15.666], "rotation": 270, "texture": "#0"},
				"up": {"uv": [1, 14, 2, 15.666], "rotation": 270, "texture": "#0"},
				"down": {"uv": [1, 14, 2, 15.666], "rotation": 270, "texture": "#0"}
			}
		},
		{
			"from": [7.28, 8.02828, 5.155],
			"to": [7.72, 8.24828, 5.645],
			"rotation": {"angle": 0, "axis": "y", "origin": [15.75, 16.82828, 9.88]},
			"faces": {
				"north": {"uv": [1, 14, 2, 15.666], "texture": "#0"},
				"east": {"uv": [1, 14, 2, 15.666], "texture": "#0"},
				"south": {"uv": [1, 14, 2, 15.666], "texture": "#0"},
				"west": {"uv": [1, 14, 2, 15.666], "texture": "#0"},
				"up": {"uv": [1, 14, 2, 15.666], "texture": "#0"},
				"down": {"uv": [1, 14, 2, 15.666], "texture": "#0"}
			}
		},
		{
			"from": [11.30617, -0.47393, 5.155],
			"to": [11.74617, -0.25393, 5.645],
			"rotation": {"angle": -45, "axis": "z", "origin": [19.77617, 8.32607, 9.88]},
			"faces": {
				"north": {"uv": [1, 14, 2, 15.666], "texture": "#0"},
				"east": {"uv": [1, 14, 2, 15.666], "texture": "#0"},
				"south": {"uv": [1, 14, 2, 15.666], "texture": "#0"},
				"west": {"uv": [1, 14, 2, 15.666], "texture": "#0"},
				"up": {"uv": [1, 14, 2, 15.666], "texture": "#0"},
				"down": {"uv": [1, 14, 2, 15.666], "texture": "#0"}
			}
		},
		{
			"from": [-1.57891, 11.19333, 4.455],
			"to": [-1.13891, 11.41333, 4.945],
			"rotation": {"angle": 45, "axis": "z", "origin": [6.89109, 19.99333, 9.18]},
			"faces": {
				"north": {"uv": [1, 14, 2, 15.666], "texture": "#0"},
				"east": {"uv": [1, 14, 2, 15.666], "texture": "#0"},
				"south": {"uv": [1, 14, 2, 15.666], "texture": "#0"},
				"west": {"uv": [1, 14, 2, 15.666], "texture": "#0"},
				"up": {"uv": [1, 14, 2, 15.666], "texture": "#0"},
				"down": {"uv": [1, 14, 2, 15.666], "texture": "#0"}
			}
		},
		{
			"from": [6.96887, 7.49716, 4.455],
			"to": [7.18887, 7.93716, 4.945],
			"rotation": {"angle": 0, "axis": "y", "origin": [15.76887, -0.53284, 9.18]},
			"faces": {
				"north": {"uv": [1, 14, 2, 15.666], "rotation": 270, "texture": "#0"},
				"east": {"uv": [1, 14, 2, 15.666], "rotation": 270, "texture": "#0"},
				"south": {"uv": [1, 14, 2, 15.666], "rotation": 270, "texture": "#0"},
				"west": {"uv": [1, 14, 2, 15.666], "rotation": 270, "texture": "#0"},
				"up": {"uv": [1, 14, 2, 15.666], "rotation": 270, "texture": "#0"},
				"down": {"uv": [1, 14, 2, 15.666], "rotation": 270, "texture": "#0"}
			}
		},
		{
			"from": [10.71061, -1.0695, 4.455],
			"to": [11.15061, -0.8495, 4.945],
			"rotation": {"angle": -45, "axis": "z", "origin": [19.18061, 7.7305, 9.18]},
			"faces": {
				"north": {"uv": [1, 14, 2, 15.666], "texture": "#0"},
				"east": {"uv": [1, 14, 2, 15.666], "texture": "#0"},
				"south": {"uv": [1, 14, 2, 15.666], "texture": "#0"},
				"west": {"uv": [1, 14, 2, 15.666], "texture": "#0"},
				"up": {"uv": [1, 14, 2, 15.666], "texture": "#0"},
				"down": {"uv": [1, 14, 2, 15.666], "texture": "#0"}
			}
		},
		{
			"from": [7.28, 7.18603, 4.455],
			"to": [7.72, 7.40603, 4.945],
			"rotation": {"angle": 0, "axis": "y", "origin": [15.75, 15.98603, 9.18]},
			"faces": {
				"north": {"uv": [1, 14, 2, 15.666], "texture": "#0"},
				"east": {"uv": [1, 14, 2, 15.666], "texture": "#0"},
				"south": {"uv": [1, 14, 2, 15.666], "texture": "#0"},
				"west": {"uv": [1, 14, 2, 15.666], "texture": "#0"},
				"up": {"uv": [1, 14, 2, 15.666], "texture": "#0"},
				"down": {"uv": [1, 14, 2, 15.666], "texture": "#0"}
			}
		},
		{
			"from": [-0.98335, 10.59776, 4.455],
			"to": [-0.54335, 10.81776, 4.945],
			"rotation": {"angle": 45, "axis": "z", "origin": [7.48665, 19.39776, 9.18]},
			"faces": {
				"north": {"uv": [1, 14, 2, 15.666], "texture": "#0"},
				"east": {"uv": [1, 14, 2, 15.666], "texture": "#0"},
				"south": {"uv": [1, 14, 2, 15.666], "texture": "#0"},
				"west": {"uv": [1, 14, 2, 15.666], "texture": "#0"},
				"up": {"uv": [1, 14, 2, 15.666], "texture": "#0"},
				"down": {"uv": [1, 14, 2, 15.666], "texture": "#0"}
			}
		},
		{
			"from": [7.81113, 7.49716, 4.455],
			"to": [8.03113, 7.93716, 4.945],
			"rotation": {"angle": 0, "axis": "y", "origin": [16.61113, -0.53284, 9.18]},
			"faces": {
				"north": {"uv": [1, 14, 2, 15.666], "rotation": 270, "texture": "#0"},
				"east": {"uv": [1, 14, 2, 15.666], "rotation": 270, "texture": "#0"},
				"south": {"uv": [1, 14, 2, 15.666], "rotation": 270, "texture": "#0"},
				"west": {"uv": [1, 14, 2, 15.666], "rotation": 270, "texture": "#0"},
				"up": {"uv": [1, 14, 2, 15.666], "rotation": 270, "texture": "#0"},
				"down": {"uv": [1, 14, 2, 15.666], "rotation": 270, "texture": "#0"}
			}
		},
		{
			"from": [7.28, 8.02828, 4.455],
			"to": [7.72, 8.24828, 4.945],
			"rotation": {"angle": 0, "axis": "y", "origin": [15.75, 16.82828, 9.18]},
			"faces": {
				"north": {"uv": [1, 14, 2, 15.666], "texture": "#0"},
				"east": {"uv": [1, 14, 2, 15.666], "texture": "#0"},
				"south": {"uv": [1, 14, 2, 15.666], "texture": "#0"},
				"west": {"uv": [1, 14, 2, 15.666], "texture": "#0"},
				"up": {"uv": [1, 14, 2, 15.666], "texture": "#0"},
				"down": {"uv": [1, 14, 2, 15.666], "texture": "#0"}
			}
		},
		{
			"from": [11.30617, -0.47393, 4.455],
			"to": [11.74617, -0.25393, 4.945],
			"rotation": {"angle": -45, "axis": "z", "origin": [19.77617, 8.32607, 9.18]},
			"faces": {
				"north": {"uv": [1, 14, 2, 15.666], "texture": "#0"},
				"east": {"uv": [1, 14, 2, 15.666], "texture": "#0"},
				"south": {"uv": [1, 14, 2, 15.666], "texture": "#0"},
				"west": {"uv": [1, 14, 2, 15.666], "texture": "#0"},
				"up": {"uv": [1, 14, 2, 15.666], "texture": "#0"},
				"down": {"uv": [1, 14, 2, 15.666], "texture": "#0"}
			}
		},
		{
			"from": [-1.57891, 11.19333, 3.755],
			"to": [-1.13891, 11.41333, 4.245],
			"rotation": {"angle": 45, "axis": "z", "origin": [6.89109, 19.99333, 8.48]},
			"faces": {
				"north": {"uv": [1, 14, 2, 15.666], "texture": "#0"},
				"east": {"uv": [1, 14, 2, 15.666], "texture": "#0"},
				"south": {"uv": [1, 14, 2, 15.666], "texture": "#0"},
				"west": {"uv": [1, 14, 2, 15.666], "texture": "#0"},
				"up": {"uv": [1, 14, 2, 15.666], "texture": "#0"},
				"down": {"uv": [1, 14, 2, 15.666], "texture": "#0"}
			}
		},
		{
			"from": [6.96887, 7.49716, 3.755],
			"to": [7.18887, 7.93716, 4.245],
			"rotation": {"angle": 0, "axis": "y", "origin": [15.76887, -0.53284, 8.48]},
			"faces": {
				"north": {"uv": [1, 14, 2, 15.666], "rotation": 270, "texture": "#0"},
				"east": {"uv": [1, 14, 2, 15.666], "rotation": 270, "texture": "#0"},
				"south": {"uv": [1, 14, 2, 15.666], "rotation": 270, "texture": "#0"},
				"west": {"uv": [1, 14, 2, 15.666], "rotation": 270, "texture": "#0"},
				"up": {"uv": [1, 14, 2, 15.666], "rotation": 270, "texture": "#0"},
				"down": {"uv": [1, 14, 2, 15.666], "rotation": 270, "texture": "#0"}
			}
		},
		{
			"from": [10.71061, -1.0695, 3.755],
			"to": [11.15061, -0.8495, 4.245],
			"rotation": {"angle": -45, "axis": "z", "origin": [19.18061, 7.7305, 8.48]},
			"faces": {
				"north": {"uv": [1, 14, 2, 15.666], "texture": "#0"},
				"east": {"uv": [1, 14, 2, 15.666], "texture": "#0"},
				"south": {"uv": [1, 14, 2, 15.666], "texture": "#0"},
				"west": {"uv": [1, 14, 2, 15.666], "texture": "#0"},
				"up": {"uv": [1, 14, 2, 15.666], "texture": "#0"},
				"down": {"uv": [1, 14, 2, 15.666], "texture": "#0"}
			}
		},
		{
			"from": [7.28, 7.18603, 3.755],
			"to": [7.72, 7.40603, 4.245],
			"rotation": {"angle": 0, "axis": "y", "origin": [15.75, 15.98603, 8.48]},
			"faces": {
				"north": {"uv": [1, 14, 2, 15.666], "texture": "#0"},
				"east": {"uv": [1, 14, 2, 15.666], "texture": "#0"},
				"south": {"uv": [1, 14, 2, 15.666], "texture": "#0"},
				"west": {"uv": [1, 14, 2, 15.666], "texture": "#0"},
				"up": {"uv": [1, 14, 2, 15.666], "texture": "#0"},
				"down": {"uv": [1, 14, 2, 15.666], "texture": "#0"}
			}
		},
		{
			"from": [-0.98335, 10.59776, 3.755],
			"to": [-0.54335, 10.81776, 4.245],
			"rotation": {"angle": 45, "axis": "z", "origin": [7.48665, 19.39776, 8.48]},
			"faces": {
				"north": {"uv": [1, 14, 2, 15.666], "texture": "#0"},
				"east": {"uv": [1, 14, 2, 15.666], "texture": "#0"},
				"south": {"uv": [1, 14, 2, 15.666], "texture": "#0"},
				"west": {"uv": [1, 14, 2, 15.666], "texture": "#0"},
				"up": {"uv": [1, 14, 2, 15.666], "texture": "#0"},
				"down": {"uv": [1, 14, 2, 15.666], "texture": "#0"}
			}
		},
		{
			"from": [7.81113, 7.49716, 3.755],
			"to": [8.03113, 7.93716, 4.245],
			"rotation": {"angle": 0, "axis": "y", "origin": [16.61113, -0.53284, 8.48]},
			"faces": {
				"north": {"uv": [1, 14, 2, 15.666], "rotation": 270, "texture": "#0"},
				"east": {"uv": [1, 14, 2, 15.666], "rotation": 270, "texture": "#0"},
				"south": {"uv": [1, 14, 2, 15.666], "rotation": 270, "texture": "#0"},
				"west": {"uv": [1, 14, 2, 15.666], "rotation": 270, "texture": "#0"},
				"up": {"uv": [1, 14, 2, 15.666], "rotation": 270, "texture": "#0"},
				"down": {"uv": [1, 14, 2, 15.666], "rotation": 270, "texture": "#0"}
			}
		},
		{
			"from": [7.28, 8.02828, 3.755],
			"to": [7.72, 8.24828, 4.245],
			"rotation": {"angle": 0, "axis": "y", "origin": [15.75, 16.82828, 8.48]},
			"faces": {
				"north": {"uv": [1, 14, 2, 15.666], "texture": "#0"},
				"east": {"uv": [1, 14, 2, 15.666], "texture": "#0"},
				"south": {"uv": [1, 14, 2, 15.666], "texture": "#0"},
				"west": {"uv": [1, 14, 2, 15.666], "texture": "#0"},
				"up": {"uv": [1, 14, 2, 15.666], "texture": "#0"},
				"down": {"uv": [1, 14, 2, 15.666], "texture": "#0"}
			}
		},
		{
			"from": [11.30617, -0.47393, 3.755],
			"to": [11.74617, -0.25393, 4.245],
			"rotation": {"angle": -45, "axis": "z", "origin": [19.77617, 8.32607, 8.48]},
			"faces": {
				"north": {"uv": [1, 14, 2, 15.666], "texture": "#0"},
				"east": {"uv": [1, 14, 2, 15.666], "texture": "#0"},
				"south": {"uv": [1, 14, 2, 15.666], "texture": "#0"},
				"west": {"uv": [1, 14, 2, 15.666], "texture": "#0"},
				"up": {"uv": [1, 14, 2, 15.666], "texture": "#0"},
				"down": {"uv": [1, 14, 2, 15.666], "texture": "#0"}
			}
		},
		{
			"from": [-1.57891, 11.19333, 3.155],
			"to": [-1.13891, 11.41333, 3.545],
			"rotation": {"angle": 45, "axis": "z", "origin": [6.89109, 19.99333, 7.78]},
			"faces": {
				"north": {"uv": [1, 14, 2, 15.666], "texture": "#0"},
				"east": {"uv": [1, 14, 2, 15.666], "texture": "#0"},
				"south": {"uv": [1, 14, 2, 15.666], "texture": "#0"},
				"west": {"uv": [1, 14, 2, 15.666], "texture": "#0"},
				"up": {"uv": [1, 14, 2, 15.666], "texture": "#0"},
				"down": {"uv": [1, 14, 2, 15.666], "texture": "#0"}
			}
		},
		{
			"from": [6.96887, 7.49716, 3.155],
			"to": [7.18887, 7.93716, 3.545],
			"rotation": {"angle": 0, "axis": "y", "origin": [15.76887, -0.53284, 7.78]},
			"faces": {
				"north": {"uv": [1, 14, 2, 15.666], "rotation": 270, "texture": "#0"},
				"east": {"uv": [1, 14, 2, 15.666], "rotation": 270, "texture": "#0"},
				"south": {"uv": [1, 14, 2, 15.666], "rotation": 270, "texture": "#0"},
				"west": {"uv": [1, 14, 2, 15.666], "rotation": 270, "texture": "#0"},
				"up": {"uv": [1, 14, 2, 15.666], "rotation": 270, "texture": "#0"},
				"down": {"uv": [1, 14, 2, 15.666], "rotation": 270, "texture": "#0"}
			}
		},
		{
			"from": [10.71061, -1.0695, 3.155],
			"to": [11.15061, -0.8495, 3.545],
			"rotation": {"angle": -45, "axis": "z", "origin": [19.18061, 7.7305, 7.78]},
			"faces": {
				"north": {"uv": [1, 14, 2, 15.666], "texture": "#0"},
				"east": {"uv": [1, 14, 2, 15.666], "texture": "#0"},
				"south": {"uv": [1, 14, 2, 15.666], "texture": "#0"},
				"west": {"uv": [1, 14, 2, 15.666], "texture": "#0"},
				"up": {"uv": [1, 14, 2, 15.666], "texture": "#0"},
				"down": {"uv": [1, 14, 2, 15.666], "texture": "#0"}
			}
		},
		{
			"from": [7.28, 7.18603, 3.155],
			"to": [7.72, 7.40603, 3.545],
			"rotation": {"angle": 0, "axis": "y", "origin": [15.75, 15.98603, 7.78]},
			"faces": {
				"north": {"uv": [1, 14, 2, 15.666], "texture": "#0"},
				"east": {"uv": [1, 14, 2, 15.666], "texture": "#0"},
				"south": {"uv": [1, 14, 2, 15.666], "texture": "#0"},
				"west": {"uv": [1, 14, 2, 15.666], "texture": "#0"},
				"up": {"uv": [1, 14, 2, 15.666], "texture": "#0"},
				"down": {"uv": [1, 14, 2, 15.666], "texture": "#0"}
			}
		},
		{
			"from": [-0.98335, 10.59776, 3.155],
			"to": [-0.54335, 10.81776, 3.545],
			"rotation": {"angle": 45, "axis": "z", "origin": [7.48665, 19.39776, 7.78]},
			"faces": {
				"north": {"uv": [1, 14, 2, 15.666], "texture": "#0"},
				"east": {"uv": [1, 14, 2, 15.666], "texture": "#0"},
				"south": {"uv": [1, 14, 2, 15.666], "texture": "#0"},
				"west": {"uv": [1, 14, 2, 15.666], "texture": "#0"},
				"up": {"uv": [1, 14, 2, 15.666], "texture": "#0"},
				"down": {"uv": [1, 14, 2, 15.666], "texture": "#0"}
			}
		},
		{
			"from": [7.81113, 7.49716, 3.155],
			"to": [8.03113, 7.93716, 3.545],
			"rotation": {"angle": 0, "axis": "y", "origin": [16.61113, -0.53284, 7.78]},
			"faces": {
				"north": {"uv": [1, 14, 2, 15.666], "rotation": 270, "texture": "#0"},
				"east": {"uv": [1, 14, 2, 15.666], "rotation": 270, "texture": "#0"},
				"south": {"uv": [1, 14, 2, 15.666], "rotation": 270, "texture": "#0"},
				"west": {"uv": [1, 14, 2, 15.666], "rotation": 270, "texture": "#0"},
				"up": {"uv": [1, 14, 2, 15.666], "rotation": 270, "texture": "#0"},
				"down": {"uv": [1, 14, 2, 15.666], "rotation": 270, "texture": "#0"}
			}
		},
		{
			"from": [7.28, 8.02828, 3.155],
			"to": [7.72, 8.24828, 3.545],
			"rotation": {"angle": 0, "axis": "y", "origin": [15.75, 16.82828, 7.78]},
			"faces": {
				"north": {"uv": [1, 14, 2, 15.666], "texture": "#0"},
				"east": {"uv": [1, 14, 2, 15.666], "texture": "#0"},
				"south": {"uv": [1, 14, 2, 15.666], "texture": "#0"},
				"west": {"uv": [1, 14, 2, 15.666], "texture": "#0"},
				"up": {"uv": [1, 14, 2, 15.666], "texture": "#0"},
				"down": {"uv": [1, 14, 2, 15.666], "texture": "#0"}
			}
		},
		{
			"from": [11.30617, -0.47393, 3.155],
			"to": [11.74617, -0.25393, 3.545],
			"rotation": {"angle": -45, "axis": "z", "origin": [19.77617, 8.32607, 7.78]},
			"faces": {
				"north": {"uv": [1, 14, 2, 15.666], "texture": "#0"},
				"east": {"uv": [1, 14, 2, 15.666], "texture": "#0"},
				"south": {"uv": [1, 14, 2, 15.666], "texture": "#0"},
				"west": {"uv": [1, 14, 2, 15.666], "texture": "#0"},
				"up": {"uv": [1, 14, 2, 15.666], "texture": "#0"},
				"down": {"uv": [1, 14, 2, 15.666], "texture": "#0"}
			}
		},
		{
			"name": "cube5",
			"from": [7.1, 2.55, 7.35],
			"to": [7.3, 18.05, 7.65],
			"rotation": {"angle": 0, "axis": "y", "origin": [7.46569, -2.1, 7.5]},
			"faces": {
				"north": {"uv": [3.333, 14, 4.333, 15.666], "texture": "#0"},
				"east": {"uv": [3.333, 14, 4.333, 15.666], "texture": "#0"},
				"south": {"uv": [3.333, 14, 4.333, 15.666], "texture": "#0"},
				"west": {"uv": [3.333, 14, 4.333, 15.666], "texture": "#0"},
				"up": {"uv": [3.333, 14, 4.333, 15.666], "texture": "#0"},
				"down": {"uv": [3.333, 14, 4.333, 15.666], "texture": "#0"}
			}
		},
		{
			"name": "cube8",
			"from": [7.62426, 2.55, 7.35],
			"to": [7.82426, 18.05, 7.65],
			"rotation": {"angle": 0, "axis": "y", "origin": [7.45858, -2.1, 7.5]},
			"faces": {
				"north": {"uv": [3.333, 14, 4.333, 15.666], "rotation": 180, "texture": "#0"},
				"east": {"uv": [3.333, 14, 4.333, 15.666], "rotation": 180, "texture": "#0"},
				"south": {"uv": [3.333, 14, 4.333, 15.666], "rotation": 180, "texture": "#0"},
				"west": {"uv": [3.333, 14, 4.333, 15.666], "rotation": 180, "texture": "#0"},
				"up": {"uv": [3.333, 14, 4.333, 15.666], "rotation": 180, "texture": "#0"},
				"down": {"uv": [3.333, 14, 4.333, 15.666], "rotation": 180, "texture": "#0"}
			}
		},
		{
			"name": "cube7",
			"from": [7.30962, 2.55, 7.66317],
			"to": [7.60962, 18.05, 7.86317],
			"rotation": {"angle": 45, "axis": "y", "origin": [7.45962, -2.1, 7.49749]},
			"faces": {
				"north": {"uv": [3.333, 14, 4.333, 15.666], "rotation": 90, "texture": "#0"},
				"east": {"uv": [3.333, 14, 4.333, 15.666], "rotation": 90, "texture": "#0"},
				"south": {"uv": [3.333, 14, 4.333, 15.666], "rotation": 90, "texture": "#0"},
				"west": {"uv": [3.333, 14, 4.333, 15.666], "rotation": 90, "texture": "#0"},
				"up": {"uv": [3.333, 14, 4.333, 15.666], "rotation": 90, "texture": "#0"},
				"down": {"uv": [3.333, 14, 4.333, 15.666], "rotation": 90, "texture": "#0"}
			}
		},
		{
			"name": "cube6",
			"from": [7.31213, 2.55, 7.66213],
			"to": [7.61213, 18.05, 7.86213],
			"rotation": {"angle": 0, "axis": "y", "origin": [7.46213, -2.1, 7.49645]},
			"faces": {
				"north": {"uv": [3.333, 14, 4.333, 15.666], "rotation": 90, "texture": "#0"},
				"east": {"uv": [3.333, 14, 4.333, 15.666], "rotation": 90, "texture": "#0"},
				"south": {"uv": [3.333, 14, 4.333, 15.666], "rotation": 90, "texture": "#0"},
				"west": {"uv": [3.333, 14, 4.333, 15.666], "rotation": 90, "texture": "#0"},
				"up": {"uv": [3.333, 14, 4.333, 15.666], "rotation": 90, "texture": "#0"},
				"down": {"uv": [3.333, 14, 4.333, 15.666], "rotation": 90, "texture": "#0"}
			}
		},
		{
			"name": "cube6",
			"from": [7.09896, 2.55, 7.34749],
			"to": [7.29896, 18.05, 7.64749],
			"rotation": {"angle": 45, "axis": "y", "origin": [7.46464, -2.1, 7.49749]},
			"faces": {
				"north": {"uv": [3.333, 14, 4.333, 15.666], "texture": "#0"},
				"east": {"uv": [3.333, 14, 4.333, 15.666], "texture": "#0"},
				"south": {"uv": [3.333, 14, 4.333, 15.666], "texture": "#0"},
				"west": {"uv": [3.333, 14, 4.333, 15.666], "texture": "#0"},
				"up": {"uv": [3.333, 14, 4.333, 15.666], "texture": "#0"},
				"down": {"uv": [3.333, 14, 4.333, 15.666], "texture": "#0"}
			}
		},
		{
			"name": "cube6",
			"from": [7.09896, 2.55, 7.35251],
			"to": [7.29896, 18.05, 7.65251],
			"rotation": {"angle": -45, "axis": "y", "origin": [7.46464, -2.1, 7.50251]},
			"faces": {
				"north": {"uv": [3.333, 14, 4.333, 15.666], "texture": "#0"},
				"east": {"uv": [3.333, 14, 4.333, 15.666], "texture": "#0"},
				"south": {"uv": [3.333, 14, 4.333, 15.666], "texture": "#0"},
				"west": {"uv": [3.333, 14, 4.333, 15.666], "texture": "#0"},
				"up": {"uv": [3.333, 14, 4.333, 15.666], "texture": "#0"},
				"down": {"uv": [3.333, 14, 4.333, 15.666], "texture": "#0"}
			}
		},
		{
			"name": "cube10",
			"from": [7.31213, 2.55, 7.13787],
			"to": [7.61213, 18.05, 7.33787],
			"rotation": {"angle": 0, "axis": "y", "origin": [7.46213, -2.1, 7.50355]},
			"faces": {
				"north": {"uv": [3.333, 14, 4.333, 15.666], "rotation": 270, "texture": "#0"},
				"east": {"uv": [3.333, 14, 4.333, 15.666], "rotation": 270, "texture": "#0"},
				"south": {"uv": [3.333, 14, 4.333, 15.666], "rotation": 270, "texture": "#0"},
				"west": {"uv": [3.333, 14, 4.333, 15.666], "rotation": 270, "texture": "#0"},
				"up": {"uv": [3.333, 14, 4.333, 15.666], "rotation": 270, "texture": "#0"},
				"down": {"uv": [3.333, 14, 4.333, 15.666], "rotation": 270, "texture": "#0"}
			}
		},
		{
			"name": "cube9",
			"from": [7.6253, 2.55, 7.35251],
			"to": [7.8253, 18.05, 7.65251],
			"rotation": {"angle": 45, "axis": "y", "origin": [7.45962, -2.1, 7.50251]},
			"faces": {
				"north": {"uv": [3.333, 14, 4.333, 15.666], "rotation": 180, "texture": "#0"},
				"east": {"uv": [3.333, 14, 4.333, 15.666], "rotation": 180, "texture": "#0"},
				"south": {"uv": [3.333, 14, 4.333, 15.666], "rotation": 180, "texture": "#0"},
				"west": {"uv": [3.333, 14, 4.333, 15.666], "rotation": 180, "texture": "#0"},
				"up": {"uv": [3.333, 14, 4.333, 15.666], "rotation": 180, "texture": "#0"},
				"down": {"uv": [3.333, 14, 4.333, 15.666], "rotation": 180, "texture": "#0"}
			}
		},
		{
			"name": "cube6",
			"from": [7.3, 2.55, 7.3],
			"to": [7.7, 18.05, 7.7],
			"rotation": {"angle": 0, "axis": "y", "origin": [7.46569, -2.1, 7.5]},
			"faces": {
				"north": {"uv": [3.333, 14, 4.333, 15.666], "texture": "#0"},
				"east": {"uv": [3.333, 14, 4.333, 15.666], "texture": "#0"},
				"south": {"uv": [3.333, 14, 4.333, 15.666], "texture": "#0"},
				"west": {"uv": [3.333, 14, 4.333, 15.666], "texture": "#0"},
				"up": {"uv": [3.333, 14, 4.333, 15.666], "texture": "#0"},
				"down": {"uv": [3.333, 14, 4.333, 15.666], "texture": "#0"}
			}
		},
		{
			"from": [7.3, 7.23431, 3.05],
			"to": [7.7, 7.43431, 3.25],
			"rotation": {"angle": 0, "axis": "y", "origin": [7.5, 7.33431, 3.15]},
			"faces": {
				"north": {"uv": [3.333, 14, 4.333, 15.666], "texture": "#0"},
				"east": {"uv": [3.333, 14, 4.333, 15.666], "texture": "#0"},
				"south": {"uv": [3.333, 14, 4.333, 15.666], "texture": "#0"},
				"west": {"uv": [3.333, 14, 4.333, 15.666], "texture": "#0"},
				"up": {"uv": [3.333, 14, 4.333, 15.666], "texture": "#0"},
				"down": {"uv": [3.333, 14, 4.333, 15.666], "texture": "#0"}
			}
		},
		{
			"from": [7.3, 8, 3.05],
			"to": [7.7, 8.2, 3.25],
			"rotation": {"angle": 0, "axis": "y", "origin": [7.5, 8.1, 3.15]},
			"faces": {
				"north": {"uv": [3.333, 14, 4.333, 15.666], "texture": "#0"},
				"east": {"uv": [3.333, 14, 4.333, 15.666], "texture": "#0"},
				"south": {"uv": [3.333, 14, 4.333, 15.666], "texture": "#0"},
				"west": {"uv": [3.333, 14, 4.333, 15.666], "texture": "#0"},
				"up": {"uv": [3.333, 14, 4.333, 15.666], "texture": "#0"},
				"down": {"uv": [3.333, 14, 4.333, 15.666], "texture": "#0"}
			}
		},
		{
			"from": [7.78284, 7.51716, 3.05],
			"to": [7.98284, 7.91716, 3.25],
			"rotation": {"angle": 0, "axis": "y", "origin": [15.78284, 17.91716, 11.05]},
			"faces": {
				"north": {"uv": [3.333, 14, 4.333, 15.666], "rotation": 90, "texture": "#0"},
				"east": {"uv": [3.333, 14, 4.333, 15.666], "rotation": 90, "texture": "#0"},
				"south": {"uv": [3.333, 14, 4.333, 15.666], "rotation": 90, "texture": "#0"},
				"west": {"uv": [3.333, 14, 4.333, 15.666], "rotation": 90, "texture": "#0"},
				"up": {"uv": [3.333, 14, 4.333, 15.666], "rotation": 90, "texture": "#0"},
				"down": {"uv": [3.333, 14, 4.333, 15.666], "rotation": 90, "texture": "#0"}
			}
		},
		{
			"from": [7.01716, 7.51716, 3.05],
			"to": [7.21716, 7.91716, 3.25],
			"rotation": {"angle": 0, "axis": "y", "origin": [15.01716, 17.91716, 11.05]},
			"faces": {
				"north": {"uv": [3.333, 14, 4.333, 15.666], "rotation": 90, "texture": "#0"},
				"east": {"uv": [3.333, 14, 4.333, 15.666], "rotation": 90, "texture": "#0"},
				"south": {"uv": [3.333, 14, 4.333, 15.666], "rotation": 90, "texture": "#0"},
				"west": {"uv": [3.333, 14, 4.333, 15.666], "rotation": 90, "texture": "#0"},
				"up": {"uv": [3.333, 14, 4.333, 15.666], "rotation": 90, "texture": "#0"},
				"down": {"uv": [3.333, 14, 4.333, 15.666], "rotation": 90, "texture": "#0"}
			}
		},
		{
			"from": [7.01716, 7.51716, 3.05],
			"to": [7.21716, 7.91716, 3.25],
			"rotation": {"angle": 0, "axis": "y", "origin": [15.01716, 17.91716, 11.05]},
			"faces": {
				"north": {"uv": [3.333, 14, 4.333, 15.666], "rotation": 90, "texture": "#0"},
				"east": {"uv": [3.333, 14, 4.333, 15.666], "rotation": 90, "texture": "#0"},
				"south": {"uv": [3.333, 14, 4.333, 15.666], "rotation": 90, "texture": "#0"},
				"west": {"uv": [3.333, 14, 4.333, 15.666], "rotation": 90, "texture": "#0"},
				"up": {"uv": [3.333, 14, 4.333, 15.666], "rotation": 90, "texture": "#0"},
				"down": {"uv": [3.333, 14, 4.333, 15.666], "rotation": 90, "texture": "#0"}
			}
		},
		{
			"from": [7.02929, 7.88787, 3.05],
			"to": [7.42929, 8.08787, 3.25],
			"rotation": {"angle": 45, "axis": "z", "origin": [7.22929, 7.98787, 3.15]},
			"faces": {
				"north": {"uv": [3.333, 14, 4.333, 15.666], "texture": "#0"},
				"east": {"uv": [3.333, 14, 4.333, 15.666], "texture": "#0"},
				"south": {"uv": [3.333, 14, 4.333, 15.666], "texture": "#0"},
				"west": {"uv": [3.333, 14, 4.333, 15.666], "texture": "#0"},
				"up": {"uv": [3.333, 14, 4.333, 15.666], "texture": "#0"},
				"down": {"uv": [3.333, 14, 4.333, 15.666], "texture": "#0"}
			}
		},
		{
			"from": [7.57071, 7.34645, 3.05],
			"to": [7.97071, 7.54645, 3.25],
			"rotation": {"angle": 45, "axis": "z", "origin": [7.77071, 7.44645, 3.15]},
			"faces": {
				"north": {"uv": [3.333, 14, 4.333, 15.666], "texture": "#0"},
				"east": {"uv": [3.333, 14, 4.333, 15.666], "texture": "#0"},
				"south": {"uv": [3.333, 14, 4.333, 15.666], "texture": "#0"},
				"west": {"uv": [3.333, 14, 4.333, 15.666], "texture": "#0"},
				"up": {"uv": [3.333, 14, 4.333, 15.666], "texture": "#0"},
				"down": {"uv": [3.333, 14, 4.333, 15.666], "texture": "#0"}
			}
		},
		{
			"from": [10.96016, 0.27071, 3.05],
			"to": [11.36016, 0.47071, 3.25],
			"rotation": {"angle": -45, "axis": "z", "origin": [18.66016, 8.27071, 11]},
			"faces": {
				"north": {"uv": [3.333, 14, 4.333, 15.666], "texture": "#0"},
				"east": {"uv": [3.333, 14, 4.333, 15.666], "texture": "#0"},
				"south": {"uv": [3.333, 14, 4.333, 15.666], "texture": "#0"},
				"west": {"uv": [3.333, 14, 4.333, 15.666], "texture": "#0"},
				"up": {"uv": [3.333, 14, 4.333, 15.666], "texture": "#0"},
				"down": {"uv": [3.333, 14, 4.333, 15.666], "texture": "#0"}
			}
		},
		{
			"from": [10.41873, -0.27071, 3.05],
			"to": [10.81873, -0.07071, 3.25],
			"rotation": {"angle": -45, "axis": "z", "origin": [18.11873, 7.72929, 11]},
			"faces": {
				"north": {"uv": [3.333, 14, 4.333, 15.666], "texture": "#0"},
				"east": {"uv": [3.333, 14, 4.333, 15.666], "texture": "#0"},
				"south": {"uv": [3.333, 14, 4.333, 15.666], "texture": "#0"},
				"west": {"uv": [3.333, 14, 4.333, 15.666], "texture": "#0"},
				"up": {"uv": [3.333, 14, 4.333, 15.666], "texture": "#0"},
				"down": {"uv": [3.333, 14, 4.333, 15.666], "texture": "#0"}
			}
		},
		{
			"from": [7.2, 7.4, 3.05],
			"to": [7.8, 8, 3.15],
			"rotation": {"angle": 0, "axis": "y", "origin": [15, 15, 9]},
			"faces": {
				"north": {"uv": [3.333, 14, 4.333, 15.666], "texture": "#0"},
				"east": {"uv": [3.333, 14, 4.333, 15.666], "texture": "#0"},
				"south": {"uv": [3.333, 14, 4.333, 15.666], "texture": "#0"},
				"west": {"uv": [3.333, 14, 4.333, 15.666], "texture": "#0"},
				"up": {"uv": [3.333, 14, 4.333, 15.666], "texture": "#0"},
				"down": {"uv": [3.333, 14, 4.333, 15.666], "texture": "#0"}
			}
		},
		{
			"from": [6.9, 6.4, 6.9],
			"to": [8.1, 9, 8.1],
			"rotation": {"angle": 0, "axis": "y", "origin": [15, 2, 15]},
			"faces": {
				"north": {"uv": [0.33333, 13.66667, 2.33333, 15.66667], "rotation": 270, "texture": "#0"},
				"east": {"uv": [0.33333, 13.66667, 2.33333, 15.66667], "rotation": 270, "texture": "#0"},
				"south": {"uv": [0.33333, 13.66667, 2.33333, 15.66667], "rotation": 270, "texture": "#0"},
				"west": {"uv": [0.33333, 13.66667, 2.33333, 15.66667], "rotation": 270, "texture": "#0"},
				"up": {"uv": [0.33333, 13.66667, 2.33333, 15.66667], "rotation": 270, "texture": "#0"},
				"down": {"uv": [0.33333, 13.66667, 2.33333, 15.66667], "rotation": 270, "texture": "#0"}
			}
		},
		{
			"from": [6.95, 6.25, 6.95],
			"to": [8.05, 9.15, 8.05],
			"rotation": {"angle": 0, "axis": "y", "origin": [15, 5, 15]},
			"faces": {
				"north": {"uv": [0.33333, 13.66667, 2.33333, 15.66667], "rotation": 270, "texture": "#0"},
				"east": {"uv": [0.33333, 13.66667, 2.33333, 15.66667], "rotation": 270, "texture": "#0"},
				"south": {"uv": [0.33333, 13.66667, 2.33333, 15.66667], "rotation": 270, "texture": "#0"},
				"west": {"uv": [0.33333, 13.66667, 2.33333, 15.66667], "rotation": 270, "texture": "#0"},
				"up": {"uv": [0.33333, 13.66667, 2.33333, 15.66667], "rotation": 270, "texture": "#0"},
				"down": {"uv": [0.33333, 13.66667, 2.33333, 15.66667], "rotation": 270, "texture": "#0"}
			}
		}
	],
	"display": {
		"thirdperson_righthand": {
			"translation": [0.5, 1.75, 2]
		},
		"thirdperson_lefthand": {
			"rotation": [2, 0, 0],
			"translation": [0, 1.75, 2]
		},
		"firstperson_righthand": {
			"rotation": [-35, 0, 0]
		},
		"firstperson_lefthand": {
			"rotation": [-35, 0, 0]
		},
		"ground": {
			"translation": [0, 2.25, 0]
		},
		"gui": {
			"rotation": [0, 39, -45],
			"translation": [-1, -2, 0],
			"scale": [1.25, 1.25, 1.25]
		},
		"fixed": {
			"rotation": [90, 45, 90],
			"translation": [3, 3, -0.75]
		}
	},
	"groups": [
		{
			"name": "base",
			"origin": [8, 10, 8],
			"color": 0,
			"children": [
				{
					"name": "club",
					"origin": [7.48284, 6.9, 8.24853],
					"color": 0,
					"children": [
						0,
						1,
						2,
						3,
						4,
						5,
						6,
						7,
						{
							"name": "club_casing",
							"origin": [8, 8, 8],
							"color": 0,
							"children": [
								{
									"name": "club",
									"origin": [7.48284, 6.9, 8.24853],
									"color": 0,
									"children": [8, 9, 10, 11, 12, 13, 14, 15]
								},
								{
									"name": "club",
									"origin": [7.48284, 6.9, 8.24853],
									"color": 0,
									"children": [16, 17, 18, 19, 20, 21, 22, 23]
								},
								{
									"name": "club",
									"origin": [7.48284, 6.9, 8.24853],
									"color": 0,
									"children": [24, 25, 26, 27, 28, 29, 30, 31]
								},
								{
									"name": "club",
									"origin": [7.48284, 6.9, 8.24853],
									"color": 0,
									"children": [32, 33, 34, 35, 36, 37, 38, 39]
								},
								{
									"name": "club",
									"origin": [7.48284, 6.9, 8.24853],
									"color": 0,
									"children": [40, 41, 42, 43, 44, 45, 46, 47]
								},
								{
									"name": "club",
									"origin": [7.48284, 6.9, 8.24853],
									"color": 0,
									"children": [48, 49, 50, 51, 52, 53, 54, 55]
								}
							]
						}
					]
				},
				{
					"name": "side_handle",
					"origin": [18.66016, 8.27071, 11],
					"color": 0,
					"children": [
						56,
						57,
						58,
						59,
						60,
						61,
						62,
						63,
						{
							"name": "casing",
							"origin": [18.66016, 8.27071, 11],
							"color": 0,
							"children": [
								{
									"name": "handle",
									"origin": [18.66016, 8.27071, 11],
									"color": 0,
									"children": [64, 65, 66, 67, 68, 69, 70, 71]
								},
								{
									"name": "handle",
									"origin": [18.66016, 8.27071, 11],
									"color": 0,
									"children": [72, 73, 74, 75, 76, 77, 78, 79]
								},
								{
									"name": "handle",
									"origin": [18.66016, 8.27071, 11],
									"color": 0,
									"children": [80, 81, 82, 83, 84, 85, 86, 87]
								},
								{
									"name": "handle",
									"origin": [18.66016, 8.27071, 11],
									"color": 0,
									"children": [88, 89, 90, 91, 92, 93, 94, 95]
								},
								{
									"name": "handle",
									"origin": [18.66016, 8.27071, 11],
									"color": 0,
									"children": [96, 97, 98, 99, 100, 101, 102, 103]
								},
								{
									"name": "handle",
									"origin": [18.66016, 8.27071, 11],
									"color": 0,
									"children": [104, 105, 106, 107, 108, 109, 110, 111]
								}
							]
						}
					]
				},
				{
					"name": "bottom_cap",
					"origin": [7.46569, -2.1, 7.5],
					"color": 0,
					"children": [112, 113, 114, 115, 116, 117, 118, 119, 120]
				},
				{
					"name": "side_cap",
					"origin": [15, 15, 9],
					"color": 0,
					"children": [121, 122, 123, 124, 125, 126, 127, 128, 129, 130]
				},
				131,
				132
			]
		}
	]
}