{
	"credit": "Made with Blockbench",
	"textures": {
		"0": "gci:items/brick/texture",
		"1": "gci:items/common/all_in_one",
		"particle": "gci:items/brick/texture"
	},
	"elements": [
		{
			"from": [7.35, 5.45185, 6.8],
			"to": [8.65, 5.75185, 9.2],
			"rotation": {"angle": 0, "axis": "y", "origin": [0.65, -3.54815, 17.8]},
			"faces": {
				"north": {"uv": [0, 0, 16, 15.965], "rotation": 90, "texture": "#0"},
				"east": {"uv": [0, 0, 2.4, 5], "rotation": 180, "texture": "#0"},
				"south": {"uv": [0, 0, 5, 1.3], "rotation": 270, "texture": "#0"},
				"west": {"uv": [0.333, 5.666, 1.065, 6.664], "texture": "#0"},
				"up": {"uv": [0, 0, 15.732, 15.965], "rotation": 270, "texture": "#0"},
				"down": {"uv": [0, 0, 2.4, 1.3], "rotation": 270, "texture": "#0"}
			}
		},
		{
			"from": [7.35, 10.25185, 6.8],
			"to": [8.65, 10.65185, 9.2],
			"rotation": {"angle": 0, "axis": "y", "origin": [0.65, -3.34815, 17.8]},
			"faces": {
				"north": {"uv": [0, 0, 16, 15.965], "rotation": 90, "texture": "#0"},
				"east": {"uv": [0, 0, 2.4, 5], "rotation": 180, "texture": "#0"},
				"south": {"uv": [0, 0, 5, 1.3], "rotation": 270, "texture": "#0"},
				"west": {"uv": [0.333, 5.666, 1.065, 6.664], "texture": "#0"},
				"up": {"uv": [0, 0, 15.732, 15.965], "rotation": 270, "texture": "#0"},
				"down": {"uv": [0, 0, 2.4, 1.3], "rotation": 270, "texture": "#0"}
			}
		},
		{
			"from": [7.35, 5.45185, 6.8],
			"to": [8.65, 10.45185, 7.2],
			"rotation": {"angle": 0, "axis": "y", "origin": [0.65, -3.54815, 17.8]},
			"faces": {
				"north": {"uv": [0, 0, 16, 15.965], "rotation": 90, "texture": "#0"},
				"east": {"uv": [0, 0, 2.4, 5], "rotation": 180, "texture": "#0"},
				"south": {"uv": [0, 0, 5, 1.3], "rotation": 270, "texture": "#0"},
				"west": {"uv": [0.333, 5.666, 1.065, 6.664], "texture": "#0"},
				"up": {"uv": [0, 0, 15.732, 15.965], "rotation": 270, "texture": "#0"},
				"down": {"uv": [0, 0, 2.4, 1.3], "rotation": 270, "texture": "#0"}
			}
		},
		{
			"from": [7.35, 5.45185, 8.8],
			"to": [8.65, 10.45185, 9.2],
			"rotation": {"angle": 0, "axis": "y", "origin": [0.65, -3.54815, 17.8]},
			"faces": {
				"north": {"uv": [0, 0, 16, 15.965], "rotation": 90, "texture": "#0"},
				"east": {"uv": [0, 0, 2.4, 5], "rotation": 180, "texture": "#0"},
				"south": {"uv": [0, 0, 5, 1.3], "rotation": 270, "texture": "#0"},
				"west": {"uv": [0.333, 5.666, 1.065, 6.664], "texture": "#0"},
				"up": {"uv": [0, 0, 15.732, 15.965], "rotation": 270, "texture": "#0"},
				"down": {"uv": [0, 0, 2.4, 1.3], "rotation": 270, "texture": "#0"}
			}
		},
		{
			"from": [7.35, 6.05185, 6.8],
			"to": [8.65, 6.35185, 9.2],
			"rotation": {"angle": 0, "axis": "y", "origin": [0.65, -2.94815, 17.8]},
			"faces": {
				"north": {"uv": [0, 0, 16, 15.965], "rotation": 90, "texture": "#0"},
				"east": {"uv": [0, 0, 2.4, 5], "rotation": 180, "texture": "#0"},
				"south": {"uv": [0, 0, 5, 1.3], "rotation": 270, "texture": "#0"},
				"west": {"uv": [0.333, 5.666, 1.065, 6.664], "texture": "#0"},
				"up": {"uv": [0, 0, 15.732, 15.965], "rotation": 270, "texture": "#0"},
				"down": {"uv": [0, 0, 2.4, 1.3], "rotation": 270, "texture": "#0"}
			}
		},
		{
			"from": [7.35, 6.65185, 6.8],
			"to": [8.65, 6.95185, 9.2],
			"rotation": {"angle": 0, "axis": "y", "origin": [0.65, -2.34815, 17.8]},
			"faces": {
				"north": {"uv": [0, 0, 16, 15.965], "rotation": 90, "texture": "#0"},
				"east": {"uv": [0, 0, 2.4, 5], "rotation": 180, "texture": "#0"},
				"south": {"uv": [0, 0, 5, 1.3], "rotation": 270, "texture": "#0"},
				"west": {"uv": [0.333, 5.666, 1.065, 6.664], "texture": "#0"},
				"up": {"uv": [0, 0, 15.732, 15.965], "rotation": 270, "texture": "#0"},
				"down": {"uv": [0, 0, 2.4, 1.3], "rotation": 270, "texture": "#0"}
			}
		},
		{
			"from": [7.35, 7.25185, 6.8],
			"to": [8.65, 7.55185, 9.2],
			"rotation": {"angle": 0, "axis": "y", "origin": [0.65, -1.74815, 17.8]},
			"faces": {
				"north": {"uv": [0, 0, 16, 15.965], "rotation": 90, "texture": "#0"},
				"east": {"uv": [0, 0, 2.4, 5], "rotation": 180, "texture": "#0"},
				"south": {"uv": [0, 0, 5, 1.3], "rotation": 270, "texture": "#0"},
				"west": {"uv": [0.333, 5.666, 1.065, 6.664], "texture": "#0"},
				"up": {"uv": [0, 0, 15.732, 15.965], "rotation": 270, "texture": "#0"},
				"down": {"uv": [0, 0, 2.4, 1.3], "rotation": 270, "texture": "#0"}
			}
		},
		{
			"from": [7.35, 7.85185, 6.8],
			"to": [8.65, 8.15185, 9.2],
			"rotation": {"angle": 0, "axis": "y", "origin": [0.65, -1.14815, 17.8]},
			"faces": {
				"north": {"uv": [0, 0, 16, 15.965], "rotation": 90, "texture": "#0"},
				"east": {"uv": [0, 0, 2.4, 5], "rotation": 180, "texture": "#0"},
				"south": {"uv": [0, 0, 5, 1.3], "rotation": 270, "texture": "#0"},
				"west": {"uv": [0.333, 5.666, 1.065, 6.664], "texture": "#0"},
				"up": {"uv": [0, 0, 15.732, 15.965], "rotation": 270, "texture": "#0"},
				"down": {"uv": [0, 0, 2.4, 1.3], "rotation": 270, "texture": "#0"}
			}
		},
		{
			"from": [7.35, 8.45185, 6.8],
			"to": [8.65, 8.75185, 9.2],
			"rotation": {"angle": 0, "axis": "y", "origin": [0.65, -0.54815, 17.8]},
			"faces": {
				"north": {"uv": [0, 0, 16, 15.965], "rotation": 90, "texture": "#0"},
				"east": {"uv": [0, 0, 2.4, 5], "rotation": 180, "texture": "#0"},
				"south": {"uv": [0, 0, 5, 1.3], "rotation": 270, "texture": "#0"},
				"west": {"uv": [0.333, 5.666, 1.065, 6.664], "texture": "#0"},
				"up": {"uv": [0, 0, 15.732, 15.965], "rotation": 270, "texture": "#0"},
				"down": {"uv": [0, 0, 2.4, 1.3], "rotation": 270, "texture": "#0"}
			}
		},
		{
			"from": [7.35, 9.05185, 6.8],
			"to": [8.65, 9.35185, 9.2],
			"rotation": {"angle": 0, "axis": "y", "origin": [0.65, 0.05185, 17.8]},
			"faces": {
				"north": {"uv": [0, 0, 16, 15.965], "rotation": 90, "texture": "#0"},
				"east": {"uv": [0, 0, 2.4, 5], "rotation": 180, "texture": "#0"},
				"south": {"uv": [0, 0, 5, 1.3], "rotation": 270, "texture": "#0"},
				"west": {"uv": [0.333, 5.666, 1.065, 6.664], "texture": "#0"},
				"up": {"uv": [0, 0, 15.732, 15.965], "rotation": 270, "texture": "#0"},
				"down": {"uv": [0, 0, 2.4, 1.3], "rotation": 270, "texture": "#0"}
			}
		},
		{
			"from": [7.35, 9.65185, 6.8],
			"to": [8.65, 9.95185, 9.2],
			"rotation": {"angle": 0, "axis": "y", "origin": [0.65, 0.65185, 17.8]},
			"faces": {
				"north": {"uv": [0, 0, 16, 15.965], "rotation": 90, "texture": "#0"},
				"east": {"uv": [0, 0, 2.4, 5], "rotation": 180, "texture": "#0"},
				"south": {"uv": [0, 0, 5, 1.3], "rotation": 270, "texture": "#0"},
				"west": {"uv": [0.333, 5.666, 1.065, 6.664], "texture": "#0"},
				"up": {"uv": [0, 0, 15.732, 15.965], "rotation": 270, "texture": "#0"},
				"down": {"uv": [0, 0, 2.4, 1.3], "rotation": 270, "texture": "#0"}
			}
		},
		{
			"from": [7.35, 5.45185, 8.4],
			"to": [8.65, 6.35185, 8.6],
			"rotation": {"angle": 0, "axis": "y", "origin": [0.65, -3.54815, 17.2]},
			"faces": {
				"north": {"uv": [0, 0, 16, 15.965], "rotation": 90, "texture": "#0"},
				"east": {"uv": [0, 0, 2.4, 5], "rotation": 180, "texture": "#0"},
				"south": {"uv": [0, 0, 5, 1.3], "rotation": 270, "texture": "#0"},
				"west": {"uv": [0.333, 5.666, 1.065, 6.664], "texture": "#0"},
				"up": {"uv": [0, 0, 15.732, 15.965], "rotation": 270, "texture": "#0"},
				"down": {"uv": [0, 0, 2.4, 1.3], "rotation": 270, "texture": "#0"}
			}
		},
		{
			"from": [7.35, 5.45185, 7.7],
			"to": [8.65, 6.35185, 7.9],
			"rotation": {"angle": 0, "axis": "y", "origin": [0.65, -3.54815, 16.5]},
			"faces": {
				"north": {"uv": [0, 0, 16, 15.965], "rotation": 90, "texture": "#0"},
				"east": {"uv": [0, 0, 2.4, 5], "rotation": 180, "texture": "#0"},
				"south": {"uv": [0, 0, 5, 1.3], "rotation": 270, "texture": "#0"},
				"west": {"uv": [0.333, 5.666, 1.065, 6.664], "texture": "#0"},
				"up": {"uv": [0, 0, 15.732, 15.965], "rotation": 270, "texture": "#0"},
				"down": {"uv": [0, 0, 2.4, 1.3], "rotation": 270, "texture": "#0"}
			}
		},
		{
			"from": [7.35, 6.65185, 7.7],
			"to": [8.65, 7.55185, 7.9],
			"rotation": {"angle": 0, "axis": "y", "origin": [0.65, -2.34815, 16.5]},
			"faces": {
				"north": {"uv": [0, 0, 16, 15.965], "rotation": 90, "texture": "#0"},
				"east": {"uv": [0, 0, 2.4, 5], "rotation": 180, "texture": "#0"},
				"south": {"uv": [0, 0, 5, 1.3], "rotation": 270, "texture": "#0"},
				"west": {"uv": [0.333, 5.666, 1.065, 6.664], "texture": "#0"},
				"up": {"uv": [0, 0, 15.732, 15.965], "rotation": 270, "texture": "#0"},
				"down": {"uv": [0, 0, 2.4, 1.3], "rotation": 270, "texture": "#0"}
			}
		},
		{
			"from": [7.35, 6.65185, 8.4],
			"to": [8.65, 7.55185, 8.6],
			"rotation": {"angle": 0, "axis": "y", "origin": [0.65, -2.34815, 17.2]},
			"faces": {
				"north": {"uv": [0, 0, 16, 15.965], "rotation": 90, "texture": "#0"},
				"east": {"uv": [0, 0, 2.4, 5], "rotation": 180, "texture": "#0"},
				"south": {"uv": [0, 0, 5, 1.3], "rotation": 270, "texture": "#0"},
				"west": {"uv": [0.333, 5.666, 1.065, 6.664], "texture": "#0"},
				"up": {"uv": [0, 0, 15.732, 15.965], "rotation": 270, "texture": "#0"},
				"down": {"uv": [0, 0, 2.4, 1.3], "rotation": 270, "texture": "#0"}
			}
		},
		{
			"from": [7.35, 7.85185, 7.7],
			"to": [8.65, 8.75185, 7.9],
			"rotation": {"angle": 0, "axis": "y", "origin": [0.65, -1.14815, 16.5]},
			"faces": {
				"north": {"uv": [0, 0, 16, 15.965], "rotation": 90, "texture": "#0"},
				"east": {"uv": [0, 0, 2.4, 5], "rotation": 180, "texture": "#0"},
				"south": {"uv": [0, 0, 5, 1.3], "rotation": 270, "texture": "#0"},
				"west": {"uv": [0.333, 5.666, 1.065, 6.664], "texture": "#0"},
				"up": {"uv": [0, 0, 15.732, 15.965], "rotation": 270, "texture": "#0"},
				"down": {"uv": [0, 0, 2.4, 1.3], "rotation": 270, "texture": "#0"}
			}
		},
		{
			"from": [7.35, 7.85185, 8.4],
			"to": [8.65, 8.75185, 8.6],
			"rotation": {"angle": 0, "axis": "y", "origin": [0.65, -1.14815, 17.2]},
			"faces": {
				"north": {"uv": [0, 0, 16, 15.965], "rotation": 90, "texture": "#0"},
				"east": {"uv": [0, 0, 2.4, 5], "rotation": 180, "texture": "#0"},
				"south": {"uv": [0, 0, 5, 1.3], "rotation": 270, "texture": "#0"},
				"west": {"uv": [0.333, 5.666, 1.065, 6.664], "texture": "#0"},
				"up": {"uv": [0, 0, 15.732, 15.965], "rotation": 270, "texture": "#0"},
				"down": {"uv": [0, 0, 2.4, 1.3], "rotation": 270, "texture": "#0"}
			}
		},
		{
			"from": [7.35, 9.05185, 7.7],
			"to": [8.65, 9.95185, 7.9],
			"rotation": {"angle": 0, "axis": "y", "origin": [0.65, 0.05185, 16.5]},
			"faces": {
				"north": {"uv": [0, 0, 16, 15.965], "rotation": 90, "texture": "#0"},
				"east": {"uv": [0, 0, 2.4, 5], "rotation": 180, "texture": "#0"},
				"south": {"uv": [0, 0, 5, 1.3], "rotation": 270, "texture": "#0"},
				"west": {"uv": [0.333, 5.666, 1.065, 6.664], "texture": "#0"},
				"up": {"uv": [0, 0, 15.732, 15.965], "rotation": 270, "texture": "#0"},
				"down": {"uv": [0, 0, 2.4, 1.3], "rotation": 270, "texture": "#0"}
			}
		},
		{
			"from": [7.35, 9.05185, 8.4],
			"to": [8.65, 9.95185, 8.6],
			"rotation": {"angle": 0, "axis": "y", "origin": [0.65, 0.05185, 17.2]},
			"faces": {
				"north": {"uv": [0, 0, 16, 15.965], "rotation": 90, "texture": "#0"},
				"east": {"uv": [0, 0, 2.4, 5], "rotation": 180, "texture": "#0"},
				"south": {"uv": [0, 0, 5, 1.3], "rotation": 270, "texture": "#0"},
				"west": {"uv": [0.333, 5.666, 1.065, 6.664], "texture": "#0"},
				"up": {"uv": [0, 0, 15.732, 15.965], "rotation": 270, "texture": "#0"},
				"down": {"uv": [0, 0, 2.4, 1.3], "rotation": 270, "texture": "#0"}
			}
		},
		{
			"from": [7.35, 6.05185, 7.4],
			"to": [8.65, 6.95185, 7.6],
			"rotation": {"angle": 0, "axis": "y", "origin": [0.65, -2.94815, 16.2]},
			"faces": {
				"north": {"uv": [0, 0, 16, 15.965], "rotation": 90, "texture": "#0"},
				"east": {"uv": [0, 0, 2.4, 5], "rotation": 180, "texture": "#0"},
				"south": {"uv": [0, 0, 5, 1.3], "rotation": 270, "texture": "#0"},
				"west": {"uv": [0.333, 5.666, 1.065, 6.664], "texture": "#0"},
				"up": {"uv": [0, 0, 15.732, 15.965], "rotation": 270, "texture": "#0"},
				"down": {"uv": [0, 0, 2.4, 1.3], "rotation": 270, "texture": "#0"}
			}
		},
		{
			"from": [7.35, 6.05185, 8.1],
			"to": [8.65, 6.95185, 8.3],
			"rotation": {"angle": 0, "axis": "y", "origin": [0.65, -2.94815, 16.9]},
			"faces": {
				"north": {"uv": [0, 0, 16, 15.965], "rotation": 90, "texture": "#0"},
				"east": {"uv": [0, 0, 2.4, 5], "rotation": 180, "texture": "#0"},
				"south": {"uv": [0, 0, 5, 1.3], "rotation": 270, "texture": "#0"},
				"west": {"uv": [0.333, 5.666, 1.065, 6.664], "texture": "#0"},
				"up": {"uv": [0, 0, 15.732, 15.965], "rotation": 270, "texture": "#0"},
				"down": {"uv": [0, 0, 2.4, 1.3], "rotation": 270, "texture": "#0"}
			}
		},
		{
			"from": [7.35, 7.25185, 7.4],
			"to": [8.65, 8.15185, 7.6],
			"rotation": {"angle": 0, "axis": "y", "origin": [0.65, -1.74815, 16.2]},
			"faces": {
				"north": {"uv": [0, 0, 16, 15.965], "rotation": 90, "texture": "#0"},
				"east": {"uv": [0, 0, 2.4, 5], "rotation": 180, "texture": "#0"},
				"south": {"uv": [0, 0, 5, 1.3], "rotation": 270, "texture": "#0"},
				"west": {"uv": [0.333, 5.666, 1.065, 6.664], "texture": "#0"},
				"up": {"uv": [0, 0, 15.732, 15.965], "rotation": 270, "texture": "#0"},
				"down": {"uv": [0, 0, 2.4, 1.3], "rotation": 270, "texture": "#0"}
			}
		},
		{
			"from": [7.35, 7.25185, 8.1],
			"to": [8.65, 8.15185, 8.3],
			"rotation": {"angle": 0, "axis": "y", "origin": [0.65, -1.74815, 16.9]},
			"faces": {
				"north": {"uv": [0, 0, 16, 15.965], "rotation": 90, "texture": "#0"},
				"east": {"uv": [0, 0, 2.4, 5], "rotation": 180, "texture": "#0"},
				"south": {"uv": [0, 0, 5, 1.3], "rotation": 270, "texture": "#0"},
				"west": {"uv": [0.333, 5.666, 1.065, 6.664], "texture": "#0"},
				"up": {"uv": [0, 0, 15.732, 15.965], "rotation": 270, "texture": "#0"},
				"down": {"uv": [0, 0, 2.4, 1.3], "rotation": 270, "texture": "#0"}
			}
		},
		{
			"from": [7.35, 8.45185, 7.4],
			"to": [8.65, 9.35185, 7.6],
			"rotation": {"angle": 0, "axis": "y", "origin": [0.65, -0.54815, 16.2]},
			"faces": {
				"north": {"uv": [0, 0, 16, 15.965], "rotation": 90, "texture": "#0"},
				"east": {"uv": [0, 0, 2.4, 5], "rotation": 180, "texture": "#0"},
				"south": {"uv": [0, 0, 5, 1.3], "rotation": 270, "texture": "#0"},
				"west": {"uv": [0.333, 5.666, 1.065, 6.664], "texture": "#0"},
				"up": {"uv": [0, 0, 15.732, 15.965], "rotation": 270, "texture": "#0"},
				"down": {"uv": [0, 0, 2.4, 1.3], "rotation": 270, "texture": "#0"}
			}
		},
		{
			"from": [7.35, 8.45185, 8.1],
			"to": [8.65, 9.35185, 8.3],
			"rotation": {"angle": 0, "axis": "y", "origin": [0.65, -0.54815, 16.9]},
			"faces": {
				"north": {"uv": [0, 0, 16, 15.965], "rotation": 90, "texture": "#0"},
				"east": {"uv": [0, 0, 2.4, 5], "rotation": 180, "texture": "#0"},
				"south": {"uv": [0, 0, 5, 1.3], "rotation": 270, "texture": "#0"},
				"west": {"uv": [0.333, 5.666, 1.065, 6.664], "texture": "#0"},
				"up": {"uv": [0, 0, 15.732, 15.965], "rotation": 270, "texture": "#0"},
				"down": {"uv": [0, 0, 2.4, 1.3], "rotation": 270, "texture": "#0"}
			}
		},
		{
			"from": [7.35, 9.65185, 7.4],
			"to": [8.65, 10.55185, 7.6],
			"rotation": {"angle": 0, "axis": "y", "origin": [0.65, 0.65185, 16.2]},
			"faces": {
				"north": {"uv": [0, 0, 16, 15.965], "rotation": 90, "texture": "#0"},
				"east": {"uv": [0, 0, 2.4, 5], "rotation": 180, "texture": "#0"},
				"south": {"uv": [0, 0, 5, 1.3], "rotation": 270, "texture": "#0"},
				"west": {"uv": [0.333, 5.666, 1.065, 6.664], "texture": "#0"},
				"up": {"uv": [0, 0, 15.732, 15.965], "rotation": 270, "texture": "#0"},
				"down": {"uv": [0, 0, 2.4, 1.3], "rotation": 270, "texture": "#0"}
			}
		},
		{
			"from": [7.35, 9.65185, 8.1],
			"to": [8.65, 10.55185, 8.3],
			"rotation": {"angle": 0, "axis": "y", "origin": [0.65, 0.65185, 16.9]},
			"faces": {
				"north": {"uv": [0, 0, 16, 15.965], "rotation": 90, "texture": "#0"},
				"east": {"uv": [0, 0, 2.4, 5], "rotation": 180, "texture": "#0"},
				"south": {"uv": [0, 0, 5, 1.3], "rotation": 270, "texture": "#0"},
				"west": {"uv": [0.333, 5.666, 1.065, 6.664], "texture": "#0"},
				"up": {"uv": [0, 0, 15.732, 15.965], "rotation": 270, "texture": "#0"},
				"down": {"uv": [0, 0, 2.4, 1.3], "rotation": 270, "texture": "#0"}
			}
		},
		{
			"from": [7.70469, 6.12385, 10.11953],
			"to": [8.04469, 9.97185, 10.87153],
			"rotation": {"angle": -45, "axis": "y", "origin": [7.78609, 7.83985, 10.67502]},
			"faces": {
				"north": {"uv": [0.125, 2.625, 0.375, 2.965], "rotation": 180, "texture": "#1"},
				"east": {"uv": [0.125, 2.625, 0.375, 2.965], "rotation": 180, "texture": "#1"},
				"south": {"uv": [0.125, 2.625, 0.375, 2.965], "rotation": 180, "texture": "#1"},
				"west": {"uv": [0.125, 2.625, 0.375, 2.965], "rotation": 180, "texture": "#1"},
				"up": {"uv": [0.125, 2.625, 0.25, 2.715], "rotation": 180, "texture": "#1"},
				"down": {"uv": [0.125, 2.625, 0.25, 2.715], "rotation": 180, "texture": "#1"}
			}
		},
		{
			"from": [7.58958, 6.12385, 10.41642],
			"to": [8.34158, 9.97185, 10.75642],
			"rotation": {"angle": 0, "axis": "y", "origin": [7.78609, 7.83985, 10.67502]},
			"faces": {
				"north": {"uv": [0.125, 2.625, 0.375, 2.965], "rotation": 90, "texture": "#1"},
				"east": {"uv": [0.125, 2.625, 0.375, 2.965], "rotation": 90, "texture": "#1"},
				"south": {"uv": [0.125, 2.625, 0.375, 2.965], "rotation": 90, "texture": "#1"},
				"west": {"uv": [0.125, 2.625, 0.375, 2.965], "rotation": 90, "texture": "#1"},
				"up": {"uv": [0.125, 2.625, 0.25, 2.715], "rotation": 90, "texture": "#1"},
				"down": {"uv": [0.125, 2.625, 0.25, 2.715], "rotation": 90, "texture": "#1"}
			}
		},
		{
			"from": [7.84558, 6.05985, 10.41642],
			"to": [8.18558, 10.03585, 10.75642],
			"rotation": {"angle": -45, "axis": "y", "origin": [7.99758, 8.04785, 10.58642]},
			"faces": {
				"north": {"uv": [2.25, 3, 2.375, 3.125], "rotation": 90, "texture": "#1"},
				"east": {"uv": [2.25, 3, 2.375, 3], "rotation": 90, "texture": "#1"},
				"south": {"uv": [2.25, 3, 2.375, 3], "rotation": 90, "texture": "#1"},
				"west": {"uv": [2.25, 3, 2.25, 3], "rotation": 90, "texture": "#1"},
				"up": {"uv": [2.25, 3, 2.375, 3], "rotation": 90, "texture": "#1"},
				"down": {"uv": [2.25, 3, 2.375, 3.125], "rotation": 90, "texture": "#1"}
			}
		},
		{
			"from": [7.84031, 9.96385, 9.37314],
			"to": [8.18031, 10.03585, 10.76914],
			"rotation": {"angle": 0, "axis": "y", "origin": [8.01031, 9.99985, 10.59914]},
			"faces": {
				"north": {"uv": [2.25, 3, 2.25, 3], "rotation": 90, "texture": "#1"},
				"east": {"uv": [2.25, 3, 2.375, 3], "rotation": 90, "texture": "#1"},
				"south": {"uv": [2.25, 3, 2.375, 3], "rotation": 90, "texture": "#1"},
				"west": {"uv": [2.25, 3, 2.375, 3], "rotation": 90, "texture": "#1"},
				"up": {"uv": [2.25, 3, 2.375, 3.125], "rotation": 90, "texture": "#1"},
				"down": {"uv": [2.25, 3, 2.25, 3], "rotation": 90, "texture": "#1"}
			}
		},
		{
			"from": [7.84031, 6.05985, 9.37314],
			"to": [8.18031, 6.13185, 10.76914],
			"rotation": {"angle": 0, "axis": "y", "origin": [8.01031, 6.09585, 10.59914]},
			"faces": {
				"north": {"uv": [2.25, 3, 2.25, 3], "rotation": 90, "texture": "#1"},
				"east": {"uv": [2.25, 3, 2.375, 3], "rotation": 90, "texture": "#1"},
				"south": {"uv": [2.25, 3, 2.375, 3], "rotation": 90, "texture": "#1"},
				"west": {"uv": [2.25, 3, 2.375, 3], "rotation": 90, "texture": "#1"},
				"up": {"uv": [2.25, 3, 2.25, 3], "rotation": 90, "texture": "#1"},
				"down": {"uv": [2.25, 3, 2.375, 3.125], "rotation": 90, "texture": "#1"}
			}
		},
		{
			"from": [7.74431, 5.57985, 9.37314],
			"to": [8.24431, 6.13185, 9.45714],
			"rotation": {"angle": 0, "axis": "y", "origin": [8.01031, 6.09585, 10.59914]},
			"faces": {
				"north": {"uv": [2.25, 3, 2.25, 3], "rotation": 90, "texture": "#1"},
				"east": {"uv": [2.25, 3, 2.375, 3], "rotation": 90, "texture": "#1"},
				"south": {"uv": [2.25, 3, 2.375, 3.125], "rotation": 90, "texture": "#1"},
				"west": {"uv": [2.25, 3, 2.375, 3], "rotation": 90, "texture": "#1"},
				"up": {"uv": [2.25, 3, 2.25, 3], "rotation": 90, "texture": "#1"},
				"down": {"uv": [2.25, 3, 2.375, 3], "rotation": 90, "texture": "#1"}
			}
		},
		{
			"from": [7.90431, 10.25185, 9.37314],
			"to": [8.05231, 10.38785, 9.48914],
			"rotation": {"angle": -45, "axis": "z", "origin": [8.01031, 10.28785, 9.43114]},
			"faces": {
				"north": {"uv": [4, 3.25, 4, 3.25], "rotation": 90, "texture": "#1"},
				"east": {"uv": [4, 3.25, 4, 3.25], "rotation": 90, "texture": "#1"},
				"south": {"uv": [4, 3.25, 4, 3.25], "rotation": 90, "texture": "#1"},
				"west": {"uv": [4, 3.25, 4, 3.25], "rotation": 90, "texture": "#1"},
				"up": {"uv": [4, 3.25, 4, 3.25], "rotation": 90, "texture": "#1"},
				"down": {"uv": [4, 3.25, 4, 3.25], "rotation": 90, "texture": "#1"}
			}
		},
		{
			"from": [7.96831, 5.70785, 9.37314],
			"to": [8.11631, 5.84385, 9.48914],
			"rotation": {"angle": -45, "axis": "z", "origin": [8.01031, 5.80785, 9.43114]},
			"faces": {
				"north": {"uv": [4, 3.25, 4, 3.25], "rotation": 90, "texture": "#1"},
				"east": {"uv": [4, 3.25, 4, 3.25], "rotation": 90, "texture": "#1"},
				"south": {"uv": [4, 3.25, 4, 3.25], "rotation": 90, "texture": "#1"},
				"west": {"uv": [4, 3.25, 4, 3.25], "rotation": 90, "texture": "#1"},
				"up": {"uv": [4, 3.25, 4, 3.25], "rotation": 90, "texture": "#1"},
				"down": {"uv": [4, 3.25, 4, 3.25], "rotation": 90, "texture": "#1"}
			}
		},
		{
			"from": [7.97255, 7.85558, 5.88514],
			"to": [8.05655, 7.93958, 6.60914],
			"rotation": {"angle": 0, "axis": "y", "origin": [8.01455, 7.89758, 6.24714]},
			"faces": {
				"north": {"uv": [4, 3.25, 4, 3.25], "rotation": 90, "texture": "#1"},
				"east": {"uv": [3.875, 2.75, 4.25, 3.75], "rotation": 90, "texture": "#1"},
				"south": {"uv": [4, 3.25, 4, 3.25], "rotation": 90, "texture": "#1"},
				"west": {"uv": [4, 3.25, 4, 3.25], "rotation": 90, "texture": "#1"},
				"up": {"uv": [4, 3.25, 4, 3.25], "rotation": 90, "texture": "#1"},
				"down": {"uv": [4, 3.25, 4, 3.25], "rotation": 90, "texture": "#1"}
			}
		},
		{
			"from": [8.16455, 5.58358, 5.88514],
			"to": [8.24855, 5.66758, 6.60914],
			"rotation": {"angle": 0, "axis": "y", "origin": [8.20655, 5.62558, 6.24714]},
			"faces": {
				"north": {"uv": [4, 3.25, 4, 3.25], "rotation": 90, "texture": "#1"},
				"east": {"uv": [3.875, 2.75, 4.25, 3.75], "rotation": 90, "texture": "#1"},
				"south": {"uv": [4, 3.25, 4, 3.25], "rotation": 90, "texture": "#1"},
				"west": {"uv": [4, 3.25, 4, 3.25], "rotation": 90, "texture": "#1"},
				"up": {"uv": [4, 3.25, 4, 3.25], "rotation": 90, "texture": "#1"},
				"down": {"uv": [4, 3.25, 4, 3.25], "rotation": 90, "texture": "#1"}
			}
		},
		{
			"from": [8.16455, 10.36442, 5.88514],
			"to": [8.24855, 10.44842, 6.60914],
			"rotation": {"angle": 0, "axis": "y", "origin": [8.20655, 10.40642, 6.24714]},
			"faces": {
				"north": {"uv": [4, 3.25, 4, 3.25], "rotation": 90, "texture": "#1"},
				"east": {"uv": [4.25, 2.75, 3.875, 3.75], "rotation": 90, "texture": "#1"},
				"south": {"uv": [4, 3.25, 4, 3.25], "rotation": 90, "texture": "#1"},
				"west": {"uv": [4, 3.25, 4, 3.25], "rotation": 90, "texture": "#1"},
				"up": {"uv": [4, 3.25, 4, 3.25], "rotation": 90, "texture": "#1"},
				"down": {"uv": [4, 3.25, 4, 3.25], "rotation": 90, "texture": "#1"}
			}
		},
		{
			"from": [7.81255, 8.14358, 5.88514],
			"to": [7.89655, 8.22758, 6.60914],
			"rotation": {"angle": 0, "axis": "y", "origin": [7.85455, 8.18558, 6.24714]},
			"faces": {
				"north": {"uv": [4, 3.25, 4, 3.25], "rotation": 90, "texture": "#1"},
				"east": {"uv": [3.875, 2.75, 4.25, 3.75], "rotation": 90, "texture": "#1"},
				"south": {"uv": [4, 3.25, 4, 3.25], "rotation": 90, "texture": "#1"},
				"west": {"uv": [4, 3.25, 4, 3.25], "rotation": 90, "texture": "#1"},
				"up": {"uv": [4, 3.25, 4, 3.25], "rotation": 90, "texture": "#1"},
				"down": {"uv": [4, 3.25, 4, 3.25], "rotation": 90, "texture": "#1"}
			}
		},
		{
			"from": [8.00455, 5.87158, 5.88514],
			"to": [8.08855, 5.95558, 6.60914],
			"rotation": {"angle": 0, "axis": "y", "origin": [8.04655, 5.91358, 6.24714]},
			"faces": {
				"north": {"uv": [4, 3.25, 4, 3.25], "rotation": 90, "texture": "#1"},
				"east": {"uv": [3.875, 2.75, 4.25, 3.75], "rotation": 90, "texture": "#1"},
				"south": {"uv": [4, 3.25, 4, 3.25], "rotation": 90, "texture": "#1"},
				"west": {"uv": [4, 3.25, 4, 3.25], "rotation": 90, "texture": "#1"},
				"up": {"uv": [4, 3.25, 4, 3.25], "rotation": 90, "texture": "#1"},
				"down": {"uv": [4, 3.25, 4, 3.25], "rotation": 90, "texture": "#1"}
			}
		},
		{
			"from": [8.00455, 10.07642, 5.88514],
			"to": [8.08855, 10.16042, 6.60914],
			"rotation": {"angle": 0, "axis": "y", "origin": [8.04655, 10.11842, 6.24714]},
			"faces": {
				"north": {"uv": [4, 3.25, 4, 3.25], "rotation": 90, "texture": "#1"},
				"east": {"uv": [4.25, 2.75, 3.875, 3.75], "rotation": 90, "texture": "#1"},
				"south": {"uv": [4, 3.25, 4, 3.25], "rotation": 90, "texture": "#1"},
				"west": {"uv": [4, 3.25, 4, 3.25], "rotation": 90, "texture": "#1"},
				"up": {"uv": [4, 3.25, 4, 3.25], "rotation": 90, "texture": "#1"},
				"down": {"uv": [4, 3.25, 4, 3.25], "rotation": 90, "texture": "#1"}
			}
		},
		{
			"from": [8.32455, 8.30358, 5.88514],
			"to": [8.40855, 8.38758, 6.60914],
			"rotation": {"angle": 0, "axis": "y", "origin": [8.36655, 8.34558, 6.24714]},
			"faces": {
				"north": {"uv": [4, 3.25, 4, 3.25], "rotation": 90, "texture": "#1"},
				"east": {"uv": [3.875, 2.75, 4.25, 3.75], "rotation": 90, "texture": "#1"},
				"south": {"uv": [4, 3.25, 4, 3.25], "rotation": 90, "texture": "#1"},
				"west": {"uv": [4, 3.25, 4, 3.25], "rotation": 90, "texture": "#1"},
				"up": {"uv": [4, 3.25, 4, 3.25], "rotation": 90, "texture": "#1"},
				"down": {"uv": [4, 3.25, 4, 3.25], "rotation": 90, "texture": "#1"}
			}
		},
		{
			"from": [7.74855, 8.46358, 5.88514],
			"to": [7.83255, 8.54758, 6.60914],
			"rotation": {"angle": 0, "axis": "y", "origin": [7.79055, 8.50558, 6.24714]},
			"faces": {
				"north": {"uv": [4, 3.25, 4, 3.25], "rotation": 90, "texture": "#1"},
				"east": {"uv": [3.875, 2.75, 4.25, 3.75], "rotation": 90, "texture": "#1"},
				"south": {"uv": [4, 3.25, 4, 3.25], "rotation": 90, "texture": "#1"},
				"west": {"uv": [4, 3.25, 4, 3.25], "rotation": 90, "texture": "#1"},
				"up": {"uv": [4, 3.25, 4, 3.25], "rotation": 90, "texture": "#1"},
				"down": {"uv": [4, 3.25, 4, 3.25], "rotation": 90, "texture": "#1"}
			}
		},
		{
			"from": [7.49255, 8.81558, 5.88514],
			"to": [7.57655, 8.89958, 6.60914],
			"rotation": {"angle": 0, "axis": "y", "origin": [7.53455, 8.85758, 6.24714]},
			"faces": {
				"north": {"uv": [4, 3.25, 4, 3.25], "rotation": 90, "texture": "#1"},
				"east": {"uv": [3.875, 2.75, 4.25, 3.75], "rotation": 90, "texture": "#1"},
				"south": {"uv": [4, 3.25, 4, 3.25], "rotation": 90, "texture": "#1"},
				"west": {"uv": [4, 3.25, 4, 3.25], "rotation": 90, "texture": "#1"},
				"up": {"uv": [4, 3.25, 4, 3.25], "rotation": 90, "texture": "#1"},
				"down": {"uv": [4, 3.25, 4, 3.25], "rotation": 90, "texture": "#1"}
			}
		},
		{
			"from": [8.45255, 8.81558, 5.88514],
			"to": [8.53655, 8.89958, 6.60914],
			"rotation": {"angle": 0, "axis": "y", "origin": [8.49455, 8.85758, 6.24714]},
			"faces": {
				"north": {"uv": [4, 3.25, 4, 3.25], "rotation": 90, "texture": "#1"},
				"east": {"uv": [3.875, 2.75, 4.25, 3.75], "rotation": 90, "texture": "#1"},
				"south": {"uv": [4, 3.25, 4, 3.25], "rotation": 90, "texture": "#1"},
				"west": {"uv": [4, 3.25, 4, 3.25], "rotation": 90, "texture": "#1"},
				"up": {"uv": [4, 3.25, 4, 3.25], "rotation": 90, "texture": "#1"},
				"down": {"uv": [4, 3.25, 4, 3.25], "rotation": 90, "texture": "#1"}
			}
		},
		{
			"from": [8.45255, 9.87158, 5.88514],
			"to": [8.53655, 9.95558, 6.60914],
			"rotation": {"angle": 0, "axis": "y", "origin": [8.49455, 9.91358, 6.24714]},
			"faces": {
				"north": {"uv": [4, 3.25, 4, 3.25], "rotation": 90, "texture": "#1"},
				"east": {"uv": [3.875, 2.75, 4.25, 3.75], "rotation": 90, "texture": "#1"},
				"south": {"uv": [4, 3.25, 4, 3.25], "rotation": 90, "texture": "#1"},
				"west": {"uv": [4, 3.25, 4, 3.25], "rotation": 90, "texture": "#1"},
				"up": {"uv": [4, 3.25, 4, 3.25], "rotation": 90, "texture": "#1"},
				"down": {"uv": [4, 3.25, 4, 3.25], "rotation": 90, "texture": "#1"}
			}
		},
		{
			"from": [8.19655, 8.55958, 5.88514],
			"to": [8.28055, 8.64358, 6.60914],
			"rotation": {"angle": 0, "axis": "y", "origin": [8.23855, 8.60158, 6.24714]},
			"faces": {
				"north": {"uv": [4, 3.25, 4, 3.25], "rotation": 90, "texture": "#1"},
				"east": {"uv": [3.875, 2.75, 4.25, 3.75], "rotation": 90, "texture": "#1"},
				"south": {"uv": [4, 3.25, 4, 3.25], "rotation": 90, "texture": "#1"},
				"west": {"uv": [4, 3.25, 4, 3.25], "rotation": 90, "texture": "#1"},
				"up": {"uv": [4, 3.25, 4, 3.25], "rotation": 90, "texture": "#1"},
				"down": {"uv": [4, 3.25, 4, 3.25], "rotation": 90, "texture": "#1"}
			}
		},
		{
			"from": [8.00455, 8.23958, 5.88514],
			"to": [8.08855, 8.32358, 6.60914],
			"rotation": {"angle": 0, "axis": "y", "origin": [8.04655, 8.28158, 6.24714]},
			"faces": {
				"north": {"uv": [4, 3.25, 4, 3.25], "rotation": 90, "texture": "#1"},
				"east": {"uv": [3.875, 2.75, 4.25, 3.75], "rotation": 90, "texture": "#1"},
				"south": {"uv": [4, 3.25, 4, 3.25], "rotation": 90, "texture": "#1"},
				"west": {"uv": [4, 3.25, 4, 3.25], "rotation": 90, "texture": "#1"},
				"up": {"uv": [4, 3.25, 4, 3.25], "rotation": 90, "texture": "#1"},
				"down": {"uv": [4, 3.25, 4, 3.25], "rotation": 90, "texture": "#1"}
			}
		},
		{
			"from": [8.19655, 5.96758, 5.88514],
			"to": [8.28055, 6.05158, 6.60914],
			"rotation": {"angle": 0, "axis": "y", "origin": [8.23855, 6.00958, 6.24714]},
			"faces": {
				"north": {"uv": [4, 3.25, 4, 3.25], "rotation": 90, "texture": "#1"},
				"east": {"uv": [3.875, 2.75, 4.25, 3.75], "rotation": 90, "texture": "#1"},
				"south": {"uv": [4, 3.25, 4, 3.25], "rotation": 90, "texture": "#1"},
				"west": {"uv": [4, 3.25, 4, 3.25], "rotation": 90, "texture": "#1"},
				"up": {"uv": [4, 3.25, 4, 3.25], "rotation": 90, "texture": "#1"},
				"down": {"uv": [4, 3.25, 4, 3.25], "rotation": 90, "texture": "#1"}
			}
		},
		{
			"from": [8.19655, 9.98042, 5.88514],
			"to": [8.28055, 10.06442, 6.60914],
			"rotation": {"angle": 0, "axis": "y", "origin": [8.23855, 10.02242, 6.24714]},
			"faces": {
				"north": {"uv": [4, 3.25, 4, 3.25], "rotation": 90, "texture": "#1"},
				"east": {"uv": [4.25, 2.75, 3.875, 3.75], "rotation": 90, "texture": "#1"},
				"south": {"uv": [4, 3.25, 4, 3.25], "rotation": 90, "texture": "#1"},
				"west": {"uv": [4, 3.25, 4, 3.25], "rotation": 90, "texture": "#1"},
				"up": {"uv": [4, 3.25, 4, 3.25], "rotation": 90, "texture": "#1"},
				"down": {"uv": [4, 3.25, 4, 3.25], "rotation": 90, "texture": "#1"}
			}
		},
		{
			"from": [8.48455, 7.10042, 5.88514],
			"to": [8.56855, 7.18442, 6.60914],
			"rotation": {"angle": 0, "axis": "y", "origin": [8.52655, 7.14242, 6.24714]},
			"faces": {
				"north": {"uv": [4, 3.25, 4, 3.25], "rotation": 90, "texture": "#1"},
				"east": {"uv": [4.25, 2.75, 3.875, 3.75], "rotation": 90, "texture": "#1"},
				"south": {"uv": [4, 3.25, 4, 3.25], "rotation": 90, "texture": "#1"},
				"west": {"uv": [4, 3.25, 4, 3.25], "rotation": 90, "texture": "#1"},
				"up": {"uv": [4, 3.25, 4, 3.25], "rotation": 90, "texture": "#1"},
				"down": {"uv": [4, 3.25, 4, 3.25], "rotation": 90, "texture": "#1"}
			}
		},
		{
			"from": [8.22855, 7.47158, 5.88514],
			"to": [8.31255, 7.55558, 6.60914],
			"rotation": {"angle": 0, "axis": "y", "origin": [8.27055, 7.51358, 6.24714]},
			"faces": {
				"north": {"uv": [4, 3.25, 4, 3.25], "rotation": 90, "texture": "#1"},
				"east": {"uv": [3.875, 2.75, 4.25, 3.75], "rotation": 90, "texture": "#1"},
				"south": {"uv": [4, 3.25, 4, 3.25], "rotation": 90, "texture": "#1"},
				"west": {"uv": [4, 3.25, 4, 3.25], "rotation": 90, "texture": "#1"},
				"up": {"uv": [4, 3.25, 4, 3.25], "rotation": 90, "texture": "#1"},
				"down": {"uv": [4, 3.25, 4, 3.25], "rotation": 90, "texture": "#1"}
			}
		},
		{
			"from": [8.32455, 7.82358, 5.88514],
			"to": [8.40855, 7.90758, 6.60914],
			"rotation": {"angle": 0, "axis": "y", "origin": [8.36655, 7.86558, 6.24714]},
			"faces": {
				"north": {"uv": [4, 3.25, 4, 3.25], "rotation": 90, "texture": "#1"},
				"east": {"uv": [3.875, 2.75, 4.25, 3.75], "rotation": 90, "texture": "#1"},
				"south": {"uv": [4, 3.25, 4, 3.25], "rotation": 90, "texture": "#1"},
				"west": {"uv": [4, 3.25, 4, 3.25], "rotation": 90, "texture": "#1"},
				"up": {"uv": [4, 3.25, 4, 3.25], "rotation": 90, "texture": "#1"},
				"down": {"uv": [4, 3.25, 4, 3.25], "rotation": 90, "texture": "#1"}
			}
		},
		{
			"from": [8.51655, 5.55158, 5.88514],
			"to": [8.60055, 5.63558, 6.60914],
			"rotation": {"angle": 0, "axis": "y", "origin": [8.55855, 5.59358, 6.24714]},
			"faces": {
				"north": {"uv": [4, 3.25, 4, 3.25], "rotation": 90, "texture": "#1"},
				"east": {"uv": [3.875, 2.75, 4.25, 3.75], "rotation": 90, "texture": "#1"},
				"south": {"uv": [4, 3.25, 4, 3.25], "rotation": 90, "texture": "#1"},
				"west": {"uv": [4, 3.25, 4, 3.25], "rotation": 90, "texture": "#1"},
				"up": {"uv": [4, 3.25, 4, 3.25], "rotation": 90, "texture": "#1"},
				"down": {"uv": [4, 3.25, 4, 3.25], "rotation": 90, "texture": "#1"}
			}
		},
		{
			"from": [8.51655, 10.39642, 5.88514],
			"to": [8.60055, 10.48042, 6.60914],
			"rotation": {"angle": 0, "axis": "y", "origin": [8.55855, 10.43842, 6.24714]},
			"faces": {
				"north": {"uv": [4, 3.25, 4, 3.25], "rotation": 90, "texture": "#1"},
				"east": {"uv": [4.25, 2.75, 3.875, 3.75], "rotation": 90, "texture": "#1"},
				"south": {"uv": [4, 3.25, 4, 3.25], "rotation": 90, "texture": "#1"},
				"west": {"uv": [4, 3.25, 4, 3.25], "rotation": 90, "texture": "#1"},
				"up": {"uv": [4, 3.25, 4, 3.25], "rotation": 90, "texture": "#1"},
				"down": {"uv": [4, 3.25, 4, 3.25], "rotation": 90, "texture": "#1"}
			}
		},
		{
			"from": [7.55655, 7.72758, 5.88514],
			"to": [7.64055, 7.81158, 6.60914],
			"rotation": {"angle": 0, "axis": "y", "origin": [7.59855, 7.76958, 6.24714]},
			"faces": {
				"north": {"uv": [4, 3.25, 4, 3.25], "rotation": 90, "texture": "#1"},
				"east": {"uv": [3.875, 2.75, 4.25, 3.75], "rotation": 90, "texture": "#1"},
				"south": {"uv": [4, 3.25, 4, 3.25], "rotation": 90, "texture": "#1"},
				"west": {"uv": [4, 3.25, 4, 3.25], "rotation": 90, "texture": "#1"},
				"up": {"uv": [4, 3.25, 4, 3.25], "rotation": 90, "texture": "#1"},
				"down": {"uv": [4, 3.25, 4, 3.25], "rotation": 90, "texture": "#1"}
			}
		},
		{
			"from": [7.55655, 7.27958, 5.88514],
			"to": [7.64055, 7.36358, 6.60914],
			"rotation": {"angle": 0, "axis": "y", "origin": [7.59855, 7.32158, 6.24714]},
			"faces": {
				"north": {"uv": [4, 3.25, 4, 3.25], "rotation": 90, "texture": "#1"},
				"east": {"uv": [3.875, 2.75, 4.25, 3.75], "rotation": 90, "texture": "#1"},
				"south": {"uv": [4, 3.25, 4, 3.25], "rotation": 90, "texture": "#1"},
				"west": {"uv": [4, 3.25, 4, 3.25], "rotation": 90, "texture": "#1"},
				"up": {"uv": [4, 3.25, 4, 3.25], "rotation": 90, "texture": "#1"},
				"down": {"uv": [4, 3.25, 4, 3.25], "rotation": 90, "texture": "#1"}
			}
		},
		{
			"from": [7.78055, 7.53558, 5.88514],
			"to": [7.86455, 7.61958, 6.60914],
			"rotation": {"angle": 0, "axis": "y", "origin": [7.82255, 7.57758, 6.24714]},
			"faces": {
				"north": {"uv": [4, 3.25, 4, 3.25], "rotation": 90, "texture": "#1"},
				"east": {"uv": [3.875, 2.75, 4.25, 3.75], "rotation": 90, "texture": "#1"},
				"south": {"uv": [4, 3.25, 4, 3.25], "rotation": 90, "texture": "#1"},
				"west": {"uv": [4, 3.25, 4, 3.25], "rotation": 90, "texture": "#1"},
				"up": {"uv": [4, 3.25, 4, 3.25], "rotation": 90, "texture": "#1"},
				"down": {"uv": [4, 3.25, 4, 3.25], "rotation": 90, "texture": "#1"}
			}
		},
		{
			"from": [7.58855, 5.67958, 5.88514],
			"to": [7.67255, 5.76358, 6.60914],
			"rotation": {"angle": 0, "axis": "y", "origin": [7.63055, 5.72158, 6.24714]},
			"faces": {
				"north": {"uv": [4, 3.25, 4, 3.25], "rotation": 90, "texture": "#1"},
				"east": {"uv": [3.875, 2.75, 4.25, 3.75], "rotation": 90, "texture": "#1"},
				"south": {"uv": [4, 3.25, 4, 3.25], "rotation": 90, "texture": "#1"},
				"west": {"uv": [4, 3.25, 4, 3.25], "rotation": 90, "texture": "#1"},
				"up": {"uv": [4, 3.25, 4, 3.25], "rotation": 90, "texture": "#1"},
				"down": {"uv": [4, 3.25, 4, 3.25], "rotation": 90, "texture": "#1"}
			}
		},
		{
			"from": [7.58855, 10.26842, 5.88514],
			"to": [7.67255, 10.35242, 6.60914],
			"rotation": {"angle": 0, "axis": "y", "origin": [7.63055, 10.31042, 6.24714]},
			"faces": {
				"north": {"uv": [4, 3.25, 4, 3.25], "rotation": 90, "texture": "#1"},
				"east": {"uv": [4.25, 2.75, 3.875, 3.75], "rotation": 90, "texture": "#1"},
				"south": {"uv": [4, 3.25, 4, 3.25], "rotation": 90, "texture": "#1"},
				"west": {"uv": [4, 3.25, 4, 3.25], "rotation": 90, "texture": "#1"},
				"up": {"uv": [4, 3.25, 4, 3.25], "rotation": 90, "texture": "#1"},
				"down": {"uv": [4, 3.25, 4, 3.25], "rotation": 90, "texture": "#1"}
			}
		},
		{
			"from": [7.97255, 7.63652, 5.96147],
			"to": [8.05655, 7.69591, 6.02087],
			"rotation": {"angle": -45, "axis": "x", "origin": [8.01455, 7.65391, 5.65887]},
			"faces": {
				"north": {"uv": [4, 3.25, 4, 3.25], "rotation": 90, "texture": "#1"},
				"east": {"uv": [4, 3.25, 4, 3.25], "rotation": 90, "texture": "#1"},
				"south": {"uv": [4, 3.25, 4, 3.25], "rotation": 90, "texture": "#1"},
				"west": {"uv": [4, 3.25, 4, 3.25], "rotation": 90, "texture": "#1"},
				"up": {"uv": [4, 3.25, 4, 3.25], "rotation": 90, "texture": "#1"},
				"down": {"uv": [4, 3.25, 4, 3.25], "rotation": 90, "texture": "#1"}
			}
		},
		{
			"from": [8.16455, 5.36452, 5.96147],
			"to": [8.24855, 5.42391, 6.02087],
			"rotation": {"angle": -45, "axis": "x", "origin": [8.20655, 5.38191, 5.65887]},
			"faces": {
				"north": {"uv": [4, 3.25, 4, 3.25], "rotation": 90, "texture": "#1"},
				"east": {"uv": [4, 3.25, 4, 3.25], "rotation": 90, "texture": "#1"},
				"south": {"uv": [4, 3.25, 4, 3.25], "rotation": 90, "texture": "#1"},
				"west": {"uv": [4, 3.25, 4, 3.25], "rotation": 90, "texture": "#1"},
				"up": {"uv": [4, 3.25, 4, 3.25], "rotation": 90, "texture": "#1"},
				"down": {"uv": [4, 3.25, 4, 3.25], "rotation": 90, "texture": "#1"}
			}
		},
		{
			"from": [8.16455, 10.60809, 5.96147],
			"to": [8.24855, 10.66748, 6.02087],
			"rotation": {"angle": 45, "axis": "x", "origin": [8.20655, 10.65009, 5.65887]},
			"faces": {
				"north": {"uv": [4, 3.25, 4, 3.25], "rotation": 90, "texture": "#1"},
				"east": {"uv": [4, 3.25, 4, 3.25], "rotation": 90, "texture": "#1"},
				"south": {"uv": [4, 3.25, 4, 3.25], "rotation": 90, "texture": "#1"},
				"west": {"uv": [4, 3.25, 4, 3.25], "rotation": 90, "texture": "#1"},
				"up": {"uv": [4, 3.25, 4, 3.25], "rotation": 90, "texture": "#1"},
				"down": {"uv": [4, 3.25, 4, 3.25], "rotation": 90, "texture": "#1"}
			}
		},
		{
			"from": [7.81255, 7.92452, 5.96147],
			"to": [7.89655, 7.98391, 6.02087],
			"rotation": {"angle": -45, "axis": "x", "origin": [7.85455, 7.94191, 5.65887]},
			"faces": {
				"north": {"uv": [4, 3.25, 4, 3.25], "rotation": 90, "texture": "#1"},
				"east": {"uv": [4, 3.25, 4, 3.25], "rotation": 90, "texture": "#1"},
				"south": {"uv": [4, 3.25, 4, 3.25], "rotation": 90, "texture": "#1"},
				"west": {"uv": [4, 3.25, 4, 3.25], "rotation": 90, "texture": "#1"},
				"up": {"uv": [4, 3.25, 4, 3.25], "rotation": 90, "texture": "#1"},
				"down": {"uv": [4, 3.25, 4, 3.25], "rotation": 90, "texture": "#1"}
			}
		},
		{
			"from": [8.00455, 5.65252, 5.96147],
			"to": [8.08855, 5.71191, 6.02087],
			"rotation": {"angle": -45, "axis": "x", "origin": [8.04655, 5.66991, 5.65887]},
			"faces": {
				"north": {"uv": [4, 3.25, 4, 3.25], "rotation": 90, "texture": "#1"},
				"east": {"uv": [4, 3.25, 4, 3.25], "rotation": 90, "texture": "#1"},
				"south": {"uv": [4, 3.25, 4, 3.25], "rotation": 90, "texture": "#1"},
				"west": {"uv": [4, 3.25, 4, 3.25], "rotation": 90, "texture": "#1"},
				"up": {"uv": [4, 3.25, 4, 3.25], "rotation": 90, "texture": "#1"},
				"down": {"uv": [4, 3.25, 4, 3.25], "rotation": 90, "texture": "#1"}
			}
		},
		{
			"from": [8.00455, 10.32009, 5.96147],
			"to": [8.08855, 10.37948, 6.02087],
			"rotation": {"angle": 45, "axis": "x", "origin": [8.04655, 10.36209, 5.65887]},
			"faces": {
				"north": {"uv": [4, 3.25, 4, 3.25], "rotation": 90, "texture": "#1"},
				"east": {"uv": [4, 3.25, 4, 3.25], "rotation": 90, "texture": "#1"},
				"south": {"uv": [4, 3.25, 4, 3.25], "rotation": 90, "texture": "#1"},
				"west": {"uv": [4, 3.25, 4, 3.25], "rotation": 90, "texture": "#1"},
				"up": {"uv": [4, 3.25, 4, 3.25], "rotation": 90, "texture": "#1"},
				"down": {"uv": [4, 3.25, 4, 3.25], "rotation": 90, "texture": "#1"}
			}
		},
		{
			"from": [8.32455, 8.08452, 5.96147],
			"to": [8.40855, 8.14391, 6.02087],
			"rotation": {"angle": -45, "axis": "x", "origin": [8.36655, 8.10191, 5.65887]},
			"faces": {
				"north": {"uv": [4, 3.25, 4, 3.25], "rotation": 90, "texture": "#1"},
				"east": {"uv": [4, 3.25, 4, 3.25], "rotation": 90, "texture": "#1"},
				"south": {"uv": [4, 3.25, 4, 3.25], "rotation": 90, "texture": "#1"},
				"west": {"uv": [4, 3.25, 4, 3.25], "rotation": 90, "texture": "#1"},
				"up": {"uv": [4, 3.25, 4, 3.25], "rotation": 90, "texture": "#1"},
				"down": {"uv": [4, 3.25, 4, 3.25], "rotation": 90, "texture": "#1"}
			}
		},
		{
			"from": [7.74855, 8.24452, 5.96147],
			"to": [7.83255, 8.30391, 6.02087],
			"rotation": {"angle": -45, "axis": "x", "origin": [7.79055, 8.26191, 5.65887]},
			"faces": {
				"north": {"uv": [4, 3.25, 4, 3.25], "rotation": 90, "texture": "#1"},
				"east": {"uv": [4, 3.25, 4, 3.25], "rotation": 90, "texture": "#1"},
				"south": {"uv": [4, 3.25, 4, 3.25], "rotation": 90, "texture": "#1"},
				"west": {"uv": [4, 3.25, 4, 3.25], "rotation": 90, "texture": "#1"},
				"up": {"uv": [4, 3.25, 4, 3.25], "rotation": 90, "texture": "#1"},
				"down": {"uv": [4, 3.25, 4, 3.25], "rotation": 90, "texture": "#1"}
			}
		},
		{
			"from": [7.49255, 8.59652, 5.96147],
			"to": [7.57655, 8.65591, 6.02087],
			"rotation": {"angle": -45, "axis": "x", "origin": [7.53455, 8.61391, 5.65887]},
			"faces": {
				"north": {"uv": [4, 3.25, 4, 3.25], "rotation": 90, "texture": "#1"},
				"east": {"uv": [4, 3.25, 4, 3.25], "rotation": 90, "texture": "#1"},
				"south": {"uv": [4, 3.25, 4, 3.25], "rotation": 90, "texture": "#1"},
				"west": {"uv": [4, 3.25, 4, 3.25], "rotation": 90, "texture": "#1"},
				"up": {"uv": [4, 3.25, 4, 3.25], "rotation": 90, "texture": "#1"},
				"down": {"uv": [4, 3.25, 4, 3.25], "rotation": 90, "texture": "#1"}
			}
		},
		{
			"from": [8.45255, 8.59652, 5.96147],
			"to": [8.53655, 8.65591, 6.02087],
			"rotation": {"angle": -45, "axis": "x", "origin": [8.49455, 8.61391, 5.65887]},
			"faces": {
				"north": {"uv": [4, 3.25, 4, 3.25], "rotation": 90, "texture": "#1"},
				"east": {"uv": [4, 3.25, 4, 3.25], "rotation": 90, "texture": "#1"},
				"south": {"uv": [4, 3.25, 4, 3.25], "rotation": 90, "texture": "#1"},
				"west": {"uv": [4, 3.25, 4, 3.25], "rotation": 90, "texture": "#1"},
				"up": {"uv": [4, 3.25, 4, 3.25], "rotation": 90, "texture": "#1"},
				"down": {"uv": [4, 3.25, 4, 3.25], "rotation": 90, "texture": "#1"}
			}
		},
		{
			"from": [8.45255, 9.65252, 5.96147],
			"to": [8.53655, 9.71191, 6.02087],
			"rotation": {"angle": -45, "axis": "x", "origin": [8.49455, 9.66991, 5.65887]},
			"faces": {
				"north": {"uv": [4, 3.25, 4, 3.25], "rotation": 90, "texture": "#1"},
				"east": {"uv": [4, 3.25, 4, 3.25], "rotation": 90, "texture": "#1"},
				"south": {"uv": [4, 3.25, 4, 3.25], "rotation": 90, "texture": "#1"},
				"west": {"uv": [4, 3.25, 4, 3.25], "rotation": 90, "texture": "#1"},
				"up": {"uv": [4, 3.25, 4, 3.25], "rotation": 90, "texture": "#1"},
				"down": {"uv": [4, 3.25, 4, 3.25], "rotation": 90, "texture": "#1"}
			}
		},
		{
			"from": [8.19655, 8.34052, 5.96147],
			"to": [8.28055, 8.39991, 6.02087],
			"rotation": {"angle": -45, "axis": "x", "origin": [8.23855, 8.35791, 5.65887]},
			"faces": {
				"north": {"uv": [4, 3.25, 4, 3.25], "rotation": 90, "texture": "#1"},
				"east": {"uv": [4, 3.25, 4, 3.25], "rotation": 90, "texture": "#1"},
				"south": {"uv": [4, 3.25, 4, 3.25], "rotation": 90, "texture": "#1"},
				"west": {"uv": [4, 3.25, 4, 3.25], "rotation": 90, "texture": "#1"},
				"up": {"uv": [4, 3.25, 4, 3.25], "rotation": 90, "texture": "#1"},
				"down": {"uv": [4, 3.25, 4, 3.25], "rotation": 90, "texture": "#1"}
			}
		},
		{
			"from": [8.00455, 8.02052, 5.96147],
			"to": [8.08855, 8.07991, 6.02087],
			"rotation": {"angle": -45, "axis": "x", "origin": [8.04655, 8.03791, 5.65887]},
			"faces": {
				"north": {"uv": [4, 3.25, 4, 3.25], "rotation": 90, "texture": "#1"},
				"east": {"uv": [4, 3.25, 4, 3.25], "rotation": 90, "texture": "#1"},
				"south": {"uv": [4, 3.25, 4, 3.25], "rotation": 90, "texture": "#1"},
				"west": {"uv": [4, 3.25, 4, 3.25], "rotation": 90, "texture": "#1"},
				"up": {"uv": [4, 3.25, 4, 3.25], "rotation": 90, "texture": "#1"},
				"down": {"uv": [4, 3.25, 4, 3.25], "rotation": 90, "texture": "#1"}
			}
		},
		{
			"from": [8.19655, 5.74852, 5.96147],
			"to": [8.28055, 5.80791, 6.02087],
			"rotation": {"angle": -45, "axis": "x", "origin": [8.23855, 5.76591, 5.65887]},
			"faces": {
				"north": {"uv": [4, 3.25, 4, 3.25], "rotation": 90, "texture": "#1"},
				"east": {"uv": [4, 3.25, 4, 3.25], "rotation": 90, "texture": "#1"},
				"south": {"uv": [4, 3.25, 4, 3.25], "rotation": 90, "texture": "#1"},
				"west": {"uv": [4, 3.25, 4, 3.25], "rotation": 90, "texture": "#1"},
				"up": {"uv": [4, 3.25, 4, 3.25], "rotation": 90, "texture": "#1"},
				"down": {"uv": [4, 3.25, 4, 3.25], "rotation": 90, "texture": "#1"}
			}
		},
		{
			"from": [8.19655, 10.22409, 5.96147],
			"to": [8.28055, 10.28348, 6.02087],
			"rotation": {"angle": 45, "axis": "x", "origin": [8.23855, 10.26609, 5.65887]},
			"faces": {
				"north": {"uv": [4, 3.25, 4, 3.25], "rotation": 90, "texture": "#1"},
				"east": {"uv": [4, 3.25, 4, 3.25], "rotation": 90, "texture": "#1"},
				"south": {"uv": [4, 3.25, 4, 3.25], "rotation": 90, "texture": "#1"},
				"west": {"uv": [4, 3.25, 4, 3.25], "rotation": 90, "texture": "#1"},
				"up": {"uv": [4, 3.25, 4, 3.25], "rotation": 90, "texture": "#1"},
				"down": {"uv": [4, 3.25, 4, 3.25], "rotation": 90, "texture": "#1"}
			}
		},
		{
			"from": [8.22855, 7.25252, 5.96147],
			"to": [8.31255, 7.31191, 6.02087],
			"rotation": {"angle": -45, "axis": "x", "origin": [8.27055, 7.26991, 5.65887]},
			"faces": {
				"north": {"uv": [4, 3.25, 4, 3.25], "rotation": 90, "texture": "#1"},
				"east": {"uv": [4, 3.25, 4, 3.25], "rotation": 90, "texture": "#1"},
				"south": {"uv": [4, 3.25, 4, 3.25], "rotation": 90, "texture": "#1"},
				"west": {"uv": [4, 3.25, 4, 3.25], "rotation": 90, "texture": "#1"},
				"up": {"uv": [4, 3.25, 4, 3.25], "rotation": 90, "texture": "#1"},
				"down": {"uv": [4, 3.25, 4, 3.25], "rotation": 90, "texture": "#1"}
			}
		},
		{
			"from": [8.32455, 7.60452, 5.96147],
			"to": [8.40855, 7.66391, 6.02087],
			"rotation": {"angle": -45, "axis": "x", "origin": [8.36655, 7.62191, 5.65887]},
			"faces": {
				"north": {"uv": [4, 3.25, 4, 3.25], "rotation": 90, "texture": "#1"},
				"east": {"uv": [4, 3.25, 4, 3.25], "rotation": 90, "texture": "#1"},
				"south": {"uv": [4, 3.25, 4, 3.25], "rotation": 90, "texture": "#1"},
				"west": {"uv": [4, 3.25, 4, 3.25], "rotation": 90, "texture": "#1"},
				"up": {"uv": [4, 3.25, 4, 3.25], "rotation": 90, "texture": "#1"},
				"down": {"uv": [4, 3.25, 4, 3.25], "rotation": 90, "texture": "#1"}
			}
		},
		{
			"from": [8.51655, 5.33252, 5.96147],
			"to": [8.60055, 5.39191, 6.02087],
			"rotation": {"angle": -45, "axis": "x", "origin": [8.55855, 5.34991, 5.65887]},
			"faces": {
				"north": {"uv": [4, 3.25, 4, 3.25], "rotation": 90, "texture": "#1"},
				"east": {"uv": [4, 3.25, 4, 3.25], "rotation": 90, "texture": "#1"},
				"south": {"uv": [4, 3.25, 4, 3.25], "rotation": 90, "texture": "#1"},
				"west": {"uv": [4, 3.25, 4, 3.25], "rotation": 90, "texture": "#1"},
				"up": {"uv": [4, 3.25, 4, 3.25], "rotation": 90, "texture": "#1"},
				"down": {"uv": [4, 3.25, 4, 3.25], "rotation": 90, "texture": "#1"}
			}
		},
		{
			"from": [8.51655, 10.64009, 5.96147],
			"to": [8.60055, 10.69948, 6.02087],
			"rotation": {"angle": 45, "axis": "x", "origin": [8.55855, 10.68209, 5.65887]},
			"faces": {
				"north": {"uv": [4, 3.25, 4, 3.25], "rotation": 90, "texture": "#1"},
				"east": {"uv": [4, 3.25, 4, 3.25], "rotation": 90, "texture": "#1"},
				"south": {"uv": [4, 3.25, 4, 3.25], "rotation": 90, "texture": "#1"},
				"west": {"uv": [4, 3.25, 4, 3.25], "rotation": 90, "texture": "#1"},
				"up": {"uv": [4, 3.25, 4, 3.25], "rotation": 90, "texture": "#1"},
				"down": {"uv": [4, 3.25, 4, 3.25], "rotation": 90, "texture": "#1"}
			}
		},
		{
			"from": [7.55655, 7.50852, 5.96147],
			"to": [7.64055, 7.56791, 6.02087],
			"rotation": {"angle": -45, "axis": "x", "origin": [7.59855, 7.52591, 5.65887]},
			"faces": {
				"north": {"uv": [4, 3.25, 4, 3.25], "rotation": 90, "texture": "#1"},
				"east": {"uv": [4, 3.25, 4, 3.25], "rotation": 90, "texture": "#1"},
				"south": {"uv": [4, 3.25, 4, 3.25], "rotation": 90, "texture": "#1"},
				"west": {"uv": [4, 3.25, 4, 3.25], "rotation": 90, "texture": "#1"},
				"up": {"uv": [4, 3.25, 4, 3.25], "rotation": 90, "texture": "#1"},
				"down": {"uv": [4, 3.25, 4, 3.25], "rotation": 90, "texture": "#1"}
			}
		},
		{
			"from": [7.55655, 7.06052, 5.96147],
			"to": [7.64055, 7.11991, 6.02087],
			"rotation": {"angle": -45, "axis": "x", "origin": [7.59855, 7.07791, 5.65887]},
			"faces": {
				"north": {"uv": [4, 3.25, 4, 3.25], "rotation": 90, "texture": "#1"},
				"east": {"uv": [4, 3.25, 4, 3.25], "rotation": 90, "texture": "#1"},
				"south": {"uv": [4, 3.25, 4, 3.25], "rotation": 90, "texture": "#1"},
				"west": {"uv": [4, 3.25, 4, 3.25], "rotation": 90, "texture": "#1"},
				"up": {"uv": [4, 3.25, 4, 3.25], "rotation": 90, "texture": "#1"},
				"down": {"uv": [4, 3.25, 4, 3.25], "rotation": 90, "texture": "#1"}
			}
		},
		{
			"from": [7.78055, 7.31652, 5.96147],
			"to": [7.86455, 7.37591, 6.02087],
			"rotation": {"angle": -45, "axis": "x", "origin": [7.82255, 7.33391, 5.65887]},
			"faces": {
				"north": {"uv": [4, 3.25, 4, 3.25], "rotation": 90, "texture": "#1"},
				"east": {"uv": [4, 3.25, 4, 3.25], "rotation": 90, "texture": "#1"},
				"south": {"uv": [4, 3.25, 4, 3.25], "rotation": 90, "texture": "#1"},
				"west": {"uv": [4, 3.25, 4, 3.25], "rotation": 90, "texture": "#1"},
				"up": {"uv": [4, 3.25, 4, 3.25], "rotation": 90, "texture": "#1"},
				"down": {"uv": [4, 3.25, 4, 3.25], "rotation": 90, "texture": "#1"}
			}
		},
		{
			"from": [7.58855, 5.46052, 5.96147],
			"to": [7.67255, 5.51991, 6.02087],
			"rotation": {"angle": -45, "axis": "x", "origin": [7.63055, 5.47791, 5.65887]},
			"faces": {
				"north": {"uv": [4, 3.25, 4, 3.25], "rotation": 90, "texture": "#1"},
				"east": {"uv": [4, 3.25, 4, 3.25], "rotation": 90, "texture": "#1"},
				"south": {"uv": [4, 3.25, 4, 3.25], "rotation": 90, "texture": "#1"},
				"west": {"uv": [4, 3.25, 4, 3.25], "rotation": 90, "texture": "#1"},
				"up": {"uv": [4, 3.25, 4, 3.25], "rotation": 90, "texture": "#1"},
				"down": {"uv": [4, 3.25, 4, 3.25], "rotation": 90, "texture": "#1"}
			}
		},
		{
			"from": [7.58855, 10.51209, 5.96147],
			"to": [7.67255, 10.57148, 6.02087],
			"rotation": {"angle": 45, "axis": "x", "origin": [7.63055, 10.55409, 5.65887]},
			"faces": {
				"north": {"uv": [4, 3.25, 4, 3.25], "rotation": 90, "texture": "#1"},
				"east": {"uv": [4, 3.25, 4, 3.25], "rotation": 90, "texture": "#1"},
				"south": {"uv": [4, 3.25, 4, 3.25], "rotation": 90, "texture": "#1"},
				"west": {"uv": [4, 3.25, 4, 3.25], "rotation": 90, "texture": "#1"},
				"up": {"uv": [4, 3.25, 4, 3.25], "rotation": 90, "texture": "#1"},
				"down": {"uv": [4, 3.25, 4, 3.25], "rotation": 90, "texture": "#1"}
			}
		},
		{
			"from": [7.74431, 9.96385, 9.37314],
			"to": [8.24431, 10.51585, 9.45714],
			"rotation": {"angle": 0, "axis": "y", "origin": [8.01031, 10.47985, 10.59914]},
			"faces": {
				"north": {"uv": [2.25, 3, 2.25, 3], "rotation": 90, "texture": "#1"},
				"east": {"uv": [2.25, 3, 2.375, 3], "rotation": 90, "texture": "#1"},
				"south": {"uv": [2.25, 3, 2.375, 3.125], "rotation": 90, "texture": "#1"},
				"west": {"uv": [2.25, 3, 2.375, 3], "rotation": 90, "texture": "#1"},
				"up": {"uv": [2.25, 3, 2.375, 3], "rotation": 90, "texture": "#1"},
				"down": {"uv": [2.25, 3, 2.25, 3], "rotation": 90, "texture": "#1"}
			}
		},
		{
			"from": [7.46428, 6.12385, 10.29111],
			"to": [8.18428, 9.97185, 10.63111],
			"rotation": {"angle": -45, "axis": "y", "origin": [7.78609, 7.83985, 10.67502]},
			"faces": {
				"north": {"uv": [0.125, 2.625, 0.375, 2.965], "rotation": 90, "texture": "#1"},
				"east": {"uv": [0.125, 2.625, 0.375, 2.965], "rotation": 90, "texture": "#1"},
				"south": {"uv": [0.125, 2.625, 0.375, 2.965], "rotation": 90, "texture": "#1"},
				"west": {"uv": [0.125, 2.625, 0.375, 2.965], "rotation": 90, "texture": "#1"},
				"up": {"uv": [0.125, 2.625, 0.25, 2.715], "rotation": 90, "texture": "#1"},
				"down": {"uv": [0.125, 2.625, 0.25, 2.715], "rotation": 90, "texture": "#1"}
			}
		},
		{
			"from": [7.83, 6.12385, 10.176],
			"to": [8.17, 9.97185, 10.288],
			"rotation": {"angle": 0, "axis": "y", "origin": [0.65, -3.77215, 19.176]},
			"faces": {
				"north": {"uv": [0.125, 2.625, 0.375, 2.965], "texture": "#1"},
				"east": {"uv": [0.125, 2.625, 0.375, 2.965], "texture": "#1"},
				"south": {"uv": [0.125, 2.625, 0.375, 2.965], "texture": "#1"},
				"west": {"uv": [0.125, 2.625, 0.375, 2.965], "texture": "#1"},
				"up": {"uv": [0.125, 2.625, 0.375, 2.965], "texture": "#1"},
				"down": {"uv": [0.125, 2.625, 0.375, 2.965], "texture": "#1"}
			}
		},
		{
			"from": [7.286, 5.41985, 9.184],
			"to": [8.714, 10.67585, 9.392],
			"rotation": {"angle": 0, "axis": "y", "origin": [0.65, -3.77215, 18.184]},
			"faces": {
				"north": {"uv": [0.125, 2.625, 0.375, 2.965], "texture": "#1"},
				"east": {"uv": [0.125, 2.625, 0.375, 2.965], "texture": "#1"},
				"south": {"uv": [0.125, 2.625, 0.375, 2.965], "texture": "#1"},
				"west": {"uv": [0.125, 2.625, 0.375, 2.965], "texture": "#1"},
				"up": {"uv": [0.125, 2.625, 0.375, 2.965], "texture": "#1"},
				"down": {"uv": [0.125, 2.625, 0.375, 2.965], "texture": "#1"}
			}
		},
		{
			"from": [7.286, 5.41985, 6.592],
			"to": [8.714, 10.67585, 6.8],
			"rotation": {"angle": 0, "axis": "y", "origin": [0.65, -3.77215, 15.592]},
			"faces": {
				"north": {"uv": [0.125, 2.625, 0.375, 2.965], "texture": "#1"},
				"east": {"uv": [0.125, 2.625, 0.375, 2.965], "texture": "#1"},
				"south": {"uv": [0.125, 2.625, 0.375, 2.965], "texture": "#1"},
				"west": {"uv": [0.125, 2.625, 0.375, 2.965], "texture": "#1"},
				"up": {"uv": [0.125, 2.625, 0.375, 2.965], "texture": "#1"},
				"down": {"uv": [0.125, 2.625, 0.375, 2.965], "texture": "#1"}
			}
		},
		{
			"from": [8.694, 9.00385, 6.528],
			"to": [8.778, 9.74785, 9.456],
			"rotation": {"angle": 0, "axis": "y", "origin": [0.65, -4.41215, 15.592]},
			"faces": {
				"north": {"uv": [7.25, 2.25, 7.625, 2.59], "rotation": 90, "texture": "#1"},
				"east": {"uv": [7.25, 2.25, 7.625, 2.59], "rotation": 90, "texture": "#1"},
				"south": {"uv": [7.25, 2.25, 7.625, 2.59], "rotation": 90, "texture": "#1"},
				"west": {"uv": [7.25, 2.25, 7.625, 2.59], "rotation": 90, "texture": "#1"},
				"up": {"uv": [7.25, 2.25, 7.625, 2.59], "rotation": 90, "texture": "#1"},
				"down": {"uv": [7.25, 2.25, 7.625, 2.59], "rotation": 90, "texture": "#1"}
			}
		},
		{
			"from": [8.694, 6.15585, 6.528],
			"to": [8.778, 6.89985, 9.456],
			"rotation": {"angle": 0, "axis": "y", "origin": [0.65, -7.26015, 15.592]},
			"faces": {
				"north": {"uv": [7.25, 2.25, 7.625, 2.59], "rotation": 90, "texture": "#1"},
				"east": {"uv": [7.25, 2.25, 7.625, 2.59], "rotation": 90, "texture": "#1"},
				"south": {"uv": [7.25, 2.25, 7.625, 2.59], "rotation": 90, "texture": "#1"},
				"west": {"uv": [7.25, 2.25, 7.625, 2.59], "rotation": 90, "texture": "#1"},
				"up": {"uv": [7.25, 2.25, 7.625, 2.59], "rotation": 90, "texture": "#1"},
				"down": {"uv": [7.25, 2.25, 7.625, 2.59], "rotation": 90, "texture": "#1"}
			}
		},
		{
			"from": [7.222, 9.00385, 6.528],
			"to": [8.778, 9.74785, 6.64],
			"rotation": {"angle": 0, "axis": "y", "origin": [0.65, -4.41215, 15.592]},
			"faces": {
				"north": {"uv": [7.25, 2.25, 7.625, 2.59], "rotation": 90, "texture": "#1"},
				"east": {"uv": [7.25, 2.25, 7.625, 2.59], "rotation": 90, "texture": "#1"},
				"south": {"uv": [7.25, 2.25, 7.625, 2.59], "rotation": 90, "texture": "#1"},
				"west": {"uv": [7.25, 2.25, 7.625, 2.59], "rotation": 90, "texture": "#1"},
				"up": {"uv": [7.25, 2.25, 7.625, 2.59], "rotation": 90, "texture": "#1"},
				"down": {"uv": [7.25, 2.25, 7.625, 2.59], "rotation": 90, "texture": "#1"}
			}
		},
		{
			"from": [7.222, 6.15585, 6.528],
			"to": [8.778, 6.89985, 6.64],
			"rotation": {"angle": 0, "axis": "y", "origin": [0.65, -7.26015, 15.592]},
			"faces": {
				"north": {"uv": [7.25, 2.25, 7.625, 2.59], "rotation": 90, "texture": "#1"},
				"east": {"uv": [7.25, 2.25, 7.625, 2.59], "rotation": 90, "texture": "#1"},
				"south": {"uv": [7.25, 2.25, 7.625, 2.59], "rotation": 90, "texture": "#1"},
				"west": {"uv": [7.25, 2.25, 7.625, 2.59], "rotation": 90, "texture": "#1"},
				"up": {"uv": [7.25, 2.25, 7.625, 2.59], "rotation": 90, "texture": "#1"},
				"down": {"uv": [7.25, 2.25, 7.625, 2.59], "rotation": 90, "texture": "#1"}
			}
		},
		{
			"from": [7.222, 9.00385, 9.344],
			"to": [8.778, 9.74785, 9.456],
			"rotation": {"angle": 0, "axis": "y", "origin": [0.65, -4.41215, 18.408]},
			"faces": {
				"north": {"uv": [7.25, 2.25, 7.625, 2.59], "rotation": 90, "texture": "#1"},
				"east": {"uv": [7.25, 2.25, 7.625, 2.59], "rotation": 90, "texture": "#1"},
				"south": {"uv": [7.25, 2.25, 7.625, 2.59], "rotation": 90, "texture": "#1"},
				"west": {"uv": [7.25, 2.25, 7.625, 2.59], "rotation": 90, "texture": "#1"},
				"up": {"uv": [7.25, 2.25, 7.625, 2.59], "rotation": 90, "texture": "#1"},
				"down": {"uv": [7.25, 2.25, 7.625, 2.59], "rotation": 90, "texture": "#1"}
			}
		},
		{
			"from": [7.222, 6.15585, 9.344],
			"to": [8.778, 6.89985, 9.456],
			"rotation": {"angle": 0, "axis": "y", "origin": [0.65, -7.26015, 18.408]},
			"faces": {
				"north": {"uv": [7.25, 2.25, 7.625, 2.59], "rotation": 90, "texture": "#1"},
				"east": {"uv": [7.25, 2.25, 7.625, 2.59], "rotation": 90, "texture": "#1"},
				"south": {"uv": [7.25, 2.25, 7.625, 2.59], "rotation": 90, "texture": "#1"},
				"west": {"uv": [7.25, 2.25, 7.625, 2.59], "rotation": 90, "texture": "#1"},
				"up": {"uv": [7.25, 2.25, 7.625, 2.59], "rotation": 90, "texture": "#1"},
				"down": {"uv": [7.25, 2.25, 7.625, 2.59], "rotation": 90, "texture": "#1"}
			}
		},
		{
			"from": [7.222, 9.00385, 6.528],
			"to": [7.306, 9.74785, 9.456],
			"rotation": {"angle": 0, "axis": "y", "origin": [0.65, -4.41215, 15.592]},
			"faces": {
				"north": {"uv": [7.25, 2.25, 7.625, 2.59], "rotation": 90, "texture": "#1"},
				"east": {"uv": [7.25, 2.25, 7.625, 2.59], "rotation": 90, "texture": "#1"},
				"south": {"uv": [7.25, 2.25, 7.625, 2.59], "rotation": 90, "texture": "#1"},
				"west": {"uv": [7.25, 2.25, 7.625, 2.59], "rotation": 90, "texture": "#1"},
				"up": {"uv": [7.25, 2.25, 7.625, 2.59], "rotation": 90, "texture": "#1"},
				"down": {"uv": [7.25, 2.25, 7.625, 2.59], "rotation": 90, "texture": "#1"}
			}
		},
		{
			"from": [7.222, 6.15585, 6.528],
			"to": [7.306, 6.89985, 9.456],
			"rotation": {"angle": 0, "axis": "y", "origin": [0.65, -7.26015, 15.592]},
			"faces": {
				"north": {"uv": [7.25, 2.25, 7.625, 2.59], "rotation": 90, "texture": "#1"},
				"east": {"uv": [7.25, 2.25, 7.625, 2.59], "rotation": 90, "texture": "#1"},
				"south": {"uv": [7.25, 2.25, 7.625, 2.59], "rotation": 90, "texture": "#1"},
				"west": {"uv": [7.25, 2.25, 7.625, 2.59], "rotation": 90, "texture": "#1"},
				"up": {"uv": [7.25, 2.25, 7.625, 2.59], "rotation": 90, "texture": "#1"},
				"down": {"uv": [7.25, 2.25, 7.625, 2.59], "rotation": 90, "texture": "#1"}
			}
		},
		{
			"from": [8.08061, 6.12385, 10.27981],
			"to": [8.42061, 9.97185, 10.39181],
			"rotation": {"angle": -45, "axis": "y", "origin": [8.25061, 7.83985, 10.33581]},
			"faces": {
				"north": {"uv": [0.125, 2.625, 0.375, 2.965], "texture": "#1"},
				"east": {"uv": [0.125, 2.625, 0.375, 2.965], "texture": "#1"},
				"south": {"uv": [0.125, 2.625, 0.375, 2.965], "texture": "#1"},
				"west": {"uv": [0.125, 2.625, 0.375, 2.965], "texture": "#1"},
				"up": {"uv": [0.125, 2.625, 0.25, 2.715], "texture": "#1"},
				"down": {"uv": [0.125, 2.625, 0.25, 2.715], "texture": "#1"}
			}
		},
		{
			"from": [8.29842, 6.12385, 10.41642],
			"to": [8.41042, 9.97185, 10.75642],
			"rotation": {"angle": 0, "axis": "y", "origin": [8.35442, 7.83985, 10.58642]},
			"faces": {
				"north": {"uv": [0.125, 2.625, 0.375, 2.965], "rotation": 270, "texture": "#1"},
				"east": {"uv": [0.125, 2.625, 0.375, 2.965], "rotation": 270, "texture": "#1"},
				"south": {"uv": [0.125, 2.625, 0.375, 2.965], "rotation": 270, "texture": "#1"},
				"west": {"uv": [0.125, 2.625, 0.375, 2.965], "rotation": 270, "texture": "#1"},
				"up": {"uv": [0.125, 2.625, 0.25, 2.715], "rotation": 270, "texture": "#1"},
				"down": {"uv": [0.125, 2.625, 0.25, 2.715], "rotation": 270, "texture": "#1"}
			}
		},
		{
			"from": [8.08061, 6.12385, 10.78103],
			"to": [8.42061, 9.97185, 10.89303],
			"rotation": {"angle": 45, "axis": "y", "origin": [8.25061, 7.83985, 10.83703]},
			"faces": {
				"north": {"uv": [0.125, 2.625, 0.375, 2.965], "rotation": 180, "texture": "#1"},
				"east": {"uv": [0.125, 2.625, 0.375, 2.965], "rotation": 180, "texture": "#1"},
				"south": {"uv": [0.125, 2.625, 0.375, 2.965], "rotation": 180, "texture": "#1"},
				"west": {"uv": [0.125, 2.625, 0.375, 2.965], "rotation": 180, "texture": "#1"},
				"up": {"uv": [0.125, 2.625, 0.25, 2.715], "rotation": 180, "texture": "#1"},
				"down": {"uv": [0.125, 2.625, 0.25, 2.715], "rotation": 180, "texture": "#1"}
			}
		},
		{
			"from": [7.83, 6.12385, 10.27683],
			"to": [8.17, 9.97185, 10.99683],
			"rotation": {"angle": 0, "axis": "y", "origin": [7.78609, 7.83985, 10.67502]},
			"faces": {
				"north": {"uv": [0.125, 2.625, 0.375, 2.965], "rotation": 180, "texture": "#1"},
				"east": {"uv": [0.125, 2.625, 0.375, 2.965], "rotation": 180, "texture": "#1"},
				"south": {"uv": [0.125, 2.625, 0.375, 2.965], "rotation": 180, "texture": "#1"},
				"west": {"uv": [0.125, 2.625, 0.375, 2.965], "rotation": 180, "texture": "#1"},
				"up": {"uv": [0.125, 2.625, 0.25, 2.715], "rotation": 180, "texture": "#1"},
				"down": {"uv": [0.125, 2.625, 0.25, 2.715], "rotation": 180, "texture": "#1"}
			}
		}
	],
	"display": {
		"thirdperson_righthand": {
			"translation": [-0.5, -2, -2.5],
			"scale": [1.35, 1.35, 1.35]
		},
		"thirdperson_lefthand": {
			"translation": [-0.5, -2.25, -2.25],
			"scale": [1.35, 1.35, 1.35]
		},
		"firstperson_righthand": {
			"rotation": [26, 0, 0],
			"translation": [-0.75, 3.25, 1.5],
			"scale": [1.35, 1.35, 1.35]
		},
		"firstperson_lefthand": {
			"rotation": [26, 0, 0],
			"translation": [-0.75, 3.25, 1.5],
			"scale": [1.35, 1.35, 1.35]
		},
		"ground": {
			"rotation": [0, 0, 90],
			"translation": [0, -0.5, 0],
			"scale": [1.7, 1.7, 1.7]
		},
		"gui": {
			"rotation": [13, 31, -38],
			"translation": [0.25, 0.25, 0],
			"scale": [2.28, 2.28, 3.06]
		},
		"head": {
			"rotation": [31, 0, 45.5],
			"translation": [-2.75, 9.75, 0],
			"scale": [2.5, 2.5, 2.5]
		},
		"fixed": {
			"rotation": [0, 90, 0],
			"translation": [0, 0.25, -2],
			"scale": [3, 3, 3]
		}
	},
	"groups": [
		{
			"name": "group",
			"origin": [17.1, 11, 14.8],
			"children": [0, 1, 2, 3, 4, 5, 6, 7, 8, 9, 10, 11, 12, 13, 14, 15, 16, 17, 18, 19, 20, 21, 22, 23, 24, 25, 26]
		},
		{
			"name": "group",
			"origin": [7.78609, 8.06385, 10.38702],
			"children": [27, 28, 29, 30, 31, 32, 33, 34, 35, 36, 37, 38, 39, 40, 41, 42, 43, 44, 45, 46, 47, 48, 49, 50, 51, 52, 53, 54, 55, 56, 57, 58, 59, 60, 61, 62, 63, 64, 65, 66, 67, 68, 69, 70, 71, 72, 73, 74, 75, 76, 77, 78, 79, 80, 81, 82, 83, 84, 85, 86, 87, 88, 89, 90, 91, 92, 93, 94, 95, 96, 97, 98, 99, 100]
		}
	]
}
