{
  "parent": "item/generated",
  "textures": {
    "layer0": "gci:items/simple/vestalka_mace"
  },
  "display": {
    "thirdperson_righthand": {
      "rotation": [ -55, -90, 0 ],
      "translation": [ 0.00, 4.00, 0.50 ],
      "scale": [ 0.85, 0.85, 0.85 ]
    },
    "thirdperson_lefthand": {
      "rotation": [ -55, 90, 0 ],
      "translation": [ 0.00, 4.00, 0.50 ],
      "scale": [ 0.85, 0.85, 0.85 ]
    },
    "firstperson_lefthand": {
      "rotation": [ -25, 90, 0 ],
      "translation": [ 1.13, 3.20, 1.13 ],
      "scale": [ 0.68, 0.68, 0.68 ]
    }
  }
}