{
	"credit": "Made with Blockbench",
	"textures": {
		"1": "gci:items/common/vsmelee",
		"particle": "gci:items/common/vsmelee"
	},
	"elements": [
		{
			"from": [8.262, 1.162, 4.46],
			"to": [9.488, 2.274, 4.838],
			"rotation": {"angle": 0, "axis": "y", "origin": [8.875, 2.09547, -8.95333]},
			"faces": {
				"north": {"uv": [0.625, 2.89583, 0.69792, 2.92708], "rotation": 90, "texture": "#1"},
				"east": {"uv": [0.625, 2.89583, 0.88542, 3.36458], "texture": "#1"},
				"south": {"uv": [0.625, 2.89583, 0.69792, 2.92708], "rotation": 90, "texture": "#1"},
				"west": {"uv": [0.65625, 3.08333, 0.91667, 3.55208], "texture": "#1"},
				"up": {"uv": [0.625, 2.89583, 0.82292, 3.67708], "rotation": 90, "texture": "#1"},
				"down": {"uv": [0.65625, 3.02083, 0.85417, 3.80208], "texture": "#1"}
			}
		},
		{
			"from": [8.04839, 1.67769, 4.46],
			"to": [8.688, 2.21, 4.838],
			"rotation": {"angle": -45, "axis": "z", "origin": [8.875, 1.718, 4.409]},
			"faces": {
				"north": {"uv": [0.625, 2.89583, 0.69792, 2.92708], "rotation": 90, "texture": "#1"},
				"east": {"uv": [0.625, 2.89583, 0.88542, 3.36458], "texture": "#1"},
				"south": {"uv": [0.625, 2.89583, 0.69792, 2.92708], "rotation": 90, "texture": "#1"},
				"west": {"uv": [0.625, 2.89583, 0.69792, 2.92708], "rotation": 90, "texture": "#1"},
				"up": {"uv": [0.625, 2.89583, 0.82292, 3.67708], "rotation": 90, "texture": "#1"},
				"down": {"uv": [0.65625, 3.02083, 0.85417, 3.80208], "texture": "#1"}
			}
		},
		{
			"from": [8.53518, 2.2724, 4.46],
			"to": [9.06749, 2.912, 4.838],
			"rotation": {"angle": -45, "axis": "z", "origin": [8.5076, 2.0854, 4.409]},
			"faces": {
				"north": {"uv": [0.625, 2.89583, 0.69792, 2.92708], "rotation": 90, "texture": "#1"},
				"east": {"uv": [0.625, 2.89583, 0.82292, 3.67708], "rotation": 180, "texture": "#1"},
				"south": {"uv": [0.625, 2.89583, 0.69792, 2.92708], "rotation": 90, "texture": "#1"},
				"west": {"uv": [0.65625, 3.02083, 0.85417, 3.80208], "rotation": 90, "texture": "#1"},
				"up": {"uv": [0.625, 2.89583, 0.69792, 2.92708], "rotation": 90, "texture": "#1"},
				"down": {"uv": [0.625, 2.89583, 0.88542, 3.36458], "rotation": 90, "texture": "#1"}
			}
		},
		{
			"from": [8.68227, 0.76757, 4.46],
			"to": [9.21425, 1.4075, 4.838],
			"rotation": {"angle": 45, "axis": "z", "origin": [8.875, 1.29523, 4.409]},
			"faces": {
				"north": {"uv": [0.625, 2.89583, 0.69792, 2.92708], "rotation": 90, "texture": "#1"},
				"east": {"uv": [0.65625, 3.02083, 0.85417, 3.80208], "rotation": 270, "texture": "#1"},
				"south": {"uv": [0.625, 2.89583, 0.69792, 2.92708], "texture": "#1"},
				"west": {"uv": [0.625, 2.89583, 0.82292, 3.67708], "texture": "#1"},
				"up": {"uv": [0.625, 2.89583, 0.88542, 3.36458], "rotation": 270, "texture": "#1"},
				"down": {"uv": [0.625, 2.89583, 0.69792, 2.92708], "texture": "#1"}
			}
		},
		{
			"from": [8.63817, 0.78583, 4.46],
			"to": [9.1116, 2.6504, 4.838],
			"rotation": {"angle": 0, "axis": "y", "origin": [8.875, 1.29523, 4.409]},
			"faces": {
				"north": {"uv": [0.625, 2.89583, 0.69792, 2.92708], "rotation": 90, "texture": "#1"},
				"east": {"uv": [0.65625, 3.08333, 0.91667, 3.55208], "rotation": 180, "texture": "#1"},
				"south": {"uv": [0.625, 2.89583, 0.69792, 2.92708], "rotation": 270, "texture": "#1"},
				"west": {"uv": [0.625, 2.89583, 0.88542, 3.36458], "rotation": 180, "texture": "#1"},
				"up": {"uv": [0.65625, 3.02083, 0.85417, 3.80208], "rotation": 180, "texture": "#1"},
				"down": {"uv": [0.625, 2.89583, 0.69792, 2.92708], "rotation": 270, "texture": "#1"}
			}
		},
		{
			"from": [8.34734, 1.1025, 4.46],
			"to": [8.98727, 1.63448, 4.838],
			"rotation": {"angle": 45, "axis": "z", "origin": [8.875, 1.29523, 4.409]},
			"faces": {
				"north": {"uv": [0.625, 2.89583, 0.69792, 2.92708], "rotation": 90, "texture": "#1"},
				"east": {"uv": [0.625, 2.89583, 0.88542, 3.36458], "texture": "#1"},
				"south": {"uv": [0.625, 2.89583, 0.69792, 2.92708], "texture": "#1"},
				"west": {"uv": [0.625, 2.89583, 0.69792, 2.92708], "texture": "#1"},
				"up": {"uv": [0.625, 2.89583, 0.82292, 3.67708], "rotation": 90, "texture": "#1"},
				"down": {"uv": [0.65625, 3.02083, 0.85417, 3.80208], "texture": "#1"}
			}
		},
		{
			"from": [8.4885, 1.1905, 4.8005],
			"to": [9.2555, 2.2595, 5.9615],
			"rotation": {"angle": 0, "axis": "y", "origin": [8.875, 1.725, 4.963]},
			"faces": {
				"north": {"uv": [3.61458, 14.25, 5.61458, 15.91667], "texture": "#1"},
				"east": {"uv": [0.48958, 1.29167, 2.48958, 0.875], "rotation": 90, "texture": "#1"},
				"south": {"uv": [1.73958, 2.03125, 2.77083, 2.04167], "texture": "#1"},
				"west": {"uv": [0.45833, 0.875, 2.45833, 1.29167], "rotation": 90, "texture": "#1"},
				"up": {"uv": [2.45833, 1.29167, 0.45833, 0.875], "texture": "#1"},
				"down": {"uv": [2.45833, 0.875, 0.45833, 1.29167], "texture": "#1"}
			}
		},
		{
			"from": [8.4885, 1.1905, 17.3765],
			"to": [9.2555, 2.2595, 18.4735],
			"rotation": {"angle": 0, "axis": "y", "origin": [8.875, 1.725, 17.475]},
			"faces": {
				"north": {"uv": [3.61458, 14.25, 5.61458, 15.91667], "texture": "#1"},
				"east": {"uv": [0.45833, 1.22917, 2.45833, 0.875], "rotation": 90, "texture": "#1"},
				"south": {"uv": [1.73958, 2.03125, 2.77083, 2.04167], "texture": "#1"},
				"west": {"uv": [0.45833, 0.875, 2.45833, 1.22917], "rotation": 90, "texture": "#1"},
				"up": {"uv": [0.45833, 0.875, 2.45833, 1.22917], "rotation": 180, "texture": "#1"},
				"down": {"uv": [0.45833, 1.22917, 2.45833, 0.875], "rotation": 180, "texture": "#1"}
			}
		},
		{
			"from": [8.4885, 1.1905, 16.2885],
			"to": [9.2555, 2.2595, 17.3855],
			"rotation": {"angle": 0, "axis": "y", "origin": [8.875, 1.725, 16.387]},
			"faces": {
				"north": {"uv": [3.61458, 14.25, 5.61458, 15.91667], "texture": "#1"},
				"east": {"uv": [0.45833, 1.22917, 2.45833, 0.875], "rotation": 90, "texture": "#1"},
				"south": {"uv": [1.73958, 2.03125, 2.77083, 2.04167], "texture": "#1"},
				"west": {"uv": [0.45833, 0.875, 2.45833, 1.22917], "rotation": 90, "texture": "#1"},
				"up": {"uv": [0.45833, 0.875, 2.45833, 1.22917], "rotation": 180, "texture": "#1"},
				"down": {"uv": [0.45833, 1.22917, 2.45833, 0.875], "rotation": 180, "texture": "#1"}
			}
		},
		{
			"from": [8.4885, 1.1905, 15.2005],
			"to": [9.2555, 2.2595, 16.2975],
			"rotation": {"angle": 0, "axis": "y", "origin": [8.875, 1.725, 15.299]},
			"faces": {
				"north": {"uv": [3.61458, 14.25, 5.61458, 15.91667], "texture": "#1"},
				"east": {"uv": [0.45833, 1.22917, 2.45833, 0.875], "rotation": 90, "texture": "#1"},
				"south": {"uv": [1.73958, 2.03125, 2.77083, 2.04167], "texture": "#1"},
				"west": {"uv": [0.45833, 0.875, 2.45833, 1.22917], "rotation": 90, "texture": "#1"},
				"up": {"uv": [0.45833, 0.875, 2.45833, 1.22917], "rotation": 180, "texture": "#1"},
				"down": {"uv": [0.45833, 1.22917, 2.45833, 0.875], "rotation": 180, "texture": "#1"}
			}
		},
		{
			"from": [8.4885, 1.1905, 14.1125],
			"to": [9.2555, 2.2595, 15.2095],
			"rotation": {"angle": 0, "axis": "y", "origin": [8.875, 1.725, 14.211]},
			"faces": {
				"north": {"uv": [3.61458, 14.25, 5.61458, 15.91667], "texture": "#1"},
				"east": {"uv": [0.45833, 1.22917, 2.45833, 0.875], "rotation": 90, "texture": "#1"},
				"south": {"uv": [1.73958, 2.03125, 2.77083, 2.04167], "texture": "#1"},
				"west": {"uv": [0.45833, 0.875, 2.45833, 1.22917], "rotation": 90, "texture": "#1"},
				"up": {"uv": [0.45833, 0.875, 2.45833, 1.22917], "rotation": 180, "texture": "#1"},
				"down": {"uv": [0.45833, 1.22917, 2.45833, 0.875], "rotation": 180, "texture": "#1"}
			}
		},
		{
			"from": [8.4885, 1.1905, 13.0245],
			"to": [9.2555, 2.2595, 14.1215],
			"rotation": {"angle": 0, "axis": "y", "origin": [8.875, 1.725, 13.123]},
			"faces": {
				"north": {"uv": [3.61458, 14.25, 5.61458, 15.91667], "texture": "#1"},
				"east": {"uv": [0.45833, 1.22917, 2.45833, 0.875], "rotation": 90, "texture": "#1"},
				"south": {"uv": [1.73958, 2.03125, 2.77083, 2.04167], "texture": "#1"},
				"west": {"uv": [0.45833, 0.875, 2.45833, 1.22917], "rotation": 90, "texture": "#1"},
				"up": {"uv": [0.45833, 0.875, 2.45833, 1.22917], "rotation": 180, "texture": "#1"},
				"down": {"uv": [0.45833, 1.22917, 2.45833, 0.875], "rotation": 180, "texture": "#1"}
			}
		},
		{
			"from": [8.4885, 1.1905, 3.6485],
			"to": [9.2555, 2.2595, 4.8095],
			"rotation": {"angle": 0, "axis": "y", "origin": [8.875, 1.725, 3.811]},
			"faces": {
				"north": {"uv": [3.61458, 14.25, 5.61458, 15.91667], "texture": "#1"},
				"east": {"uv": [0.48958, 1.29167, 2.48958, 0.875], "rotation": 90, "texture": "#1"},
				"south": {"uv": [1.73958, 2.03125, 2.77083, 2.04167], "texture": "#1"},
				"west": {"uv": [0.45833, 0.875, 2.45833, 1.29167], "rotation": 90, "texture": "#1"},
				"up": {"uv": [2.45833, 1.29167, 0.45833, 0.875], "texture": "#1"},
				"down": {"uv": [2.45833, 0.875, 0.45833, 1.29167], "texture": "#1"}
			}
		},
		{
			"from": [8.5845, 1.32608, 17.89691],
			"to": [9.1595, 2.15108, 21.38191],
			"rotation": {"angle": 0, "axis": "y", "origin": [8.872, 1.73858, 19.19141]},
			"faces": {
				"north": {"uv": [3.61458, 14.25, 5.61458, 15.91667], "texture": "#1"},
				"east": {"uv": [4.89583, 0.03125, 5.61458, 1.07292], "rotation": 90, "texture": "#1"},
				"south": {"uv": [3.86458, 12.15625, 5.86458, 13.82292], "texture": "#1"},
				"west": {"uv": [4.89583, 0.03125, 5.61458, 1.07292], "rotation": 90, "texture": "#1"},
				"up": {"uv": [5.11458, 1.07292, 4.89583, 0], "texture": "#1"},
				"down": {"uv": [5.55208, 1.07292, 5.39583, 0], "texture": "#1"}
			}
		},
		{
			"from": [8.5845, 1.32608, 14.08891],
			"to": [9.1595, 2.15108, 17.57391],
			"rotation": {"angle": 0, "axis": "y", "origin": [8.872, 1.73858, 15.38341]},
			"faces": {
				"north": {"uv": [3.61458, 14.25, 5.61458, 15.91667], "texture": "#1"},
				"east": {"uv": [4.89583, 0.03125, 5.61458, 1.07292], "rotation": 90, "texture": "#1"},
				"south": {"uv": [3.86458, 12.15625, 5.86458, 13.82292], "texture": "#1"},
				"west": {"uv": [4.89583, 0.03125, 5.61458, 1.07292], "rotation": 90, "texture": "#1"},
				"up": {"uv": [5.11458, 1.07292, 4.89583, 0], "texture": "#1"},
				"down": {"uv": [5.55208, 1.07292, 5.39583, 0], "texture": "#1"}
			}
		},
		{
			"from": [8.5845, 1.32608, 10.60091],
			"to": [9.1595, 2.15108, 14.08591],
			"rotation": {"angle": 0, "axis": "y", "origin": [8.872, 1.73858, 11.89541]},
			"faces": {
				"north": {"uv": [3.61458, 14.25, 5.61458, 15.91667], "texture": "#1"},
				"east": {"uv": [4.89583, 0.03125, 5.61458, 1.07292], "rotation": 90, "texture": "#1"},
				"south": {"uv": [3.86458, 12.15625, 5.86458, 13.82292], "texture": "#1"},
				"west": {"uv": [4.89583, 0.03125, 5.61458, 1.07292], "rotation": 90, "texture": "#1"},
				"up": {"uv": [5.11458, 1.07292, 4.89583, 0], "texture": "#1"},
				"down": {"uv": [5.55208, 1.07292, 5.39583, 0], "texture": "#1"}
			}
		},
		{
			"from": [8.5845, 1.32608, 1.04691],
			"to": [9.1595, 2.15108, 4.53191],
			"rotation": {"angle": 0, "axis": "y", "origin": [8.872, 1.73858, 2.34141]},
			"faces": {
				"north": {"uv": [5.08333, 2.09375, 5.11458, 2.10417], "texture": "#1"},
				"east": {"uv": [4.89583, 0.03125, 5.61458, 1.07292], "rotation": 90, "texture": "#1"},
				"south": {"uv": [3.86458, 12.15625, 5.86458, 13.82292], "texture": "#1"},
				"west": {"uv": [4.89583, 0.03125, 5.61458, 1.07292], "rotation": 90, "texture": "#1"},
				"up": {"uv": [5.11458, 1.07292, 4.89583, 0], "texture": "#1"},
				"down": {"uv": [5.55208, 1.07292, 5.39583, 0], "texture": "#1"}
			}
		},
		{
			"from": [8.5845, 1.32608, 7.11291],
			"to": [9.1595, 2.15108, 10.59791],
			"rotation": {"angle": 0, "axis": "y", "origin": [8.872, 1.73858, 8.40741]},
			"faces": {
				"north": {"uv": [3.61458, 14.25, 5.61458, 15.91667], "texture": "#1"},
				"east": {"uv": [4.89583, 0.03125, 5.61458, 1.07292], "rotation": 90, "texture": "#1"},
				"south": {"uv": [3.86458, 12.15625, 5.86458, 13.82292], "texture": "#1"},
				"west": {"uv": [4.89583, 0.03125, 5.61458, 1.07292], "rotation": 90, "texture": "#1"},
				"up": {"uv": [5.11458, 1.07292, 4.89583, 0], "texture": "#1"},
				"down": {"uv": [5.55208, 1.07292, 5.39583, 0], "texture": "#1"}
			}
		},
		{
			"from": [8.5845, 1.32608, 3.65691],
			"to": [9.1595, 2.15108, 7.14191],
			"rotation": {"angle": 0, "axis": "y", "origin": [8.872, 1.73858, 4.95141]},
			"faces": {
				"north": {"uv": [3.61458, 14.25, 5.61458, 15.91667], "texture": "#1"},
				"east": {"uv": [4.89583, 0.03125, 5.61458, 1.07292], "rotation": 90, "texture": "#1"},
				"south": {"uv": [3.86458, 12.15625, 5.86458, 13.82292], "texture": "#1"},
				"west": {"uv": [4.89583, 0.03125, 5.61458, 1.07292], "rotation": 90, "texture": "#1"},
				"up": {"uv": [5.11458, 1.07292, 4.89583, 0], "texture": "#1"},
				"down": {"uv": [5.55208, 1.07292, 5.39583, 0], "texture": "#1"}
			}
		},
		{
			"from": [8.6165, 1.64086, 20.83159],
			"to": [9.1275, 2.13554, 21.29173],
			"rotation": {"angle": -22.5, "axis": "x", "origin": [8.8735, 2.53029, 20.4023]},
			"faces": {
				"north": {"uv": [0.45833, 0.875, 2.45833, 1.26042], "rotation": 90, "texture": "#1"},
				"east": {"uv": [0.45833, 0.875, 2.45833, 1.26042], "rotation": 90, "texture": "#1"},
				"south": {"uv": [2.45833, 1.26042, 0.45833, 0.875], "rotation": 180, "texture": "#1"},
				"west": {"uv": [0.45833, 0.875, 2.45833, 1.26042], "rotation": 90, "texture": "#1"},
				"up": {"uv": [2.45833, 0.875, 0.45833, 1.26042], "rotation": 180, "texture": "#1"},
				"down": {"uv": [2.45833, 1.26042, 0.45833, 0.875], "rotation": 180, "texture": "#1"}
			}
		},
		{
			"from": [8.6163, 1.94207, 21.47512],
			"to": [9.1273, 2.43674, 21.93525],
			"rotation": {"angle": 22.5, "axis": "x", "origin": [8.872, 2.18941, 21.70519]},
			"faces": {
				"north": {"uv": [0.45833, 0.875, 2.45833, 1.26042], "rotation": 90, "texture": "#1"},
				"east": {"uv": [0.45833, 0.875, 2.45833, 1.26042], "rotation": 90, "texture": "#1"},
				"south": {"uv": [2.45833, 1.26042, 0.45833, 0.875], "rotation": 180, "texture": "#1"},
				"west": {"uv": [0.45833, 0.875, 2.45833, 1.26042], "rotation": 90, "texture": "#1"},
				"up": {"uv": [2.45833, 0.875, 0.45833, 1.26042], "rotation": 180, "texture": "#1"},
				"down": {"uv": [2.45833, 1.26042, 0.45833, 0.875], "rotation": 180, "texture": "#1"}
			}
		},
		{
			"from": [8.67188, 1.98538, 20.82912],
			"to": [9.07813, 2.58063, 21.13487],
			"rotation": {"angle": 22.5, "axis": "x", "origin": [8.8735, 2.283, 20.05016]},
			"faces": {
				"north": {"uv": [0.67708, 2.9375, 0.875, 3.0625], "texture": "#1"},
				"east": {"uv": [0.67708, 2.9375, 0.875, 3.0625], "texture": "#1"},
				"south": {"uv": [0.67708, 3.40625, 0.90625, 3.59375], "texture": "#1"},
				"west": {"uv": [0.625, 2.89583, 0.69792, 2.98958], "texture": "#1"},
				"up": {"uv": [0.67708, 2.9375, 0.875, 3.0625], "texture": "#1"},
				"down": {"uv": [0.67708, 2.9375, 0.875, 3.0625], "texture": "#1"}
			}
		},
		{
			"from": [8.67188, 1.63689, 20.81142],
			"to": [9.07813, 1.94264, 21.40667],
			"rotation": {"angle": -22.5, "axis": "x", "origin": [8.8735, 2.283, 20.05016]},
			"faces": {
				"north": {"uv": [0.67708, 2.9375, 0.875, 3.0625], "rotation": 180, "texture": "#1"},
				"east": {"uv": [0.67708, 2.9375, 0.875, 3.0625], "rotation": 270, "texture": "#1"},
				"south": {"uv": [0.67708, 2.9375, 0.875, 3.0625], "texture": "#1"},
				"west": {"uv": [0.625, 2.89583, 0.69792, 2.98958], "rotation": 90, "texture": "#1"},
				"up": {"uv": [0.67708, 2.9375, 0.875, 3.0625], "rotation": 180, "texture": "#1"},
				"down": {"uv": [0.67708, 3.40625, 0.90625, 3.59375], "texture": "#1"}
			}
		},
		{
			"from": [8.67188, 0.92648, 21.52183],
			"to": [9.07813, 1.52173, 21.82758],
			"rotation": {"angle": -22.5, "axis": "x", "origin": [8.8735, 2.283, 20.05016]},
			"faces": {
				"north": {"uv": [0.67708, 3.40625, 0.90625, 3.59375], "rotation": 180, "texture": "#1"},
				"east": {"uv": [0.67708, 2.9375, 0.875, 3.0625], "rotation": 180, "texture": "#1"},
				"south": {"uv": [0.67708, 2.9375, 0.875, 3.0625], "rotation": 180, "texture": "#1"},
				"west": {"uv": [0.625, 2.89583, 0.69792, 2.98958], "rotation": 180, "texture": "#1"},
				"up": {"uv": [0.67708, 2.9375, 0.875, 3.0625], "texture": "#1"},
				"down": {"uv": [0.67708, 2.9375, 0.875, 3.0625], "texture": "#1"}
			}
		},
		{
			"from": [8.67188, 2.69578, 21.25003],
			"to": [9.07813, 3.00153, 21.84528],
			"rotation": {"angle": 22.5, "axis": "x", "origin": [8.8735, 2.283, 20.05016]},
			"faces": {
				"north": {"uv": [0.67708, 2.9375, 0.875, 3.0625], "rotation": 180, "texture": "#1"},
				"east": {"uv": [0.67708, 2.9375, 0.875, 3.0625], "rotation": 270, "texture": "#1"},
				"south": {"uv": [0.67708, 2.9375, 0.875, 3.0625], "texture": "#1"},
				"west": {"uv": [0.625, 2.89583, 0.69792, 2.98958], "rotation": 90, "texture": "#1"},
				"up": {"uv": [0.67708, 2.9375, 0.875, 3.0625], "rotation": 180, "texture": "#1"},
				"down": {"uv": [0.67708, 3.40625, 0.90625, 3.59375], "texture": "#1"}
			}
		},
		{
			"from": [8.67188, 0.92648, 20.39052],
			"to": [9.07813, 1.52173, 20.69627],
			"rotation": {"angle": -22.5, "axis": "x", "origin": [8.8735, 2.283, 20.05016]},
			"faces": {
				"north": {"uv": [0.67708, 2.9375, 0.875, 3.0625], "texture": "#1"},
				"east": {"uv": [0.67708, 2.9375, 0.875, 3.0625], "texture": "#1"},
				"south": {"uv": [0.67708, 3.40625, 0.90625, 3.59375], "texture": "#1"},
				"west": {"uv": [0.625, 2.89583, 0.69792, 2.98958], "texture": "#1"},
				"up": {"uv": [0.67708, 2.9375, 0.875, 3.0625], "texture": "#1"},
				"down": {"uv": [0.67708, 2.9375, 0.875, 3.0625], "texture": "#1"}
			}
		},
		{
			"from": [8.67188, 1.56447, 21.25003],
			"to": [9.07813, 1.87022, 21.84528],
			"rotation": {"angle": 22.5, "axis": "x", "origin": [8.8735, 2.283, 20.05016]},
			"faces": {
				"north": {"uv": [0.67708, 2.9375, 0.875, 3.0625], "rotation": 180, "texture": "#1"},
				"east": {"uv": [0.67708, 2.9375, 0.875, 3.0625], "rotation": 90, "texture": "#1"},
				"south": {"uv": [0.67708, 2.9375, 0.875, 3.0625], "texture": "#1"},
				"west": {"uv": [0.625, 2.89583, 0.69792, 2.98958], "rotation": 270, "texture": "#1"},
				"up": {"uv": [0.67708, 3.40625, 0.90625, 3.59375], "texture": "#1"},
				"down": {"uv": [0.67708, 2.9375, 0.875, 3.0625], "rotation": 180, "texture": "#1"}
			}
		},
		{
			"from": [8.67188, 0.50558, 20.81142],
			"to": [9.07813, 0.81133, 21.40667],
			"rotation": {"angle": -22.5, "axis": "x", "origin": [8.8735, 2.283, 20.05016]},
			"faces": {
				"north": {"uv": [0.67708, 2.9375, 0.875, 3.0625], "rotation": 180, "texture": "#1"},
				"east": {"uv": [0.67708, 2.9375, 0.875, 3.0625], "rotation": 90, "texture": "#1"},
				"south": {"uv": [0.67708, 2.9375, 0.875, 3.0625], "texture": "#1"},
				"west": {"uv": [0.625, 2.89583, 0.69792, 2.98958], "rotation": 270, "texture": "#1"},
				"up": {"uv": [0.67708, 3.40625, 0.90625, 3.59375], "texture": "#1"},
				"down": {"uv": [0.67708, 2.9375, 0.875, 3.0625], "rotation": 180, "texture": "#1"}
			}
		},
		{
			"from": [8.67188, 1.98537, 21.96044],
			"to": [9.07813, 2.58062, 22.26619],
			"rotation": {"angle": 22.5, "axis": "x", "origin": [8.8735, 2.283, 20.05016]},
			"faces": {
				"north": {"uv": [0.67708, 3.40625, 0.90625, 3.59375], "rotation": 180, "texture": "#1"},
				"east": {"uv": [0.67708, 2.9375, 0.875, 3.0625], "rotation": 180, "texture": "#1"},
				"south": {"uv": [0.67708, 2.9375, 0.875, 3.0625], "rotation": 180, "texture": "#1"},
				"west": {"uv": [0.625, 2.89583, 0.69792, 2.98958], "rotation": 180, "texture": "#1"},
				"up": {"uv": [0.67708, 2.9375, 0.875, 3.0625], "texture": "#1"},
				"down": {"uv": [0.67708, 2.9375, 0.875, 3.0625], "texture": "#1"}
			}
		},
		{
			"from": [8.486, 1.078, 1.164],
			"to": [9.264, 2.358, 4.294],
			"rotation": {"angle": 0, "axis": "y", "origin": [8.875, 1.718, 3.497]},
			"faces": {
				"north": {"uv": [0.625, 2.89583, 0.69792, 2.92708], "rotation": 90, "texture": "#1"},
				"east": {"uv": [0.625, 2.89583, 0.88542, 3.36458], "texture": "#1"},
				"south": {"uv": [0.625, 2.89583, 0.69792, 2.92708], "rotation": 90, "texture": "#1"},
				"west": {"uv": [0.65625, 3.08333, 0.91667, 3.55208], "texture": "#1"},
				"up": {"uv": [0.625, 2.89583, 0.82292, 3.67708], "rotation": 90, "texture": "#1"},
				"down": {"uv": [0.65625, 3.02083, 0.85417, 3.80208], "texture": "#1"}
			}
		},
		{
			"from": [8.742, 0.118, 1.164],
			"to": [9.008, 3.318, 3.046],
			"rotation": {"angle": 0, "axis": "y", "origin": [8.875, 1.718, 3.497]},
			"faces": {
				"north": {"uv": [0.625, 2.89583, 0.69792, 2.92708], "rotation": 90, "texture": "#1"},
				"east": {"uv": [0.625, 2.89583, 0.88542, 3.36458], "texture": "#1"},
				"south": {"uv": [0.625, 2.89583, 0.69792, 2.92708], "rotation": 90, "texture": "#1"},
				"west": {"uv": [0.65625, 3.08333, 0.91667, 3.55208], "texture": "#1"},
				"up": {"uv": [0.625, 2.89583, 0.82292, 3.67708], "rotation": 90, "texture": "#1"},
				"down": {"uv": [0.65625, 3.02083, 0.85417, 3.80208], "texture": "#1"}
			}
		},
		{
			"from": [8.776, 3.318, 1.164],
			"to": [8.974, 4.95, 3.046],
			"rotation": {"angle": 0, "axis": "z", "origin": [8.875, 4.60442, 2.83893]},
			"faces": {
				"north": {"uv": [1.34375, 3.52083, 1.32292, 3.45833], "texture": "#1"},
				"east": {"uv": [1.34375, 3.52083, 1.32292, 3.45833], "texture": "#1"},
				"south": {"uv": [1.34375, 3.52083, 1.32292, 3.45833], "texture": "#1"},
				"west": {"uv": [1.34375, 3.52083, 1.32292, 3.45833], "texture": "#1"},
				"up": {"uv": [1.34375, 3.52083, 1.32292, 3.45833], "texture": "#1"},
				"down": {"uv": [1.34375, 3.52083, 1.32292, 3.45833], "texture": "#1"}
			}
		},
		{
			"from": [8.776, 4.47502, 2.84565],
			"to": [8.974, 4.89102, 4.97365],
			"rotation": {"angle": 22.5, "axis": "x", "origin": [8.875, 4.60442, 2.83893]},
			"faces": {
				"north": {"uv": [1.3125, 3.45833, 1.32292, 3.45833], "texture": "#1"},
				"east": {"uv": [1.3125, 3.45833, 1.32292, 3.45833], "texture": "#1"},
				"south": {"uv": [1.3125, 3.45833, 1.32292, 3.45833], "texture": "#1"},
				"west": {"uv": [1.3125, 3.45833, 1.32292, 3.45833], "texture": "#1"},
				"up": {"uv": [1.3125, 3.45833, 1.32292, 3.45833], "texture": "#1"},
				"down": {"uv": [1.3125, 3.45833, 1.32292, 3.45833], "texture": "#1"}
			}
		},
		{
			"from": [8.776, 3.98487, 3.00308],
			"to": [8.974, 4.27287, 4.17108],
			"rotation": {"angle": 0, "axis": "x", "origin": [8.875, 4.60442, 2.83893]},
			"faces": {
				"north": {"uv": [1.3125, 3.45833, 1.32292, 3.45833], "texture": "#1"},
				"east": {"uv": [1.3125, 3.45833, 1.32292, 3.45833], "texture": "#1"},
				"south": {"uv": [1.3125, 3.45833, 1.32292, 3.45833], "texture": "#1"},
				"west": {"uv": [1.3125, 3.45833, 1.32292, 3.45833], "texture": "#1"},
				"up": {"uv": [1.3125, 3.45833, 1.32292, 3.45833], "texture": "#1"},
				"down": {"uv": [1.3125, 3.45833, 1.32292, 3.45833], "texture": "#1"}
			}
		},
		{
			"from": [8.776, 3.83274, 2.43163],
			"to": [8.974, 4.34474, 3.59963],
			"rotation": {"angle": -22.5, "axis": "x", "origin": [8.875, 4.60442, 2.83893]},
			"faces": {
				"north": {"uv": [1.3125, 3.45833, 1.32292, 3.45833], "texture": "#1"},
				"east": {"uv": [1.3125, 3.45833, 1.32292, 3.45833], "texture": "#1"},
				"south": {"uv": [1.3125, 3.45833, 1.32292, 3.45833], "texture": "#1"},
				"west": {"uv": [1.3125, 3.45833, 1.32292, 3.45833], "texture": "#1"},
				"up": {"uv": [1.3125, 3.45833, 1.32292, 3.45833], "texture": "#1"},
				"down": {"uv": [1.3125, 3.45833, 1.32292, 3.45833], "texture": "#1"}
			}
		},
		{
			"from": [8.774, 4.82398, 1.54319],
			"to": [8.976, 5.33598, 3.04119],
			"rotation": {"angle": 0, "axis": "z", "origin": [8.875, 4.60442, 2.83893]},
			"faces": {
				"north": {"uv": [0, 3.08333, 0.26042, 3.55208], "texture": "#1"},
				"east": {"uv": [0, 3.08333, 0.26042, 3.55208], "texture": "#1"},
				"south": {"uv": [0, 3.08333, 0.26042, 3.55208], "texture": "#1"},
				"west": {"uv": [0, 3.08333, 0.26042, 3.55208], "texture": "#1"},
				"up": {"uv": [0, 3.08333, 0.26042, 3.55208], "texture": "#1"},
				"down": {"uv": [0, 3.08333, 0.26042, 3.55208], "texture": "#1"}
			}
		},
		{
			"from": [8.774, 5.32815, 1.54978],
			"to": [8.976, 5.77615, 1.92178],
			"rotation": {"angle": -22.5, "axis": "x", "origin": [8.875, 4.60442, 2.83893]},
			"faces": {
				"north": {"uv": [0, 3.08333, 0.26042, 3.55208], "texture": "#1"},
				"east": {"uv": [0, 3.08333, 0.26042, 3.55208], "texture": "#1"},
				"south": {"uv": [0, 3.08333, 0.26042, 3.55208], "texture": "#1"},
				"west": {"uv": [0, 3.08333, 0.26042, 3.55208], "texture": "#1"},
				"up": {"uv": [0, 3.08333, 0.26042, 3.55208], "texture": "#1"},
				"down": {"uv": [0, 3.08333, 0.26042, 3.55208], "texture": "#1"}
			}
		},
		{
			"from": [8.774, 5.34757, 1.41927],
			"to": [8.976, 5.53957, 1.79127],
			"rotation": {"angle": -22.5, "axis": "x", "origin": [8.875, 4.60442, 2.83893]},
			"faces": {
				"north": {"uv": [0, 3.08333, 0.26042, 3.55208], "texture": "#1"},
				"east": {"uv": [0, 3.08333, 0.26042, 3.55208], "texture": "#1"},
				"south": {"uv": [0, 3.08333, 0.26042, 3.55208], "texture": "#1"},
				"west": {"uv": [0, 3.08333, 0.26042, 3.55208], "texture": "#1"},
				"up": {"uv": [0, 3.08333, 0.26042, 3.55208], "texture": "#1"},
				"down": {"uv": [0, 3.08333, 0.26042, 3.55208], "texture": "#1"}
			}
		},
		{
			"from": [8.774, 5.32815, 1.33778],
			"to": [8.976, 5.36015, 1.54978],
			"rotation": {"angle": -22.5, "axis": "x", "origin": [8.875, 4.60442, 2.83893]},
			"faces": {
				"north": {"uv": [0, 3.08333, 0.26042, 3.55208], "texture": "#1"},
				"east": {"uv": [0, 3.08333, 0.26042, 3.55208], "texture": "#1"},
				"south": {"uv": [0, 3.08333, 0.26042, 3.55208], "texture": "#1"},
				"west": {"uv": [0, 3.08333, 0.26042, 3.55208], "texture": "#1"},
				"up": {"uv": [0, 3.08333, 0.26042, 3.55208], "texture": "#1"},
				"down": {"uv": [0, 3.08333, 0.26042, 3.55208], "texture": "#1"}
			}
		},
		{
			"from": [8.774, 4.87362, 1.16751],
			"to": [8.976, 5.19362, 1.57151],
			"rotation": {"angle": 0, "axis": "x", "origin": [8.875, 4.60442, 2.83893]},
			"faces": {
				"north": {"uv": [0, 3.08333, 0.26042, 3.55208], "texture": "#1"},
				"east": {"uv": [0, 3.08333, 0.26042, 3.55208], "texture": "#1"},
				"south": {"uv": [0, 3.08333, 0.26042, 3.55208], "texture": "#1"},
				"west": {"uv": [0, 3.08333, 0.26042, 3.55208], "texture": "#1"},
				"up": {"uv": [0, 3.08333, 0.26042, 3.55208], "texture": "#1"},
				"down": {"uv": [0, 3.08333, 0.26042, 3.55208], "texture": "#1"}
			}
		},
		{
			"from": [8.774, 4.72816, 1.16284],
			"to": [8.976, 5.04816, 1.24684],
			"rotation": {"angle": 0, "axis": "x", "origin": [8.875, 4.60442, 2.83893]},
			"faces": {
				"north": {"uv": [0, 3.08333, 0.26042, 3.55208], "texture": "#1"},
				"east": {"uv": [0, 3.08333, 0.26042, 3.55208], "texture": "#1"},
				"south": {"uv": [0, 3.08333, 0.26042, 3.55208], "texture": "#1"},
				"west": {"uv": [0, 3.08333, 0.26042, 3.55208], "texture": "#1"},
				"up": {"uv": [0, 3.08333, 0.26042, 3.55208], "texture": "#1"},
				"down": {"uv": [0, 3.08333, 0.26042, 3.55208], "texture": "#1"}
			}
		},
		{
			"from": [8.774, 2.56878, 3.52423],
			"to": [8.976, 3.83678, 3.97223],
			"rotation": {"angle": -45, "axis": "x", "origin": [8.875, 4.60442, 2.83893]},
			"faces": {
				"north": {"uv": [0, 3.08333, 0.26042, 3.55208], "rotation": 180, "texture": "#1"},
				"east": {"uv": [0, 3.08333, 0.26042, 3.55208], "rotation": 270, "texture": "#1"},
				"south": {"uv": [0, 3.08333, 0.26042, 3.55208], "texture": "#1"},
				"west": {"uv": [0, 3.08333, 0.26042, 3.55208], "rotation": 90, "texture": "#1"},
				"up": {"uv": [0, 3.08333, 0.26042, 3.55208], "rotation": 180, "texture": "#1"},
				"down": {"uv": [0, 3.08333, 0.26042, 3.55208], "texture": "#1"}
			}
		},
		{
			"from": [8.774, 4.87769, 2.74584],
			"to": [8.976, 5.35769, 3.98184],
			"rotation": {"angle": 22.5, "axis": "x", "origin": [8.875, 4.60442, 2.83893]},
			"faces": {
				"north": {"uv": [0, 3.08333, 0.26042, 3.55208], "texture": "#1"},
				"east": {"uv": [0, 3.08333, 0.26042, 3.55208], "texture": "#1"},
				"south": {"uv": [0, 3.08333, 0.26042, 3.55208], "texture": "#1"},
				"west": {"uv": [0, 3.08333, 0.26042, 3.55208], "texture": "#1"},
				"up": {"uv": [0, 3.08333, 0.26042, 3.55208], "rotation": 180, "texture": "#1"},
				"down": {"uv": [0, 3.08333, 0.26042, 3.55208], "rotation": 180, "texture": "#1"}
			}
		},
		{
			"from": [8.776, -1.27915, 1.15986],
			"to": [8.974, 0.28885, 3.04186],
			"rotation": {"angle": 0, "axis": "x", "origin": [8.875, -0.99758, 1.36693]},
			"faces": {
				"north": {"uv": [1.34375, 3.52083, 1.32292, 3.45833], "rotation": 180, "texture": "#1"},
				"east": {"uv": [1.34375, 3.52083, 1.32292, 3.45833], "rotation": 180, "texture": "#1"},
				"south": {"uv": [1.34375, 3.52083, 1.32292, 3.45833], "rotation": 180, "texture": "#1"},
				"west": {"uv": [1.34375, 3.52083, 1.32292, 3.45833], "rotation": 180, "texture": "#1"},
				"up": {"uv": [1.34375, 3.52083, 1.32292, 3.45833], "texture": "#1"},
				"down": {"uv": [1.34375, 3.52083, 1.32292, 3.45833], "texture": "#1"}
			}
		},
		{
			"from": [8.776, -0.53007, 2.73773],
			"to": [8.974, -0.01807, 4.41773],
			"rotation": {"angle": -22.5, "axis": "x", "origin": [8.877, -0.14747, 4.42446]},
			"faces": {
				"north": {"uv": [1.3125, 3.45833, 1.32292, 3.45833], "rotation": 180, "texture": "#1"},
				"east": {"uv": [1.3125, 3.45833, 1.32292, 3.45833], "rotation": 180, "texture": "#1"},
				"south": {"uv": [1.3125, 3.45833, 1.32292, 3.45833], "rotation": 180, "texture": "#1"},
				"west": {"uv": [1.3125, 3.45833, 1.32292, 3.45833], "rotation": 180, "texture": "#1"},
				"up": {"uv": [1.3125, 3.45833, 1.32292, 3.45833], "texture": "#1"},
				"down": {"uv": [1.3125, 3.45833, 1.32292, 3.45833], "texture": "#1"}
			}
		},
		{
			"from": [8.776, -0.78046, 2.62663],
			"to": [8.974, -0.26846, 4.30663],
			"rotation": {"angle": 0, "axis": "x", "origin": [8.875, -0.52446, 3.46663]},
			"faces": {
				"north": {"uv": [1.3125, 3.45833, 1.32292, 3.45833], "rotation": 180, "texture": "#1"},
				"east": {"uv": [1.3125, 3.45833, 1.32292, 3.45833], "rotation": 180, "texture": "#1"},
				"south": {"uv": [1.3125, 3.45833, 1.32292, 3.45833], "rotation": 180, "texture": "#1"},
				"west": {"uv": [1.3125, 3.45833, 1.32292, 3.45833], "rotation": 180, "texture": "#1"},
				"up": {"uv": [1.3125, 3.45833, 1.32292, 3.45833], "texture": "#1"},
				"down": {"uv": [1.3125, 3.45833, 1.32292, 3.45833], "texture": "#1"}
			}
		},
		{
			"from": [8.776, -0.78046, 2.40263],
			"to": [8.974, -0.26846, 4.08263],
			"rotation": {"angle": 22.5, "axis": "x", "origin": [8.875, -0.52446, 3.24263]},
			"faces": {
				"north": {"uv": [1.3125, 3.45833, 1.32292, 3.45833], "rotation": 180, "texture": "#1"},
				"east": {"uv": [1.3125, 3.45833, 1.32292, 3.45833], "rotation": 180, "texture": "#1"},
				"south": {"uv": [1.3125, 3.45833, 1.32292, 3.45833], "rotation": 180, "texture": "#1"},
				"west": {"uv": [1.3125, 3.45833, 1.32292, 3.45833], "rotation": 180, "texture": "#1"},
				"up": {"uv": [1.3125, 3.45833, 1.32292, 3.45833], "texture": "#1"},
				"down": {"uv": [1.3125, 3.45833, 1.32292, 3.45833], "texture": "#1"}
			}
		},
		{
			"from": [8.774, -1.72913, 1.58067],
			"to": [8.976, -1.24913, 2.66267],
			"rotation": {"angle": 0, "axis": "x", "origin": [8.875, -0.99758, 1.36693]},
			"faces": {
				"north": {"uv": [0, 3.08333, 0.26042, 3.55208], "rotation": 180, "texture": "#1"},
				"east": {"uv": [0, 3.08333, 0.26042, 3.55208], "rotation": 180, "texture": "#1"},
				"south": {"uv": [0, 3.08333, 0.26042, 3.55208], "rotation": 180, "texture": "#1"},
				"west": {"uv": [0, 3.08333, 0.26042, 3.55208], "rotation": 180, "texture": "#1"},
				"up": {"uv": [0, 3.08333, 0.26042, 3.55208], "texture": "#1"},
				"down": {"uv": [0, 3.08333, 0.26042, 3.55208], "texture": "#1"}
			}
		},
		{
			"from": [8.454, 1.59887, 1.38867],
			"to": [9.296, 1.91887, 1.70867],
			"rotation": {"angle": -45, "axis": "x", "origin": [8.875, 1.75887, 1.54867]},
			"faces": {
				"north": {"uv": [0, 3.08333, 0.26042, 3.55208], "rotation": 180, "texture": "#1"},
				"east": {"uv": [0, 3.08333, 0.26042, 3.55208], "rotation": 180, "texture": "#1"},
				"south": {"uv": [0, 3.08333, 0.26042, 3.55208], "rotation": 180, "texture": "#1"},
				"west": {"uv": [0, 3.08333, 0.26042, 3.55208], "rotation": 180, "texture": "#1"},
				"up": {"uv": [0, 3.08333, 0.26042, 3.55208], "texture": "#1"},
				"down": {"uv": [0, 3.08333, 0.26042, 3.55208], "texture": "#1"}
			}
		},
		{
			"from": [8.454, 1.59887, 2.44467],
			"to": [9.296, 1.91887, 2.76467],
			"rotation": {"angle": -45, "axis": "x", "origin": [8.875, 1.75887, 2.60467]},
			"faces": {
				"north": {"uv": [0, 3.08333, 0.26042, 3.55208], "rotation": 180, "texture": "#1"},
				"east": {"uv": [0, 3.08333, 0.26042, 3.55208], "rotation": 180, "texture": "#1"},
				"south": {"uv": [0, 3.08333, 0.26042, 3.55208], "rotation": 180, "texture": "#1"},
				"west": {"uv": [0, 3.08333, 0.26042, 3.55208], "rotation": 180, "texture": "#1"},
				"up": {"uv": [0, 3.08333, 0.26042, 3.55208], "texture": "#1"},
				"down": {"uv": [0, 3.08333, 0.26042, 3.55208], "texture": "#1"}
			}
		},
		{
			"from": [8.774, -1.73771, 1.6516],
			"to": [8.976, -1.14171, 1.6896],
			"rotation": {"angle": -45, "axis": "x", "origin": [8.875, -1.60104, 1.11748]},
			"faces": {
				"north": {"uv": [0, 3.08333, 0.26042, 3.55208], "rotation": 180, "texture": "#1"},
				"east": {"uv": [0, 3.08333, 0.26042, 3.55208], "rotation": 270, "texture": "#1"},
				"south": {"uv": [0, 3.08333, 0.26042, 3.55208], "texture": "#1"},
				"west": {"uv": [0, 3.08333, 0.26042, 3.55208], "rotation": 90, "texture": "#1"},
				"up": {"uv": [0, 3.08333, 0.26042, 3.55208], "rotation": 180, "texture": "#1"},
				"down": {"uv": [0, 3.08333, 0.26042, 3.55208], "texture": "#1"}
			}
		},
		{
			"from": [8.774, -2.12421, 1.6311],
			"to": [8.976, -1.52821, 1.9571],
			"rotation": {"angle": -45, "axis": "x", "origin": [8.875, -1.98755, 1.12898]},
			"faces": {
				"north": {"uv": [0, 3.08333, 0.26042, 3.55208], "rotation": 180, "texture": "#1"},
				"east": {"uv": [0, 3.08333, 0.26042, 3.55208], "rotation": 270, "texture": "#1"},
				"south": {"uv": [0, 3.08333, 0.26042, 3.55208], "texture": "#1"},
				"west": {"uv": [0, 3.08333, 0.26042, 3.55208], "rotation": 90, "texture": "#1"},
				"up": {"uv": [0, 3.08333, 0.26042, 3.55208], "rotation": 180, "texture": "#1"},
				"down": {"uv": [0, 3.08333, 0.26042, 3.55208], "texture": "#1"}
			}
		},
		{
			"from": [8.774, -1.30769, 1.15923],
			"to": [8.976, -0.87169, 1.19723],
			"rotation": {"angle": 0, "axis": "x", "origin": [8.875, -1.16969, 1.32223]},
			"faces": {
				"north": {"uv": [0, 3.08333, 0.26042, 3.55208], "rotation": 180, "texture": "#1"},
				"east": {"uv": [0, 3.08333, 0.26042, 3.55208], "rotation": 270, "texture": "#1"},
				"south": {"uv": [0, 3.08333, 0.26042, 3.55208], "texture": "#1"},
				"west": {"uv": [0, 3.08333, 0.26042, 3.55208], "rotation": 90, "texture": "#1"},
				"up": {"uv": [0, 3.08333, 0.26042, 3.55208], "rotation": 180, "texture": "#1"},
				"down": {"uv": [0, 3.08333, 0.26042, 3.55208], "texture": "#1"}
			}
		},
		{
			"from": [8.774, -1.11569, 1.25523],
			"to": [8.976, -0.77569, 1.32523],
			"rotation": {"angle": -45, "axis": "x", "origin": [8.875, -0.97769, 1.41823]},
			"faces": {
				"north": {"uv": [0, 3.08333, 0.26042, 3.55208], "rotation": 180, "texture": "#1"},
				"east": {"uv": [0, 3.08333, 0.26042, 3.55208], "rotation": 270, "texture": "#1"},
				"south": {"uv": [0, 3.08333, 0.26042, 3.55208], "texture": "#1"},
				"west": {"uv": [0, 3.08333, 0.26042, 3.55208], "rotation": 90, "texture": "#1"},
				"up": {"uv": [0, 3.08333, 0.26042, 3.55208], "rotation": 180, "texture": "#1"},
				"down": {"uv": [0, 3.08333, 0.26042, 3.55208], "texture": "#1"}
			}
		},
		{
			"from": [8.774, -1.31157, 1.1741],
			"to": [8.976, -0.97157, 1.2761],
			"rotation": {"angle": 0, "axis": "x", "origin": [8.875, -1.14157, 1.2411]},
			"faces": {
				"north": {"uv": [0, 3.08333, 0.26042, 3.55208], "rotation": 180, "texture": "#1"},
				"east": {"uv": [0, 3.08333, 0.26042, 3.55208], "rotation": 90, "texture": "#1"},
				"south": {"uv": [0, 3.08333, 0.26042, 3.55208], "texture": "#1"},
				"west": {"uv": [0, 3.08333, 0.26042, 3.55208], "rotation": 270, "texture": "#1"},
				"up": {"uv": [0, 3.08333, 0.26042, 3.55208], "texture": "#1"},
				"down": {"uv": [0, 3.08333, 0.26042, 3.55208], "rotation": 180, "texture": "#1"}
			}
		},
		{
			"from": [8.774, -1.31157, 1.2381],
			"to": [8.976, -1.03557, 1.3401],
			"rotation": {"angle": 0, "axis": "x", "origin": [8.875, -1.14157, 1.3051]},
			"faces": {
				"north": {"uv": [0, 3.08333, 0.26042, 3.55208], "rotation": 180, "texture": "#1"},
				"east": {"uv": [0, 3.08333, 0.26042, 3.55208], "rotation": 90, "texture": "#1"},
				"south": {"uv": [0, 3.08333, 0.26042, 3.55208], "texture": "#1"},
				"west": {"uv": [0, 3.08333, 0.26042, 3.55208], "rotation": 270, "texture": "#1"},
				"up": {"uv": [0, 3.08333, 0.26042, 3.55208], "texture": "#1"},
				"down": {"uv": [0, 3.08333, 0.26042, 3.55208], "rotation": 180, "texture": "#1"}
			}
		},
		{
			"from": [8.774, -1.03639, 2.07402],
			"to": [8.976, -0.58839, 3.34202],
			"rotation": {"angle": -22.5, "axis": "x", "origin": [8.875, 0.09692, 4.10967]},
			"faces": {
				"north": {"uv": [0, 3.08333, 0.26042, 3.55208], "rotation": 180, "texture": "#1"},
				"east": {"uv": [0, 3.08333, 0.26042, 3.55208], "rotation": 180, "texture": "#1"},
				"south": {"uv": [0, 3.08333, 0.26042, 3.55208], "rotation": 180, "texture": "#1"},
				"west": {"uv": [0, 3.08333, 0.26042, 3.55208], "rotation": 180, "texture": "#1"},
				"up": {"uv": [0, 3.08333, 0.26042, 3.55208], "texture": "#1"},
				"down": {"uv": [0, 3.08333, 0.26042, 3.55208], "texture": "#1"}
			}
		},
		{
			"from": [8.774, -0.65635, 2.96676],
			"to": [8.976, -0.17635, 4.20276],
			"rotation": {"angle": -45, "axis": "x", "origin": [8.875, 0.09692, 4.10967]},
			"faces": {
				"north": {"uv": [0, 3.08333, 0.26042, 3.55208], "rotation": 180, "texture": "#1"},
				"east": {"uv": [0, 3.08333, 0.26042, 3.55208], "rotation": 180, "texture": "#1"},
				"south": {"uv": [0, 3.08333, 0.26042, 3.55208], "rotation": 180, "texture": "#1"},
				"west": {"uv": [0, 3.08333, 0.26042, 3.55208], "rotation": 180, "texture": "#1"},
				"up": {"uv": [0, 3.08333, 0.26042, 3.55208], "rotation": 180, "texture": "#1"},
				"down": {"uv": [0, 3.08333, 0.26042, 3.55208], "rotation": 180, "texture": "#1"}
			}
		}
	],
	"display": {
		"thirdperson_righthand": {
			"rotation": [90, 0, 0],
			"translation": [0, 6, 7.25]
		},
		"thirdperson_lefthand": {
			"rotation": [90, 0, 0],
			"translation": [1.5, 6, 7.25]
		},
		"firstperson_righthand": {
			"rotation": [100, 0, 0],
			"translation": [-1.5, 5, 7.5]
		},
		"firstperson_lefthand": {
			"rotation": [100, 0, 0],
			"translation": [-1.5, 5, 7.5]
		},
		"ground": {
			"translation": [0, 4.75, 0],
			"scale": [1, 1.01, 1]
		},
		"gui": {
			"rotation": [90, 46, 90],
			"translation": [-7.25, -1.75, 0]
		},
		"fixed": {
			"rotation": [90, 135, 90],
			"translation": [3.25, -5.5, -2.25]
		}
	},
	"groups": [
		{
			"name": "handle",
			"origin": [8.875, 2.09547, 2.71467],
			"color": 0,
			"children": [
				{
					"name": "guard",
					"origin": [8.875, 0.3429, 21.75063],
					"color": 0,
					"children": [
						0,
						{
							"name": "group",
							"origin": [8.5076, 2.0854, 16.077],
							"color": 0,
							"children": [1, 2]
						},
						{
							"name": "group",
							"origin": [8.5076, 2.0854, 16.077],
							"color": 0,
							"children": [3, 4, 5]
						}
					]
				},
				{
					"name": "handle",
					"origin": [8.875, 1.725, 16.375],
					"color": 0,
					"children": [6, 7, 8, 9, 10, 11, 12, 13, 14, 15, 16, 17, 18, 19, 20]
				},
				{
					"name": "pommel",
					"origin": [8.875, 1.725, 16.375],
					"color": 0,
					"children": [21, 22, 23, 24, 25, 26, 27, 28]
				}
			]
		},
		{
			"name": "head",
			"origin": [8, 8, 8],
			"color": 0,
			"children": [
				29,
				30,
				{
					"name": "group",
					"origin": [8.875, 4.60442, 2.83893],
					"color": 0,
					"children": [31, 32, 33, 34, 35, 36, 37, 38, 39, 40, 41, 42]
				},
				{
					"name": "group",
					"origin": [8.875, 4.60442, 2.83893],
					"color": 0,
					"children": [43, 44, 45, 46, 47, 48, 49, 50, 51, 52, 53, 54, 55, 56, 57]
				}
			]
		}
	]
}