{
	"credit": "Made with Blockbench",
	"textures": {
		"1": "gci:items/common/vsmelee",
		"particle": "gci:items/common/vsmelee"
	},
	"elements": [
		{
			"from": [8.358, 1.162, 15.744],
			"to": [9.392, 2.274, 17.178],
			"rotation": {"angle": 0, "axis": "y", "origin": [8.875, 2.09547, 2.71467]},
			"faces": {
				"north": {"uv": [0.625, 2.89583, 0.69792, 2.92708], "rotation": 90, "texture": "#1"},
				"east": {"uv": [0.625, 2.89583, 0.88542, 3.36458], "texture": "#1"},
				"south": {"uv": [0.625, 2.89583, 0.69792, 2.92708], "rotation": 90, "texture": "#1"},
				"west": {"uv": [0.65625, 3.08333, 0.91667, 3.55208], "texture": "#1"},
				"up": {"uv": [0.625, 2.89583, 0.82292, 3.67708], "rotation": 90, "texture": "#1"},
				"down": {"uv": [0.65625, 3.02083, 0.85417, 3.80208], "texture": "#1"}
			}
		},
		{
			"from": [8.454, 1.002, 15.136],
			"to": [9.296, 2.498, 15.738],
			"rotation": {"angle": 0, "axis": "y", "origin": [8.875, 2.09547, 2.04267]},
			"faces": {
				"north": {"uv": [0.625, 2.89583, 0.69792, 2.92708], "rotation": 90, "texture": "#1"},
				"east": {"uv": [0.65625, 4.17708, 0.63542, 4.27083], "texture": "#1"},
				"south": {"uv": [0.625, 2.89583, 0.69792, 2.92708], "rotation": 90, "texture": "#1"},
				"west": {"uv": [0.65625, 4.17708, 0.63542, 4.27083], "texture": "#1"},
				"up": {"uv": [0.625, 2.89583, 0.82292, 3.67708], "rotation": 90, "texture": "#1"},
				"down": {"uv": [0.65625, 3.02083, 0.85417, 3.80208], "texture": "#1"}
			}
		},
		{
			"from": [8.454, 1.29, 14.688],
			"to": [9.296, 2.434, 15.29],
			"rotation": {"angle": -45, "axis": "x", "origin": [8.875, 1.862, 14.989]},
			"faces": {
				"north": {"uv": [0.625, 2.89583, 0.69792, 2.92708], "rotation": 90, "texture": "#1"},
				"east": {"uv": [0.65625, 4.17708, 0.63542, 4.27083], "texture": "#1"},
				"south": {"uv": [0.625, 2.89583, 0.69792, 2.92708], "rotation": 90, "texture": "#1"},
				"west": {"uv": [0.65625, 4.17708, 0.63542, 4.27083], "texture": "#1"},
				"up": {"uv": [0.625, 2.89583, 0.82292, 3.67708], "rotation": 90, "texture": "#1"},
				"down": {"uv": [0.65625, 3.02083, 0.85417, 3.80208], "texture": "#1"}
			}
		},
		{
			"from": [8.582, 2.186, 14.432],
			"to": [9.168, 2.498, 15.642],
			"rotation": {"angle": 0, "axis": "y", "origin": [8.875, 2.09547, 1.94667]},
			"faces": {
				"north": {"uv": [0.625, 2.89583, 0.69792, 2.92708], "rotation": 90, "texture": "#1"},
				"east": {"uv": [0.65625, 4.17708, 0.63542, 4.27083], "texture": "#1"},
				"south": {"uv": [0.625, 2.89583, 0.69792, 2.92708], "rotation": 90, "texture": "#1"},
				"west": {"uv": [0.65625, 4.17708, 0.63542, 4.27083], "texture": "#1"},
				"up": {"uv": [0.625, 2.89583, 0.82292, 3.67708], "rotation": 90, "texture": "#1"},
				"down": {"uv": [0.65625, 3.02083, 0.85417, 3.80208], "texture": "#1"}
			}
		},
		{
			"from": [8.454, 1.93145, 14.57346],
			"to": [9.296, 2.82812, 14.74517],
			"rotation": {"angle": -22.5, "axis": "x", "origin": [8.875, 2.08012, 14.33046]},
			"faces": {
				"north": {"uv": [0.625, 2.89583, 0.69792, 2.92708], "rotation": 90, "texture": "#1"},
				"east": {"uv": [0.65625, 4.17708, 0.63542, 4.27083], "texture": "#1"},
				"south": {"uv": [0.625, 2.89583, 0.69792, 2.92708], "rotation": 90, "texture": "#1"},
				"west": {"uv": [0.65625, 4.17708, 0.63542, 4.27083], "texture": "#1"},
				"up": {"uv": [0.625, 2.89583, 0.82292, 3.67708], "rotation": 90, "texture": "#1"},
				"down": {"uv": [0.65625, 3.02083, 0.85417, 3.80208], "texture": "#1"}
			}
		},
		{
			"from": [8.454, 1.6289, 13.5865],
			"to": [9.296, 1.86037, 15.04647],
			"rotation": {"angle": 45, "axis": "x", "origin": [8.875, 1.20737, 14.3345]},
			"faces": {
				"north": {"uv": [0.625, 2.89583, 0.82292, 3.67708], "rotation": 270, "texture": "#1"},
				"east": {"uv": [0.65625, 4.17708, 0.63542, 4.27083], "rotation": 90, "texture": "#1"},
				"south": {"uv": [0.65625, 3.02083, 0.85417, 3.80208], "texture": "#1"},
				"west": {"uv": [0.65625, 4.17708, 0.63542, 4.27083], "rotation": 270, "texture": "#1"},
				"up": {"uv": [0.625, 2.89583, 0.69792, 2.92708], "rotation": 90, "texture": "#1"},
				"down": {"uv": [0.625, 2.89583, 0.69792, 2.92708], "rotation": 270, "texture": "#1"}
			}
		},
		{
			"from": [8.454, 2.17656, 14.25115],
			"to": [9.296, 2.60789, 15.47287],
			"rotation": {"angle": 22.5, "axis": "x", "origin": [8.875, 2.69189, 14.90415]},
			"faces": {
				"north": {"uv": [0.625, 2.89583, 0.69792, 2.92708], "rotation": 270, "texture": "#1"},
				"east": {"uv": [0.65625, 4.17708, 0.63542, 4.27083], "rotation": 180, "texture": "#1"},
				"south": {"uv": [0.625, 2.89583, 0.69792, 2.92708], "rotation": 270, "texture": "#1"},
				"west": {"uv": [0.65625, 4.17708, 0.63542, 4.27083], "rotation": 180, "texture": "#1"},
				"up": {"uv": [0.65625, 3.02083, 0.85417, 3.80208], "texture": "#1"},
				"down": {"uv": [0.625, 2.89583, 0.82292, 3.67708], "rotation": 90, "texture": "#1"}
			}
		},
		{
			"from": [8.454, 1.70817, 14.42736],
			"to": [9.296, 2.92989, 14.73069],
			"rotation": {"angle": 0, "axis": "y", "origin": [8.875, 2.27689, 14.94269]},
			"faces": {
				"north": {"uv": [0.625, 2.89583, 0.82292, 3.67708], "rotation": 270, "texture": "#1"},
				"east": {"uv": [0.65625, 4.17708, 0.63542, 4.27083], "rotation": 90, "texture": "#1"},
				"south": {"uv": [0.65625, 3.02083, 0.85417, 3.80208], "texture": "#1"},
				"west": {"uv": [0.65625, 4.17708, 0.63542, 4.27083], "rotation": 270, "texture": "#1"},
				"up": {"uv": [0.625, 2.89583, 0.69792, 2.92708], "rotation": 90, "texture": "#1"},
				"down": {"uv": [0.625, 2.89583, 0.69792, 2.92708], "rotation": 270, "texture": "#1"}
			}
		},
		{
			"from": [8.454, 2.03504, 14.11801],
			"to": [9.296, 2.75676, 14.92134],
			"rotation": {"angle": 45, "axis": "x", "origin": [8.875, 2.10376, 14.63334]},
			"faces": {
				"north": {"uv": [0.625, 2.89583, 0.82292, 3.67708], "rotation": 270, "texture": "#1"},
				"east": {"uv": [0.65625, 4.17708, 0.63542, 4.27083], "rotation": 90, "texture": "#1"},
				"south": {"uv": [0.65625, 3.02083, 0.85417, 3.80208], "texture": "#1"},
				"west": {"uv": [0.65625, 4.17708, 0.63542, 4.27083], "rotation": 270, "texture": "#1"},
				"up": {"uv": [0.625, 2.89583, 0.69792, 2.92708], "rotation": 90, "texture": "#1"},
				"down": {"uv": [0.625, 2.89583, 0.69792, 2.92708], "rotation": 270, "texture": "#1"}
			}
		},
		{
			"from": [8.454, 2.03435, 14.10365],
			"to": [9.296, 2.46568, 15.32537],
			"rotation": {"angle": 0, "axis": "y", "origin": [8.875, 2.54968, 14.75665]},
			"faces": {
				"north": {"uv": [0.625, 2.89583, 0.69792, 2.92708], "rotation": 270, "texture": "#1"},
				"east": {"uv": [0.65625, 4.17708, 0.63542, 4.27083], "rotation": 180, "texture": "#1"},
				"south": {"uv": [0.625, 2.89583, 0.69792, 2.92708], "rotation": 270, "texture": "#1"},
				"west": {"uv": [0.65625, 4.17708, 0.63542, 4.27083], "rotation": 180, "texture": "#1"},
				"up": {"uv": [0.65625, 3.02083, 0.85417, 3.80208], "texture": "#1"},
				"down": {"uv": [0.625, 2.89583, 0.82292, 3.67708], "rotation": 90, "texture": "#1"}
			}
		},
		{
			"from": [8.428, 2.39416, 14.41521],
			"to": [9.322, 2.67016, 14.69521],
			"rotation": {"angle": -45, "axis": "x", "origin": [8.875, 2.53216, 14.55521]},
			"faces": {
				"north": {"uv": [0.09375, 3.39583, 0.3125, 4.20833], "rotation": 180, "texture": "#1"},
				"east": {"uv": [0.09375, 3.39583, 0.3125, 4.20833], "rotation": 270, "texture": "#1"},
				"south": {"uv": [0.09375, 3.39583, 0.3125, 4.20833], "texture": "#1"},
				"west": {"uv": [0.09375, 3.39583, 0.3125, 4.20833], "rotation": 90, "texture": "#1"},
				"up": {"uv": [0.09375, 3.39583, 0.3125, 4.20833], "rotation": 180, "texture": "#1"},
				"down": {"uv": [0.09375, 3.39583, 0.3125, 4.20833], "texture": "#1"}
			}
		},
		{
			"from": [8.524, 2.61816, 16.46321],
			"to": [9.226, 2.89416, 16.74321],
			"rotation": {"angle": -45, "axis": "x", "origin": [8.875, 2.75616, 16.60321]},
			"faces": {
				"north": {"uv": [0.09375, 3.39583, 0.3125, 4.20833], "rotation": 180, "texture": "#1"},
				"east": {"uv": [0.09375, 3.39583, 0.3125, 4.20833], "rotation": 270, "texture": "#1"},
				"south": {"uv": [0.09375, 3.39583, 0.3125, 4.20833], "texture": "#1"},
				"west": {"uv": [0.09375, 3.39583, 0.3125, 4.20833], "rotation": 90, "texture": "#1"},
				"up": {"uv": [0.09375, 3.39583, 0.3125, 4.20833], "rotation": 180, "texture": "#1"},
				"down": {"uv": [0.09375, 3.39583, 0.3125, 4.20833], "texture": "#1"}
			}
		},
		{
			"from": [8.581, 1.264, 14.815],
			"to": [9.1683, 1.32, 14.971],
			"rotation": {"angle": 45, "axis": "x", "origin": [8.87465, 1.308, 14.893]},
			"faces": {
				"north": {"uv": [1.8125, 3.27083, 2.07292, 3.73958], "texture": "#1"},
				"east": {"uv": [1.8125, 3.27083, 2.07292, 3.73958], "texture": "#1"},
				"south": {"uv": [1.8125, 3.27083, 2.07292, 3.73958], "texture": "#1"},
				"west": {"uv": [1.8125, 3.27083, 2.07292, 3.73958], "texture": "#1"},
				"up": {"uv": [0.625, 2.89583, 0.82292, 3.67708], "rotation": 90, "texture": "#1"},
				"down": {"uv": [0.65625, 3.02083, 0.85417, 3.80208], "texture": "#1"}
			}
		},
		{
			"from": [8.11627, 1.74558, 15.744],
			"to": [8.688, 2.21, 17.178],
			"rotation": {"angle": -45, "axis": "z", "origin": [8.875, 1.718, 16.077]},
			"faces": {
				"north": {"uv": [0.625, 2.89583, 0.69792, 2.92708], "rotation": 90, "texture": "#1"},
				"east": {"uv": [0.625, 2.89583, 0.88542, 3.36458], "texture": "#1"},
				"south": {"uv": [0.625, 2.89583, 0.69792, 2.92708], "rotation": 90, "texture": "#1"},
				"west": {"uv": [0.625, 2.89583, 0.69792, 2.92708], "rotation": 90, "texture": "#1"},
				"up": {"uv": [0.625, 2.89583, 0.82292, 3.67708], "rotation": 90, "texture": "#1"},
				"down": {"uv": [0.65625, 3.02083, 0.85417, 3.80208], "texture": "#1"}
			}
		},
		{
			"from": [8.53518, 2.2724, 15.744],
			"to": [8.9996, 2.84412, 17.178],
			"rotation": {"angle": -45, "axis": "z", "origin": [8.5076, 2.0854, 16.077]},
			"faces": {
				"north": {"uv": [0.625, 2.89583, 0.69792, 2.92708], "rotation": 90, "texture": "#1"},
				"east": {"uv": [0.625, 2.89583, 0.82292, 3.67708], "rotation": 180, "texture": "#1"},
				"south": {"uv": [0.625, 2.89583, 0.69792, 2.92708], "rotation": 90, "texture": "#1"},
				"west": {"uv": [0.65625, 3.02083, 0.85417, 3.80208], "rotation": 90, "texture": "#1"},
				"up": {"uv": [0.625, 2.89583, 0.69792, 2.92708], "rotation": 90, "texture": "#1"},
				"down": {"uv": [0.625, 2.89583, 0.88542, 3.36458], "rotation": 90, "texture": "#1"}
			}
		},
		{
			"from": [8.68227, 0.83577, 15.744],
			"to": [9.14669, 1.4075, 17.178],
			"rotation": {"angle": 45, "axis": "z", "origin": [8.875, 1.29523, 16.077]},
			"faces": {
				"north": {"uv": [0.625, 2.89583, 0.69792, 2.92708], "rotation": 90, "texture": "#1"},
				"east": {"uv": [0.65625, 3.02083, 0.85417, 3.80208], "rotation": 270, "texture": "#1"},
				"south": {"uv": [0.625, 2.89583, 0.69792, 2.92708], "texture": "#1"},
				"west": {"uv": [0.625, 2.89583, 0.82292, 3.67708], "texture": "#1"},
				"up": {"uv": [0.625, 2.89583, 0.88542, 3.36458], "rotation": 270, "texture": "#1"},
				"down": {"uv": [0.625, 2.89583, 0.69792, 2.92708], "texture": "#1"}
			}
		},
		{
			"from": [8.6864, 0.83406, 15.744],
			"to": [9.0636, 2.6024, 17.178],
			"rotation": {"angle": 0, "axis": "y", "origin": [8.875, 1.29523, 16.077]},
			"faces": {
				"north": {"uv": [0.625, 2.89583, 0.69792, 2.92708], "rotation": 90, "texture": "#1"},
				"east": {"uv": [0.65625, 3.08333, 0.91667, 3.55208], "rotation": 180, "texture": "#1"},
				"south": {"uv": [0.625, 2.89583, 0.69792, 2.92708], "rotation": 270, "texture": "#1"},
				"west": {"uv": [0.625, 2.89583, 0.88542, 3.36458], "rotation": 180, "texture": "#1"},
				"up": {"uv": [0.65625, 3.02083, 0.85417, 3.80208], "rotation": 180, "texture": "#1"},
				"down": {"uv": [0.625, 2.89583, 0.69792, 2.92708], "rotation": 270, "texture": "#1"}
			}
		},
		{
			"from": [8.41554, 1.1025, 15.744],
			"to": [8.98727, 1.56692, 17.178],
			"rotation": {"angle": 45, "axis": "z", "origin": [8.875, 1.29523, 16.077]},
			"faces": {
				"north": {"uv": [0.625, 2.89583, 0.69792, 2.92708], "rotation": 90, "texture": "#1"},
				"east": {"uv": [0.625, 2.89583, 0.88542, 3.36458], "texture": "#1"},
				"south": {"uv": [0.625, 2.89583, 0.69792, 2.92708], "texture": "#1"},
				"west": {"uv": [0.625, 2.89583, 0.69792, 2.92708], "texture": "#1"},
				"up": {"uv": [0.625, 2.89583, 0.82292, 3.67708], "rotation": 90, "texture": "#1"},
				"down": {"uv": [0.65625, 3.02083, 0.85417, 3.80208], "texture": "#1"}
			}
		},
		{
			"from": [8.5845, 1.3125, 16.2125],
			"to": [9.1595, 2.1375, 21.9375],
			"rotation": {"angle": 0, "axis": "y", "origin": [8.875, 1.725, 16.375]},
			"faces": {
				"north": {"uv": [3.61458, 14.25, 5.61458, 15.91667], "texture": "#1"},
				"east": {"uv": [4.89583, 0.03125, 5.61458, 2.10417], "rotation": 90, "texture": "#1"},
				"south": {"uv": [0.77083, 1.59375, 1.33333, 1.57292], "texture": "#1"},
				"west": {"uv": [4.89583, 0.03125, 5.61458, 2.07292], "rotation": 90, "texture": "#1"},
				"up": {"uv": [5.11458, 0, 4.89583, 2.10417], "texture": "#1"},
				"down": {"uv": [5.61458, 2.10417, 5.39583, 0], "texture": "#1"}
			}
		},
		{
			"from": [8.77169, 2.87797, 9.224],
			"to": [8.97169, 2.97797, 16.388],
			"rotation": {"angle": 45, "axis": "z", "origin": [8.88299, 2.74786, 12.521]},
			"faces": {
				"north": {"uv": [2.4375, 4.0625, 2.46875, 4.4375], "rotation": 90, "texture": "#1"},
				"east": {"uv": [1.875, 2.75, 1.875, 3.625], "rotation": 90, "texture": "#1"},
				"south": {"uv": [2.4375, 4.0625, 2.46875, 4.4375], "rotation": 270, "texture": "#1"},
				"west": {"uv": [1.875, 2.75, 1.875, 3.625], "rotation": 90, "texture": "#1"},
				"up": {"uv": [2.4375, 4.0625, 2.46875, 4.4375], "rotation": 270, "texture": "#1"},
				"down": {"uv": [2.625, 4.0625, 2.46875, 4.53125], "rotation": 90, "texture": "#1"}
			}
		},
		{
			"from": [8.77169, 2.49512, 9.224],
			"to": [8.97169, 2.59512, 16.388],
			"rotation": {"angle": 45, "axis": "z", "origin": [8.88299, 2.74786, 12.521]},
			"faces": {
				"north": {"uv": [2.4375, 4.0625, 2.46875, 4.4375], "rotation": 90, "texture": "#1"},
				"east": {"uv": [2.4375, 4.0625, 2.46875, 4.4375], "rotation": 270, "texture": "#1"},
				"south": {"uv": [2.4375, 4.0625, 2.46875, 4.4375], "rotation": 270, "texture": "#1"},
				"west": {"uv": [2.4375, 4.0625, 2.46875, 4.4375], "rotation": 270, "texture": "#1"},
				"up": {"uv": [2.4375, 4.0625, 2.46875, 4.4375], "rotation": 270, "texture": "#1"},
				"down": {"uv": [2.4375, 4.0625, 2.46875, 4.4375], "rotation": 270, "texture": "#1"}
			}
		},
		{
			"from": [8.783, 2.49044, 9.224],
			"to": [8.983, 2.59044, 16.388],
			"rotation": {"angle": 0, "axis": "z", "origin": [8.88299, 2.74786, 12.521]},
			"faces": {
				"north": {"uv": [2.4375, 4.0625, 2.46875, 4.4375], "rotation": 90, "texture": "#1"},
				"east": {"uv": [2.4375, 4.0625, 2.46875, 4.4375], "rotation": 270, "texture": "#1"},
				"south": {"uv": [2.4375, 4.0625, 2.46875, 4.4375], "rotation": 270, "texture": "#1"},
				"west": {"uv": [2.4375, 4.0625, 2.46875, 4.4375], "rotation": 270, "texture": "#1"},
				"up": {"uv": [2.4375, 4.0625, 2.46875, 4.4375], "rotation": 270, "texture": "#1"},
				"down": {"uv": [2.4375, 4.0625, 2.46875, 4.4375], "rotation": 270, "texture": "#1"}
			}
		},
		{
			"from": [9.02442, 2.63187, 9.224],
			"to": [9.12442, 2.83187, 16.388],
			"rotation": {"angle": 0, "axis": "z", "origin": [8.88299, 2.74786, 12.521]},
			"faces": {
				"north": {"uv": [2.4375, 4.0625, 2.46875, 4.4375], "rotation": 90, "texture": "#1"},
				"east": {"uv": [2.4375, 4.0625, 2.46875, 4.4375], "rotation": 270, "texture": "#1"},
				"south": {"uv": [1.875, 2.75, 1.875, 3.625], "rotation": 180, "texture": "#1"},
				"west": {"uv": [2.4375, 4.0625, 2.46875, 4.4375], "rotation": 270, "texture": "#1"},
				"up": {"uv": [1.875, 2.75, 1.875, 3.625], "rotation": 180, "texture": "#1"},
				"down": {"uv": [2.625, 4.0625, 2.46875, 4.53125], "rotation": 180, "texture": "#1"}
			}
		},
		{
			"from": [8.64157, 2.63187, 9.224],
			"to": [8.74157, 2.83187, 16.388],
			"rotation": {"angle": 0, "axis": "z", "origin": [8.88299, 2.74786, 12.521]},
			"faces": {
				"north": {"uv": [2.4375, 4.0625, 2.46875, 4.4375], "rotation": 90, "texture": "#1"},
				"east": {"uv": [2.4375, 4.0625, 2.46875, 4.4375], "rotation": 270, "texture": "#1"},
				"south": {"uv": [2.4375, 4.0625, 2.46875, 4.4375], "rotation": 270, "texture": "#1"},
				"west": {"uv": [2.4375, 4.0625, 2.46875, 4.4375], "rotation": 270, "texture": "#1"},
				"up": {"uv": [1.875, 2.75, 1.875, 3.625], "rotation": 180, "texture": "#1"},
				"down": {"uv": [2.625, 4.0625, 2.46875, 4.53125], "rotation": 180, "texture": "#1"}
			}
		},
		{
			"from": [8.57086, 2.60258, 12.364],
			"to": [8.67086, 2.86248, 16.4],
			"rotation": {"angle": 0, "axis": "z", "origin": [8.88299, 2.74786, 12.521]},
			"faces": {
				"north": {"uv": [2.4375, 4.0625, 2.46875, 4.4375], "rotation": 90, "texture": "#1"},
				"east": {"uv": [2.4375, 4.0625, 2.46875, 4.4375], "rotation": 270, "texture": "#1"},
				"south": {"uv": [2.4375, 4.0625, 2.46875, 4.4375], "rotation": 270, "texture": "#1"},
				"west": {"uv": [2.4375, 4.0625, 2.46875, 4.4375], "rotation": 270, "texture": "#1"},
				"up": {"uv": [2.4375, 4.0625, 2.46875, 4.4375], "rotation": 270, "texture": "#1"},
				"down": {"uv": [2.4375, 4.0625, 2.46875, 4.4375], "rotation": 270, "texture": "#1"}
			}
		},
		{
			"from": [8.58313, 2.60257, 12.364],
			"to": [9.19513, 2.86247, 16.4],
			"rotation": {"angle": 0, "axis": "z", "origin": [8.89526, 2.74786, 12.521]},
			"faces": {
				"north": {"uv": [2.4375, 4.0625, 2.46875, 4.4375], "rotation": 90, "texture": "#1"},
				"east": {"uv": [2.4375, 4.0625, 2.46875, 4.4375], "rotation": 270, "texture": "#1"},
				"south": {"uv": [2.4375, 4.0625, 2.46875, 4.4375], "rotation": 270, "texture": "#1"},
				"west": {"uv": [2.4375, 4.0625, 2.46875, 4.4375], "rotation": 270, "texture": "#1"},
				"up": {"uv": [2.4375, 4.0625, 2.46875, 4.4375], "rotation": 270, "texture": "#1"},
				"down": {"uv": [2.4375, 4.0625, 2.46875, 4.4375], "rotation": 270, "texture": "#1"}
			}
		},
		{
			"from": [8.783, 2.87329, 9.224],
			"to": [8.983, 2.97329, 16.388],
			"rotation": {"angle": 0, "axis": "z", "origin": [8.88299, 2.74786, 12.521]},
			"faces": {
				"north": {"uv": [2.4375, 4.0625, 2.46875, 4.4375], "rotation": 90, "texture": "#1"},
				"east": {"uv": [1.875, 2.75, 1.875, 3.625], "rotation": 270, "texture": "#1"},
				"south": {"uv": [1.875, 2.75, 1.875, 3.625], "rotation": 270, "texture": "#1"},
				"west": {"uv": [1.875, 2.75, 1.875, 3.625], "rotation": 270, "texture": "#1"},
				"up": {"uv": [2.4375, 4.0625, 2.46875, 4.4375], "rotation": 270, "texture": "#1"},
				"down": {"uv": [2.625, 4.0625, 2.46875, 4.53125], "rotation": 270, "texture": "#1"}
			}
		},
		{
			"from": [9.01311, 2.63655, 9.224],
			"to": [9.11311, 2.83655, 16.388],
			"rotation": {"angle": 45, "axis": "z", "origin": [8.88299, 2.74786, 12.521]},
			"faces": {
				"north": {"uv": [2.4375, 4.0625, 2.46875, 4.4375], "rotation": 90, "texture": "#1"},
				"east": {"uv": [2.4375, 4.0625, 2.46875, 4.4375], "rotation": 270, "texture": "#1"},
				"south": {"uv": [2.4375, 4.0625, 2.46875, 4.4375], "rotation": 270, "texture": "#1"},
				"west": {"uv": [2.4375, 4.0625, 2.46875, 4.4375], "rotation": 270, "texture": "#1"},
				"up": {"uv": [1.875, 2.75, 1.875, 3.625], "texture": "#1"},
				"down": {"uv": [2.625, 4.0625, 2.46875, 4.53125], "texture": "#1"}
			}
		},
		{
			"from": [8.63026, 2.63655, 9.224],
			"to": [8.73026, 2.83655, 16.388],
			"rotation": {"angle": 45, "axis": "z", "origin": [8.88299, 2.74786, 12.521]},
			"faces": {
				"north": {"uv": [2.4375, 4.0625, 2.46875, 4.4375], "rotation": 90, "texture": "#1"},
				"east": {"uv": [2.4375, 4.0625, 2.46875, 4.4375], "rotation": 270, "texture": "#1"},
				"south": {"uv": [2.4375, 4.0625, 2.46875, 4.4375], "rotation": 270, "texture": "#1"},
				"west": {"uv": [2.4375, 4.0625, 2.46875, 4.4375], "rotation": 270, "texture": "#1"},
				"up": {"uv": [1.875, 2.75, 1.875, 3.625], "texture": "#1"},
				"down": {"uv": [2.625, 4.0625, 2.46875, 4.53125], "texture": "#1"}
			}
		},
		{
			"from": [8.81228, 2.56115, 15.552],
			"to": [9.01228, 2.66115, 16.392],
			"rotation": {"angle": 0, "axis": "z", "origin": [8.88299, 2.74786, 12.521]},
			"faces": {
				"north": {"uv": [2.25, 2.75, 2.25, 3.625], "rotation": 180, "texture": "#1"},
				"east": {"uv": [2.25, 2.75, 2.25, 3.625], "texture": "#1"},
				"south": {"uv": [2.25, 2.75, 2.25, 3.625], "texture": "#1"},
				"west": {"uv": [2.25, 2.75, 2.25, 3.625], "texture": "#1"},
				"up": {"uv": [2.25, 2.75, 2.25, 3.625], "texture": "#1"},
				"down": {"uv": [2.625, 4.0625, 2.84375, 4.53125], "texture": "#1"}
			}
		},
		{
			"from": [8.74157, 2.63187, 15.552],
			"to": [8.84157, 2.83187, 16.392],
			"rotation": {"angle": 0, "axis": "z", "origin": [8.88299, 2.74786, 12.521]},
			"faces": {
				"north": {"uv": [2.25, 2.75, 2.25, 3.625], "rotation": 270, "texture": "#1"},
				"east": {"uv": [2.25, 2.75, 2.25, 3.625], "rotation": 90, "texture": "#1"},
				"south": {"uv": [2.25, 2.75, 2.25, 3.625], "rotation": 90, "texture": "#1"},
				"west": {"uv": [2.25, 2.75, 2.25, 3.625], "rotation": 90, "texture": "#1"},
				"up": {"uv": [2.25, 2.75, 2.25, 3.625], "rotation": 90, "texture": "#1"},
				"down": {"uv": [2.625, 4.0625, 2.84375, 4.53125], "rotation": 90, "texture": "#1"}
			}
		},
		{
			"from": [8.84157, 2.63187, 15.552],
			"to": [9.04157, 2.83187, 16.392],
			"rotation": {"angle": 0, "axis": "z", "origin": [8.88299, 2.74786, 12.521]},
			"faces": {
				"north": {"uv": [2.25, 2.75, 2.25, 3.625], "rotation": 270, "texture": "#1"},
				"east": {"uv": [2.25, 2.75, 2.25, 3.625], "rotation": 90, "texture": "#1"},
				"south": {"uv": [2.25, 2.75, 2.25, 3.625], "rotation": 90, "texture": "#1"},
				"west": {"uv": [2.25, 2.75, 2.25, 3.625], "rotation": 90, "texture": "#1"},
				"up": {"uv": [2.25, 2.75, 2.25, 3.625], "rotation": 90, "texture": "#1"},
				"down": {"uv": [2.625, 4.0625, 2.84375, 4.53125], "rotation": 90, "texture": "#1"}
			}
		},
		{
			"from": [8.70097, 2.66584, 15.552],
			"to": [8.80097, 2.76584, 16.392],
			"rotation": {"angle": 45, "axis": "z", "origin": [8.88299, 2.74786, 12.521]},
			"faces": {
				"north": {"uv": [2.25, 2.75, 2.25, 3.625], "rotation": 180, "texture": "#1"},
				"east": {"uv": [2.25, 2.75, 2.25, 3.625], "texture": "#1"},
				"south": {"uv": [2.25, 2.75, 2.25, 3.625], "texture": "#1"},
				"west": {"uv": [2.25, 2.75, 2.25, 3.625], "texture": "#1"},
				"up": {"uv": [2.25, 2.75, 2.25, 3.625], "texture": "#1"},
				"down": {"uv": [2.625, 4.0625, 2.84375, 4.53125], "texture": "#1"}
			}
		},
		{
			"from": [8.81228, 2.80258, 15.552],
			"to": [9.01228, 2.90258, 16.392],
			"rotation": {"angle": 0, "axis": "z", "origin": [8.88299, 2.74786, 12.521]},
			"faces": {
				"north": {"uv": [2.25, 2.75, 2.25, 3.625], "rotation": 180, "texture": "#1"},
				"east": {"uv": [2.25, 2.75, 2.25, 3.625], "texture": "#1"},
				"south": {"uv": [2.25, 2.75, 2.25, 3.625], "texture": "#1"},
				"west": {"uv": [2.25, 2.75, 2.25, 3.625], "texture": "#1"},
				"up": {"uv": [2.25, 2.75, 2.25, 3.625], "texture": "#1"},
				"down": {"uv": [2.625, 4.0625, 2.84375, 4.53125], "texture": "#1"}
			}
		},
		{
			"from": [8.8424, 2.80726, 15.552],
			"to": [8.9424, 2.90726, 16.392],
			"rotation": {"angle": 45, "axis": "z", "origin": [8.88299, 2.74786, 12.521]},
			"faces": {
				"north": {"uv": [2.25, 2.75, 2.25, 3.625], "rotation": 270, "texture": "#1"},
				"east": {"uv": [2.25, 2.75, 2.25, 3.625], "rotation": 90, "texture": "#1"},
				"south": {"uv": [2.25, 2.75, 2.25, 3.625], "rotation": 90, "texture": "#1"},
				"west": {"uv": [2.25, 2.75, 2.25, 3.625], "rotation": 90, "texture": "#1"},
				"up": {"uv": [2.25, 2.75, 2.25, 3.625], "rotation": 90, "texture": "#1"},
				"down": {"uv": [2.625, 4.0625, 2.84375, 4.53125], "rotation": 90, "texture": "#1"}
			}
		},
		{
			"from": [8.98381, 2.66584, 15.552],
			"to": [9.08381, 2.76584, 16.392],
			"rotation": {"angle": 45, "axis": "z", "origin": [8.88299, 2.74786, 12.521]},
			"faces": {
				"north": {"uv": [2.25, 2.75, 2.25, 3.625], "rotation": 180, "texture": "#1"},
				"east": {"uv": [2.25, 2.75, 2.25, 3.625], "texture": "#1"},
				"south": {"uv": [2.4375, 4.0625, 2.46875, 4.4375], "rotation": 270, "texture": "#1"},
				"west": {"uv": [2.25, 2.75, 2.25, 3.625], "texture": "#1"},
				"up": {"uv": [2.25, 2.75, 2.25, 3.625], "texture": "#1"},
				"down": {"uv": [2.625, 4.0625, 2.84375, 4.53125], "texture": "#1"}
			}
		},
		{
			"from": [8.983, 2.63187, 15.552],
			"to": [9.083, 2.83187, 16.392],
			"rotation": {"angle": 0, "axis": "z", "origin": [8.88299, 2.74786, 12.521]},
			"faces": {
				"north": {"uv": [2.25, 2.75, 2.25, 3.625], "rotation": 270, "texture": "#1"},
				"east": {"uv": [2.25, 2.75, 2.25, 3.625], "rotation": 90, "texture": "#1"},
				"south": {"uv": [2.25, 2.75, 2.25, 3.625], "rotation": 90, "texture": "#1"},
				"west": {"uv": [2.25, 2.75, 2.25, 3.625], "rotation": 90, "texture": "#1"},
				"up": {"uv": [2.25, 2.75, 2.25, 3.625], "rotation": 90, "texture": "#1"},
				"down": {"uv": [2.625, 4.0625, 2.84375, 4.53125], "rotation": 90, "texture": "#1"}
			}
		},
		{
			"from": [8.84239, 2.52442, 15.552],
			"to": [8.94239, 2.62442, 16.392],
			"rotation": {"angle": 45, "axis": "z", "origin": [8.88299, 2.74786, 12.521]},
			"faces": {
				"north": {"uv": [2.25, 2.75, 2.25, 3.625], "rotation": 270, "texture": "#1"},
				"east": {"uv": [2.25, 2.75, 2.25, 3.625], "rotation": 90, "texture": "#1"},
				"south": {"uv": [2.25, 2.75, 2.25, 3.625], "rotation": 90, "texture": "#1"},
				"west": {"uv": [2.25, 2.75, 2.25, 3.625], "rotation": 90, "texture": "#1"},
				"up": {"uv": [2.25, 2.75, 2.25, 3.625], "rotation": 90, "texture": "#1"},
				"down": {"uv": [2.625, 4.0625, 2.84375, 4.53125], "rotation": 90, "texture": "#1"}
			}
		},
		{
			"from": [8.57086, 2.60258, 8.492],
			"to": [8.67086, 2.86248, 9.648],
			"rotation": {"angle": 0, "axis": "z", "origin": [8.88299, 2.74786, 12.521]},
			"faces": {
				"north": {"uv": [2.4375, 4.0625, 2.46875, 4.4375], "rotation": 90, "texture": "#1"},
				"east": {"uv": [2.375, 2.75, 2.375, 3.625], "rotation": 180, "texture": "#1"},
				"south": {"uv": [2.375, 2.75, 2.375, 3.625], "rotation": 180, "texture": "#1"},
				"west": {"uv": [2.4375, 4.0625, 2.46875, 4.4375], "rotation": 270, "texture": "#1"},
				"up": {"uv": [2.375, 2.75, 2.375, 3.625], "rotation": 180, "texture": "#1"},
				"down": {"uv": [2.625, 4.0625, 2.96875, 4.53125], "rotation": 180, "texture": "#1"}
			}
		},
		{
			"from": [9.09513, 2.60257, 8.492],
			"to": [9.19513, 2.86247, 9.648],
			"rotation": {"angle": 0, "axis": "z", "origin": [8.88299, 2.74786, 12.521]},
			"faces": {
				"north": {"uv": [2.4375, 4.0625, 2.46875, 4.4375], "rotation": 270, "texture": "#1"},
				"east": {"uv": [2.4375, 4.0625, 2.46875, 4.4375], "rotation": 270, "texture": "#1"},
				"south": {"uv": [2.375, 2.75, 2.375, 3.625], "rotation": 180, "texture": "#1"},
				"west": {"uv": [2.375, 2.75, 2.375, 3.625], "rotation": 180, "texture": "#1"},
				"up": {"uv": [2.375, 2.75, 2.375, 3.625], "rotation": 180, "texture": "#1"},
				"down": {"uv": [2.625, 4.0625, 2.96875, 4.53125], "rotation": 180, "texture": "#1"}
			}
		},
		{
			"from": [8.55955, 2.56584, 8.492],
			"to": [8.65955, 2.86584, 9.648],
			"rotation": {"angle": 45, "axis": "z", "origin": [8.88299, 2.74786, 12.521]},
			"faces": {
				"north": {"uv": [2.4375, 4.0625, 2.46875, 4.4375], "rotation": 90, "texture": "#1"},
				"east": {"uv": [2.4375, 4.0625, 2.46875, 4.4375], "rotation": 270, "texture": "#1"},
				"south": {"uv": [2.4375, 4.0625, 2.46875, 4.4375], "rotation": 270, "texture": "#1"},
				"west": {"uv": [2.4375, 4.0625, 2.46875, 4.4375], "rotation": 270, "texture": "#1"},
				"up": {"uv": [2.4375, 4.0625, 2.46875, 4.4375], "rotation": 270, "texture": "#1"},
				"down": {"uv": [2.4375, 4.0625, 2.46875, 4.4375], "rotation": 270, "texture": "#1"}
			}
		},
		{
			"from": [8.74239, 2.91668, 8.492],
			"to": [9.04239, 3.04868, 9.648],
			"rotation": {"angle": 45, "axis": "z", "origin": [8.88299, 2.74786, 12.521]},
			"faces": {
				"north": {"uv": [2.4375, 4.0625, 2.46875, 4.4375], "rotation": 90, "texture": "#1"},
				"east": {"uv": [2.4375, 4.0625, 2.46875, 4.4375], "rotation": 270, "texture": "#1"},
				"south": {"uv": [2.4375, 4.0625, 2.46875, 4.4375], "rotation": 270, "texture": "#1"},
				"west": {"uv": [2.4375, 4.0625, 2.46875, 4.4375], "rotation": 270, "texture": "#1"},
				"up": {"uv": [2.4375, 4.0625, 2.46875, 4.4375], "rotation": 270, "texture": "#1"},
				"down": {"uv": [2.4375, 4.0625, 2.46875, 4.4375], "rotation": 270, "texture": "#1"}
			}
		},
		{
			"from": [8.783, 2.94129, 8.492],
			"to": [8.983, 3.07329, 9.648],
			"rotation": {"angle": 0, "axis": "z", "origin": [8.88299, 2.74786, 12.521]},
			"faces": {
				"north": {"uv": [2.4375, 4.0625, 2.46875, 4.4375], "rotation": 90, "texture": "#1"},
				"east": {"uv": [2.4375, 4.0625, 2.46875, 4.4375], "rotation": 270, "texture": "#1"},
				"south": {"uv": [2.4375, 4.0625, 2.46875, 4.4375], "rotation": 270, "texture": "#1"},
				"west": {"uv": [2.4375, 4.0625, 2.46875, 4.4375], "rotation": 270, "texture": "#1"},
				"up": {"uv": [2.4375, 4.0625, 2.46875, 4.4375], "rotation": 270, "texture": "#1"},
				"down": {"uv": [2.4375, 4.0625, 2.46875, 4.4375], "rotation": 270, "texture": "#1"}
			}
		},
		{
			"from": [8.783, 2.39044, 8.492],
			"to": [8.983, 2.49044, 9.648],
			"rotation": {"angle": 0, "axis": "z", "origin": [8.88299, 2.74786, 12.521]},
			"faces": {
				"north": {"uv": [2.4375, 4.0625, 2.46875, 4.4375], "rotation": 90, "texture": "#1"},
				"east": {"uv": [2.4375, 4.0625, 2.46875, 4.4375], "rotation": 270, "texture": "#1"},
				"south": {"uv": [2.4375, 4.0625, 2.46875, 4.4375], "rotation": 270, "texture": "#1"},
				"west": {"uv": [2.4375, 4.0625, 2.46875, 4.4375], "rotation": 270, "texture": "#1"},
				"up": {"uv": [2.4375, 4.0625, 2.46875, 4.4375], "rotation": 270, "texture": "#1"},
				"down": {"uv": [2.4375, 4.0625, 2.46875, 4.4375], "rotation": 270, "texture": "#1"}
			}
		},
		{
			"from": [8.70097, 2.42442, 8.492],
			"to": [9.00097, 2.52442, 9.648],
			"rotation": {"angle": 45, "axis": "z", "origin": [8.88299, 2.74786, 12.521]},
			"faces": {
				"north": {"uv": [2.4375, 4.0625, 2.46875, 4.4375], "rotation": 90, "texture": "#1"},
				"east": {"uv": [2.4375, 4.0625, 2.46875, 4.4375], "rotation": 270, "texture": "#1"},
				"south": {"uv": [2.4375, 4.0625, 2.46875, 4.4375], "rotation": 270, "texture": "#1"},
				"west": {"uv": [2.4375, 4.0625, 2.46875, 4.4375], "rotation": 270, "texture": "#1"},
				"up": {"uv": [2.4375, 4.0625, 2.46875, 4.4375], "rotation": 270, "texture": "#1"},
				"down": {"uv": [2.4375, 4.0625, 2.46875, 4.4375], "rotation": 270, "texture": "#1"}
			}
		},
		{
			"from": [9.05181, 2.60726, 8.492],
			"to": [9.18381, 2.90726, 9.648],
			"rotation": {"angle": 45, "axis": "z", "origin": [8.88299, 2.74786, 12.521]},
			"faces": {
				"north": {"uv": [2.4375, 4.0625, 2.46875, 4.4375], "rotation": 90, "texture": "#1"},
				"east": {"uv": [2.4375, 4.0625, 2.46875, 4.4375], "rotation": 270, "texture": "#1"},
				"south": {"uv": [2.4375, 4.0625, 2.46875, 4.4375], "rotation": 270, "texture": "#1"},
				"west": {"uv": [2.4375, 4.0625, 2.46875, 4.4375], "rotation": 270, "texture": "#1"},
				"up": {"uv": [2.4375, 4.0625, 2.46875, 4.4375], "rotation": 270, "texture": "#1"},
				"down": {"uv": [2.4375, 4.0625, 2.46875, 4.4375], "rotation": 270, "texture": "#1"}
			}
		},
		{
			"from": [8.783, 2.49329, 12.588],
			"to": [8.983, 3.61729, 12.72],
			"rotation": {"angle": 0, "axis": "z", "origin": [8.88299, 2.74786, 12.521]},
			"faces": {
				"north": {"uv": [2.78125, 5.53125, 2.78125, 5.65625], "rotation": 90, "texture": "#1"},
				"east": {"uv": [2.375, 3.625, 2.375, 3.75], "rotation": 270, "texture": "#1"},
				"south": {"uv": [2.375, 3.625, 2.375, 3.75], "rotation": 270, "texture": "#1"},
				"west": {"uv": [2.375, 3.625, 2.375, 3.75], "rotation": 270, "texture": "#1"},
				"up": {"uv": [2.375, 3.625, 2.375, 3.75], "rotation": 270, "texture": "#1"},
				"down": {"uv": [2.625, 4.9375, 2.96875, 4.65625], "rotation": 270, "texture": "#1"}
			}
		},
		{
			"from": [8.74333, 2.76363, 12.556],
			"to": [8.94733, 3.04963, 14.16],
			"rotation": {"angle": 45, "axis": "z", "origin": [8.88299, 2.74786, 12.521]},
			"faces": {
				"north": {"uv": [2.4375, 4.0625, 2.46875, 4.4375], "rotation": 90, "texture": "#1"},
				"east": {"uv": [2.4375, 4.0625, 2.46875, 4.4375], "rotation": 270, "texture": "#1"},
				"south": {"uv": [2.4375, 4.0625, 2.46875, 4.4375], "rotation": 270, "texture": "#1"},
				"west": {"uv": [2.4375, 4.0625, 2.46875, 4.4375], "rotation": 270, "texture": "#1"},
				"up": {"uv": [2.4375, 4.0625, 2.46875, 4.4375], "rotation": 270, "texture": "#1"},
				"down": {"uv": [2.4375, 4.0625, 2.46875, 4.4375], "rotation": 270, "texture": "#1"}
			}
		},
		{
			"from": [9.00827, 2.65255, 12.552],
			"to": [9.21227, 2.93855, 14.156],
			"rotation": {"angle": -45, "axis": "z", "origin": [9.11027, 2.92055, 13.354]},
			"faces": {
				"north": {"uv": [2.4375, 4.0625, 2.46875, 4.4375], "rotation": 90, "texture": "#1"},
				"east": {"uv": [2.4375, 4.0625, 2.46875, 4.4375], "rotation": 270, "texture": "#1"},
				"south": {"uv": [2.4375, 4.0625, 2.46875, 4.4375], "rotation": 270, "texture": "#1"},
				"west": {"uv": [2.4375, 4.0625, 2.46875, 4.4375], "rotation": 270, "texture": "#1"},
				"up": {"uv": [2.4375, 4.0625, 2.46875, 4.4375], "rotation": 270, "texture": "#1"},
				"down": {"uv": [2.4375, 4.0625, 2.46875, 4.4375], "rotation": 270, "texture": "#1"}
			}
		},
		{
			"from": [8.719, 2.49329, 12.524],
			"to": [9.015, 2.97729, 15.312],
			"rotation": {"angle": 0, "axis": "z", "origin": [8.88299, 2.74786, 12.521]},
			"faces": {
				"north": {"uv": [2.4375, 4.0625, 2.46875, 4.4375], "rotation": 90, "texture": "#1"},
				"east": {"uv": [2.4375, 4.0625, 2.46875, 4.4375], "rotation": 270, "texture": "#1"},
				"south": {"uv": [2.4375, 4.0625, 2.46875, 4.4375], "rotation": 270, "texture": "#1"},
				"west": {"uv": [2.4375, 4.0625, 2.46875, 4.4375], "rotation": 270, "texture": "#1"},
				"up": {"uv": [0.5625, 3.625, 0.59375, 4], "rotation": 270, "texture": "#1"},
				"down": {"uv": [2.4375, 4.0625, 2.46875, 4.4375], "rotation": 270, "texture": "#1"}
			}
		},
		{
			"from": [9.08381, 2.60726, 14.156],
			"to": [9.18381, 2.90726, 16.4],
			"rotation": {"angle": 45, "axis": "z", "origin": [8.88299, 2.74786, 12.521]},
			"faces": {
				"north": {"uv": [2.4375, 4.0625, 2.46875, 4.4375], "rotation": 90, "texture": "#1"},
				"east": {"uv": [2.4375, 4.0625, 2.46875, 4.4375], "rotation": 270, "texture": "#1"},
				"south": {"uv": [2.4375, 4.0625, 2.46875, 4.4375], "rotation": 270, "texture": "#1"},
				"west": {"uv": [2.4375, 4.0625, 2.46875, 4.4375], "rotation": 270, "texture": "#1"},
				"up": {"uv": [2.4375, 4.0625, 2.46875, 4.4375], "rotation": 270, "texture": "#1"},
				"down": {"uv": [12.375, 6.1875, 14.71875, 6.03125], "texture": "#1"}
			}
		},
		{
			"from": [8.74333, 2.91763, 12.364],
			"to": [9.04333, 3.04963, 12.56],
			"rotation": {"angle": 45, "axis": "z", "origin": [8.88299, 2.74786, 12.521]},
			"faces": {
				"north": {"uv": [2.4375, 4.0625, 2.46875, 4.4375], "rotation": 90, "texture": "#1"},
				"east": {"uv": [13.75, 4.875, 14.125, 5.125], "rotation": 90, "texture": "#1"},
				"south": {"uv": [2.4375, 4.0625, 2.46875, 4.4375], "rotation": 270, "texture": "#1"},
				"west": {"uv": [13.75, 4.875, 14.125, 5.125], "rotation": 90, "texture": "#1"},
				"up": {"uv": [2.4375, 4.0625, 2.46875, 4.4375], "rotation": 270, "texture": "#1"},
				"down": {"uv": [12.375, 6.1875, 14.71875, 6.03125], "rotation": 90, "texture": "#1"}
			}
		},
		{
			"from": [8.8924, 2.85455, 12.364],
			"to": [9.1924, 2.98655, 12.56],
			"rotation": {"angle": -45, "axis": "z", "origin": [9.0424, 2.92055, 12.462]},
			"faces": {
				"north": {"uv": [2.4375, 4.0625, 2.46875, 4.4375], "rotation": 90, "texture": "#1"},
				"east": {"uv": [13.75, 4.875, 14.125, 5.125], "rotation": 90, "texture": "#1"},
				"south": {"uv": [2.4375, 4.0625, 2.46875, 4.4375], "rotation": 270, "texture": "#1"},
				"west": {"uv": [13.75, 4.875, 14.125, 5.125], "rotation": 90, "texture": "#1"},
				"up": {"uv": [2.4375, 4.0625, 2.46875, 4.4375], "rotation": 270, "texture": "#1"},
				"down": {"uv": [12.375, 6.1875, 14.71875, 6.03125], "rotation": 90, "texture": "#1"}
			}
		},
		{
			"from": [8.783, 2.46129, 12.364],
			"to": [8.983, 3.07329, 12.56],
			"rotation": {"angle": 0, "axis": "z", "origin": [8.88299, 2.74786, 12.521]},
			"faces": {
				"north": {"uv": [2.4375, 4.0625, 2.46875, 4.4375], "rotation": 90, "texture": "#1"},
				"east": {"uv": [13.75, 4.875, 14.125, 5.125], "rotation": 270, "texture": "#1"},
				"south": {"uv": [2.4375, 4.0625, 2.46875, 4.4375], "rotation": 270, "texture": "#1"},
				"west": {"uv": [13.75, 4.875, 14.125, 5.125], "rotation": 270, "texture": "#1"},
				"up": {"uv": [2.4375, 4.0625, 2.46875, 4.4375], "rotation": 270, "texture": "#1"},
				"down": {"uv": [12.375, 6.1875, 14.71875, 6.03125], "rotation": 270, "texture": "#1"}
			}
		},
		{
			"from": [8.55955, 2.56584, 12.364],
			"to": [8.65955, 2.86584, 16.4],
			"rotation": {"angle": 45, "axis": "z", "origin": [8.88299, 2.74786, 12.521]},
			"faces": {
				"north": {"uv": [2.4375, 4.0625, 2.46875, 4.4375], "rotation": 90, "texture": "#1"},
				"east": {"uv": [2.4375, 4.0625, 2.46875, 4.4375], "rotation": 270, "texture": "#1"},
				"south": {"uv": [2.4375, 4.0625, 2.46875, 4.4375], "rotation": 270, "texture": "#1"},
				"west": {"uv": [2.4375, 4.0625, 2.46875, 4.4375], "rotation": 270, "texture": "#1"},
				"up": {"uv": [2.4375, 4.0625, 2.46875, 4.4375], "rotation": 270, "texture": "#1"},
				"down": {"uv": [2.4375, 4.0625, 2.46875, 4.4375], "rotation": 270, "texture": "#1"}
			}
		},
		{
			"from": [8.783, 2.39044, 12.364],
			"to": [8.983, 2.49044, 16.4],
			"rotation": {"angle": 0, "axis": "z", "origin": [8.88299, 2.74786, 12.521]},
			"faces": {
				"north": {"uv": [2.4375, 4.0625, 2.46875, 4.4375], "rotation": 90, "texture": "#1"},
				"east": {"uv": [2.4375, 4.0625, 2.46875, 4.4375], "rotation": 270, "texture": "#1"},
				"south": {"uv": [2.4375, 4.0625, 2.46875, 4.4375], "rotation": 270, "texture": "#1"},
				"west": {"uv": [2.4375, 4.0625, 2.46875, 4.4375], "rotation": 270, "texture": "#1"},
				"up": {"uv": [2.4375, 4.0625, 2.46875, 4.4375], "rotation": 270, "texture": "#1"},
				"down": {"uv": [2.4375, 4.0625, 2.46875, 4.4375], "rotation": 270, "texture": "#1"}
			}
		},
		{
			"from": [8.70097, 2.42442, 12.364],
			"to": [9.00097, 2.94042, 16.4],
			"rotation": {"angle": 45, "axis": "z", "origin": [8.88299, 2.74786, 12.521]},
			"faces": {
				"north": {"uv": [2.4375, 4.0625, 2.46875, 4.4375], "rotation": 90, "texture": "#1"},
				"east": {"uv": [2.4375, 4.0625, 2.46875, 4.4375], "rotation": 270, "texture": "#1"},
				"south": {"uv": [2.4375, 4.0625, 2.46875, 4.4375], "rotation": 270, "texture": "#1"},
				"west": {"uv": [2.4375, 4.0625, 2.46875, 4.4375], "rotation": 270, "texture": "#1"},
				"up": {"uv": [2.4375, 4.0625, 2.46875, 4.4375], "rotation": 270, "texture": "#1"},
				"down": {"uv": [2.4375, 4.0625, 2.46875, 4.4375], "rotation": 270, "texture": "#1"}
			}
		},
		{
			"from": [8.74333, 2.94963, 14.156],
			"to": [9.04333, 3.04963, 16.4],
			"rotation": {"angle": 45, "axis": "z", "origin": [8.88299, 2.74786, 12.521]},
			"faces": {
				"north": {"uv": [2.4375, 4.0625, 2.46875, 4.4375], "rotation": 90, "texture": "#1"},
				"east": {"uv": [2.4375, 4.0625, 2.46875, 4.4375], "rotation": 270, "texture": "#1"},
				"south": {"uv": [2.4375, 4.0625, 2.46875, 4.4375], "rotation": 270, "texture": "#1"},
				"west": {"uv": [2.4375, 4.0625, 2.46875, 4.4375], "rotation": 270, "texture": "#1"},
				"up": {"uv": [2.4375, 4.0625, 2.46875, 4.4375], "rotation": 270, "texture": "#1"},
				"down": {"uv": [2.4375, 4.0625, 2.46875, 4.4375], "rotation": 270, "texture": "#1"}
			}
		},
		{
			"from": [8.783, 2.46129, 14.156],
			"to": [8.983, 3.07329, 16.4],
			"rotation": {"angle": 0, "axis": "z", "origin": [8.88299, 2.74786, 12.521]},
			"faces": {
				"north": {"uv": [2.4375, 4.0625, 2.46875, 4.4375], "rotation": 90, "texture": "#1"},
				"east": {"uv": [2.4375, 4.0625, 2.46875, 4.4375], "rotation": 270, "texture": "#1"},
				"south": {"uv": [2.4375, 4.0625, 2.46875, 4.4375], "rotation": 270, "texture": "#1"},
				"west": {"uv": [2.4375, 4.0625, 2.46875, 4.4375], "rotation": 270, "texture": "#1"},
				"up": {"uv": [2.4375, 4.0625, 2.46875, 4.4375], "rotation": 270, "texture": "#1"},
				"down": {"uv": [2.4375, 4.0625, 2.46875, 4.4375], "rotation": 270, "texture": "#1"}
			}
		},
		{
			"from": [8.559, 2.05521, 16.19749],
			"to": [9.207, 2.66721, 16.77749],
			"rotation": {"angle": 22.5, "axis": "x", "origin": [8.883, 2.36121, 17.31949]},
			"faces": {
				"north": {"uv": [2.4375, 4.0625, 2.46875, 4.4375], "rotation": 90, "texture": "#1"},
				"east": {"uv": [2.4375, 4.0625, 2.46875, 4.4375], "rotation": 270, "texture": "#1"},
				"south": {"uv": [2.4375, 4.0625, 2.46875, 4.4375], "rotation": 270, "texture": "#1"},
				"west": {"uv": [2.4375, 4.0625, 2.46875, 4.4375], "rotation": 270, "texture": "#1"},
				"up": {"uv": [0.625, 2.89583, 0.69792, 2.92708], "rotation": 90, "texture": "#1"},
				"down": {"uv": [2.4375, 4.0625, 2.46875, 4.4375], "rotation": 270, "texture": "#1"}
			}
		},
		{
			"from": [8.559, 2.23964, 16.77651],
			"to": [9.207, 2.81964, 17.38851],
			"rotation": {"angle": -22.5, "axis": "x", "origin": [8.883, 1.69764, 17.08251]},
			"faces": {
				"north": {"uv": [2.4375, 4.0625, 2.46875, 4.4375], "rotation": 90, "texture": "#1"},
				"east": {"uv": [2.4375, 4.0625, 2.46875, 4.4375], "rotation": 180, "texture": "#1"},
				"south": {"uv": [0.625, 2.89583, 0.69792, 2.92708], "rotation": 90, "texture": "#1"},
				"west": {"uv": [2.4375, 4.0625, 2.46875, 4.4375], "texture": "#1"},
				"up": {"uv": [2.4375, 4.0625, 2.46875, 4.4375], "rotation": 270, "texture": "#1"},
				"down": {"uv": [2.4375, 4.0625, 2.46875, 4.4375], "rotation": 270, "texture": "#1"}
			}
		},
		{
			"from": [8.4885, 1.1905, 16.2125],
			"to": [9.2555, 2.2595, 17.8215],
			"rotation": {"angle": 0, "axis": "y", "origin": [8.875, 1.725, 16.375]},
			"faces": {
				"north": {"uv": [3.61458, 14.25, 5.61458, 15.91667], "texture": "#1"},
				"east": {"uv": [0.48958, 1.29167, 2.48958, 0.875], "rotation": 90, "texture": "#1"},
				"south": {"uv": [1.73958, 2.03125, 2.77083, 2.04167], "texture": "#1"},
				"west": {"uv": [0.45833, 0.875, 2.49033, 1.35967], "rotation": 90, "texture": "#1"},
				"up": {"uv": [2.45833, 1.29167, 0.45833, 0.875], "texture": "#1"},
				"down": {"uv": [2.45833, 0.875, 0.45833, 1.29167], "texture": "#1"}
			}
		},
		{
			"from": [8.4885, 1.2865, 20.8925],
			"to": [9.2555, 2.1635, 21.5415],
			"rotation": {"angle": 0, "axis": "y", "origin": [8.875, 1.725, 16.375]},
			"faces": {
				"north": {"uv": [0.45833, 0.875, 2.45833, 1.26042], "rotation": 90, "texture": "#1"},
				"east": {"uv": [0.45833, 0.875, 2.45833, 1.26042], "rotation": 90, "texture": "#1"},
				"south": {"uv": [1.73958, 2.03125, 2.77083, 2.04167], "texture": "#1"},
				"west": {"uv": [0.45833, 0.875, 2.45833, 1.26042], "rotation": 90, "texture": "#1"},
				"up": {"uv": [2.45833, 0.875, 0.45833, 1.26042], "rotation": 180, "texture": "#1"},
				"down": {"uv": [2.45833, 1.26042, 0.45833, 0.875], "rotation": 180, "texture": "#1"}
			}
		},
		{
			"from": [8.67188, 1.31137, 21.53312],
			"to": [9.07813, 2.15662, 21.83887],
			"rotation": {"angle": 0, "axis": "y", "origin": [8.875, 2.14183, 22.16882]},
			"faces": {
				"north": {"uv": [0.67708, 2.9375, 0.875, 3.0625], "texture": "#1"},
				"east": {"uv": [0.67708, 2.9375, 0.875, 3.0625], "texture": "#1"},
				"south": {"uv": [0.67708, 3.40625, 0.90625, 3.59375], "texture": "#1"},
				"west": {"uv": [0.625, 2.89583, 0.69792, 2.98958], "texture": "#1"},
				"up": {"uv": [0.67708, 2.9375, 0.875, 3.0625], "texture": "#1"},
				"down": {"uv": [0.67708, 2.9375, 0.875, 3.0625], "texture": "#1"}
			}
		},
		{
			"from": [8.67188, 1.70279, 21.70885],
			"to": [9.07813, 2.54804, 22.0146],
			"rotation": {"angle": 45, "axis": "x", "origin": [8.875, 2.14183, 22.16882]},
			"faces": {
				"north": {"uv": [0.67708, 2.9375, 0.875, 3.0625], "texture": "#1"},
				"east": {"uv": [0.67708, 2.9375, 0.875, 3.0625], "texture": "#1"},
				"south": {"uv": [0.67708, 3.40625, 0.90625, 3.59375], "texture": "#1"},
				"west": {"uv": [0.625, 2.89583, 0.69792, 2.98958], "texture": "#1"},
				"up": {"uv": [0.67708, 2.9375, 0.875, 3.0625], "texture": "#1"},
				"down": {"uv": [0.67708, 2.9375, 0.875, 3.0625], "texture": "#1"}
			}
		},
		{
			"from": [8.67188, 2.58997, 22.55653],
			"to": [9.07813, 2.89572, 23.40178],
			"rotation": {"angle": 45, "axis": "x", "origin": [8.875, 2.3186, 22.59559]},
			"faces": {
				"north": {"uv": [0.67708, 2.9375, 0.875, 3.0625], "rotation": 180, "texture": "#1"},
				"east": {"uv": [0.67708, 2.9375, 0.875, 3.0625], "rotation": 270, "texture": "#1"},
				"south": {"uv": [0.67708, 2.9375, 0.875, 3.0625], "texture": "#1"},
				"west": {"uv": [0.625, 2.89583, 0.69792, 2.98958], "rotation": 90, "texture": "#1"},
				"up": {"uv": [0.67708, 2.9375, 0.875, 3.0625], "rotation": 180, "texture": "#1"},
				"down": {"uv": [0.67708, 3.40625, 0.90625, 3.59375], "texture": "#1"}
			}
		},
		{
			"from": [8.67188, 2.44856, 22.13081],
			"to": [9.07813, 2.75431, 22.97606],
			"rotation": {"angle": 0, "axis": "y", "origin": [8.875, 2.3186, 22.34559]},
			"faces": {
				"north": {"uv": [0.67708, 2.9375, 0.875, 3.0625], "rotation": 180, "texture": "#1"},
				"east": {"uv": [0.67708, 2.9375, 0.875, 3.0625], "rotation": 270, "texture": "#1"},
				"south": {"uv": [0.67708, 2.9375, 0.875, 3.0625], "texture": "#1"},
				"west": {"uv": [0.625, 2.89583, 0.69792, 2.98958], "rotation": 90, "texture": "#1"},
				"up": {"uv": [0.67708, 2.9375, 0.875, 3.0625], "rotation": 180, "texture": "#1"},
				"down": {"uv": [0.67708, 3.40625, 0.90625, 3.59375], "texture": "#1"}
			}
		},
		{
			"from": [8.67188, 1.31137, 23.26799],
			"to": [9.07813, 2.15662, 23.57374],
			"rotation": {"angle": 0, "axis": "y", "origin": [8.875, 1.30028, 22.68046]},
			"faces": {
				"north": {"uv": [0.67708, 3.40625, 0.90625, 3.59375], "rotation": 180, "texture": "#1"},
				"east": {"uv": [0.67708, 2.9375, 0.875, 3.0625], "rotation": 180, "texture": "#1"},
				"south": {"uv": [0.67708, 2.9375, 0.875, 3.0625], "rotation": 180, "texture": "#1"},
				"west": {"uv": [0.625, 2.89583, 0.69792, 2.98958], "rotation": 180, "texture": "#1"},
				"up": {"uv": [0.67708, 2.9375, 0.875, 3.0625], "texture": "#1"},
				"down": {"uv": [0.67708, 2.9375, 0.875, 3.0625], "texture": "#1"}
			}
		},
		{
			"from": [8.67188, 0.67649, 22.4747],
			"to": [9.07813, 0.98224, 23.31995],
			"rotation": {"angle": -45, "axis": "x", "origin": [8.875, 1.30028, 22.68046]},
			"faces": {
				"north": {"uv": [0.67708, 2.9375, 0.875, 3.0625], "rotation": 180, "texture": "#1"},
				"east": {"uv": [0.67708, 2.9375, 0.875, 3.0625], "rotation": 90, "texture": "#1"},
				"south": {"uv": [0.67708, 2.9375, 0.875, 3.0625], "texture": "#1"},
				"west": {"uv": [0.625, 2.89583, 0.69792, 2.98958], "rotation": 270, "texture": "#1"},
				"up": {"uv": [0.67708, 3.40625, 0.90625, 3.59375], "texture": "#1"},
				"down": {"uv": [0.67708, 2.9375, 0.875, 3.0625], "rotation": 180, "texture": "#1"}
			}
		},
		{
			"from": [8.67188, 0.71369, 22.13081],
			"to": [9.07813, 1.01944, 22.97606],
			"rotation": {"angle": 0, "axis": "y", "origin": [8.875, 1.30028, 22.68046]},
			"faces": {
				"north": {"uv": [0.67708, 2.9375, 0.875, 3.0625], "rotation": 180, "texture": "#1"},
				"east": {"uv": [0.67708, 2.9375, 0.875, 3.0625], "rotation": 90, "texture": "#1"},
				"south": {"uv": [0.67708, 2.9375, 0.875, 3.0625], "texture": "#1"},
				"west": {"uv": [0.625, 2.89583, 0.69792, 2.98958], "rotation": 270, "texture": "#1"},
				"up": {"uv": [0.67708, 3.40625, 0.90625, 3.59375], "texture": "#1"},
				"down": {"uv": [0.67708, 2.9375, 0.875, 3.0625], "rotation": 180, "texture": "#1"}
			}
		},
		{
			"from": [8.67188, 1.27417, 21.87702],
			"to": [9.07813, 2.11942, 22.18277],
			"rotation": {"angle": -45, "axis": "x", "origin": [8.875, 1.30028, 22.68046]},
			"faces": {
				"north": {"uv": [0.67708, 2.9375, 0.875, 3.0625], "texture": "#1"},
				"east": {"uv": [0.67708, 2.9375, 0.875, 3.0625], "texture": "#1"},
				"south": {"uv": [0.67708, 3.40625, 0.90625, 3.59375], "texture": "#1"},
				"west": {"uv": [0.625, 2.89583, 0.69792, 2.98958], "texture": "#1"},
				"up": {"uv": [0.67708, 2.9375, 0.875, 3.0625], "texture": "#1"},
				"down": {"uv": [0.67708, 2.9375, 0.875, 3.0625], "texture": "#1"}
			}
		},
		{
			"from": [8.75, 1.32, 2.488],
			"to": [9, 2.5, 16],
			"rotation": {"angle": 0, "axis": "y", "origin": [8.875, 2.09547, 2.71467]},
			"faces": {
				"north": {"uv": [2.47917, 2.89583, 2.41667, 3.23958], "texture": "#1"},
				"east": {"uv": [2.41667, 3.11458, 2.69792, 8.14583], "rotation": 90, "texture": "#1"},
				"south": {"uv": [13.66667, 0.33333, 15.66667, 2.33333], "texture": "#1"},
				"west": {"uv": [2.41667, 2.89583, 2.72917, 8.11458], "rotation": 90, "texture": "#1"},
				"up": {"uv": [2.41667, 2.89583, 2.41667, 8.11458], "texture": "#1"},
				"down": {"uv": [2.41667, 2.89583, 2.79167, 4.55208], "texture": "#1"}
			}
		},
		{
			"from": [8.75, 2.06967, 0.95855],
			"to": [8.995, 2.5, 2.488],
			"rotation": {"angle": 0, "axis": "x", "origin": [8.875, 1.79567, 2.57855]},
			"faces": {
				"north": {"uv": [2.47917, 2.89583, 2.41667, 3.23958], "texture": "#1"},
				"east": {"uv": [2.54167, 3.02083, 2.51042, 5.05208], "rotation": 270, "texture": "#1"},
				"south": {"uv": [13.66667, 0.33333, 15.66667, 2.33333], "texture": "#1"},
				"west": {"uv": [2.54167, 3.02083, 2.51042, 5.05208], "rotation": 270, "texture": "#1"},
				"up": {"uv": [2.41667, 2.89583, 2.41667, 8.11458], "texture": "#1"},
				"down": {"uv": [2.41667, 2.89583, 2.79167, 4.55208], "texture": "#1"}
			}
		},
		{
			"from": [8.755, 1.46167, 1.40655],
			"to": [8.995, 1.87367, 4.23055],
			"rotation": {"angle": 22.5, "axis": "x", "origin": [8.875, 1.79567, 2.57855]},
			"faces": {
				"north": {"uv": [2.47917, 2.89583, 2.41667, 3.23958], "texture": "#1"},
				"east": {"uv": [2.54167, 3.02083, 2.51042, 5.05208], "rotation": 270, "texture": "#1"},
				"south": {"uv": [13.66667, 0.33333, 15.66667, 2.33333], "texture": "#1"},
				"west": {"uv": [2.54167, 3.02083, 2.51042, 5.05208], "rotation": 270, "texture": "#1"},
				"up": {"uv": [2.41667, 2.89583, 2.41667, 8.11458], "texture": "#1"},
				"down": {"uv": [2.41667, 2.89583, 2.79167, 4.55208], "texture": "#1"}
			}
		},
		{
			"from": [8.755, 1.58967, 1.40655],
			"to": [8.995, 2.00167, 4.23055],
			"rotation": {"angle": 22.5, "axis": "x", "origin": [8.875, 1.79567, 2.57855]},
			"faces": {
				"north": {"uv": [2.47917, 2.89583, 2.41667, 3.23958], "texture": "#1"},
				"east": {"uv": [2.54167, 3.02083, 2.51042, 5.05208], "rotation": 270, "texture": "#1"},
				"south": {"uv": [13.66667, 0.33333, 15.66667, 2.33333], "texture": "#1"},
				"west": {"uv": [2.54167, 3.02083, 2.51042, 5.05208], "rotation": 270, "texture": "#1"},
				"up": {"uv": [2.41667, 2.89583, 2.41667, 8.11458], "texture": "#1"},
				"down": {"uv": [2.41667, 2.89583, 2.79167, 4.55208], "texture": "#1"}
			}
		},
		{
			"from": [8.745, 0.886, 3.128],
			"to": [9.005, 1.316, 15.75],
			"rotation": {"angle": 0, "axis": "y", "origin": [8.875, 0.91147, 2.71467]},
			"faces": {
				"north": {"uv": [0.09375, 3.39583, 0.3125, 4.20833], "texture": "#1"},
				"east": {"uv": [0.09375, 3.39583, 0.3125, 4.20833], "texture": "#1"},
				"south": {"uv": [13.66667, 0.33333, 15.66667, 2.33333], "texture": "#1"},
				"west": {"uv": [0.09375, 3.39583, 0.3125, 4.20833], "texture": "#1"},
				"up": {"uv": [13.66667, 0.33333, 15.66667, 2.33333], "texture": "#1"},
				"down": {"uv": [0.09375, 3.39583, 0.3125, 4.20833], "texture": "#1"}
			}
		},
		{
			"from": [8.76971, 0.24158, 16.18353],
			"to": [8.96561, 0.30958, 16.31553],
			"rotation": {"angle": -22.5, "axis": "x", "origin": [8.86766, 0.29158, 16.24953]},
			"faces": {
				"north": {"uv": [0.65625, 4.17708, 0.63542, 4.27083], "texture": "#1"},
				"east": {"uv": [0.65625, 4.17708, 0.63542, 4.27083], "texture": "#1"},
				"south": {"uv": [0.65625, 4.17708, 0.63542, 4.27083], "texture": "#1"},
				"west": {"uv": [0.65625, 4.17708, 0.63542, 4.27083], "texture": "#1"},
				"up": {"uv": [0.65625, 4.17708, 0.63542, 4.27083], "texture": "#1"},
				"down": {"uv": [0.65625, 4.17708, 0.63542, 4.27083], "texture": "#1"}
			}
		},
		{
			"from": [8.76971, 0.28295, 16.18167],
			"to": [8.96561, 0.83095, 16.31367],
			"rotation": {"angle": 0, "axis": "y", "origin": [8.86766, 1.38895, 16.24767]},
			"faces": {
				"north": {"uv": [0.65625, 4.17708, 0.63542, 4.27083], "texture": "#1"},
				"east": {"uv": [0.65625, 4.17708, 0.63542, 4.27083], "texture": "#1"},
				"south": {"uv": [0.65625, 4.17708, 0.63542, 4.27083], "texture": "#1"},
				"west": {"uv": [0.65625, 4.17708, 0.63542, 4.27083], "texture": "#1"},
				"up": {"uv": [0.65625, 4.17708, 0.63542, 4.27083], "texture": "#1"},
				"down": {"uv": [0.65625, 4.17708, 0.63542, 4.27083], "texture": "#1"}
			}
		},
		{
			"from": [8.76971, 0.11488, 16.32492],
			"to": [8.96561, 0.24688, 16.39292],
			"rotation": {"angle": 22.5, "axis": "x", "origin": [8.86766, 0.18088, 16.34292]},
			"faces": {
				"north": {"uv": [0.65625, 4.17708, 0.63542, 4.27083], "texture": "#1"},
				"east": {"uv": [0.65625, 4.17708, 0.63542, 4.27083], "texture": "#1"},
				"south": {"uv": [0.65625, 4.17708, 0.63542, 4.27083], "texture": "#1"},
				"west": {"uv": [0.65625, 4.17708, 0.63542, 4.27083], "texture": "#1"},
				"up": {"uv": [0.65625, 4.17708, 0.63542, 4.27083], "texture": "#1"},
				"down": {"uv": [0.65625, 4.17708, 0.63542, 4.27083], "texture": "#1"}
			}
		},
		{
			"from": [8.76971, 0.18807, 16.24909],
			"to": [8.96561, 0.32007, 16.38109],
			"rotation": {"angle": 45, "axis": "x", "origin": [8.86766, 0.25407, 16.26709]},
			"faces": {
				"north": {"uv": [0.65625, 4.17708, 0.63542, 4.27083], "texture": "#1"},
				"east": {"uv": [0.65625, 4.17708, 0.63542, 4.27083], "texture": "#1"},
				"south": {"uv": [0.65625, 4.17708, 0.63542, 4.27083], "texture": "#1"},
				"west": {"uv": [0.65625, 4.17708, 0.63542, 4.27083], "texture": "#1"},
				"up": {"uv": [0.65625, 4.17708, 0.63542, 4.27083], "texture": "#1"},
				"down": {"uv": [0.65625, 4.17708, 0.63542, 4.27083], "texture": "#1"}
			}
		},
		{
			"from": [8.76971, 0.10077, 16.36385],
			"to": [8.96561, 0.23277, 17.48785],
			"rotation": {"angle": 0, "axis": "y", "origin": [8.86766, 0.16677, 16.38185]},
			"faces": {
				"north": {"uv": [0.65625, 4.17708, 0.63542, 4.27083], "texture": "#1"},
				"east": {"uv": [0.65625, 4.17708, 0.63542, 4.27083], "texture": "#1"},
				"south": {"uv": [0.65625, 4.17708, 0.63542, 4.27083], "texture": "#1"},
				"west": {"uv": [0.65625, 4.17708, 0.63542, 4.27083], "texture": "#1"},
				"up": {"uv": [0.65625, 4.17708, 0.63542, 4.27083], "texture": "#1"},
				"down": {"uv": [0.65625, 4.17708, 0.63542, 4.27083], "texture": "#1"}
			}
		},
		{
			"from": [8.76971, 0.71616, 16.17961],
			"to": [8.96561, 0.94416, 16.24761],
			"rotation": {"angle": 45, "axis": "x", "origin": [8.86766, -0.16184, 16.18161]},
			"faces": {
				"north": {"uv": [0.21875, 3.98958, 0.19792, 4.08333], "texture": "#1"},
				"east": {"uv": [0.21875, 3.98958, 0.19792, 4.08333], "texture": "#1"},
				"south": {"uv": [0.21875, 3.98958, 0.19792, 4.08333], "texture": "#1"},
				"west": {"uv": [0.21875, 3.98958, 0.19792, 4.08333], "texture": "#1"},
				"up": {"uv": [0.21875, 3.98958, 0.19792, 4.08333], "texture": "#1"},
				"down": {"uv": [0.21875, 3.98958, 0.19792, 4.08333], "texture": "#1"}
			}
		},
		{
			"from": [8.76971, 0.66077, 16.63585],
			"to": [8.96561, 0.95277, 16.70385],
			"rotation": {"angle": 22.5, "axis": "x", "origin": [8.86766, -0.15323, 16.63785]},
			"faces": {
				"north": {"uv": [0.21875, 3.98958, 0.19792, 4.08333], "texture": "#1"},
				"east": {"uv": [0.21875, 3.98958, 0.19792, 4.08333], "texture": "#1"},
				"south": {"uv": [0.21875, 3.98958, 0.19792, 4.08333], "texture": "#1"},
				"west": {"uv": [0.21875, 3.98958, 0.19792, 4.08333], "texture": "#1"},
				"up": {"uv": [0.21875, 3.98958, 0.19792, 4.08333], "texture": "#1"},
				"down": {"uv": [0.21875, 3.98958, 0.19792, 4.08333], "texture": "#1"}
			}
		},
		{
			"from": [8.745, 2.37789, 0.50611],
			"to": [9.005, 2.51382, 1.02604],
			"rotation": {"angle": 0, "axis": "y", "origin": [8.875, 1.92528, 3.33471]},
			"faces": {
				"north": {"uv": [0.09375, 3.39583, 0.3125, 4.20833], "texture": "#1"},
				"east": {"uv": [0.09375, 3.39583, 0.3125, 4.20833], "texture": "#1"},
				"south": {"uv": [13.66667, 0.33333, 15.66667, 2.33333], "texture": "#1"},
				"west": {"uv": [0.09375, 3.39583, 0.3125, 4.20833], "texture": "#1"},
				"up": {"uv": [0.09375, 3.39583, 0.3125, 4.20833], "texture": "#1"},
				"down": {"uv": [0.09375, 3.39583, 0.3125, 4.20833], "texture": "#1"}
			}
		},
		{
			"from": [8.745, 1.15353, 0.05814],
			"to": [9.005, 1.95953, 0.38614],
			"rotation": {"angle": -45, "axis": "x", "origin": [8.871, 2.95853, 0.01114]},
			"faces": {
				"north": {"uv": [0.09375, 3.39583, 0.3125, 4.20833], "texture": "#1"},
				"east": {"uv": [0.09375, 3.39583, 0.3125, 4.20833], "texture": "#1"},
				"south": {"uv": [13.66667, 0.33333, 15.66667, 2.33333], "texture": "#1"},
				"west": {"uv": [0.09375, 3.39583, 0.3125, 4.20833], "texture": "#1"},
				"up": {"uv": [0.09375, 3.39583, 0.3125, 4.20833], "texture": "#1"},
				"down": {"uv": [0.09375, 3.39583, 0.3125, 4.20833], "texture": "#1"}
			}
		},
		{
			"from": [8.745, 2.06735, 0.56018],
			"to": [9.005, 2.36135, 0.72818],
			"rotation": {"angle": -45, "axis": "x", "origin": [8.871, 2.30435, 0.51318]},
			"faces": {
				"north": {"uv": [0.09375, 3.39583, 0.3125, 4.20833], "texture": "#1"},
				"east": {"uv": [0.09375, 3.39583, 0.3125, 4.20833], "texture": "#1"},
				"south": {"uv": [13.66667, 0.33333, 15.66667, 2.33333], "texture": "#1"},
				"west": {"uv": [0.09375, 3.39583, 0.3125, 4.20833], "texture": "#1"},
				"up": {"uv": [0.09375, 3.39583, 0.3125, 4.20833], "texture": "#1"},
				"down": {"uv": [0.09375, 3.39583, 0.3125, 4.20833], "texture": "#1"}
			}
		},
		{
			"from": [8.745, 2.06735, 0.78418],
			"to": [9.005, 2.36135, 0.95218],
			"rotation": {"angle": -45, "axis": "x", "origin": [8.871, 2.30435, 0.73718]},
			"faces": {
				"north": {"uv": [0.09375, 3.39583, 0.3125, 4.20833], "texture": "#1"},
				"east": {"uv": [0.09375, 3.39583, 0.3125, 4.20833], "texture": "#1"},
				"south": {"uv": [13.66667, 0.33333, 15.66667, 2.33333], "texture": "#1"},
				"west": {"uv": [0.09375, 3.39583, 0.3125, 4.20833], "texture": "#1"},
				"up": {"uv": [0.09375, 3.39583, 0.3125, 4.20833], "texture": "#1"},
				"down": {"uv": [0.09375, 3.39583, 0.3125, 4.20833], "texture": "#1"}
			}
		},
		{
			"from": [8.745, 4.04356, 1.71704],
			"to": [9.005, 4.76105, 1.858],
			"rotation": {"angle": -45, "axis": "x", "origin": [8.875, 2.21503, 4.2811]},
			"faces": {
				"north": {"uv": [0.09375, 3.39583, 0.3125, 4.20833], "texture": "#1"},
				"east": {"uv": [0.09375, 3.39583, 0.3125, 4.20833], "texture": "#1"},
				"south": {"uv": [13.66667, 0.33333, 15.66667, 2.33333], "texture": "#1"},
				"west": {"uv": [0.09375, 3.39583, 0.3125, 4.20833], "texture": "#1"},
				"up": {"uv": [0.09375, 3.39583, 0.3125, 4.20833], "texture": "#1"},
				"down": {"uv": [0.09375, 3.39583, 0.3125, 4.20833], "texture": "#1"}
			}
		},
		{
			"from": [8.745, 1.53467, 1.17489],
			"to": [9.005, 1.98207, 3.28874],
			"rotation": {"angle": 22.5, "axis": "x", "origin": [8.871, 1.61437, 1.57781]},
			"faces": {
				"north": {"uv": [0.09375, 3.39583, 0.3125, 4.20833], "rotation": 180, "texture": "#1"},
				"east": {"uv": [0.09375, 3.39583, 0.3125, 4.20833], "rotation": 90, "texture": "#1"},
				"south": {"uv": [0.09375, 3.39583, 0.3125, 4.20833], "texture": "#1"},
				"west": {"uv": [0.09375, 3.39583, 0.3125, 4.20833], "rotation": 270, "texture": "#1"},
				"up": {"uv": [13.66667, 0.33333, 15.66667, 2.33333], "texture": "#1"},
				"down": {"uv": [0.09375, 3.39583, 0.3125, 4.20833], "rotation": 180, "texture": "#1"}
			}
		}
	],
	"display": {
		"thirdperson_righthand": {
			"rotation": [90, 0, 0],
			"translation": [0, 9, 7.25]
		},
		"thirdperson_lefthand": {
			"rotation": [90, 0, 0],
			"translation": [1.5, 9, 7.25]
		},
		"firstperson_righthand": {
			"rotation": [18, 0, 0],
			"translation": [-5.75, 13, 0]
		},
		"firstperson_lefthand": {
			"rotation": [18, 0, 0],
			"translation": [-5.75, 13, 0]
		},
		"ground": {
			"translation": [0, 4.75, 0],
			"scale": [1, 0.65, 1]
		},
		"gui": {
			"rotation": [90, 46, 90],
			"translation": [-6.25, -3.5, 0],
			"scale": [1, 1.16, 0.85]
		},
		"fixed": {
			"rotation": [90, 135, 90],
			"translation": [1.25, -7.5, -2.25]
		}
	},
	"groups": [
		{
			"name": "handle",
			"origin": [8.875, 2.09547, 2.71467],
			"color": 0,
			"children": [
				{
					"name": "guard",
					"origin": [8.875, 0.3429, 21.75063],
					"color": 0,
					"children": [
						0,
						1,
						2,
						3,
						4,
						5,
						6,
						7,
						8,
						9,
						10,
						11,
						12,
						{
							"name": "group",
							"origin": [8.5076, 2.0854, 16.077],
							"color": 0,
							"children": [13, 14]
						},
						{
							"name": "group",
							"origin": [8.5076, 2.0854, 16.077],
							"color": 0,
							"children": [15, 16, 17]
						}
					]
				},
				{
					"name": "handle",
					"origin": [8.875, 1.725, 16.375],
					"color": 0,
					"children": [
						18,
						{
							"name": "group",
							"origin": [9.15842, 2.52386, 2.81],
							"color": 0,
							"children": [19, 20, 21, 22, 23, 24, 25, 26, 27, 28, 29, 30, 31, 32, 33, 34, 35, 36, 37, 38, 39, 40, 41, 42, 43, 44, 45, 46, 47, 48, 49, 50, 51, 52, 53, 54, 55, 56, 57, 58, 59, 60]
						},
						61,
						62
					]
				},
				{
					"name": "pommel",
					"origin": [8.875, 1.725, 16.375],
					"color": 0,
					"children": [63, 64, 65, 66, 67, 68, 69, 70]
				}
			]
		},
		{
			"name": "blade",
			"origin": [8.875, 2.73782, -3.29063],
			"color": 0,
			"children": [71, 72, 73, 74, 75, 76, 77, 78, 79, 80, 81, 82, 83, 84, 85, 86, 87, 88]
		}
	]
}