{
	"credit": "Made with Blockbench",
	"textures": {
		"1": "gci:items/common/vsmelee",
		"particle": "gci:items/common/vsmelee"
	},
	"elements": [
		{
			"from": [8.4885, 1.1905, 16.4045],
			"to": [9.2555, 2.2595, 17.8215],
			"rotation": {"angle": 0, "axis": "y", "origin": [8.875, 1.725, 16.567]},
			"faces": {
				"north": {"uv": [0.89583, 1.40625, 1.70833, 1.44792], "texture": "#1"},
				"east": {"uv": [0.48958, 1.29167, 2.48958, 0.875], "rotation": 90, "texture": "#1"},
				"south": {"uv": [1.73958, 2.03125, 2.77083, 2.04167], "texture": "#1"},
				"west": {"uv": [0.45833, 0.875, 2.45833, 1.29167], "rotation": 90, "texture": "#1"},
				"up": {"uv": [2.45833, 1.29167, 0.45833, 0.875], "texture": "#1"},
				"down": {"uv": [2.45833, 0.875, 0.45833, 1.29167], "texture": "#1"}
			}
		},
		{
			"from": [8.5845, 1.32608, 17.57691],
			"to": [9.1595, 2.15108, 21.06191],
			"rotation": {"angle": 0, "axis": "x", "origin": [8.872, 1.73858, 18.87141]},
			"faces": {
				"north": {"uv": [3.61458, 14.25, 5.61458, 15.91667], "texture": "#1"},
				"east": {"uv": [4.89583, 0.03125, 5.61458, 1.07292], "rotation": 90, "texture": "#1"},
				"south": {"uv": [3.86458, 12.15625, 5.86458, 13.82292], "texture": "#1"},
				"west": {"uv": [4.89583, 0.03125, 5.61458, 1.07292], "rotation": 90, "texture": "#1"},
				"up": {"uv": [5.11458, 0, 4.89583, 1.07292], "texture": "#1"},
				"down": {"uv": [5.55208, 1.07292, 5.39583, 0], "texture": "#1"}
			}
		},
		{
			"from": [8.5845, 0.13379, 20.59664],
			"to": [9.1595, 0.95879, 22.19364],
			"rotation": {"angle": 22.5, "axis": "x", "origin": [8.8735, 0.54629, 23.7943]},
			"faces": {
				"north": {"uv": [3.61458, 14.25, 5.61458, 15.91667], "texture": "#1"},
				"east": {"uv": [4.89583, 0.03125, 5.61458, 1.07292], "rotation": 90, "texture": "#1"},
				"south": {"uv": [3.86458, 12.15625, 5.86458, 13.82292], "texture": "#1"},
				"west": {"uv": [4.89583, 0.03125, 5.56658, 0.32492], "rotation": 90, "texture": "#1"},
				"up": {"uv": [5.05208, 0, 4.89583, 0.47917], "texture": "#1"},
				"down": {"uv": [5.61458, 2.10417, 5.39583, 0], "texture": "#1"}
			}
		},
		{
			"from": [8.4885, 0.84379, 21.91664],
			"to": [9.2555, 1.72079, 22.78964],
			"rotation": {"angle": 22.5, "axis": "x", "origin": [8.8735, 1.28229, 21.9703]},
			"faces": {
				"north": {"uv": [0.45833, 0.875, 2.45833, 1.26042], "rotation": 90, "texture": "#1"},
				"east": {"uv": [0.45833, 0.875, 2.45833, 1.26042], "rotation": 90, "texture": "#1"},
				"south": {"uv": [1.73958, 2.03125, 2.77083, 2.04167], "texture": "#1"},
				"west": {"uv": [0.45833, 0.875, 2.45833, 1.26042], "rotation": 90, "texture": "#1"},
				"up": {"uv": [2.45833, 0.875, 0.45833, 1.26042], "rotation": 180, "texture": "#1"},
				"down": {"uv": [2.45833, 1.26042, 0.45833, 0.875], "rotation": 180, "texture": "#1"}
			}
		},
		{
			"from": [8.5205, 0.39286, 22.23959],
			"to": [9.2235, 1.01554, 22.85973],
			"rotation": {"angle": -22.5, "axis": "x", "origin": [8.8735, 1.28229, 21.9703]},
			"faces": {
				"north": {"uv": [0.45833, 0.875, 2.45833, 1.26042], "rotation": 90, "texture": "#1"},
				"east": {"uv": [0.45833, 0.875, 2.45833, 1.26042], "rotation": 90, "texture": "#1"},
				"south": {"uv": [2.45833, 1.26042, 0.45833, 0.875], "rotation": 180, "texture": "#1"},
				"west": {"uv": [0.45833, 0.875, 2.45833, 1.26042], "rotation": 90, "texture": "#1"},
				"up": {"uv": [2.45833, 0.875, 0.45833, 1.26042], "rotation": 180, "texture": "#1"},
				"down": {"uv": [2.45833, 1.26042, 0.45833, 0.875], "rotation": 180, "texture": "#1"}
			}
		},
		{
			"from": [8.67188, 0.40082, 22.56024],
			"to": [9.07813, 0.74607, 22.76999],
			"rotation": {"angle": 22.5, "axis": "x", "origin": [8.875, 0.76168, 22.89902]},
			"faces": {
				"north": {"uv": [0.67708, 2.9375, 0.875, 3.0625], "texture": "#1"},
				"east": {"uv": [0.67708, 2.9375, 0.875, 3.0625], "texture": "#1"},
				"south": {"uv": [0.67708, 3.40625, 0.90625, 3.59375], "texture": "#1"},
				"west": {"uv": [0.625, 2.89583, 0.69792, 2.98958], "texture": "#1"},
				"up": {"uv": [0.67708, 2.9375, 0.875, 3.0625], "texture": "#1"},
				"down": {"uv": [0.67708, 2.9375, 0.875, 3.0625], "texture": "#1"}
			}
		},
		{
			"from": [8.67188, 0.78044, 22.64843],
			"to": [9.07813, 0.99019, 22.99368],
			"rotation": {"angle": -22.5, "axis": "x", "origin": [8.875, 0.76168, 22.89902]},
			"faces": {
				"north": {"uv": [0.67708, 2.9375, 0.875, 3.0625], "rotation": 180, "texture": "#1"},
				"east": {"uv": [0.67708, 2.9375, 0.875, 3.0625], "rotation": 270, "texture": "#1"},
				"south": {"uv": [0.67708, 2.9375, 0.875, 3.0625], "texture": "#1"},
				"west": {"uv": [0.625, 2.89583, 0.69792, 2.98958], "rotation": 90, "texture": "#1"},
				"up": {"uv": [0.67708, 2.9375, 0.875, 3.0625], "rotation": 180, "texture": "#1"},
				"down": {"uv": [0.67708, 3.40625, 0.90625, 3.59375], "texture": "#1"}
			}
		},
		{
			"from": [8.67188, 0.40082, 23.02806],
			"to": [9.07813, 0.74607, 23.23781],
			"rotation": {"angle": -22.5, "axis": "x", "origin": [8.875, 0.76168, 22.89902]},
			"faces": {
				"north": {"uv": [0.67708, 3.40625, 0.90625, 3.59375], "rotation": 180, "texture": "#1"},
				"east": {"uv": [0.67708, 2.9375, 0.875, 3.0625], "rotation": 180, "texture": "#1"},
				"south": {"uv": [0.67708, 2.9375, 0.875, 3.0625], "rotation": 180, "texture": "#1"},
				"west": {"uv": [0.625, 2.89583, 0.69792, 2.98958], "rotation": 180, "texture": "#1"},
				"up": {"uv": [0.67708, 2.9375, 0.875, 3.0625], "texture": "#1"},
				"down": {"uv": [0.67708, 2.9375, 0.875, 3.0625], "texture": "#1"}
			}
		},
		{
			"from": [8.67188, 0.78044, 22.80437],
			"to": [9.07813, 0.99019, 23.14962],
			"rotation": {"angle": 22.5, "axis": "x", "origin": [8.875, 0.76168, 22.89902]},
			"faces": {
				"north": {"uv": [0.67708, 2.9375, 0.875, 3.0625], "rotation": 180, "texture": "#1"},
				"east": {"uv": [0.67708, 2.9375, 0.875, 3.0625], "rotation": 270, "texture": "#1"},
				"south": {"uv": [0.67708, 2.9375, 0.875, 3.0625], "texture": "#1"},
				"west": {"uv": [0.625, 2.89583, 0.69792, 2.98958], "rotation": 90, "texture": "#1"},
				"up": {"uv": [0.67708, 2.9375, 0.875, 3.0625], "rotation": 180, "texture": "#1"},
				"down": {"uv": [0.67708, 3.40625, 0.90625, 3.59375], "texture": "#1"}
			}
		},
		{
			"from": [8.67188, 0.3698, 23.02806],
			"to": [9.07813, 0.71505, 23.23781],
			"rotation": {"angle": 22.5, "axis": "x", "origin": [8.875, 0.35419, 22.89902]},
			"faces": {
				"north": {"uv": [0.67708, 3.40625, 0.90625, 3.59375], "rotation": 180, "texture": "#1"},
				"east": {"uv": [0.67708, 2.9375, 0.875, 3.0625], "rotation": 180, "texture": "#1"},
				"south": {"uv": [0.67708, 2.9375, 0.875, 3.0625], "rotation": 180, "texture": "#1"},
				"west": {"uv": [0.625, 2.89583, 0.69792, 2.98958], "rotation": 180, "texture": "#1"},
				"up": {"uv": [0.67708, 2.9375, 0.875, 3.0625], "texture": "#1"},
				"down": {"uv": [0.67708, 2.9375, 0.875, 3.0625], "texture": "#1"}
			}
		},
		{
			"from": [8.67188, 0.12567, 22.80437],
			"to": [9.07813, 0.33542, 23.14962],
			"rotation": {"angle": -22.5, "axis": "x", "origin": [8.875, 0.35419, 22.89902]},
			"faces": {
				"north": {"uv": [0.67708, 2.9375, 0.875, 3.0625], "rotation": 180, "texture": "#1"},
				"east": {"uv": [0.67708, 2.9375, 0.875, 3.0625], "rotation": 90, "texture": "#1"},
				"south": {"uv": [0.67708, 2.9375, 0.875, 3.0625], "texture": "#1"},
				"west": {"uv": [0.625, 2.89583, 0.69792, 2.98958], "rotation": 270, "texture": "#1"},
				"up": {"uv": [0.67708, 3.40625, 0.90625, 3.59375], "texture": "#1"},
				"down": {"uv": [0.67708, 2.9375, 0.875, 3.0625], "rotation": 180, "texture": "#1"}
			}
		},
		{
			"from": [8.67188, 0.12567, 22.64843],
			"to": [9.07813, 0.33542, 22.99368],
			"rotation": {"angle": 22.5, "axis": "x", "origin": [8.875, 0.35419, 22.89902]},
			"faces": {
				"north": {"uv": [0.67708, 2.9375, 0.875, 3.0625], "rotation": 180, "texture": "#1"},
				"east": {"uv": [0.67708, 2.9375, 0.875, 3.0625], "rotation": 90, "texture": "#1"},
				"south": {"uv": [0.67708, 2.9375, 0.875, 3.0625], "texture": "#1"},
				"west": {"uv": [0.625, 2.89583, 0.69792, 2.98958], "rotation": 270, "texture": "#1"},
				"up": {"uv": [0.67708, 3.40625, 0.90625, 3.59375], "texture": "#1"},
				"down": {"uv": [0.67708, 2.9375, 0.875, 3.0625], "rotation": 180, "texture": "#1"}
			}
		},
		{
			"from": [8.67188, 0.3698, 22.56024],
			"to": [9.07813, 0.71505, 22.76999],
			"rotation": {"angle": -22.5, "axis": "x", "origin": [8.875, 0.35419, 22.89902]},
			"faces": {
				"north": {"uv": [0.67708, 2.9375, 0.875, 3.0625], "texture": "#1"},
				"east": {"uv": [0.67708, 2.9375, 0.875, 3.0625], "texture": "#1"},
				"south": {"uv": [0.67708, 3.40625, 0.90625, 3.59375], "texture": "#1"},
				"west": {"uv": [0.625, 2.89583, 0.69792, 2.98958], "texture": "#1"},
				"up": {"uv": [0.67708, 2.9375, 0.875, 3.0625], "texture": "#1"},
				"down": {"uv": [0.67708, 2.9375, 0.875, 3.0625], "texture": "#1"}
			}
		},
		{
			"from": [8.76, 1.32, 10.038],
			"to": [8.995, 2.116, 17.824],
			"rotation": {"angle": 0, "axis": "y", "origin": [8.875, 1.526, 9.052]},
			"faces": {
				"north": {"uv": [2.47917, 2.89583, 2.41667, 3.23958], "texture": "#1"},
				"east": {"uv": [2.41667, 8.11458, 2.57292, 2.89583], "rotation": 90, "texture": "#1"},
				"south": {"uv": [13.66667, 0.33333, 15.66667, 2.33333], "texture": "#1"},
				"west": {"uv": [2.41667, 2.89583, 2.57292, 6.95833], "rotation": 90, "texture": "#1"},
				"up": {"uv": [2.41667, 2.89583, 2.41667, 8.11458], "texture": "#1"},
				"down": {"uv": [2.41667, 2.89583, 2.79167, 4.55208], "texture": "#1"}
			}
		},
		{
			"from": [8.76, 1.704, 8.982],
			"to": [8.995, 2.116, 10.176],
			"rotation": {"angle": 0, "axis": "y", "origin": [8.875, 1.526, 18.78]},
			"faces": {
				"north": {"uv": [2.47917, 2.89583, 2.41667, 3.23958], "texture": "#1"},
				"east": {"uv": [2.41667, 2.89583, 2.41667, 2.92708], "rotation": 90, "texture": "#1"},
				"south": {"uv": [13.66667, 0.33333, 15.66667, 2.33333], "texture": "#1"},
				"west": {"uv": [2.41667, 2.89583, 2.41667, 2.92708], "rotation": 90, "texture": "#1"},
				"up": {"uv": [2.41667, 2.89583, 2.41667, 2.92708], "rotation": 90, "texture": "#1"},
				"down": {"uv": [2.41667, 2.89583, 2.79167, 4.55208], "texture": "#1"}
			}
		},
		{
			"from": [8.76, 1.672, 8.086],
			"to": [8.995, 1.988, 10.048],
			"rotation": {"angle": 22.5, "axis": "x", "origin": [8.875, 1.83, 9.451]},
			"faces": {
				"north": {"uv": [2.47917, 2.89583, 2.41667, 3.23958], "texture": "#1"},
				"east": {"uv": [2.41667, 2.89583, 2.41667, 2.92708], "rotation": 90, "texture": "#1"},
				"south": {"uv": [13.66667, 0.33333, 15.66667, 2.33333], "texture": "#1"},
				"west": {"uv": [2.41667, 2.89583, 2.41667, 2.92708], "rotation": 90, "texture": "#1"},
				"up": {"uv": [2.41667, 2.89583, 2.41667, 8.11458], "texture": "#1"},
				"down": {"uv": [2.41667, 2.89583, 2.79167, 4.55208], "texture": "#1"}
			}
		},
		{
			"from": [8.755, 1.302, 9.88],
			"to": [9, 1.668, 15.366],
			"rotation": {"angle": 0, "axis": "y", "origin": [8.875, 1.32747, 10.33067]},
			"faces": {
				"north": {"uv": [0.09375, 3.39583, 0.3125, 4.20833], "texture": "#1"},
				"east": {"uv": [0.09375, 3.39583, 0.3125, 4.20833], "texture": "#1"},
				"south": {"uv": [13.66667, 0.33333, 15.66667, 2.33333], "texture": "#1"},
				"west": {"uv": [0.09375, 3.39583, 0.3125, 4.20833], "texture": "#1"},
				"up": {"uv": [13.66667, 0.33333, 15.66667, 2.33333], "texture": "#1"},
				"down": {"uv": [0.09375, 3.39583, 0.3125, 4.20833], "texture": "#1"}
			}
		},
		{
			"from": [8.755, 4.54367, 9.54113],
			"to": [9, 5.10115, 9.87409],
			"rotation": {"angle": -45, "axis": "x", "origin": [8.875, 1.81913, 12.10519]},
			"faces": {
				"north": {"uv": [0.09375, 3.39583, 0.3125, 4.20833], "texture": "#1"},
				"east": {"uv": [0.09375, 3.39583, 0.3125, 4.20833], "texture": "#1"},
				"south": {"uv": [0.09375, 3.39583, 0.3125, 4.20833], "texture": "#1"},
				"west": {"uv": [0.09375, 3.39583, 0.3125, 4.20833], "texture": "#1"},
				"up": {"uv": [0.09375, 3.39583, 0.3125, 4.20833], "texture": "#1"},
				"down": {"uv": [0.09375, 3.39583, 0.3125, 4.20833], "texture": "#1"}
			}
		},
		{
			"from": [8.755, 4.63967, 9.44513],
			"to": [9, 5.22787, 9.61161],
			"rotation": {"angle": -45, "axis": "x", "origin": [8.875, 1.91513, 12.00919]},
			"faces": {
				"north": {"uv": [0.09375, 3.39583, 0.3125, 4.20833], "texture": "#1"},
				"east": {"uv": [0.09375, 3.39583, 0.3125, 4.20833], "texture": "#1"},
				"south": {"uv": [13.66667, 0.33333, 15.66667, 2.33333], "texture": "#1"},
				"west": {"uv": [0.09375, 3.39583, 0.3125, 4.20833], "texture": "#1"},
				"up": {"uv": [0.09375, 3.39583, 0.3125, 4.20833], "texture": "#1"},
				"down": {"uv": [0.09375, 3.39583, 0.3125, 4.20833], "texture": "#1"}
			}
		},
		{
			"from": [8.755, 2.3268, 7.97139],
			"to": [9, 2.56224, 8.20683],
			"rotation": {"angle": 0, "axis": "x", "origin": [8.875, 2.60555, 8.13787]},
			"faces": {
				"north": {"uv": [0.09375, 3.39583, 0.3125, 4.20833], "texture": "#1"},
				"east": {"uv": [0.09375, 3.39583, 0.3125, 4.20833], "texture": "#1"},
				"south": {"uv": [13.66667, 0.33333, 15.66667, 2.33333], "texture": "#1"},
				"west": {"uv": [0.09375, 3.39583, 0.3125, 4.20833], "texture": "#1"},
				"up": {"uv": [0.09375, 3.39583, 0.3125, 4.20833], "texture": "#1"},
				"down": {"uv": [0.09375, 3.39583, 0.3125, 4.20833], "texture": "#1"}
			}
		},
		{
			"from": [8.755, 2.44452, 7.85367],
			"to": [9, 2.56224, 8.07883],
			"rotation": {"angle": 0, "axis": "x", "origin": [8.875, 2.60555, 8.00987]},
			"faces": {
				"north": {"uv": [0.09375, 3.39583, 0.3125, 4.20833], "texture": "#1"},
				"east": {"uv": [0.09375, 3.39583, 0.3125, 4.20833], "texture": "#1"},
				"south": {"uv": [13.66667, 0.33333, 15.66667, 2.33333], "texture": "#1"},
				"west": {"uv": [0.09375, 3.39583, 0.3125, 4.20833], "texture": "#1"},
				"up": {"uv": [0.09375, 3.39583, 0.3125, 4.20833], "texture": "#1"},
				"down": {"uv": [0.09375, 3.39583, 0.3125, 4.20833], "texture": "#1"}
			}
		},
		{
			"from": [8.755, 1.95067, 8.40089],
			"to": [9, 2.30207, 10.04874],
			"rotation": {"angle": 22.5, "axis": "x", "origin": [8.871, 2.03037, 8.33781]},
			"faces": {
				"north": {"uv": [0.09375, 3.39583, 0.3125, 4.20833], "rotation": 180, "texture": "#1"},
				"east": {"uv": [0.09375, 3.39583, 0.3125, 4.20833], "rotation": 90, "texture": "#1"},
				"south": {"uv": [0.09375, 3.39583, 0.3125, 4.20833], "texture": "#1"},
				"west": {"uv": [0.09375, 3.39583, 0.3125, 4.20833], "rotation": 270, "texture": "#1"},
				"up": {"uv": [13.66667, 0.33333, 15.66667, 2.33333], "texture": "#1"},
				"down": {"uv": [0.09375, 3.39583, 0.3125, 4.20833], "rotation": 180, "texture": "#1"}
			}
		},
		{
			"from": [8.745, 1.95067, 14.36689],
			"to": [9.005, 2.30207, 15.55274],
			"rotation": {"angle": 22.5, "axis": "x", "origin": [8.871, 2.03037, 13.84181]},
			"faces": {
				"north": {"uv": [0.84375, 3.39583, 0.84375, 3.39583], "rotation": 90, "texture": "#1"},
				"east": {"uv": [0.84375, 3.39583, 0.84375, 3.39583], "rotation": 90, "texture": "#1"},
				"south": {"uv": [0.84375, 3.39583, 0.84375, 3.39583], "rotation": 90, "texture": "#1"},
				"west": {"uv": [0.84375, 3.39583, 0.84375, 3.39583], "rotation": 90, "texture": "#1"},
				"up": {"uv": [0.84375, 3.39583, 0.84375, 3.39583], "rotation": 90, "texture": "#1"},
				"down": {"uv": [0.84375, 3.39583, 0.84375, 3.39583], "rotation": 90, "texture": "#1"}
			}
		}
	],
	"display": {
		"thirdperson_righthand": {
			"rotation": [90, 0, 0],
			"translation": [0, 9, 7.25]
		},
		"thirdperson_lefthand": {
			"rotation": [90, 0, 0],
			"translation": [1.5, 9, 7.25]
		},
		"firstperson_righthand": {
			"rotation": [45, 0, 0],
			"translation": [-1.5, 13, 0]
		},
		"firstperson_lefthand": {
			"rotation": [45, 0, 0],
			"translation": [-1.5, 13, 0]
		},
		"ground": {
			"translation": [0, 4.75, 0],
			"scale": [1, 0.65, 1]
		},
		"gui": {
			"rotation": [90, 46, 90],
			"translation": [-9.25, -4.5, 0],
			"scale": [1, 1.37, 0.85]
		},
		"fixed": {
			"rotation": [90, 135, 90],
			"translation": [-0.5, -9, -2.25]
		}
	},
	"groups": [
		{
			"name": "handle",
			"origin": [8.875, 2.09547, 2.71467],
			"color": 0,
			"children": [
				{
					"name": "handle",
					"origin": [8.875, 1.725, 16.375],
					"color": 0,
					"children": [0, 1, 2, 3, 4]
				},
				{
					"name": "pommel",
					"origin": [8.875, 1.725, 16.375],
					"color": 0,
					"children": [5, 6, 7, 8, 9, 10, 11, 12]
				}
			]
		},
		{
			"name": "blade",
			"origin": [8.875, 2.73782, -3.29063],
			"color": 0,
			"children": [
				13,
				14,
				15,
				16,
				17,
				18,
				19,
				20,
				21,
				22,
				{
					"name": "group",
					"origin": [8.875, 1.99837, 10.86181],
					"color": 0,
					"children": []
				},
				{
					"name": "group",
					"origin": [8.875, 1.99837, 10.86181],
					"color": 0,
					"children": []
				}
			]
		}
	]
}