{
    "textures": {
        "1": "gci:items/gun_hsmg/barrel_uni_compensator",
        "2": "gci:items/gun_hsmg/arrel_uni_supressor",
        "3": "gci:items/gun_hsmg/underbarrel_uni_flash_on",
        "5": "gci:items/gun_hsmg/underbarrel_uni_lcu",
        "6": "gci:items/gun_hsmg/barrel_uni_silencer",
        "7": "gci:items/gun_hsmg/optic_uni_scope_assault",
        "11": "gci:items/gun_hsmg/texture",
        "12": "gci:items/gun_hsmg/smgstockbase",
        "13": "gci:items/gun_hsmg/medmag",
        "14": "gci:items/gun_hsmg/grip",
        "15": "gci:items/gun_hsmg/holo",
        "16": "gci:items/gun_hsmg/grip_flash",
        "17": "gci:items/gun_hsmg/grip_laser",
        "18": "gci:items/gun_hsmg/stockfold",
        "19": "gci:items/gun_hsmg/stocktelescop",
        "20": "gci:items/gun_hsmg/reflex_scope",
        "21": "gci:items/gun_hsmg/bigmag",
        "22": "gci:items/gun_hsmg/mallmag",
        "23": "gci:items/gun_hsmg/underbarrel_flame",
        "24": "gci:items/gun_hsmg/underbarrel_shot",
        "25": "gci:items/gun_hsmg/snip_scope",
        "particle": "gci:items/gun_hsmg/medmag"
    },
    "elements": [
        {
            "from": [
                7.99047,
                -2.79466,
                7.9855
            ],
            "to": [
                9.44847,
                6.92534,
                9.77814
            ],
            "rotation": {
                "angle": -22.5,
                "axis": "x",
                "origin": [
                    8.71947,
                    5.85807,
                    7.22664
                ]
            },
            "faces": {
                "north": {
                    "uv": [
                        0,
                        0,
                        1,
                        6
                    ],
                    "texture": "#21"
                },
                "east": {
                    "uv": [
                        1,
                        0,
                        2,
                        6
                    ],
                    "texture": "#21"
                },
                "south": {
                    "uv": [
                        2,
                        0,
                        3,
                        6
                    ],
                    "texture": "#21"
                },
                "west": {
                    "uv": [
                        3,
                        0,
                        4,
                        6
                    ],
                    "texture": "#21"
                },
                "up": {
                    "uv": [
                        6,
                        7,
                        5,
                        6
                    ],
                    "texture": "#21"
                },
                "down": {
                    "uv": [
                        7,
                        6,
                        6,
                        7
                    ],
                    "texture": "#21"
                }
            }
        },
        {
            "from": [
                8.39547,
                -6.03466,
                7.9045
            ],
            "to": [
                9.04347,
                -5.22466,
                9.8485
            ],
            "rotation": {
                "angle": -22.5,
                "axis": "x",
                "origin": [
                    8.71947,
                    5.85807,
                    7.22664
                ]
            },
            "faces": {
                "north": {
                    "uv": [
                        5.5,
                        7,
                        6,
                        7.5
                    ],
                    "texture": "#21"
                },
                "east": {
                    "uv": [
                        7,
                        4,
                        8,
                        4.5
                    ],
                    "texture": "#21"
                },
                "south": {
                    "uv": [
                        6,
                        7,
                        6.5,
                        7.5
                    ],
                    "texture": "#21"
                },
                "west": {
                    "uv": [
                        7,
                        4.5,
                        8,
                        5
                    ],
                    "texture": "#21"
                },
                "up": {
                    "uv": [
                        5.5,
                        8,
                        5,
                        7
                    ],
                    "texture": "#21"
                },
                "down": {
                    "uv": [
                        7.5,
                        5,
                        7,
                        6
                    ],
                    "texture": "#21"
                }
            }
        },
        {
            "from": [
                7.90947,
                -5.22466,
                7.9045
            ],
            "to": [
                9.52947,
                -2.79466,
                9.85914
            ],
            "rotation": {
                "angle": -22.5,
                "axis": "x",
                "origin": [
                    8.71947,
                    5.85807,
                    7.22664
                ]
            },
            "faces": {
                "north": {
                    "uv": [
                        1,
                        6,
                        2,
                        7.5
                    ],
                    "texture": "#21"
                },
                "east": {
                    "uv": [
                        2,
                        6,
                        3,
                        7.5
                    ],
                    "texture": "#21"
                },
                "south": {
                    "uv": [
                        3,
                        6,
                        4,
                        7.5
                    ],
                    "texture": "#21"
                },
                "west": {
                    "uv": [
                        4,
                        6,
                        5,
                        7.5
                    ],
                    "texture": "#21"
                },
                "up": {
                    "uv": [
                        8,
                        3,
                        7,
                        2
                    ],
                    "texture": "#21"
                },
                "down": {
                    "uv": [
                        8,
                        3,
                        7,
                        4
                    ],
                    "texture": "#21"
                }
            }
        }
    ],
    "display": {
        "thirdperson_righthand": {
            "rotation": [
                0,
                -180,
                0
            ],
            "translation": [
                0,
                -0.5,
                -2.25
            ],
            "scale": [
                0.65,
                0.65,
                0.65
            ]
        },
        "thirdperson_lefthand": {
            "rotation": [
                0,
                180,
                0
            ],
            "translation": [
                -0.75,
                0.5,
                -2.25
            ],
            "scale": [
                0.65,
                0.65,
                0.65
            ]
        },
        "firstperson_righthand": {
            "rotation": [
                -179.11,
                0.85,
                176.24
            ],
            "translation": [
                -2.75,
                2.5,
                -0.25
            ],
            "scale": [
                1,
                1,
                0.9
            ]
        },
        "firstperson_lefthand": {
            "rotation": [
                -179.11,
                0.85,
                176.24
            ],
            "translation": [
                -4.25,
                2.5,
                -0.25
            ],
            "scale": [
                1,
                1,
                0.9
            ]
        },
        "ground": {
            "translation": [
                0,
                2.25,
                0
            ]
        },
        "gui": {
            "rotation": [
                -90,
                -55,
                -90
            ],
            "translation": [
                1.75,
                -0.75,
                0
            ]
        },
        "fixed": {
            "rotation": [
                90,
                45,
                -90
            ],
            "translation": [
                -0.75,
                0.5,
                -1.5
            ],
            "scale": [
                0.65,
                0.65,
                0.65
            ]
        }
    }
}