{
    "textures": {
        "1": "gci:items/gun_hsmg/barrel_uni_compensator",
        "2": "gci:items/gun_hsmg/arrel_uni_supressor",
        "3": "gci:items/gun_hsmg/underbarrel_uni_flash_on",
        "5": "gci:items/gun_hsmg/underbarrel_uni_lcu",
        "6": "gci:items/gun_hsmg/barrel_uni_silencer",
        "7": "gci:items/gun_hsmg/optic_uni_scope_assault",
        "11": "gci:items/gun_hsmg/texture",
        "12": "gci:items/gun_hsmg/smgstockbase",
        "13": "gci:items/gun_hsmg/medmag",
        "14": "gci:items/gun_hsmg/grip",
        "15": "gci:items/gun_hsmg/holo",
        "16": "gci:items/gun_hsmg/grip_flash",
        "17": "gci:items/gun_hsmg/grip_laser",
        "18": "gci:items/gun_hsmg/stockfold",
        "19": "gci:items/gun_hsmg/stocktelescop",
        "20": "gci:items/gun_hsmg/reflex_scope",
        "21": "gci:items/gun_hsmg/bigmag",
        "22": "gci:items/gun_hsmg/mallmag",
        "23": "gci:items/gun_hsmg/underbarrel_flame",
        "24": "gci:items/gun_hsmg/underbarrel_shot",
        "25": "gci:items/gun_hsmg/snip_scope",
        "particle": "gci:items/gun_hsmg/medmag"
    },
    "elements": [
        {
            "from": [
                7.95402,
                11.75715,
                8.09615
            ],
            "to": [
                9.50922,
                12.04875,
                10.04015
            ],
            "rotation": {
                "angle": 0,
                "axis": "y",
                "origin": [
                    8.73162,
                    11.56275,
                    10.04015
                ]
            },
            "faces": {
                "north": {
                    "uv": [
                        6,
                        4,
                        7,
                        4.5
                    ],
                    "texture": "#15"
                },
                "east": {
                    "uv": [
                        6,
                        4.5,
                        7,
                        5
                    ],
                    "texture": "#15"
                },
                "south": {
                    "uv": [
                        5,
                        6,
                        6,
                        6.5
                    ],
                    "texture": "#15"
                },
                "west": {
                    "uv": [
                        6,
                        5,
                        7,
                        5.5
                    ],
                    "texture": "#15"
                },
                "up": {
                    "uv": [
                        2,
                        4,
                        1,
                        3
                    ],
                    "texture": "#15"
                },
                "down": {
                    "uv": [
                        3,
                        3,
                        2,
                        4
                    ],
                    "texture": "#15"
                }
            }
        },
        {
            "from": [
                7.85682,
                11.83005,
                8.29055
            ],
            "to": [
                9.60642,
                12.02445,
                8.48495
            ],
            "rotation": {
                "angle": 45,
                "axis": "x",
                "origin": [
                    8.34282,
                    11.97585,
                    8.33915
                ]
            },
            "faces": {
                "north": {
                    "uv": [
                        6,
                        5.5,
                        7,
                        6
                    ],
                    "texture": "#15"
                },
                "east": {
                    "uv": [
                        6,
                        8,
                        6.5,
                        8.5
                    ],
                    "texture": "#15"
                },
                "south": {
                    "uv": [
                        6,
                        6,
                        7,
                        6.5
                    ],
                    "texture": "#15"
                },
                "west": {
                    "uv": [
                        8,
                        6,
                        8.5,
                        6.5
                    ],
                    "texture": "#15"
                },
                "up": {
                    "uv": [
                        1,
                        7,
                        0,
                        6.5
                    ],
                    "texture": "#15"
                },
                "down": {
                    "uv": [
                        7.5,
                        0.5,
                        6.5,
                        1
                    ],
                    "texture": "#15"
                }
            }
        },
        {
            "from": [
                7.85682,
                11.83005,
                9.74855
            ],
            "to": [
                9.60642,
                12.02445,
                9.94295
            ],
            "rotation": {
                "angle": 45,
                "axis": "x",
                "origin": [
                    8.34282,
                    11.97585,
                    9.79715
                ]
            },
            "faces": {
                "north": {
                    "uv": [
                        6.5,
                        1,
                        7.5,
                        1.5
                    ],
                    "texture": "#15"
                },
                "east": {
                    "uv": [
                        6.5,
                        8,
                        7,
                        8.5
                    ],
                    "texture": "#15"
                },
                "south": {
                    "uv": [
                        6.5,
                        1.5,
                        7.5,
                        2
                    ],
                    "texture": "#15"
                },
                "west": {
                    "uv": [
                        8,
                        6.5,
                        8.5,
                        7
                    ],
                    "texture": "#15"
                },
                "up": {
                    "uv": [
                        3,
                        7,
                        2,
                        6.5
                    ],
                    "texture": "#15"
                },
                "down": {
                    "uv": [
                        4,
                        6.5,
                        3,
                        7
                    ],
                    "texture": "#15"
                }
            }
        },
        {
            "from": [
                7.56522,
                12.04875,
                7.51295
            ],
            "to": [
                9.89802,
                13.02075,
                10.62335
            ],
            "rotation": {
                "angle": 0,
                "axis": "y",
                "origin": [
                    8.73162,
                    12.04875,
                    9.45695
                ]
            },
            "faces": {
                "north": {
                    "uv": [
                        2,
                        6,
                        3.5,
                        6.5
                    ],
                    "texture": "#15"
                },
                "east": {
                    "uv": [
                        4,
                        4,
                        6,
                        4.5
                    ],
                    "texture": "#15"
                },
                "south": {
                    "uv": [
                        6,
                        2,
                        7.5,
                        2.5
                    ],
                    "texture": "#15"
                },
                "west": {
                    "uv": [
                        4,
                        4.5,
                        6,
                        5
                    ],
                    "texture": "#15"
                },
                "up": {
                    "uv": [
                        1.5,
                        2,
                        0,
                        0
                    ],
                    "texture": "#15"
                },
                "down": {
                    "uv": [
                        3,
                        0,
                        1.5,
                        2
                    ],
                    "texture": "#15"
                }
            }
        },
        {
            "from": [
                8.63442,
                13.50675,
                9.06815
            ],
            "to": [
                8.82882,
                13.70115,
                9.06815
            ],
            "rotation": {
                "angle": 0,
                "axis": "y",
                "origin": [
                    8.73162,
                    13.11795,
                    9.45695
                ]
            },
            "faces": {
                "north": {
                    "uv": [
                        8.5,
                        6.5,
                        9,
                        7
                    ],
                    "texture": "#15"
                },
                "east": {
                    "uv": [
                        0,
                        0,
                        0,
                        0.5
                    ],
                    "texture": "#15"
                },
                "south": {
                    "uv": [
                        7,
                        8.5,
                        7.5,
                        9
                    ],
                    "texture": "#15"
                },
                "west": {
                    "uv": [
                        0,
                        0,
                        0,
                        0.5
                    ],
                    "texture": "#15"
                },
                "up": {
                    "uv": [
                        0.5,
                        0,
                        0,
                        0
                    ],
                    "texture": "#15"
                },
                "down": {
                    "uv": [
                        0.5,
                        0,
                        0,
                        0
                    ],
                    "texture": "#15"
                }
            }
        },
        {
            "from": [
                8.05122,
                13.21515,
                9.06815
            ],
            "to": [
                8.24562,
                13.99275,
                9.06815
            ],
            "rotation": {
                "angle": 0,
                "axis": "y",
                "origin": [
                    8.14842,
                    13.11795,
                    9.45695
                ]
            },
            "faces": {
                "north": {
                    "uv": [
                        8.5,
                        7,
                        9,
                        7.5
                    ],
                    "texture": "#15"
                },
                "east": {
                    "uv": [
                        0,
                        0,
                        0,
                        0.5
                    ],
                    "texture": "#15"
                },
                "south": {
                    "uv": [
                        7.5,
                        8.5,
                        8,
                        9
                    ],
                    "texture": "#15"
                },
                "west": {
                    "uv": [
                        0,
                        0,
                        0,
                        0.5
                    ],
                    "texture": "#15"
                },
                "up": {
                    "uv": [
                        0.5,
                        0,
                        0,
                        0
                    ],
                    "texture": "#15"
                },
                "down": {
                    "uv": [
                        0.5,
                        0,
                        0,
                        0
                    ],
                    "texture": "#15"
                }
            }
        },
        {
            "from": [
                9.21762,
                13.21515,
                9.06815
            ],
            "to": [
                9.41202,
                13.99275,
                9.06815
            ],
            "rotation": {
                "angle": 0,
                "axis": "y",
                "origin": [
                    9.31482,
                    13.11795,
                    9.45695
                ]
            },
            "faces": {
                "north": {
                    "uv": [
                        8.5,
                        7.5,
                        9,
                        8
                    ],
                    "texture": "#15"
                },
                "east": {
                    "uv": [
                        0,
                        0,
                        0,
                        0.5
                    ],
                    "texture": "#15"
                },
                "south": {
                    "uv": [
                        8,
                        8.5,
                        8.5,
                        9
                    ],
                    "texture": "#15"
                },
                "west": {
                    "uv": [
                        0,
                        0,
                        0,
                        0.5
                    ],
                    "texture": "#15"
                },
                "up": {
                    "uv": [
                        0.5,
                        0,
                        0,
                        0
                    ],
                    "texture": "#15"
                },
                "down": {
                    "uv": [
                        0.5,
                        0,
                        0,
                        0
                    ],
                    "texture": "#15"
                }
            }
        },
        {
            "from": [
                7.77141,
                14.18715,
                7.99895
            ],
            "to": [
                9.69183,
                14.49054,
                9.94295
            ],
            "rotation": {
                "angle": 0,
                "axis": "y",
                "origin": [
                    8.52543,
                    13.51854,
                    10.91495
                ]
            },
            "faces": {
                "north": {
                    "uv": [
                        0,
                        7.5,
                        1,
                        8
                    ],
                    "texture": "#15"
                },
                "east": {
                    "uv": [
                        7.5,
                        0,
                        8.5,
                        0.5
                    ],
                    "texture": "#15"
                },
                "south": {
                    "uv": [
                        7.5,
                        0.5,
                        8.5,
                        1
                    ],
                    "texture": "#15"
                },
                "west": {
                    "uv": [
                        1,
                        7.5,
                        2,
                        8
                    ],
                    "texture": "#15"
                },
                "up": {
                    "uv": [
                        1,
                        6,
                        0,
                        5
                    ],
                    "texture": "#15"
                },
                "down": {
                    "uv": [
                        6,
                        0,
                        5,
                        1
                    ],
                    "texture": "#15"
                }
            }
        },
        {
            "from": [
                9.60642,
                13.02075,
                7.99895
            ],
            "to": [
                9.89802,
                14.28435,
                9.94295
            ],
            "rotation": {
                "angle": 0,
                "axis": "y",
                "origin": [
                    8.73162,
                    13.02075,
                    10.91495
                ]
            },
            "faces": {
                "north": {
                    "uv": [
                        7.5,
                        1,
                        8,
                        2
                    ],
                    "texture": "#15"
                },
                "east": {
                    "uv": [
                        1,
                        5,
                        2,
                        6
                    ],
                    "texture": "#15"
                },
                "south": {
                    "uv": [
                        2,
                        7.5,
                        2.5,
                        8.5
                    ],
                    "texture": "#15"
                },
                "west": {
                    "uv": [
                        5,
                        1,
                        6,
                        2
                    ],
                    "texture": "#15"
                },
                "up": {
                    "uv": [
                        8,
                        3,
                        7.5,
                        2
                    ],
                    "texture": "#15"
                },
                "down": {
                    "uv": [
                        3,
                        7.5,
                        2.5,
                        8.5
                    ],
                    "texture": "#15"
                }
            }
        },
        {
            "from": [
                9.89802,
                12.24315,
                7.70735
            ],
            "to": [
                10.09242,
                13.79835,
                9.16535
            ],
            "rotation": {
                "angle": 0,
                "axis": "y",
                "origin": [
                    9.02322,
                    12.24315,
                    10.62335
                ]
            },
            "faces": {
                "north": {
                    "uv": [
                        3,
                        7.5,
                        3.5,
                        8.5
                    ],
                    "texture": "#15"
                },
                "east": {
                    "uv": [
                        2,
                        5,
                        3,
                        6
                    ],
                    "texture": "#15"
                },
                "south": {
                    "uv": [
                        7.5,
                        3,
                        8,
                        4
                    ],
                    "texture": "#15"
                },
                "west": {
                    "uv": [
                        5,
                        2,
                        6,
                        3
                    ],
                    "texture": "#15"
                },
                "up": {
                    "uv": [
                        4,
                        8.5,
                        3.5,
                        7.5
                    ],
                    "texture": "#15"
                },
                "down": {
                    "uv": [
                        8,
                        4,
                        7.5,
                        5
                    ],
                    "texture": "#15"
                }
            }
        },
        {
            "from": [
                7.37082,
                12.24315,
                7.70735
            ],
            "to": [
                7.56522,
                13.79835,
                9.16535
            ],
            "rotation": {
                "angle": 0,
                "axis": "y",
                "origin": [
                    8.44002,
                    12.24315,
                    10.62335
                ]
            },
            "faces": {
                "north": {
                    "uv": [
                        5,
                        7.5,
                        5.5,
                        8.5
                    ],
                    "texture": "#15"
                },
                "east": {
                    "uv": [
                        3,
                        5,
                        4,
                        6
                    ],
                    "texture": "#15"
                },
                "south": {
                    "uv": [
                        5.5,
                        7.5,
                        6,
                        8.5
                    ],
                    "texture": "#15"
                },
                "west": {
                    "uv": [
                        5,
                        3,
                        6,
                        4
                    ],
                    "texture": "#15"
                },
                "up": {
                    "uv": [
                        8,
                        6.5,
                        7.5,
                        5.5
                    ],
                    "texture": "#15"
                },
                "down": {
                    "uv": [
                        8,
                        6.5,
                        7.5,
                        7.5
                    ],
                    "texture": "#15"
                }
            }
        },
        {
            "from": [
                7.56522,
                13.02075,
                7.99895
            ],
            "to": [
                7.85682,
                14.28435,
                9.94295
            ],
            "rotation": {
                "angle": 0,
                "axis": "y",
                "origin": [
                    8.73162,
                    13.02075,
                    10.91495
                ]
            },
            "faces": {
                "north": {
                    "uv": [
                        7,
                        7.5,
                        7.5,
                        8.5
                    ],
                    "texture": "#15"
                },
                "east": {
                    "uv": [
                        4,
                        5,
                        5,
                        6
                    ],
                    "texture": "#15"
                },
                "south": {
                    "uv": [
                        7.5,
                        7.5,
                        8,
                        8.5
                    ],
                    "texture": "#15"
                },
                "west": {
                    "uv": [
                        5,
                        5,
                        6,
                        6
                    ],
                    "texture": "#15"
                },
                "up": {
                    "uv": [
                        0.5,
                        9,
                        0,
                        8
                    ],
                    "texture": "#15"
                },
                "down": {
                    "uv": [
                        1,
                        8,
                        0.5,
                        9
                    ],
                    "texture": "#15"
                }
            }
        },
        {
            "from": [
                7.22359,
                13.45958,
                7.99895
            ],
            "to": [
                7.41799,
                13.75118,
                9.94295
            ],
            "rotation": {
                "angle": -45,
                "axis": "z",
                "origin": [
                    8.38999,
                    13.45958,
                    10.91495
                ]
            },
            "faces": {
                "north": {
                    "uv": [
                        8.5,
                        8,
                        9,
                        8.5
                    ],
                    "texture": "#15"
                },
                "east": {
                    "uv": [
                        1,
                        8,
                        2,
                        8.5
                    ],
                    "texture": "#15"
                },
                "south": {
                    "uv": [
                        8.5,
                        8.5,
                        9,
                        9
                    ],
                    "texture": "#15"
                },
                "west": {
                    "uv": [
                        8,
                        1,
                        9,
                        1.5
                    ],
                    "texture": "#15"
                },
                "up": {
                    "uv": [
                        8.5,
                        2.5,
                        8,
                        1.5
                    ],
                    "texture": "#15"
                },
                "down": {
                    "uv": [
                        8.5,
                        2.5,
                        8,
                        3.5
                    ],
                    "texture": "#15"
                }
            }
        },
        {
            "from": [
                10.04525,
                13.45958,
                7.99895
            ],
            "to": [
                10.23965,
                13.75118,
                9.94295
            ],
            "rotation": {
                "angle": 45,
                "axis": "z",
                "origin": [
                    9.07325,
                    13.45958,
                    10.91495
                ]
            },
            "faces": {
                "north": {
                    "uv": [
                        0,
                        9,
                        0.5,
                        9.5
                    ],
                    "texture": "#15"
                },
                "east": {
                    "uv": [
                        8,
                        3.5,
                        9,
                        4
                    ],
                    "texture": "#15"
                },
                "south": {
                    "uv": [
                        9,
                        0,
                        9.5,
                        0.5
                    ],
                    "texture": "#15"
                },
                "west": {
                    "uv": [
                        4,
                        8,
                        5,
                        8.5
                    ],
                    "texture": "#15"
                },
                "up": {
                    "uv": [
                        8.5,
                        5,
                        8,
                        4
                    ],
                    "texture": "#15"
                },
                "down": {
                    "uv": [
                        8.5,
                        5,
                        8,
                        6
                    ],
                    "texture": "#15"
                }
            }
        },
        {
            "from": [
                7.56522,
                12.19774,
                10.47436
            ],
            "to": [
                9.89802,
                13.09575,
                10.84633
            ],
            "rotation": {
                "angle": 22.5,
                "axis": "x",
                "origin": [
                    7.80822,
                    12.68374,
                    10.36033
                ]
            },
            "faces": {
                "north": {
                    "uv": [
                        6,
                        2.5,
                        7.5,
                        3
                    ],
                    "texture": "#15"
                },
                "east": {
                    "uv": [
                        0.5,
                        9,
                        1,
                        9.5
                    ],
                    "texture": "#15"
                },
                "south": {
                    "uv": [
                        6,
                        3,
                        7.5,
                        3.5
                    ],
                    "texture": "#15"
                },
                "west": {
                    "uv": [
                        9,
                        0.5,
                        9.5,
                        1
                    ],
                    "texture": "#15"
                },
                "up": {
                    "uv": [
                        5,
                        6.5,
                        3.5,
                        6
                    ],
                    "texture": "#15"
                },
                "down": {
                    "uv": [
                        7.5,
                        3.5,
                        6,
                        4
                    ],
                    "texture": "#15"
                }
            }
        },
        {
            "from": [
                7.07922,
                12.18103,
                10.01149
            ],
            "to": [
                7.56522,
                13.05583,
                10.88629
            ],
            "rotation": {
                "angle": 22.5,
                "axis": "x",
                "origin": [
                    5.47542,
                    12.76423,
                    10.48066
                ]
            },
            "faces": {
                "north": {
                    "uv": [
                        1,
                        9,
                        1.5,
                        9.5
                    ],
                    "texture": "#15"
                },
                "east": {
                    "uv": [
                        9,
                        1,
                        9.5,
                        1.5
                    ],
                    "texture": "#15"
                },
                "south": {
                    "uv": [
                        1.5,
                        9,
                        2,
                        9.5
                    ],
                    "texture": "#15"
                },
                "west": {
                    "uv": [
                        9,
                        1.5,
                        9.5,
                        2
                    ],
                    "texture": "#15"
                },
                "up": {
                    "uv": [
                        2.5,
                        9.5,
                        2,
                        9
                    ],
                    "texture": "#15"
                },
                "down": {
                    "uv": [
                        9.5,
                        2,
                        9,
                        2.5
                    ],
                    "texture": "#15"
                }
            }
        }
    ],
    "display": {
        "thirdperson_righthand": {
            "rotation": [
                0,
                -180,
                0
            ],
            "translation": [
                0,
                -0.5,
                -2.25
            ],
            "scale": [
                0.65,
                0.65,
                0.65
            ]
        },
        "thirdperson_lefthand": {
            "rotation": [
                0,
                180,
                0
            ],
            "translation": [
                -0.75,
                0.5,
                -2.25
            ],
            "scale": [
                0.65,
                0.65,
                0.65
            ]
        },
        "firstperson_righthand": {
            "rotation": [
                -179.11,
                0.85,
                176.24
            ],
            "translation": [
                -2.75,
                2.5,
                -0.25
            ],
            "scale": [
                1,
                1,
                0.9
            ]
        },
        "firstperson_lefthand": {
            "rotation": [
                -179.11,
                0.85,
                176.24
            ],
            "translation": [
                -4.25,
                2.5,
                -0.25
            ],
            "scale": [
                1,
                1,
                0.9
            ]
        },
        "ground": {
            "translation": [
                0,
                2.25,
                0
            ]
        },
        "gui": {
            "rotation": [
                -90,
                -55,
                -90
            ],
            "translation": [
                1.75,
                -0.75,
                0
            ]
        },
        "fixed": {
            "rotation": [
                90,
                45,
                -90
            ],
            "translation": [
                -0.75,
                0.5,
                -1.5
            ],
            "scale": [
                0.65,
                0.65,
                0.65
            ]
        }
    }
}