{
    "textures": {
        "1": "gci:items/gun_hsmg/barrel_uni_compensator",
        "2": "gci:items/gun_hsmg/arrel_uni_supressor",
        "3": "gci:items/gun_hsmg/underbarrel_uni_flash_on",
        "5": "gci:items/gun_hsmg/underbarrel_uni_lcu",
        "6": "gci:items/gun_hsmg/barrel_uni_silencer",
        "7": "gci:items/gun_hsmg/optic_uni_scope_assault",
        "11": "gci:items/gun_hsmg/texture",
        "12": "gci:items/gun_hsmg/smgstockbase",
        "13": "gci:items/gun_hsmg/medmag",
        "14": "gci:items/gun_hsmg/grip",
        "15": "gci:items/gun_hsmg/holo",
        "16": "gci:items/gun_hsmg/grip_flash",
        "17": "gci:items/gun_hsmg/grip_laser",
        "18": "gci:items/gun_hsmg/stockfold",
        "19": "gci:items/gun_hsmg/stocktelescop",
        "20": "gci:items/gun_hsmg/reflex_scope",
        "21": "gci:items/gun_hsmg/bigmag",
        "22": "gci:items/gun_hsmg/mallmag",
        "23": "gci:items/gun_hsmg/underbarrel_flame",
        "24": "gci:items/gun_hsmg/underbarrel_shot",
        "25": "gci:items/gun_hsmg/snip_scope",
        "particle": "gci:items/gun_hsmg/medmag"
    },
    "elements": [
        {
            "from": [
                7.99047,
                2.916,
                15.10062
            ],
            "to": [
                9.44847,
                7.776,
                16.88262
            ],
            "rotation": {
                "angle": 0,
                "axis": "y",
                "origin": [
                    8.71947,
                    0,
                    5.46162
                ]
            },
            "faces": {
                "north": {
                    "uv": [
                        0,
                        0,
                        2,
                        6
                    ],
                    "texture": "#17"
                },
                "east": {
                    "uv": [
                        2,
                        0,
                        4,
                        6
                    ],
                    "texture": "#17"
                },
                "south": {
                    "uv": [
                        4,
                        0,
                        6,
                        6
                    ],
                    "texture": "#17"
                },
                "west": {
                    "uv": [
                        0,
                        6,
                        2,
                        12
                    ],
                    "texture": "#17"
                },
                "up": {
                    "uv": [
                        9,
                        7,
                        7,
                        5
                    ],
                    "texture": "#17"
                },
                "down": {
                    "uv": [
                        9,
                        7,
                        7,
                        9
                    ],
                    "texture": "#17"
                }
            }
        },
        {
            "from": [
                7.99047,
                8.262,
                14.77662
            ],
            "to": [
                9.44847,
                8.586,
                17.20662
            ],
            "rotation": {
                "angle": 0,
                "axis": "y",
                "origin": [
                    8.71947,
                    0,
                    5.46162
                ]
            },
            "faces": {
                "north": {
                    "uv": [
                        10,
                        10,
                        12,
                        11
                    ],
                    "texture": "#17"
                },
                "east": {
                    "uv": [
                        7,
                        9,
                        10,
                        10
                    ],
                    "texture": "#17"
                },
                "south": {
                    "uv": [
                        11,
                        2,
                        13,
                        3
                    ],
                    "texture": "#17"
                },
                "west": {
                    "uv": [
                        9,
                        8,
                        12,
                        9
                    ],
                    "texture": "#17"
                },
                "up": {
                    "uv": [
                        5,
                        9,
                        3,
                        6
                    ],
                    "texture": "#17"
                },
                "down": {
                    "uv": [
                        9,
                        2,
                        7,
                        5
                    ],
                    "texture": "#17"
                }
            }
        },
        {
            "from": [
                7.90947,
                8.181,
                15.18162
            ],
            "to": [
                9.52947,
                8.505,
                15.50562
            ],
            "rotation": {
                "angle": 45,
                "axis": "x",
                "origin": [
                    8.71947,
                    8.343,
                    15.34362
                ]
            },
            "faces": {
                "north": {
                    "uv": [
                        3,
                        11,
                        5,
                        12
                    ],
                    "texture": "#17"
                },
                "east": {
                    "uv": [
                        11,
                        12,
                        12,
                        13
                    ],
                    "texture": "#17"
                },
                "south": {
                    "uv": [
                        11,
                        3,
                        13,
                        4
                    ],
                    "texture": "#17"
                },
                "west": {
                    "uv": [
                        12,
                        12,
                        13,
                        13
                    ],
                    "texture": "#17"
                },
                "up": {
                    "uv": [
                        13,
                        5,
                        11,
                        4
                    ],
                    "texture": "#17"
                },
                "down": {
                    "uv": [
                        13,
                        5,
                        11,
                        6
                    ],
                    "texture": "#17"
                }
            }
        },
        {
            "from": [
                7.90947,
                8.181,
                16.47762
            ],
            "to": [
                9.52947,
                8.505,
                16.80162
            ],
            "rotation": {
                "angle": 45,
                "axis": "x",
                "origin": [
                    8.71947,
                    8.343,
                    16.63962
                ]
            },
            "faces": {
                "north": {
                    "uv": [
                        11,
                        6,
                        13,
                        7
                    ],
                    "texture": "#17"
                },
                "east": {
                    "uv": [
                        0,
                        13,
                        1,
                        14
                    ],
                    "texture": "#17"
                },
                "south": {
                    "uv": [
                        7,
                        11,
                        9,
                        12
                    ],
                    "texture": "#17"
                },
                "west": {
                    "uv": [
                        1,
                        13,
                        2,
                        14
                    ],
                    "texture": "#17"
                },
                "up": {
                    "uv": [
                        13,
                        8,
                        11,
                        7
                    ],
                    "texture": "#17"
                },
                "down": {
                    "uv": [
                        11,
                        11,
                        9,
                        12
                    ],
                    "texture": "#17"
                }
            }
        },
        {
            "from": [
                8.07147,
                7.533,
                15.18162
            ],
            "to": [
                9.36747,
                8.343,
                16.80162
            ],
            "rotation": {
                "angle": 0,
                "axis": "y",
                "origin": [
                    8.71947,
                    0,
                    5.46162
                ]
            },
            "faces": {
                "north": {
                    "uv": [
                        11,
                        11,
                        13,
                        12
                    ],
                    "texture": "#17"
                },
                "east": {
                    "uv": [
                        0,
                        12,
                        2,
                        13
                    ],
                    "texture": "#17"
                },
                "south": {
                    "uv": [
                        3,
                        12,
                        5,
                        13
                    ],
                    "texture": "#17"
                },
                "west": {
                    "uv": [
                        5,
                        12,
                        7,
                        13
                    ],
                    "texture": "#17"
                },
                "up": {
                    "uv": [
                        11,
                        4,
                        9,
                        2
                    ],
                    "texture": "#17"
                },
                "down": {
                    "uv": [
                        5,
                        9,
                        3,
                        11
                    ],
                    "texture": "#17"
                }
            }
        },
        {
            "from": [
                7.66647,
                7.371,
                15.10062
            ],
            "to": [
                8.31447,
                8.019,
                17.12562
            ],
            "rotation": {
                "angle": 45,
                "axis": "z",
                "origin": [
                    7.99047,
                    7.695,
                    16.31562
                ]
            },
            "faces": {
                "north": {
                    "uv": [
                        13,
                        2,
                        14,
                        3
                    ],
                    "texture": "#17"
                },
                "east": {
                    "uv": [
                        7,
                        10,
                        10,
                        11
                    ],
                    "texture": "#17"
                },
                "south": {
                    "uv": [
                        3,
                        13,
                        4,
                        14
                    ],
                    "texture": "#17"
                },
                "west": {
                    "uv": [
                        10,
                        9,
                        13,
                        10
                    ],
                    "texture": "#17"
                },
                "up": {
                    "uv": [
                        6,
                        9,
                        5,
                        6
                    ],
                    "texture": "#17"
                },
                "down": {
                    "uv": [
                        6,
                        9,
                        5,
                        12
                    ],
                    "texture": "#17"
                }
            }
        },
        {
            "from": [
                7.74747,
                7.452,
                14.69562
            ],
            "to": [
                8.23347,
                7.938,
                15.10062
            ],
            "rotation": {
                "angle": 45,
                "axis": "z",
                "origin": [
                    7.99047,
                    7.695,
                    16.31562
                ]
            },
            "faces": {
                "north": {
                    "uv": [
                        13,
                        3,
                        14,
                        4
                    ],
                    "texture": "#17"
                },
                "east": {
                    "uv": [
                        4,
                        13,
                        5,
                        14
                    ],
                    "texture": "#17"
                },
                "south": {
                    "uv": [
                        13,
                        4,
                        14,
                        5
                    ],
                    "texture": "#17"
                },
                "west": {
                    "uv": [
                        5,
                        13,
                        6,
                        14
                    ],
                    "texture": "#17"
                },
                "up": {
                    "uv": [
                        14,
                        6,
                        13,
                        5
                    ],
                    "texture": "#17"
                },
                "down": {
                    "uv": [
                        7,
                        13,
                        6,
                        14
                    ],
                    "texture": "#17"
                }
            }
        },
        {
            "from": [
                7.82847,
                7.533,
                17.12562
            ],
            "to": [
                8.15247,
                7.857,
                17.20662
            ],
            "rotation": {
                "angle": 45,
                "axis": "z",
                "origin": [
                    7.99047,
                    7.695,
                    17.93562
                ]
            },
            "faces": {
                "north": {
                    "uv": [
                        13,
                        6,
                        14,
                        7
                    ],
                    "texture": "#17"
                },
                "east": {
                    "uv": [
                        7,
                        13,
                        8,
                        14
                    ],
                    "texture": "#17"
                },
                "south": {
                    "uv": [
                        13,
                        7,
                        14,
                        8
                    ],
                    "texture": "#17"
                },
                "west": {
                    "uv": [
                        8,
                        13,
                        9,
                        14
                    ],
                    "texture": "#17"
                },
                "up": {
                    "uv": [
                        10,
                        14,
                        9,
                        13
                    ],
                    "texture": "#17"
                },
                "down": {
                    "uv": [
                        14,
                        9,
                        13,
                        10
                    ],
                    "texture": "#17"
                }
            }
        },
        {
            "from": [
                8.07147,
                2.673,
                15.18162
            ],
            "to": [
                9.36747,
                3.483,
                16.80162
            ],
            "rotation": {
                "angle": 0,
                "axis": "y",
                "origin": [
                    8.71947,
                    -4.86,
                    5.46162
                ]
            },
            "faces": {
                "north": {
                    "uv": [
                        7,
                        12,
                        9,
                        13
                    ],
                    "texture": "#17"
                },
                "east": {
                    "uv": [
                        12,
                        8,
                        14,
                        9
                    ],
                    "texture": "#17"
                },
                "south": {
                    "uv": [
                        9,
                        12,
                        11,
                        13
                    ],
                    "texture": "#17"
                },
                "west": {
                    "uv": [
                        12,
                        10,
                        14,
                        11
                    ],
                    "texture": "#17"
                },
                "up": {
                    "uv": [
                        11,
                        6,
                        9,
                        4
                    ],
                    "texture": "#17"
                },
                "down": {
                    "uv": [
                        11,
                        6,
                        9,
                        8
                    ],
                    "texture": "#17"
                }
            }
        }
    ],
    "display": {
        "thirdperson_righthand": {
            "rotation": [
                0,
                -180,
                0
            ],
            "translation": [
                0,
                -0.5,
                -2.25
            ],
            "scale": [
                0.65,
                0.65,
                0.65
            ]
        },
        "thirdperson_lefthand": {
            "rotation": [
                0,
                180,
                0
            ],
            "translation": [
                -0.75,
                0.5,
                -2.25
            ],
            "scale": [
                0.65,
                0.65,
                0.65
            ]
        },
        "firstperson_righthand": {
            "rotation": [
                -179.11,
                0.85,
                176.24
            ],
            "translation": [
                -2.75,
                2.5,
                -0.25
            ],
            "scale": [
                1,
                1,
                0.9
            ]
        },
        "firstperson_lefthand": {
            "rotation": [
                -179.11,
                0.85,
                176.24
            ],
            "translation": [
                -4.25,
                2.5,
                -0.25
            ],
            "scale": [
                1,
                1,
                0.9
            ]
        },
        "ground": {
            "translation": [
                0,
                2.25,
                0
            ]
        },
        "gui": {
            "rotation": [
                -90,
                -55,
                -90
            ],
            "translation": [
                1.75,
                -0.75,
                0
            ]
        },
        "fixed": {
            "rotation": [
                90,
                45,
                -90
            ],
            "translation": [
                -0.75,
                0.5,
                -1.5
            ],
            "scale": [
                0.65,
                0.65,
                0.65
            ]
        }
    }
}