{
    "textures": {
        "0": "gci:items/common/mpz",
        "1": "gci:items/common/all_in_one",
        "particle": "gci:items/common/mpz"
    },
    "elements": [
        {
            "from": [
                8.12603,
                8.08379,
                -7.62757
            ],
            "to": [
                8.22603,
                8.28379,
                -6.19157
            ],
            "rotation": {
                "angle": 45,
                "axis": "z",
                "origin": [
                    7.98461,
                    8.18379,
                    -5.26157
                ]
            },
            "faces": {
                "north": {
                    "uv": [
                        7.625,
                        12.375,
                        7.625,
                        12.5
                    ],
                    "rotation": 270,
                    "texture": "#1"
                },
                "east": {
                    "uv": [
                        4,
                        3,
                        4.625,
                        3
                    ],
                    "rotation": 180,
                    "texture": "#1"
                },
                "south": {
                    "uv": [
                        4,
                        3,
                        4.625,
                        3
                    ],
                    "rotation": 180,
                    "texture": "#1"
                },
                "west": {
                    "uv": [
                        7.625,
                        12.375,
                        7.625,
                        12.5
                    ],
                    "rotation": 270,
                    "texture": "#1"
                },
                "up": {
                    "uv": [
                        4,
                        3,
                        4.625,
                        3
                    ],
                    "rotation": 180,
                    "texture": "#1"
                },
                "down": {
                    "uv": [
                        4,
                        3,
                        4.625,
                        3
                    ],
                    "rotation": 180,
                    "texture": "#1"
                }
            }
        },
        {
            "from": [
                7.74318,
                8.08379,
                -7.62757
            ],
            "to": [
                7.84318,
                8.28379,
                -6.19157
            ],
            "rotation": {
                "angle": 45,
                "axis": "z",
                "origin": [
                    7.98461,
                    8.18379,
                    -5.26157
                ]
            },
            "faces": {
                "north": {
                    "uv": [
                        7.625,
                        12.375,
                        7.625,
                        12.5
                    ],
                    "rotation": 270,
                    "texture": "#1"
                },
                "east": {
                    "uv": [
                        7.625,
                        12.375,
                        7.625,
                        12.5
                    ],
                    "rotation": 270,
                    "texture": "#1"
                },
                "south": {
                    "uv": [
                        4,
                        3,
                        4.625,
                        3
                    ],
                    "rotation": 180,
                    "texture": "#1"
                },
                "west": {
                    "uv": [
                        4,
                        3,
                        4.625,
                        3
                    ],
                    "rotation": 180,
                    "texture": "#1"
                },
                "up": {
                    "uv": [
                        4,
                        3,
                        4.625,
                        3
                    ],
                    "rotation": 180,
                    "texture": "#1"
                },
                "down": {
                    "uv": [
                        4,
                        3,
                        4.625,
                        3
                    ],
                    "rotation": 180,
                    "texture": "#1"
                }
            }
        },
        {
            "from": [
                7.88461,
                7.94237,
                -7.62757
            ],
            "to": [
                8.08461,
                8.04237,
                -6.19157
            ],
            "rotation": {
                "angle": 0,
                "axis": "y",
                "origin": [
                    7.72603,
                    7.90095,
                    -19.01157
                ]
            },
            "faces": {
                "north": {
                    "uv": [
                        7.625,
                        12.375,
                        7.625,
                        12.5
                    ],
                    "rotation": 270,
                    "texture": "#1"
                },
                "east": {
                    "uv": [
                        4,
                        3,
                        4.625,
                        3
                    ],
                    "rotation": 270,
                    "texture": "#1"
                },
                "south": {
                    "uv": [
                        4,
                        3,
                        4.625,
                        3
                    ],
                    "rotation": 270,
                    "texture": "#1"
                },
                "west": {
                    "uv": [
                        4,
                        3,
                        4.625,
                        3
                    ],
                    "rotation": 270,
                    "texture": "#1"
                },
                "up": {
                    "uv": [
                        7.625,
                        12.375,
                        7.625,
                        12.5
                    ],
                    "rotation": 270,
                    "texture": "#1"
                },
                "down": {
                    "uv": [
                        4,
                        3,
                        4.625,
                        3
                    ],
                    "rotation": 270,
                    "texture": "#1"
                }
            }
        },
        {
            "from": [
                7.88461,
                8.32522,
                -7.62757
            ],
            "to": [
                8.08461,
                8.42522,
                -6.19157
            ],
            "rotation": {
                "angle": 0,
                "axis": "y",
                "origin": [
                    7.72603,
                    8.28379,
                    -19.01157
                ]
            },
            "faces": {
                "north": {
                    "uv": [
                        7.625,
                        12.375,
                        7.625,
                        12.5
                    ],
                    "rotation": 270,
                    "texture": "#1"
                },
                "east": {
                    "uv": [
                        4,
                        3,
                        4.625,
                        3
                    ],
                    "rotation": 270,
                    "texture": "#1"
                },
                "south": {
                    "uv": [
                        4,
                        3,
                        4.625,
                        3
                    ],
                    "rotation": 270,
                    "texture": "#1"
                },
                "west": {
                    "uv": [
                        4,
                        3,
                        4.625,
                        3
                    ],
                    "rotation": 270,
                    "texture": "#1"
                },
                "up": {
                    "uv": [
                        4,
                        3,
                        4.625,
                        3
                    ],
                    "rotation": 270,
                    "texture": "#1"
                },
                "down": {
                    "uv": [
                        7.625,
                        12.375,
                        7.625,
                        12.5
                    ],
                    "rotation": 270,
                    "texture": "#1"
                }
            }
        },
        {
            "from": [
                8.13929,
                8.05055,
                -7.65957
            ],
            "to": [
                8.30329,
                8.31455,
                -6.44757
            ],
            "rotation": {
                "angle": 0,
                "axis": "y",
                "origin": [
                    8.20082,
                    8.18255,
                    -6.71757
                ]
            },
            "faces": {
                "north": {
                    "uv": [
                        3,
                        2.75,
                        3,
                        2.875
                    ],
                    "texture": "#1"
                },
                "east": {
                    "uv": [
                        3,
                        2.75,
                        3,
                        2.875
                    ],
                    "rotation": 180,
                    "texture": "#1"
                },
                "south": {
                    "uv": [
                        3,
                        2.75,
                        3,
                        2.875
                    ],
                    "rotation": 180,
                    "texture": "#1"
                },
                "west": {
                    "uv": [
                        7.625,
                        12.375,
                        7.625,
                        12.5
                    ],
                    "rotation": 270,
                    "texture": "#1"
                },
                "up": {
                    "uv": [
                        3,
                        2.75,
                        3,
                        2.875
                    ],
                    "rotation": 180,
                    "texture": "#1"
                },
                "down": {
                    "uv": [
                        3,
                        2.75,
                        3,
                        2.875
                    ],
                    "rotation": 180,
                    "texture": "#1"
                }
            }
        },
        {
            "from": [
                7.66593,
                8.05055,
                -7.65957
            ],
            "to": [
                7.82993,
                8.31455,
                -6.44757
            ],
            "rotation": {
                "angle": 0,
                "axis": "y",
                "origin": [
                    7.82245,
                    8.11538,
                    -6.71757
                ]
            },
            "faces": {
                "north": {
                    "uv": [
                        3,
                        2.75,
                        3,
                        2.875
                    ],
                    "rotation": 180,
                    "texture": "#1"
                },
                "east": {
                    "uv": [
                        7.625,
                        12.375,
                        7.625,
                        12.5
                    ],
                    "rotation": 270,
                    "texture": "#1"
                },
                "south": {
                    "uv": [
                        3,
                        2.75,
                        3,
                        2.875
                    ],
                    "texture": "#1"
                },
                "west": {
                    "uv": [
                        3,
                        2.75,
                        3,
                        2.875
                    ],
                    "texture": "#1"
                },
                "up": {
                    "uv": [
                        3,
                        2.75,
                        3,
                        2.875
                    ],
                    "texture": "#1"
                },
                "down": {
                    "uv": [
                        3,
                        2.75,
                        3,
                        2.875
                    ],
                    "texture": "#1"
                }
            }
        },
        {
            "from": [
                7.66593,
                8.24255,
                -7.81557
            ],
            "to": [
                7.76593,
                8.31455,
                -7.65957
            ],
            "rotation": {
                "angle": 0,
                "axis": "y",
                "origin": [
                    7.82245,
                    8.11538,
                    -6.87357
                ]
            },
            "faces": {
                "north": {
                    "uv": [
                        3,
                        2.75,
                        3,
                        2.875
                    ],
                    "rotation": 180,
                    "texture": "#1"
                },
                "east": {
                    "uv": [
                        3,
                        2.75,
                        3,
                        2.875
                    ],
                    "texture": "#1"
                },
                "south": {
                    "uv": [
                        3,
                        2.75,
                        3,
                        2.875
                    ],
                    "texture": "#1"
                },
                "west": {
                    "uv": [
                        3,
                        2.75,
                        3,
                        2.875
                    ],
                    "texture": "#1"
                },
                "up": {
                    "uv": [
                        3,
                        2.75,
                        3,
                        2.875
                    ],
                    "texture": "#1"
                },
                "down": {
                    "uv": [
                        3,
                        2.75,
                        3,
                        2.875
                    ],
                    "texture": "#1"
                }
            }
        },
        {
            "from": [
                8.20993,
                8.24255,
                -7.81557
            ],
            "to": [
                8.30993,
                8.31455,
                -7.65957
            ],
            "rotation": {
                "angle": 0,
                "axis": "y",
                "origin": [
                    8.36645,
                    8.11538,
                    -6.87357
                ]
            },
            "faces": {
                "north": {
                    "uv": [
                        3,
                        2.75,
                        3,
                        2.875
                    ],
                    "rotation": 180,
                    "texture": "#1"
                },
                "east": {
                    "uv": [
                        3,
                        2.75,
                        3,
                        2.875
                    ],
                    "texture": "#1"
                },
                "south": {
                    "uv": [
                        3,
                        2.75,
                        3,
                        2.875
                    ],
                    "texture": "#1"
                },
                "west": {
                    "uv": [
                        3,
                        2.75,
                        3,
                        2.875
                    ],
                    "texture": "#1"
                },
                "up": {
                    "uv": [
                        3,
                        2.75,
                        3,
                        2.875
                    ],
                    "texture": "#1"
                },
                "down": {
                    "uv": [
                        3,
                        2.75,
                        3,
                        2.875
                    ],
                    "texture": "#1"
                }
            }
        },
        {
            "from": [
                7.66593,
                8.05055,
                -7.81557
            ],
            "to": [
                7.76593,
                8.12255,
                -7.65957
            ],
            "rotation": {
                "angle": 0,
                "axis": "y",
                "origin": [
                    7.82245,
                    7.95538,
                    -6.87357
                ]
            },
            "faces": {
                "north": {
                    "uv": [
                        3,
                        2.75,
                        3,
                        2.875
                    ],
                    "rotation": 180,
                    "texture": "#1"
                },
                "east": {
                    "uv": [
                        3,
                        2.75,
                        3,
                        2.875
                    ],
                    "texture": "#1"
                },
                "south": {
                    "uv": [
                        3,
                        2.75,
                        3,
                        2.875
                    ],
                    "texture": "#1"
                },
                "west": {
                    "uv": [
                        3,
                        2.75,
                        3,
                        2.875
                    ],
                    "texture": "#1"
                },
                "up": {
                    "uv": [
                        3,
                        2.75,
                        3,
                        2.875
                    ],
                    "texture": "#1"
                },
                "down": {
                    "uv": [
                        3,
                        2.75,
                        3,
                        2.875
                    ],
                    "texture": "#1"
                }
            }
        },
        {
            "from": [
                8.20993,
                8.05055,
                -7.81557
            ],
            "to": [
                8.30993,
                8.12255,
                -7.65957
            ],
            "rotation": {
                "angle": 0,
                "axis": "y",
                "origin": [
                    8.36645,
                    7.95538,
                    -6.87357
                ]
            },
            "faces": {
                "north": {
                    "uv": [
                        3,
                        2.75,
                        3,
                        2.875
                    ],
                    "rotation": 180,
                    "texture": "#1"
                },
                "east": {
                    "uv": [
                        3,
                        2.75,
                        3,
                        2.875
                    ],
                    "texture": "#1"
                },
                "south": {
                    "uv": [
                        3,
                        2.75,
                        3,
                        2.875
                    ],
                    "texture": "#1"
                },
                "west": {
                    "uv": [
                        3,
                        2.75,
                        3,
                        2.875
                    ],
                    "texture": "#1"
                },
                "up": {
                    "uv": [
                        3,
                        2.75,
                        3,
                        2.875
                    ],
                    "texture": "#1"
                },
                "down": {
                    "uv": [
                        3,
                        2.75,
                        3,
                        2.875
                    ],
                    "texture": "#1"
                }
            }
        },
        {
            "from": [
                7.91594,
                8.18434,
                -7.65957
            ],
            "to": [
                8.17994,
                8.34834,
                -6.44757
            ],
            "rotation": {
                "angle": -45,
                "axis": "z",
                "origin": [
                    8.20082,
                    8.18255,
                    -6.71757
                ]
            },
            "faces": {
                "north": {
                    "uv": [
                        3,
                        2.75,
                        3,
                        2.875
                    ],
                    "rotation": 270,
                    "texture": "#1"
                },
                "east": {
                    "uv": [
                        3,
                        2.75,
                        3,
                        2.875
                    ],
                    "rotation": 270,
                    "texture": "#1"
                },
                "south": {
                    "uv": [
                        3,
                        2.75,
                        3,
                        2.875
                    ],
                    "rotation": 270,
                    "texture": "#1"
                },
                "west": {
                    "uv": [
                        3,
                        2.75,
                        3,
                        2.875
                    ],
                    "rotation": 270,
                    "texture": "#1"
                },
                "up": {
                    "uv": [
                        3,
                        2.75,
                        3,
                        2.875
                    ],
                    "rotation": 270,
                    "texture": "#1"
                },
                "down": {
                    "uv": [
                        7.625,
                        12.375,
                        7.625,
                        12.5
                    ],
                    "rotation": 270,
                    "texture": "#1"
                }
            }
        },
        {
            "from": [
                7.91594,
                8.24834,
                -7.81557
            ],
            "to": [
                8.17994,
                8.34834,
                -7.65957
            ],
            "rotation": {
                "angle": -45,
                "axis": "z",
                "origin": [
                    8.20082,
                    8.18255,
                    -6.87357
                ]
            },
            "faces": {
                "north": {
                    "uv": [
                        3,
                        2.75,
                        3,
                        2.875
                    ],
                    "rotation": 270,
                    "texture": "#1"
                },
                "east": {
                    "uv": [
                        3,
                        2.75,
                        3,
                        2.875
                    ],
                    "rotation": 270,
                    "texture": "#1"
                },
                "south": {
                    "uv": [
                        3,
                        2.75,
                        3,
                        2.875
                    ],
                    "rotation": 270,
                    "texture": "#1"
                },
                "west": {
                    "uv": [
                        3,
                        2.75,
                        3,
                        2.875
                    ],
                    "rotation": 270,
                    "texture": "#1"
                },
                "up": {
                    "uv": [
                        3,
                        2.75,
                        3,
                        2.875
                    ],
                    "rotation": 270,
                    "texture": "#1"
                },
                "down": {
                    "uv": [
                        3,
                        2.75,
                        3,
                        2.875
                    ],
                    "rotation": 270,
                    "texture": "#1"
                }
            }
        },
        {
            "from": [
                7.66593,
                7.91622,
                -7.65957
            ],
            "to": [
                7.82993,
                8.18022,
                -6.44757
            ],
            "rotation": {
                "angle": 45,
                "axis": "z",
                "origin": [
                    7.82245,
                    8.11538,
                    -6.71757
                ]
            },
            "faces": {
                "north": {
                    "uv": [
                        3,
                        2.75,
                        3,
                        2.875
                    ],
                    "texture": "#1"
                },
                "east": {
                    "uv": [
                        7.625,
                        12.375,
                        7.625,
                        12.5
                    ],
                    "rotation": 270,
                    "texture": "#1"
                },
                "south": {
                    "uv": [
                        3,
                        2.75,
                        3,
                        2.875
                    ],
                    "rotation": 180,
                    "texture": "#1"
                },
                "west": {
                    "uv": [
                        3,
                        2.75,
                        3,
                        2.875
                    ],
                    "rotation": 180,
                    "texture": "#1"
                },
                "up": {
                    "uv": [
                        3,
                        2.75,
                        3,
                        2.875
                    ],
                    "rotation": 180,
                    "texture": "#1"
                },
                "down": {
                    "uv": [
                        3,
                        2.75,
                        3,
                        2.875
                    ],
                    "rotation": 180,
                    "texture": "#1"
                }
            }
        },
        {
            "from": [
                7.66593,
                7.91622,
                -7.81557
            ],
            "to": [
                7.76593,
                8.18022,
                -7.65957
            ],
            "rotation": {
                "angle": 45,
                "axis": "z",
                "origin": [
                    7.82245,
                    8.11538,
                    -6.87357
                ]
            },
            "faces": {
                "north": {
                    "uv": [
                        3,
                        2.75,
                        3,
                        2.875
                    ],
                    "texture": "#1"
                },
                "east": {
                    "uv": [
                        3,
                        2.75,
                        3,
                        2.875
                    ],
                    "rotation": 180,
                    "texture": "#1"
                },
                "south": {
                    "uv": [
                        3,
                        2.75,
                        3,
                        2.875
                    ],
                    "rotation": 180,
                    "texture": "#1"
                },
                "west": {
                    "uv": [
                        3,
                        2.75,
                        3,
                        2.875
                    ],
                    "rotation": 180,
                    "texture": "#1"
                },
                "up": {
                    "uv": [
                        3,
                        2.75,
                        3,
                        2.875
                    ],
                    "rotation": 180,
                    "texture": "#1"
                },
                "down": {
                    "uv": [
                        3,
                        2.75,
                        3,
                        2.875
                    ],
                    "rotation": 180,
                    "texture": "#1"
                }
            }
        },
        {
            "from": [
                7.85261,
                8.33723,
                -7.65957
            ],
            "to": [
                8.11661,
                8.50123,
                -6.44757
            ],
            "rotation": {
                "angle": 0,
                "axis": "y",
                "origin": [
                    7.98461,
                    8.47122,
                    -6.71757
                ]
            },
            "faces": {
                "north": {
                    "uv": [
                        3,
                        2.75,
                        3,
                        2.875
                    ],
                    "rotation": 270,
                    "texture": "#1"
                },
                "east": {
                    "uv": [
                        3,
                        2.75,
                        3,
                        2.875
                    ],
                    "rotation": 270,
                    "texture": "#1"
                },
                "south": {
                    "uv": [
                        3,
                        2.75,
                        3,
                        2.875
                    ],
                    "rotation": 270,
                    "texture": "#1"
                },
                "west": {
                    "uv": [
                        3,
                        2.75,
                        3,
                        2.875
                    ],
                    "rotation": 270,
                    "texture": "#1"
                },
                "up": {
                    "uv": [
                        3,
                        2.75,
                        3,
                        2.875
                    ],
                    "rotation": 270,
                    "texture": "#1"
                },
                "down": {
                    "uv": [
                        7.625,
                        12.375,
                        7.625,
                        12.5
                    ],
                    "rotation": 270,
                    "texture": "#1"
                }
            }
        },
        {
            "from": [
                7.85261,
                8.40123,
                -7.81557
            ],
            "to": [
                8.11661,
                8.50123,
                -7.65957
            ],
            "rotation": {
                "angle": 0,
                "axis": "y",
                "origin": [
                    7.98461,
                    8.47122,
                    -6.87357
                ]
            },
            "faces": {
                "north": {
                    "uv": [
                        3,
                        2.75,
                        3,
                        2.875
                    ],
                    "rotation": 270,
                    "texture": "#1"
                },
                "east": {
                    "uv": [
                        3,
                        2.75,
                        3,
                        2.875
                    ],
                    "rotation": 270,
                    "texture": "#1"
                },
                "south": {
                    "uv": [
                        3,
                        2.75,
                        3,
                        2.875
                    ],
                    "rotation": 270,
                    "texture": "#1"
                },
                "west": {
                    "uv": [
                        3,
                        2.75,
                        3,
                        2.875
                    ],
                    "rotation": 270,
                    "texture": "#1"
                },
                "up": {
                    "uv": [
                        3,
                        2.75,
                        3,
                        2.875
                    ],
                    "rotation": 270,
                    "texture": "#1"
                },
                "down": {
                    "uv": [
                        3,
                        2.75,
                        3,
                        2.875
                    ],
                    "rotation": 270,
                    "texture": "#1"
                }
            }
        },
        {
            "from": [
                7.85261,
                7.86388,
                -7.65957
            ],
            "to": [
                8.11661,
                8.02788,
                -6.44757
            ],
            "rotation": {
                "angle": 0,
                "axis": "y",
                "origin": [
                    7.82245,
                    8.11538,
                    -6.71757
                ]
            },
            "faces": {
                "north": {
                    "uv": [
                        3,
                        2.75,
                        3,
                        2.875
                    ],
                    "rotation": 90,
                    "texture": "#1"
                },
                "east": {
                    "uv": [
                        3,
                        2.75,
                        3,
                        2.875
                    ],
                    "rotation": 90,
                    "texture": "#1"
                },
                "south": {
                    "uv": [
                        3,
                        2.75,
                        3,
                        2.875
                    ],
                    "rotation": 90,
                    "texture": "#1"
                },
                "west": {
                    "uv": [
                        3,
                        2.75,
                        3,
                        2.875
                    ],
                    "rotation": 90,
                    "texture": "#1"
                },
                "up": {
                    "uv": [
                        7.625,
                        12.375,
                        7.625,
                        12.5
                    ],
                    "rotation": 270,
                    "texture": "#1"
                },
                "down": {
                    "uv": [
                        3,
                        2.75,
                        3,
                        2.875
                    ],
                    "rotation": 90,
                    "texture": "#1"
                }
            }
        },
        {
            "from": [
                7.85261,
                7.86388,
                -7.81557
            ],
            "to": [
                8.11661,
                7.96388,
                -7.65957
            ],
            "rotation": {
                "angle": 0,
                "axis": "y",
                "origin": [
                    7.82245,
                    8.11538,
                    -6.87357
                ]
            },
            "faces": {
                "north": {
                    "uv": [
                        3,
                        2.75,
                        3,
                        2.875
                    ],
                    "rotation": 90,
                    "texture": "#1"
                },
                "east": {
                    "uv": [
                        3,
                        2.75,
                        3,
                        2.875
                    ],
                    "rotation": 90,
                    "texture": "#1"
                },
                "south": {
                    "uv": [
                        3,
                        2.75,
                        3,
                        2.875
                    ],
                    "rotation": 90,
                    "texture": "#1"
                },
                "west": {
                    "uv": [
                        3,
                        2.75,
                        3,
                        2.875
                    ],
                    "rotation": 90,
                    "texture": "#1"
                },
                "up": {
                    "uv": [
                        3,
                        2.75,
                        3,
                        2.875
                    ],
                    "rotation": 90,
                    "texture": "#1"
                },
                "down": {
                    "uv": [
                        3,
                        2.75,
                        3,
                        2.875
                    ],
                    "rotation": 90,
                    "texture": "#1"
                }
            }
        },
        {
            "from": [
                8.20261,
                7.89767,
                -7.65957
            ],
            "to": [
                8.36661,
                8.16167,
                -6.44757
            ],
            "rotation": {
                "angle": -45,
                "axis": "z",
                "origin": [
                    8.20082,
                    8.18255,
                    -6.71757
                ]
            },
            "faces": {
                "north": {
                    "uv": [
                        3,
                        2.75,
                        3,
                        2.875
                    ],
                    "rotation": 180,
                    "texture": "#1"
                },
                "east": {
                    "uv": [
                        3,
                        2.75,
                        3,
                        2.875
                    ],
                    "texture": "#1"
                },
                "south": {
                    "uv": [
                        3,
                        2.75,
                        3,
                        2.875
                    ],
                    "texture": "#1"
                },
                "west": {
                    "uv": [
                        7.625,
                        12.375,
                        7.625,
                        12.5
                    ],
                    "rotation": 270,
                    "texture": "#1"
                },
                "up": {
                    "uv": [
                        3,
                        2.75,
                        3,
                        2.875
                    ],
                    "texture": "#1"
                },
                "down": {
                    "uv": [
                        3,
                        2.75,
                        3,
                        2.875
                    ],
                    "texture": "#1"
                }
            }
        },
        {
            "from": [
                8.26661,
                7.89767,
                -7.81557
            ],
            "to": [
                8.36661,
                8.16167,
                -7.65957
            ],
            "rotation": {
                "angle": -45,
                "axis": "z",
                "origin": [
                    8.20082,
                    8.18255,
                    -6.87357
                ]
            },
            "faces": {
                "north": {
                    "uv": [
                        3,
                        2.75,
                        3,
                        2.875
                    ],
                    "rotation": 180,
                    "texture": "#1"
                },
                "east": {
                    "uv": [
                        3,
                        2.75,
                        3,
                        2.875
                    ],
                    "texture": "#1"
                },
                "south": {
                    "uv": [
                        3,
                        2.75,
                        3,
                        2.875
                    ],
                    "texture": "#1"
                },
                "west": {
                    "uv": [
                        3,
                        2.75,
                        3,
                        2.875
                    ],
                    "texture": "#1"
                },
                "up": {
                    "uv": [
                        3,
                        2.75,
                        3,
                        2.875
                    ],
                    "texture": "#1"
                },
                "down": {
                    "uv": [
                        3,
                        2.75,
                        3,
                        2.875
                    ],
                    "texture": "#1"
                }
            }
        },
        {
            "from": [
                7.85261,
                8.20289,
                -7.65957
            ],
            "to": [
                8.11661,
                8.36689,
                -6.44757
            ],
            "rotation": {
                "angle": 45,
                "axis": "z",
                "origin": [
                    7.82245,
                    8.11538,
                    -6.71757
                ]
            },
            "faces": {
                "north": {
                    "uv": [
                        3,
                        2.75,
                        3,
                        2.875
                    ],
                    "rotation": 270,
                    "texture": "#1"
                },
                "east": {
                    "uv": [
                        3,
                        2.75,
                        3,
                        2.875
                    ],
                    "rotation": 270,
                    "texture": "#1"
                },
                "south": {
                    "uv": [
                        3,
                        2.75,
                        3,
                        2.875
                    ],
                    "rotation": 270,
                    "texture": "#1"
                },
                "west": {
                    "uv": [
                        3,
                        2.75,
                        3,
                        2.875
                    ],
                    "rotation": 270,
                    "texture": "#1"
                },
                "up": {
                    "uv": [
                        3,
                        2.75,
                        3,
                        2.875
                    ],
                    "rotation": 270,
                    "texture": "#1"
                },
                "down": {
                    "uv": [
                        7.625,
                        12.375,
                        7.625,
                        12.5
                    ],
                    "rotation": 270,
                    "texture": "#1"
                }
            }
        },
        {
            "from": [
                7.85261,
                8.26689,
                -7.81557
            ],
            "to": [
                8.11661,
                8.36689,
                -7.65957
            ],
            "rotation": {
                "angle": 45,
                "axis": "z",
                "origin": [
                    7.82245,
                    8.11538,
                    -6.87357
                ]
            },
            "faces": {
                "north": {
                    "uv": [
                        3,
                        2.75,
                        3,
                        2.875
                    ],
                    "rotation": 270,
                    "texture": "#1"
                },
                "east": {
                    "uv": [
                        3,
                        2.75,
                        3,
                        2.875
                    ],
                    "rotation": 270,
                    "texture": "#1"
                },
                "south": {
                    "uv": [
                        3,
                        2.75,
                        3,
                        2.875
                    ],
                    "rotation": 270,
                    "texture": "#1"
                },
                "west": {
                    "uv": [
                        3,
                        2.75,
                        3,
                        2.875
                    ],
                    "rotation": 270,
                    "texture": "#1"
                },
                "up": {
                    "uv": [
                        3,
                        2.75,
                        3,
                        2.875
                    ],
                    "rotation": 270,
                    "texture": "#1"
                },
                "down": {
                    "uv": [
                        3,
                        2.75,
                        3,
                        2.875
                    ],
                    "rotation": 270,
                    "texture": "#1"
                }
            }
        },
        {
            "from": [
                7.74318,
                8.08379,
                -7.62757
            ],
            "to": [
                7.84318,
                8.28379,
                -6.19157
            ],
            "rotation": {
                "angle": 0,
                "axis": "y",
                "origin": [
                    7.79318,
                    8.18379,
                    -6.26157
                ]
            },
            "faces": {
                "north": {
                    "uv": [
                        7.625,
                        12.375,
                        7.625,
                        12.5
                    ],
                    "rotation": 270,
                    "texture": "#1"
                },
                "east": {
                    "uv": [
                        7.625,
                        12.375,
                        7.625,
                        12.5
                    ],
                    "rotation": 270,
                    "texture": "#1"
                },
                "south": {
                    "uv": [
                        4,
                        3,
                        4.625,
                        3
                    ],
                    "texture": "#1"
                },
                "west": {
                    "uv": [
                        4,
                        3,
                        4.625,
                        3
                    ],
                    "texture": "#1"
                },
                "up": {
                    "uv": [
                        4,
                        3,
                        4.625,
                        3
                    ],
                    "texture": "#1"
                },
                "down": {
                    "uv": [
                        4,
                        3,
                        4.625,
                        3
                    ],
                    "texture": "#1"
                }
            }
        },
        {
            "from": [
                8.12603,
                8.08379,
                -7.62757
            ],
            "to": [
                8.22603,
                8.28379,
                -6.19157
            ],
            "rotation": {
                "angle": 0,
                "axis": "y",
                "origin": [
                    8.17603,
                    8.18379,
                    -6.26157
                ]
            },
            "faces": {
                "north": {
                    "uv": [
                        7.625,
                        12.375,
                        7.625,
                        12.5
                    ],
                    "rotation": 270,
                    "texture": "#1"
                },
                "east": {
                    "uv": [
                        4,
                        3,
                        4.625,
                        3
                    ],
                    "texture": "#1"
                },
                "south": {
                    "uv": [
                        4,
                        3,
                        4.625,
                        3
                    ],
                    "texture": "#1"
                },
                "west": {
                    "uv": [
                        7.625,
                        12.375,
                        7.625,
                        12.5
                    ],
                    "rotation": 270,
                    "texture": "#1"
                },
                "up": {
                    "uv": [
                        4,
                        3,
                        4.625,
                        3
                    ],
                    "texture": "#1"
                },
                "down": {
                    "uv": [
                        4,
                        3,
                        4.625,
                        3
                    ],
                    "texture": "#1"
                }
            }
        },
        {
            "from": [
                7.88461,
                7.94237,
                -7.62757
            ],
            "to": [
                8.08461,
                8.04237,
                -6.19157
            ],
            "rotation": {
                "angle": 45,
                "axis": "z",
                "origin": [
                    7.98461,
                    8.18379,
                    -5.26157
                ]
            },
            "faces": {
                "north": {
                    "uv": [
                        7.625,
                        12.375,
                        7.625,
                        12.5
                    ],
                    "rotation": 270,
                    "texture": "#1"
                },
                "east": {
                    "uv": [
                        4,
                        3,
                        4.625,
                        3
                    ],
                    "rotation": 90,
                    "texture": "#1"
                },
                "south": {
                    "uv": [
                        4,
                        3,
                        4.625,
                        3
                    ],
                    "rotation": 90,
                    "texture": "#1"
                },
                "west": {
                    "uv": [
                        4,
                        3,
                        4.625,
                        3
                    ],
                    "rotation": 90,
                    "texture": "#1"
                },
                "up": {
                    "uv": [
                        7.625,
                        12.375,
                        7.625,
                        12.5
                    ],
                    "rotation": 270,
                    "texture": "#1"
                },
                "down": {
                    "uv": [
                        4,
                        3,
                        4.625,
                        3
                    ],
                    "rotation": 90,
                    "texture": "#1"
                }
            }
        },
        {
            "from": [
                7.88461,
                8.32522,
                -7.62757
            ],
            "to": [
                8.08461,
                8.42522,
                -6.19157
            ],
            "rotation": {
                "angle": 45,
                "axis": "z",
                "origin": [
                    7.98461,
                    8.18379,
                    -5.26157
                ]
            },
            "faces": {
                "north": {
                    "uv": [
                        7.625,
                        12.375,
                        7.625,
                        12.5
                    ],
                    "rotation": 270,
                    "texture": "#1"
                },
                "east": {
                    "uv": [
                        4,
                        3,
                        4.625,
                        3
                    ],
                    "rotation": 90,
                    "texture": "#1"
                },
                "south": {
                    "uv": [
                        4,
                        3,
                        4.625,
                        3
                    ],
                    "rotation": 90,
                    "texture": "#1"
                },
                "west": {
                    "uv": [
                        4,
                        3,
                        4.625,
                        3
                    ],
                    "rotation": 90,
                    "texture": "#1"
                },
                "up": {
                    "uv": [
                        4,
                        3,
                        4.625,
                        3
                    ],
                    "rotation": 90,
                    "texture": "#1"
                },
                "down": {
                    "uv": [
                        7.625,
                        12.375,
                        7.625,
                        12.5
                    ],
                    "rotation": 270,
                    "texture": "#1"
                }
            }
        }
    ],
    "display": {
        "thirdperson_righthand": {
            "translation": [
                -0.75,
                0.75,
                -1
            ]
        },
        "thirdperson_lefthand": {
            "translation": [
                -0.75,
                0.75,
                -1
            ]
        },
        "firstperson_righthand": {
            "translation": [
                -4.5,
                6,
                4.25
            ]
        },
        "firstperson_lefthand": {
            "translation": [
                -4.5,
                6,
                4.25
            ]
        },
        "ground": {
            "translation": [
                -0.5,
                5,
                6.25
            ]
        },
        "gui": {
            "rotation": [
                29,
                41,
                -29
            ],
            "translation": [
                2,
                0.5,
                0
            ]
        },
        "head": {
            "translation": [
                0,
                8.25,
                0
            ]
        },
        "fixed": {
            "rotation": [
                90,
                45,
                -90
            ],
            "translation": [
                3.5,
                -1.25,
                -1.5
            ],
            "scale": [
                1.32,
                1.32,
                1.32
            ]
        }
    }
}