{
    "textures": {
        "0": "gci:items/common/mpz",
        "1": "gci:items/common/all_in_one",
        "particle": "gci:items/common/mpz"
    },
    "elements": [
        {
            "from": [
                7.54201,
                6.55226,
                3.67674
            ],
            "to": [
                7.91001,
                7.09626,
                3.83274
            ],
            "rotation": {
                "angle": -45,
                "axis": "y",
                "origin": [
                    7.72601,
                    6.10426,
                    3.75474
                ]
            },
            "faces": {
                "north": {
                    "uv": [
                        3,
                        3,
                        3,
                        3
                    ],
                    "rotation": 90,
                    "texture": "#1"
                },
                "east": {
                    "uv": [
                        3,
                        3,
                        3,
                        3
                    ],
                    "rotation": 90,
                    "texture": "#1"
                },
                "south": {
                    "uv": [
                        3,
                        3,
                        3,
                        3
                    ],
                    "rotation": 90,
                    "texture": "#1"
                },
                "west": {
                    "uv": [
                        3,
                        3,
                        3,
                        3
                    ],
                    "rotation": 90,
                    "texture": "#1"
                },
                "up": {
                    "uv": [
                        3,
                        3,
                        3,
                        3
                    ],
                    "rotation": 90,
                    "texture": "#1"
                },
                "down": {
                    "uv": [
                        3,
                        3,
                        3,
                        3
                    ],
                    "rotation": 90,
                    "texture": "#1"
                }
            }
        },
        {
            "from": [
                7.54201,
                4.34426,
                3.67674
            ],
            "to": [
                7.91001,
                6.42426,
                3.83274
            ],
            "rotation": {
                "angle": -45,
                "axis": "y",
                "origin": [
                    7.72601,
                    5.43226,
                    3.75474
                ]
            },
            "faces": {
                "north": {
                    "uv": [
                        3,
                        3,
                        3,
                        3
                    ],
                    "rotation": 90,
                    "texture": "#1"
                },
                "east": {
                    "uv": [
                        3,
                        3,
                        3,
                        3
                    ],
                    "rotation": 90,
                    "texture": "#1"
                },
                "south": {
                    "uv": [
                        3,
                        3,
                        3,
                        3
                    ],
                    "rotation": 90,
                    "texture": "#1"
                },
                "west": {
                    "uv": [
                        3,
                        3,
                        3,
                        3
                    ],
                    "rotation": 90,
                    "texture": "#1"
                },
                "up": {
                    "uv": [
                        3,
                        3,
                        3,
                        3
                    ],
                    "rotation": 90,
                    "texture": "#1"
                },
                "down": {
                    "uv": [
                        3,
                        3,
                        3,
                        3
                    ],
                    "rotation": 90,
                    "texture": "#1"
                }
            }
        },
        {
            "from": [
                8.27318,
                6.55226,
                3.12868
            ],
            "to": [
                8.42918,
                7.09626,
                3.49668
            ],
            "rotation": {
                "angle": 45,
                "axis": "y",
                "origin": [
                    8.20599,
                    6.10426,
                    3.40423
                ]
            },
            "faces": {
                "north": {
                    "uv": [
                        3,
                        3,
                        3,
                        3
                    ],
                    "rotation": 90,
                    "texture": "#1"
                },
                "east": {
                    "uv": [
                        3,
                        3,
                        3,
                        3
                    ],
                    "rotation": 90,
                    "texture": "#1"
                },
                "south": {
                    "uv": [
                        3,
                        3,
                        3,
                        3
                    ],
                    "rotation": 90,
                    "texture": "#1"
                },
                "west": {
                    "uv": [
                        3,
                        3,
                        3,
                        3
                    ],
                    "rotation": 90,
                    "texture": "#1"
                },
                "up": {
                    "uv": [
                        3,
                        3,
                        3,
                        3
                    ],
                    "texture": "#1"
                },
                "down": {
                    "uv": [
                        3,
                        3,
                        3,
                        3
                    ],
                    "rotation": 180,
                    "texture": "#1"
                }
            }
        },
        {
            "from": [
                8.27318,
                4.34426,
                3.12868
            ],
            "to": [
                8.42918,
                6.42426,
                3.49668
            ],
            "rotation": {
                "angle": 45,
                "axis": "y",
                "origin": [
                    8.20599,
                    5.43226,
                    3.40423
                ]
            },
            "faces": {
                "north": {
                    "uv": [
                        3,
                        3,
                        3,
                        3
                    ],
                    "rotation": 90,
                    "texture": "#1"
                },
                "east": {
                    "uv": [
                        3,
                        3,
                        3,
                        3
                    ],
                    "rotation": 90,
                    "texture": "#1"
                },
                "south": {
                    "uv": [
                        3,
                        3,
                        3,
                        3
                    ],
                    "rotation": 90,
                    "texture": "#1"
                },
                "west": {
                    "uv": [
                        3,
                        3,
                        3,
                        3
                    ],
                    "rotation": 90,
                    "texture": "#1"
                },
                "up": {
                    "uv": [
                        3,
                        3,
                        3,
                        3
                    ],
                    "texture": "#1"
                },
                "down": {
                    "uv": [
                        3,
                        3,
                        3,
                        3
                    ],
                    "rotation": 180,
                    "texture": "#1"
                }
            }
        },
        {
            "from": [
                7.64801,
                6.55226,
                3.05283
            ],
            "to": [
                7.80401,
                7.09626,
                3.42083
            ],
            "rotation": {
                "angle": -45,
                "axis": "y",
                "origin": [
                    7.72601,
                    6.10426,
                    3.23683
                ]
            },
            "faces": {
                "north": {
                    "uv": [
                        3,
                        3,
                        3,
                        3
                    ],
                    "rotation": 90,
                    "texture": "#1"
                },
                "east": {
                    "uv": [
                        3,
                        3,
                        3,
                        3
                    ],
                    "rotation": 90,
                    "texture": "#1"
                },
                "south": {
                    "uv": [
                        3,
                        3,
                        3,
                        3
                    ],
                    "rotation": 90,
                    "texture": "#1"
                },
                "west": {
                    "uv": [
                        3,
                        3,
                        3,
                        3
                    ],
                    "rotation": 90,
                    "texture": "#1"
                },
                "up": {
                    "uv": [
                        3,
                        3,
                        3,
                        3
                    ],
                    "texture": "#1"
                },
                "down": {
                    "uv": [
                        3,
                        3,
                        3,
                        3
                    ],
                    "rotation": 180,
                    "texture": "#1"
                }
            }
        },
        {
            "from": [
                7.64801,
                4.34426,
                3.05283
            ],
            "to": [
                7.80401,
                6.42426,
                3.42083
            ],
            "rotation": {
                "angle": -45,
                "axis": "y",
                "origin": [
                    7.72601,
                    5.43226,
                    3.23683
                ]
            },
            "faces": {
                "north": {
                    "uv": [
                        3,
                        3,
                        3,
                        3
                    ],
                    "rotation": 90,
                    "texture": "#1"
                },
                "east": {
                    "uv": [
                        3,
                        3,
                        3,
                        3
                    ],
                    "rotation": 90,
                    "texture": "#1"
                },
                "south": {
                    "uv": [
                        3,
                        3,
                        3,
                        3
                    ],
                    "rotation": 90,
                    "texture": "#1"
                },
                "west": {
                    "uv": [
                        3,
                        3,
                        3,
                        3
                    ],
                    "rotation": 90,
                    "texture": "#1"
                },
                "up": {
                    "uv": [
                        3,
                        3,
                        3,
                        3
                    ],
                    "texture": "#1"
                },
                "down": {
                    "uv": [
                        3,
                        3,
                        3,
                        3
                    ],
                    "rotation": 180,
                    "texture": "#1"
                }
            }
        },
        {
            "from": [
                7.80096,
                6.55226,
                3.60089
            ],
            "to": [
                8.16896,
                7.09626,
                3.75689
            ],
            "rotation": {
                "angle": 45,
                "axis": "y",
                "origin": [
                    8.20599,
                    6.10426,
                    3.40423
                ]
            },
            "faces": {
                "north": {
                    "uv": [
                        3,
                        3,
                        3,
                        3
                    ],
                    "rotation": 90,
                    "texture": "#1"
                },
                "east": {
                    "uv": [
                        3,
                        3,
                        3,
                        3
                    ],
                    "rotation": 90,
                    "texture": "#1"
                },
                "south": {
                    "uv": [
                        3,
                        3,
                        3,
                        3
                    ],
                    "rotation": 90,
                    "texture": "#1"
                },
                "west": {
                    "uv": [
                        3,
                        3,
                        3,
                        3
                    ],
                    "rotation": 90,
                    "texture": "#1"
                },
                "up": {
                    "uv": [
                        3,
                        3,
                        3,
                        3
                    ],
                    "rotation": 270,
                    "texture": "#1"
                },
                "down": {
                    "uv": [
                        3,
                        3,
                        3,
                        3
                    ],
                    "rotation": 270,
                    "texture": "#1"
                }
            }
        },
        {
            "from": [
                7.80096,
                4.34426,
                3.60089
            ],
            "to": [
                8.16896,
                6.42426,
                3.75689
            ],
            "rotation": {
                "angle": 45,
                "axis": "y",
                "origin": [
                    8.20599,
                    5.43226,
                    3.40423
                ]
            },
            "faces": {
                "north": {
                    "uv": [
                        3,
                        3,
                        3,
                        3
                    ],
                    "rotation": 90,
                    "texture": "#1"
                },
                "east": {
                    "uv": [
                        3,
                        3,
                        3,
                        3
                    ],
                    "rotation": 90,
                    "texture": "#1"
                },
                "south": {
                    "uv": [
                        3,
                        3,
                        3,
                        3
                    ],
                    "rotation": 90,
                    "texture": "#1"
                },
                "west": {
                    "uv": [
                        3,
                        3,
                        3,
                        3
                    ],
                    "rotation": 90,
                    "texture": "#1"
                },
                "up": {
                    "uv": [
                        3,
                        3,
                        3,
                        3
                    ],
                    "rotation": 270,
                    "texture": "#1"
                },
                "down": {
                    "uv": [
                        3,
                        3,
                        3,
                        3
                    ],
                    "rotation": 270,
                    "texture": "#1"
                }
            }
        },
        {
            "from": [
                7.54074,
                6.55226,
                3.31178
            ],
            "to": [
                7.69674,
                7.54426,
                3.67978
            ],
            "rotation": {
                "angle": 0,
                "axis": "y",
                "origin": [
                    7.61874,
                    6.10426,
                    3.49578
                ]
            },
            "faces": {
                "north": {
                    "uv": [
                        3,
                        3,
                        3,
                        3
                    ],
                    "rotation": 90,
                    "texture": "#1"
                },
                "east": {
                    "uv": [
                        3,
                        3,
                        3,
                        3
                    ],
                    "rotation": 90,
                    "texture": "#1"
                },
                "south": {
                    "uv": [
                        3,
                        3,
                        3,
                        3
                    ],
                    "rotation": 90,
                    "texture": "#1"
                },
                "west": {
                    "uv": [
                        3,
                        3,
                        3,
                        3
                    ],
                    "rotation": 90,
                    "texture": "#1"
                },
                "up": {
                    "uv": [
                        3,
                        3,
                        3,
                        3
                    ],
                    "rotation": 180,
                    "texture": "#1"
                },
                "down": {
                    "uv": [
                        3,
                        3,
                        3,
                        3
                    ],
                    "texture": "#1"
                }
            }
        },
        {
            "from": [
                7.50874,
                7.25626,
                3.40778
            ],
            "to": [
                8.46474,
                7.43226,
                3.58378
            ],
            "rotation": {
                "angle": 45,
                "axis": "x",
                "origin": [
                    7.60274,
                    7.32826,
                    3.47978
                ]
            },
            "faces": {
                "north": {
                    "uv": [
                        4.375,
                        3.375,
                        4.375,
                        3.375
                    ],
                    "rotation": 90,
                    "texture": "#1"
                },
                "east": {
                    "uv": [
                        4.375,
                        3.375,
                        4.375,
                        3.375
                    ],
                    "rotation": 90,
                    "texture": "#1"
                },
                "south": {
                    "uv": [
                        4.375,
                        3.375,
                        4.375,
                        3.375
                    ],
                    "rotation": 90,
                    "texture": "#1"
                },
                "west": {
                    "uv": [
                        4.375,
                        3.375,
                        4.375,
                        3.375
                    ],
                    "rotation": 90,
                    "texture": "#1"
                },
                "up": {
                    "uv": [
                        4.375,
                        3.375,
                        4.375,
                        3.375
                    ],
                    "rotation": 90,
                    "texture": "#1"
                },
                "down": {
                    "uv": [
                        4.375,
                        3.375,
                        4.375,
                        3.375
                    ],
                    "rotation": 90,
                    "texture": "#1"
                }
            }
        },
        {
            "from": [
                7.54074,
                4.34426,
                3.31178
            ],
            "to": [
                7.69674,
                6.42426,
                3.67978
            ],
            "rotation": {
                "angle": 0,
                "axis": "y",
                "origin": [
                    7.61874,
                    5.43226,
                    3.49578
                ]
            },
            "faces": {
                "north": {
                    "uv": [
                        3,
                        3,
                        3,
                        3
                    ],
                    "rotation": 90,
                    "texture": "#1"
                },
                "east": {
                    "uv": [
                        3,
                        3,
                        3,
                        3
                    ],
                    "rotation": 90,
                    "texture": "#1"
                },
                "south": {
                    "uv": [
                        3,
                        3,
                        3,
                        3
                    ],
                    "rotation": 90,
                    "texture": "#1"
                },
                "west": {
                    "uv": [
                        3,
                        3,
                        3,
                        3
                    ],
                    "rotation": 90,
                    "texture": "#1"
                },
                "up": {
                    "uv": [
                        3,
                        3,
                        3,
                        3
                    ],
                    "rotation": 180,
                    "texture": "#1"
                },
                "down": {
                    "uv": [
                        3,
                        3,
                        3,
                        3
                    ],
                    "texture": "#1"
                }
            }
        },
        {
            "from": [
                8.27318,
                6.55226,
                3.31178
            ],
            "to": [
                8.42918,
                7.54426,
                3.67978
            ],
            "rotation": {
                "angle": 0,
                "axis": "y",
                "origin": [
                    8.20599,
                    6.10426,
                    3.40423
                ]
            },
            "faces": {
                "north": {
                    "uv": [
                        3,
                        3,
                        3,
                        3
                    ],
                    "rotation": 90,
                    "texture": "#1"
                },
                "east": {
                    "uv": [
                        3,
                        3,
                        3,
                        3
                    ],
                    "rotation": 90,
                    "texture": "#1"
                },
                "south": {
                    "uv": [
                        3,
                        3,
                        3,
                        3
                    ],
                    "rotation": 90,
                    "texture": "#1"
                },
                "west": {
                    "uv": [
                        3,
                        3,
                        3,
                        3
                    ],
                    "rotation": 90,
                    "texture": "#1"
                },
                "up": {
                    "uv": [
                        3,
                        3,
                        3,
                        3
                    ],
                    "texture": "#1"
                },
                "down": {
                    "uv": [
                        3,
                        3,
                        3,
                        3
                    ],
                    "rotation": 180,
                    "texture": "#1"
                }
            }
        },
        {
            "from": [
                8.27318,
                4.34426,
                3.31178
            ],
            "to": [
                8.42918,
                6.42426,
                3.67978
            ],
            "rotation": {
                "angle": 0,
                "axis": "y",
                "origin": [
                    8.20599,
                    5.43226,
                    3.40423
                ]
            },
            "faces": {
                "north": {
                    "uv": [
                        3,
                        3,
                        3,
                        3
                    ],
                    "rotation": 90,
                    "texture": "#1"
                },
                "east": {
                    "uv": [
                        3,
                        3,
                        3,
                        3
                    ],
                    "rotation": 90,
                    "texture": "#1"
                },
                "south": {
                    "uv": [
                        3,
                        3,
                        3,
                        3
                    ],
                    "rotation": 90,
                    "texture": "#1"
                },
                "west": {
                    "uv": [
                        3,
                        3,
                        3,
                        3
                    ],
                    "rotation": 90,
                    "texture": "#1"
                },
                "up": {
                    "uv": [
                        3,
                        3,
                        3,
                        3
                    ],
                    "texture": "#1"
                },
                "down": {
                    "uv": [
                        3,
                        3,
                        3,
                        3
                    ],
                    "rotation": 180,
                    "texture": "#1"
                }
            }
        },
        {
            "from": [
                7.80096,
                6.55226,
                3.784
            ],
            "to": [
                8.16896,
                7.09626,
                3.94
            ],
            "rotation": {
                "angle": 0,
                "axis": "y",
                "origin": [
                    7.98496,
                    6.10426,
                    3.862
                ]
            },
            "faces": {
                "north": {
                    "uv": [
                        3,
                        3,
                        3,
                        3
                    ],
                    "rotation": 90,
                    "texture": "#1"
                },
                "east": {
                    "uv": [
                        3,
                        3,
                        3,
                        3
                    ],
                    "rotation": 90,
                    "texture": "#1"
                },
                "south": {
                    "uv": [
                        3,
                        3,
                        3,
                        3
                    ],
                    "rotation": 90,
                    "texture": "#1"
                },
                "west": {
                    "uv": [
                        3,
                        3,
                        3,
                        3
                    ],
                    "rotation": 90,
                    "texture": "#1"
                },
                "up": {
                    "uv": [
                        3,
                        3,
                        3,
                        3
                    ],
                    "rotation": 90,
                    "texture": "#1"
                },
                "down": {
                    "uv": [
                        3,
                        3,
                        3,
                        3
                    ],
                    "rotation": 90,
                    "texture": "#1"
                }
            }
        },
        {
            "from": [
                7.80096,
                4.34426,
                3.784
            ],
            "to": [
                8.16896,
                6.42426,
                3.94
            ],
            "rotation": {
                "angle": 0,
                "axis": "y",
                "origin": [
                    7.98496,
                    5.43226,
                    3.862
                ]
            },
            "faces": {
                "north": {
                    "uv": [
                        3,
                        3,
                        3,
                        3
                    ],
                    "rotation": 90,
                    "texture": "#1"
                },
                "east": {
                    "uv": [
                        3,
                        3,
                        3,
                        3
                    ],
                    "rotation": 90,
                    "texture": "#1"
                },
                "south": {
                    "uv": [
                        3,
                        3,
                        3,
                        3
                    ],
                    "rotation": 90,
                    "texture": "#1"
                },
                "west": {
                    "uv": [
                        3,
                        3,
                        3,
                        3
                    ],
                    "rotation": 90,
                    "texture": "#1"
                },
                "up": {
                    "uv": [
                        3,
                        3,
                        3,
                        3
                    ],
                    "rotation": 90,
                    "texture": "#1"
                },
                "down": {
                    "uv": [
                        3,
                        3,
                        3,
                        3
                    ],
                    "rotation": 90,
                    "texture": "#1"
                }
            }
        },
        {
            "from": [
                7.618,
                4.15226,
                3.35704
            ],
            "to": [
                7.774,
                7.09626,
                3.66104
            ],
            "rotation": {
                "angle": 0,
                "axis": "y",
                "origin": [
                    7.696,
                    6.87226,
                    3.50904
                ]
            },
            "faces": {
                "north": {
                    "uv": [
                        7.625,
                        11.875,
                        7.625,
                        11.875
                    ],
                    "rotation": 90,
                    "texture": "#1"
                },
                "east": {
                    "uv": [
                        7.625,
                        11.875,
                        7.625,
                        11.875
                    ],
                    "rotation": 90,
                    "texture": "#1"
                },
                "south": {
                    "uv": [
                        7.625,
                        11.875,
                        7.625,
                        11.875
                    ],
                    "rotation": 90,
                    "texture": "#1"
                },
                "west": {
                    "uv": [
                        7.625,
                        11.875,
                        7.625,
                        11.875
                    ],
                    "rotation": 90,
                    "texture": "#1"
                },
                "up": {
                    "uv": [
                        7.625,
                        11.875,
                        7.625,
                        11.875
                    ],
                    "rotation": 90,
                    "texture": "#1"
                },
                "down": {
                    "uv": [
                        7.625,
                        11.875,
                        7.625,
                        11.875
                    ],
                    "rotation": 90,
                    "texture": "#1"
                }
            }
        },
        {
            "from": [
                7.74792,
                4.15226,
                3.35704
            ],
            "to": [
                8.35192,
                7.09626,
                3.66104
            ],
            "rotation": {
                "angle": 0,
                "axis": "y",
                "origin": [
                    8.15936,
                    6.87226,
                    3.4368
                ]
            },
            "faces": {
                "north": {
                    "uv": [
                        7.625,
                        11.875,
                        7.625,
                        11.875
                    ],
                    "rotation": 90,
                    "texture": "#1"
                },
                "east": {
                    "uv": [
                        7.625,
                        11.875,
                        7.625,
                        11.875
                    ],
                    "rotation": 90,
                    "texture": "#1"
                },
                "south": {
                    "uv": [
                        7.625,
                        11.875,
                        7.625,
                        11.875
                    ],
                    "rotation": 90,
                    "texture": "#1"
                },
                "west": {
                    "uv": [
                        7.625,
                        11.875,
                        7.625,
                        11.875
                    ],
                    "rotation": 90,
                    "texture": "#1"
                },
                "up": {
                    "uv": [
                        7.625,
                        11.875,
                        7.625,
                        11.875
                    ],
                    "rotation": 90,
                    "texture": "#1"
                },
                "down": {
                    "uv": [
                        7.625,
                        11.875,
                        7.625,
                        11.875
                    ],
                    "rotation": 90,
                    "texture": "#1"
                }
            }
        },
        {
            "from": [
                7.62863,
                4.15226,
                3.63537
            ],
            "to": [
                7.93263,
                7.09626,
                3.79137
            ],
            "rotation": {
                "angle": -45,
                "axis": "y",
                "origin": [
                    7.78063,
                    6.87226,
                    3.71337
                ]
            },
            "faces": {
                "north": {
                    "uv": [
                        7.625,
                        11.875,
                        7.625,
                        11.875
                    ],
                    "rotation": 90,
                    "texture": "#1"
                },
                "east": {
                    "uv": [
                        7.625,
                        11.875,
                        7.625,
                        11.875
                    ],
                    "rotation": 90,
                    "texture": "#1"
                },
                "south": {
                    "uv": [
                        7.625,
                        11.875,
                        7.625,
                        11.875
                    ],
                    "rotation": 90,
                    "texture": "#1"
                },
                "west": {
                    "uv": [
                        7.625,
                        11.875,
                        7.625,
                        11.875
                    ],
                    "rotation": 90,
                    "texture": "#1"
                },
                "up": {
                    "uv": [
                        7.625,
                        11.875,
                        7.625,
                        11.875
                    ],
                    "rotation": 90,
                    "texture": "#1"
                },
                "down": {
                    "uv": [
                        7.625,
                        11.875,
                        7.625,
                        11.875
                    ],
                    "rotation": 90,
                    "texture": "#1"
                }
            }
        },
        {
            "from": [
                7.93512,
                4.15226,
                3.24424
            ],
            "to": [
                8.23912,
                7.09626,
                3.40024
            ],
            "rotation": {
                "angle": -45,
                "axis": "y",
                "origin": [
                    8.15936,
                    6.87226,
                    3.4368
                ]
            },
            "faces": {
                "north": {
                    "uv": [
                        7.625,
                        11.875,
                        7.625,
                        11.875
                    ],
                    "rotation": 90,
                    "texture": "#1"
                },
                "east": {
                    "uv": [
                        7.625,
                        11.875,
                        7.625,
                        11.875
                    ],
                    "rotation": 90,
                    "texture": "#1"
                },
                "south": {
                    "uv": [
                        7.625,
                        11.875,
                        7.625,
                        11.875
                    ],
                    "rotation": 90,
                    "texture": "#1"
                },
                "west": {
                    "uv": [
                        7.625,
                        11.875,
                        7.625,
                        11.875
                    ],
                    "rotation": 90,
                    "texture": "#1"
                },
                "up": {
                    "uv": [
                        7.625,
                        11.875,
                        7.625,
                        11.875
                    ],
                    "rotation": 90,
                    "texture": "#1"
                },
                "down": {
                    "uv": [
                        7.625,
                        11.875,
                        7.625,
                        11.875
                    ],
                    "rotation": 90,
                    "texture": "#1"
                }
            }
        },
        {
            "from": [
                7.83296,
                4.15226,
                3.72
            ],
            "to": [
                8.13696,
                7.09626,
                3.876
            ],
            "rotation": {
                "angle": 0,
                "axis": "y",
                "origin": [
                    7.98496,
                    6.87226,
                    3.798
                ]
            },
            "faces": {
                "north": {
                    "uv": [
                        7.625,
                        11.875,
                        7.625,
                        11.875
                    ],
                    "rotation": 90,
                    "texture": "#1"
                },
                "east": {
                    "uv": [
                        7.625,
                        11.875,
                        7.625,
                        11.875
                    ],
                    "rotation": 90,
                    "texture": "#1"
                },
                "south": {
                    "uv": [
                        7.625,
                        11.875,
                        7.625,
                        11.875
                    ],
                    "rotation": 90,
                    "texture": "#1"
                },
                "west": {
                    "uv": [
                        7.625,
                        11.875,
                        7.625,
                        11.875
                    ],
                    "rotation": 90,
                    "texture": "#1"
                },
                "up": {
                    "uv": [
                        7.625,
                        11.875,
                        7.625,
                        11.875
                    ],
                    "rotation": 90,
                    "texture": "#1"
                },
                "down": {
                    "uv": [
                        7.625,
                        11.875,
                        7.625,
                        11.875
                    ],
                    "rotation": 90,
                    "texture": "#1"
                }
            }
        },
        {
            "from": [
                7.83296,
                4.15226,
                3.14208
            ],
            "to": [
                8.13696,
                7.09626,
                3.84208
            ],
            "rotation": {
                "angle": 0,
                "axis": "y",
                "origin": [
                    8.15936,
                    6.87226,
                    3.4368
                ]
            },
            "faces": {
                "north": {
                    "uv": [
                        7.625,
                        11.875,
                        7.625,
                        11.875
                    ],
                    "rotation": 90,
                    "texture": "#1"
                },
                "east": {
                    "uv": [
                        7.625,
                        11.875,
                        7.625,
                        11.875
                    ],
                    "rotation": 90,
                    "texture": "#1"
                },
                "south": {
                    "uv": [
                        7.625,
                        11.875,
                        7.625,
                        11.875
                    ],
                    "rotation": 90,
                    "texture": "#1"
                },
                "west": {
                    "uv": [
                        7.625,
                        11.875,
                        7.625,
                        11.875
                    ],
                    "rotation": 90,
                    "texture": "#1"
                },
                "up": {
                    "uv": [
                        7.625,
                        11.875,
                        7.625,
                        11.875
                    ],
                    "rotation": 90,
                    "texture": "#1"
                },
                "down": {
                    "uv": [
                        7.625,
                        11.875,
                        7.625,
                        11.875
                    ],
                    "rotation": 90,
                    "texture": "#1"
                }
            }
        },
        {
            "from": [
                7.60896,
                7.03226,
                2.95008
            ],
            "to": [
                8.36096,
                7.57626,
                4.00208
            ],
            "rotation": {
                "angle": 0,
                "axis": "y",
                "origin": [
                    8.15936,
                    6.87226,
                    3.4368
                ]
            },
            "faces": {
                "north": {
                    "uv": [
                        7.625,
                        11.875,
                        7.625,
                        11.875
                    ],
                    "rotation": 90,
                    "texture": "#1"
                },
                "east": {
                    "uv": [
                        7.625,
                        11.875,
                        7.625,
                        11.875
                    ],
                    "rotation": 90,
                    "texture": "#1"
                },
                "south": {
                    "uv": [
                        7.625,
                        11.875,
                        7.625,
                        11.875
                    ],
                    "rotation": 90,
                    "texture": "#1"
                },
                "west": {
                    "uv": [
                        7.625,
                        11.875,
                        7.625,
                        11.875
                    ],
                    "rotation": 90,
                    "texture": "#1"
                },
                "up": {
                    "uv": [
                        7.625,
                        11.875,
                        7.625,
                        11.875
                    ],
                    "rotation": 90,
                    "texture": "#1"
                },
                "down": {
                    "uv": [
                        7.625,
                        11.875,
                        7.625,
                        11.875
                    ],
                    "rotation": 90,
                    "texture": "#1"
                }
            }
        },
        {
            "from": [
                7.62863,
                4.15226,
                3.22671
            ],
            "to": [
                7.93263,
                7.09626,
                3.38271
            ],
            "rotation": {
                "angle": 45,
                "axis": "y",
                "origin": [
                    7.78063,
                    6.87226,
                    3.30471
                ]
            },
            "faces": {
                "north": {
                    "uv": [
                        7.625,
                        11.875,
                        7.625,
                        11.875
                    ],
                    "rotation": 90,
                    "texture": "#1"
                },
                "east": {
                    "uv": [
                        7.625,
                        11.875,
                        7.625,
                        11.875
                    ],
                    "rotation": 90,
                    "texture": "#1"
                },
                "south": {
                    "uv": [
                        7.625,
                        11.875,
                        7.625,
                        11.875
                    ],
                    "rotation": 90,
                    "texture": "#1"
                },
                "west": {
                    "uv": [
                        7.625,
                        11.875,
                        7.625,
                        11.875
                    ],
                    "rotation": 90,
                    "texture": "#1"
                },
                "up": {
                    "uv": [
                        7.625,
                        11.875,
                        7.625,
                        11.875
                    ],
                    "rotation": 90,
                    "texture": "#1"
                },
                "down": {
                    "uv": [
                        7.625,
                        11.875,
                        7.625,
                        11.875
                    ],
                    "rotation": 90,
                    "texture": "#1"
                }
            }
        },
        {
            "from": [
                8.29808,
                4.15226,
                3.4592
            ],
            "to": [
                8.45408,
                7.09626,
                3.7632
            ],
            "rotation": {
                "angle": -45,
                "axis": "y",
                "origin": [
                    8.15936,
                    6.87226,
                    3.4368
                ]
            },
            "faces": {
                "north": {
                    "uv": [
                        7.625,
                        11.875,
                        7.625,
                        11.875
                    ],
                    "rotation": 90,
                    "texture": "#1"
                },
                "east": {
                    "uv": [
                        7.625,
                        11.875,
                        7.625,
                        11.875
                    ],
                    "rotation": 90,
                    "texture": "#1"
                },
                "south": {
                    "uv": [
                        7.625,
                        11.875,
                        7.625,
                        11.875
                    ],
                    "rotation": 90,
                    "texture": "#1"
                },
                "west": {
                    "uv": [
                        7.625,
                        11.875,
                        7.625,
                        11.875
                    ],
                    "rotation": 90,
                    "texture": "#1"
                },
                "up": {
                    "uv": [
                        7.625,
                        11.875,
                        7.625,
                        11.875
                    ],
                    "rotation": 90,
                    "texture": "#1"
                },
                "down": {
                    "uv": [
                        7.625,
                        11.875,
                        7.625,
                        11.875
                    ],
                    "rotation": 90,
                    "texture": "#1"
                }
            }
        },
        {
            "from": [
                7.80096,
                6.55226,
                3.05157
            ],
            "to": [
                8.16896,
                7.09626,
                3.20757
            ],
            "rotation": {
                "angle": 0,
                "axis": "y",
                "origin": [
                    8.20599,
                    6.10426,
                    3.40423
                ]
            },
            "faces": {
                "north": {
                    "uv": [
                        3,
                        3,
                        3,
                        3
                    ],
                    "rotation": 90,
                    "texture": "#1"
                },
                "east": {
                    "uv": [
                        3,
                        3,
                        3,
                        3
                    ],
                    "rotation": 90,
                    "texture": "#1"
                },
                "south": {
                    "uv": [
                        3,
                        3,
                        3,
                        3
                    ],
                    "rotation": 90,
                    "texture": "#1"
                },
                "west": {
                    "uv": [
                        3,
                        3,
                        3,
                        3
                    ],
                    "rotation": 90,
                    "texture": "#1"
                },
                "up": {
                    "uv": [
                        3,
                        3,
                        3,
                        3
                    ],
                    "rotation": 270,
                    "texture": "#1"
                },
                "down": {
                    "uv": [
                        3,
                        3,
                        3,
                        3
                    ],
                    "rotation": 270,
                    "texture": "#1"
                }
            }
        },
        {
            "from": [
                7.80096,
                4.34426,
                3.05157
            ],
            "to": [
                8.16896,
                6.42426,
                3.20757
            ],
            "rotation": {
                "angle": 0,
                "axis": "y",
                "origin": [
                    8.20599,
                    5.43226,
                    3.40423
                ]
            },
            "faces": {
                "north": {
                    "uv": [
                        3,
                        3,
                        3,
                        3
                    ],
                    "rotation": 90,
                    "texture": "#1"
                },
                "east": {
                    "uv": [
                        3,
                        3,
                        3,
                        3
                    ],
                    "rotation": 90,
                    "texture": "#1"
                },
                "south": {
                    "uv": [
                        3,
                        3,
                        3,
                        3
                    ],
                    "rotation": 90,
                    "texture": "#1"
                },
                "west": {
                    "uv": [
                        3,
                        3,
                        3,
                        3
                    ],
                    "rotation": 90,
                    "texture": "#1"
                },
                "up": {
                    "uv": [
                        3,
                        3,
                        3,
                        3
                    ],
                    "rotation": 270,
                    "texture": "#1"
                },
                "down": {
                    "uv": [
                        3,
                        3,
                        3,
                        3
                    ],
                    "rotation": 270,
                    "texture": "#1"
                }
            }
        }
    ],
    "display": {
        "thirdperson_righthand": {
            "translation": [
                -0.75,
                0.75,
                -1
            ]
        },
        "thirdperson_lefthand": {
            "translation": [
                -0.75,
                0.75,
                -1
            ]
        },
        "firstperson_righthand": {
            "translation": [
                -4.5,
                6,
                4.25
            ]
        },
        "firstperson_lefthand": {
            "translation": [
                -4.5,
                6,
                4.25
            ]
        },
        "ground": {
            "translation": [
                -0.5,
                5,
                6.25
            ]
        },
        "gui": {
            "rotation": [
                29,
                41,
                -29
            ],
            "translation": [
                2,
                0.5,
                0
            ]
        },
        "head": {
            "translation": [
                0,
                8.25,
                0
            ]
        },
        "fixed": {
            "rotation": [
                90,
                45,
                -90
            ],
            "translation": [
                3.5,
                -1.25,
                -1.5
            ],
            "scale": [
                1.32,
                1.32,
                1.32
            ]
        }
    }
}