{
	"credit": "Made with Blockbench",
	"textures": {
		"0": "gci:items/common/mpz",
		"particle": "gci:items/common/mpz"
	},
	"elements": [
		{
			"from": [7.9, 3.9, 2],
			"to": [8.1, 4, 3],
			"faces": {
				"north": {"uv": [11.33333, 0.66667, 12.33333, 1.66667], "texture": "#0"},
				"east": {"uv": [11.33333, 0.66667, 12.33333, 1.66667], "texture": "#0"},
				"south": {"uv": [11.33333, 0.66667, 12.33333, 1.66667], "texture": "#0"},
				"west": {"uv": [11.33333, 0.66667, 12.33333, 1.66667], "texture": "#0"},
				"up": {"uv": [11.33333, 0.66667, 12.33333, 1.66667], "texture": "#0"},
				"down": {"uv": [11.33333, 0.66667, 12.33333, 1.66667], "texture": "#0"}
			}
		},
		{
			"from": [7.72675, 3.86554, 2],
			"to": [7.92675, 3.96554, 3],
			"rotation": {"angle": 22.5, "axis": "z", "origin": [7.82675, 3.91554, 2.5]},
			"faces": {
				"north": {"uv": [11.33333, 0.66667, 12.33333, 1.66667], "texture": "#0"},
				"east": {"uv": [11.33333, 0.66667, 12.33333, 1.66667], "texture": "#0"},
				"south": {"uv": [11.33333, 0.66667, 12.33333, 1.66667], "texture": "#0"},
				"west": {"uv": [11.33333, 0.66667, 12.33333, 1.66667], "texture": "#0"},
				"up": {"uv": [11.33333, 0.66667, 12.33333, 1.66667], "texture": "#0"},
				"down": {"uv": [11.33333, 0.66667, 12.33333, 1.66667], "texture": "#0"}
			}
		},
		{
			"from": [7.61743, 3.71119, 2],
			"to": [7.81743, 3.81119, 3],
			"rotation": {"angle": 45, "axis": "z", "origin": [7.6308, 3.74396, 2.5]},
			"faces": {
				"north": {"uv": [11.33333, 0.66667, 12.33333, 1.66667], "texture": "#0"},
				"east": {"uv": [11.33333, 0.66667, 12.33333, 1.66667], "texture": "#0"},
				"south": {"uv": [11.33333, 0.66667, 12.33333, 1.66667], "texture": "#0"},
				"west": {"uv": [11.33333, 0.66667, 12.33333, 1.66667], "texture": "#0"},
				"up": {"uv": [11.33333, 0.66667, 12.33333, 1.66667], "texture": "#0"},
				"down": {"uv": [11.33333, 0.66667, 12.33333, 1.66667], "texture": "#0"}
			}
		},
		{
			"from": [7.56357, 3.55733, 2],
			"to": [7.66357, 3.75733, 3],
			"rotation": {"angle": -22.5, "axis": "z", "origin": [7.6308, 3.74396, 2.5]},
			"faces": {
				"north": {"uv": [11.33333, 0.66667, 12.33333, 1.66667], "rotation": 90, "texture": "#0"},
				"east": {"uv": [11.33333, 0.66667, 12.33333, 1.66667], "rotation": 270, "texture": "#0"},
				"south": {"uv": [11.33333, 0.66667, 12.33333, 1.66667], "rotation": 270, "texture": "#0"},
				"west": {"uv": [11.33333, 0.66667, 12.33333, 1.66667], "rotation": 270, "texture": "#0"},
				"up": {"uv": [11.33333, 0.66667, 12.33333, 1.66667], "rotation": 270, "texture": "#0"},
				"down": {"uv": [11.33333, 0.66667, 12.33333, 1.66667], "rotation": 270, "texture": "#0"}
			}
		},
		{
			"from": [7.49727, 3.39727, 2],
			"to": [7.59727, 3.59727, 3],
			"rotation": {"angle": 0, "axis": "z", "origin": [7.68701, 3.28813, 2.5]},
			"faces": {
				"north": {"uv": [11.33333, 0.66667, 12.33333, 1.66667], "rotation": 90, "texture": "#0"},
				"east": {"uv": [11.33333, 0.66667, 12.33333, 1.66667], "rotation": 270, "texture": "#0"},
				"south": {"uv": [11.33333, 0.66667, 12.33333, 1.66667], "rotation": 270, "texture": "#0"},
				"west": {"uv": [11.33333, 0.66667, 12.33333, 1.66667], "rotation": 270, "texture": "#0"},
				"up": {"uv": [11.33333, 0.66667, 12.33333, 1.66667], "rotation": 270, "texture": "#0"},
				"down": {"uv": [11.33333, 0.66667, 12.33333, 1.66667], "rotation": 270, "texture": "#0"}
			}
		},
		{
			"from": [7.55347, 3.26157, 2],
			"to": [7.65347, 3.46157, 3],
			"rotation": {"angle": 22.5, "axis": "z", "origin": [7.68701, 3.28813, 2.5]},
			"faces": {
				"north": {"uv": [11.33333, 0.66667, 12.33333, 1.66667], "rotation": 90, "texture": "#0"},
				"east": {"uv": [11.33333, 0.66667, 12.33333, 1.66667], "rotation": 270, "texture": "#0"},
				"south": {"uv": [11.33333, 0.66667, 12.33333, 1.66667], "rotation": 270, "texture": "#0"},
				"west": {"uv": [11.33333, 0.66667, 12.33333, 1.66667], "rotation": 270, "texture": "#0"},
				"up": {"uv": [11.33333, 0.66667, 12.33333, 1.66667], "rotation": 270, "texture": "#0"},
				"down": {"uv": [11.33333, 0.66667, 12.33333, 1.66667], "rotation": 270, "texture": "#0"}
			}
		},
		{
			"from": [7.55347, 3.11469, 2],
			"to": [7.65347, 3.31469, 3],
			"rotation": {"angle": 45, "axis": "z", "origin": [7.68701, 3.28813, 2.5]},
			"faces": {
				"north": {"uv": [11.33333, 0.66667, 12.33333, 1.66667], "rotation": 90, "texture": "#0"},
				"east": {"uv": [11.33333, 0.66667, 12.33333, 1.66667], "rotation": 270, "texture": "#0"},
				"south": {"uv": [11.33333, 0.66667, 12.33333, 1.66667], "rotation": 270, "texture": "#0"},
				"west": {"uv": [11.33333, 0.66667, 12.33333, 1.66667], "rotation": 270, "texture": "#0"},
				"up": {"uv": [11.33333, 0.66667, 12.33333, 1.66667], "rotation": 270, "texture": "#0"},
				"down": {"uv": [11.33333, 0.66667, 12.33333, 1.66667], "rotation": 270, "texture": "#0"}
			}
		},
		{
			"from": [7.79614, 3.09839, 2],
			"to": [7.99614, 3.19839, 3],
			"rotation": {"angle": -22.5, "axis": "z", "origin": [7.68701, 3.28813, 2.5]},
			"faces": {
				"north": {"uv": [11.33333, 0.66667, 12.33333, 1.66667], "rotation": 180, "texture": "#0"},
				"east": {"uv": [11.33333, 0.66667, 12.33333, 1.66667], "rotation": 180, "texture": "#0"},
				"south": {"uv": [11.33333, 0.66667, 12.33333, 1.66667], "rotation": 180, "texture": "#0"},
				"west": {"uv": [11.33333, 0.66667, 12.33333, 1.66667], "rotation": 180, "texture": "#0"},
				"up": {"uv": [11.33333, 0.66667, 12.33333, 1.66667], "rotation": 180, "texture": "#0"},
				"down": {"uv": [11.33333, 0.66667, 12.33333, 1.66667], "rotation": 180, "texture": "#0"}
			}
		},
		{
			"from": [7.9, 2.99453, 2],
			"to": [8.1, 3.09453, 3],
			"rotation": {"angle": 0, "axis": "z", "origin": [8.22637, 3.48004, 2.5]},
			"faces": {
				"north": {"uv": [11.33333, 0.66667, 12.33333, 1.66667], "rotation": 180, "texture": "#0"},
				"east": {"uv": [11.33333, 0.66667, 12.33333, 1.66667], "rotation": 180, "texture": "#0"},
				"south": {"uv": [11.33333, 0.66667, 12.33333, 1.66667], "rotation": 180, "texture": "#0"},
				"west": {"uv": [11.33333, 0.66667, 12.33333, 1.66667], "rotation": 180, "texture": "#0"},
				"up": {"uv": [11.33333, 0.66667, 12.33333, 1.66667], "rotation": 180, "texture": "#0"},
				"down": {"uv": [11.33333, 0.66667, 12.33333, 1.66667], "rotation": 180, "texture": "#0"}
			}
		},
		{
			"from": [7.92383, 3.07985, 2],
			"to": [8.12383, 3.17985, 3],
			"rotation": {"angle": 22.5, "axis": "z", "origin": [8.22637, 3.48004, 2.5]},
			"faces": {
				"north": {"uv": [11.33333, 0.66667, 12.33333, 1.66667], "rotation": 180, "texture": "#0"},
				"east": {"uv": [11.33333, 0.66667, 12.33333, 1.66667], "rotation": 180, "texture": "#0"},
				"south": {"uv": [11.33333, 0.66667, 12.33333, 1.66667], "rotation": 180, "texture": "#0"},
				"west": {"uv": [11.33333, 0.66667, 12.33333, 1.66667], "rotation": 180, "texture": "#0"},
				"up": {"uv": [11.33333, 0.66667, 12.33333, 1.66667], "rotation": 180, "texture": "#0"},
				"down": {"uv": [11.33333, 0.66667, 12.33333, 1.66667], "rotation": 180, "texture": "#0"}
			}
		},
		{
			"from": [7.97849, 3.14955, 2],
			"to": [8.17849, 3.24955, 3],
			"rotation": {"angle": 45, "axis": "z", "origin": [8.22637, 3.48004, 2.5]},
			"faces": {
				"north": {"uv": [11.33333, 0.66667, 12.33333, 1.66667], "rotation": 180, "texture": "#0"},
				"east": {"uv": [11.33333, 0.66667, 12.33333, 1.66667], "rotation": 180, "texture": "#0"},
				"south": {"uv": [11.33333, 0.66667, 12.33333, 1.66667], "rotation": 180, "texture": "#0"},
				"west": {"uv": [11.33333, 0.66667, 12.33333, 1.66667], "rotation": 180, "texture": "#0"},
				"up": {"uv": [11.33333, 0.66667, 12.33333, 1.66667], "rotation": 180, "texture": "#0"},
				"down": {"uv": [11.33333, 0.66667, 12.33333, 1.66667], "rotation": 180, "texture": "#0"}
			}
		},
		{
			"from": [8.41337, 3.30933, 2],
			"to": [8.51337, 3.50933, 3],
			"rotation": {"angle": -22.5, "axis": "z", "origin": [8.22637, 3.48004, 2.5]},
			"faces": {
				"north": {"uv": [11.33333, 0.66667, 12.33333, 1.66667], "rotation": 270, "texture": "#0"},
				"east": {"uv": [11.33333, 0.66667, 12.33333, 1.66667], "rotation": 90, "texture": "#0"},
				"south": {"uv": [11.33333, 0.66667, 12.33333, 1.66667], "rotation": 90, "texture": "#0"},
				"west": {"uv": [11.33333, 0.66667, 12.33333, 1.66667], "rotation": 90, "texture": "#0"},
				"up": {"uv": [11.33333, 0.66667, 12.33333, 1.66667], "rotation": 90, "texture": "#0"},
				"down": {"uv": [11.33333, 0.66667, 12.33333, 1.66667], "rotation": 90, "texture": "#0"}
			}
		},
		{
			"from": [8.40273, 3.39727, 2],
			"to": [8.50273, 3.59727, 3],
			"rotation": {"angle": 0, "axis": "z", "origin": [8.22637, 3.48004, 2.5]},
			"faces": {
				"north": {"uv": [11.33333, 0.66667, 12.33333, 1.66667], "rotation": 270, "texture": "#0"},
				"east": {"uv": [11.33333, 0.66667, 12.33333, 1.66667], "rotation": 90, "texture": "#0"},
				"south": {"uv": [11.33333, 0.66667, 12.33333, 1.66667], "rotation": 90, "texture": "#0"},
				"west": {"uv": [11.33333, 0.66667, 12.33333, 1.66667], "rotation": 90, "texture": "#0"},
				"up": {"uv": [11.33333, 0.66667, 12.33333, 1.66667], "rotation": 90, "texture": "#0"},
				"down": {"uv": [11.33333, 0.66667, 12.33333, 1.66667], "rotation": 90, "texture": "#0"}
			}
		},
		{
			"from": [8.42656, 3.48258, 2],
			"to": [8.52656, 3.68258, 3],
			"rotation": {"angle": 22.5, "axis": "z", "origin": [8.22637, 3.48004, 2.5]},
			"faces": {
				"north": {"uv": [11.33333, 0.66667, 12.33333, 1.66667], "rotation": 270, "texture": "#0"},
				"east": {"uv": [11.33333, 0.66667, 12.33333, 1.66667], "rotation": 90, "texture": "#0"},
				"south": {"uv": [11.33333, 0.66667, 12.33333, 1.66667], "rotation": 90, "texture": "#0"},
				"west": {"uv": [11.33333, 0.66667, 12.33333, 1.66667], "rotation": 90, "texture": "#0"},
				"up": {"uv": [11.33333, 0.66667, 12.33333, 1.66667], "rotation": 90, "texture": "#0"},
				"down": {"uv": [11.33333, 0.66667, 12.33333, 1.66667], "rotation": 90, "texture": "#0"}
			}
		},
		{
			"from": [8.48122, 3.55228, 2],
			"to": [8.58122, 3.75228, 3],
			"rotation": {"angle": 45, "axis": "z", "origin": [8.22637, 3.48004, 2.5]},
			"faces": {
				"north": {"uv": [11.33333, 0.66667, 12.33333, 1.66667], "rotation": 270, "texture": "#0"},
				"east": {"uv": [11.33333, 0.66667, 12.33333, 1.66667], "rotation": 90, "texture": "#0"},
				"south": {"uv": [11.33333, 0.66667, 12.33333, 1.66667], "rotation": 90, "texture": "#0"},
				"west": {"uv": [11.33333, 0.66667, 12.33333, 1.66667], "rotation": 90, "texture": "#0"},
				"up": {"uv": [11.33333, 0.66667, 12.33333, 1.66667], "rotation": 90, "texture": "#0"},
				"down": {"uv": [11.33333, 0.66667, 12.33333, 1.66667], "rotation": 90, "texture": "#0"}
			}
		},
		{
			"from": [7.91064, 3.81206, 2],
			"to": [8.11064, 3.91206, 3],
			"rotation": {"angle": -22.5, "axis": "z", "origin": [8.22637, 3.48004, 2.5]},
			"faces": {
				"north": {"uv": [11.33333, 0.66667, 12.33333, 1.66667], "texture": "#0"},
				"east": {"uv": [11.33333, 0.66667, 12.33333, 1.66667], "texture": "#0"},
				"south": {"uv": [11.33333, 0.66667, 12.33333, 1.66667], "texture": "#0"},
				"west": {"uv": [11.33333, 0.66667, 12.33333, 1.66667], "texture": "#0"},
				"up": {"uv": [11.33333, 0.66667, 12.33333, 1.66667], "texture": "#0"},
				"down": {"uv": [11.33333, 0.66667, 12.33333, 1.66667], "texture": "#0"}
			}
		},
		{
			"from": [7.88, 3.98055, 2],
			"to": [8.12, 4.10055, 2.2],
			"rotation": {"angle": 0, "axis": "x", "origin": [-1.6, -0.69945, -0.5]},
			"faces": {
				"north": {"uv": [11.33333, 0.66667, 12.33333, 1.66667], "texture": "#0"},
				"east": {"uv": [11.33333, 0.66667, 12.33333, 1.66667], "texture": "#0"},
				"south": {"uv": [11.33333, 0.66667, 12.33333, 1.66667], "texture": "#0"},
				"west": {"uv": [11.33333, 0.66667, 12.33333, 1.66667], "texture": "#0"},
				"up": {"uv": [11.33333, 0.66667, 12.33333, 1.66667], "texture": "#0"},
				"down": {"uv": [11.33333, 0.66667, 12.33333, 1.66667], "texture": "#0"}
			}
		},
		{
			"from": [7.6721, 3.93919, 2],
			"to": [7.9121, 4.05919, 2.2],
			"rotation": {"angle": 22.5, "axis": "z", "origin": [7.7921, 3.99919, 2.5]},
			"faces": {
				"north": {"uv": [11.33333, 0.66667, 12.33333, 1.66667], "texture": "#0"},
				"east": {"uv": [11.33333, 0.66667, 12.33333, 1.66667], "texture": "#0"},
				"south": {"uv": [11.33333, 0.66667, 12.33333, 1.66667], "texture": "#0"},
				"west": {"uv": [11.33333, 0.66667, 12.33333, 1.66667], "texture": "#0"},
				"up": {"uv": [11.33333, 0.66667, 12.33333, 1.66667], "texture": "#0"},
				"down": {"uv": [11.33333, 0.66667, 12.33333, 1.66667], "texture": "#0"}
			}
		},
		{
			"from": [7.54091, 3.75397, 2],
			"to": [7.78091, 3.87397, 2.2],
			"rotation": {"angle": 45, "axis": "z", "origin": [7.55696, 3.7933, 2.5]},
			"faces": {
				"north": {"uv": [11.33333, 0.66667, 12.33333, 1.66667], "texture": "#0"},
				"east": {"uv": [11.33333, 0.66667, 12.33333, 1.66667], "texture": "#0"},
				"south": {"uv": [11.33333, 0.66667, 12.33333, 1.66667], "texture": "#0"},
				"west": {"uv": [11.33333, 0.66667, 12.33333, 1.66667], "texture": "#0"},
				"up": {"uv": [11.33333, 0.66667, 12.33333, 1.66667], "texture": "#0"},
				"down": {"uv": [11.33333, 0.66667, 12.33333, 1.66667], "texture": "#0"}
			}
		},
		{
			"from": [7.47628, 3.56934, 2],
			"to": [7.59628, 3.80934, 2.2],
			"rotation": {"angle": -22.5, "axis": "z", "origin": [7.55696, 3.7933, 2.5]},
			"faces": {
				"north": {"uv": [11.33333, 0.66667, 12.33333, 1.66667], "rotation": 90, "texture": "#0"},
				"east": {"uv": [11.33333, 0.66667, 12.33333, 1.66667], "rotation": 270, "texture": "#0"},
				"south": {"uv": [11.33333, 0.66667, 12.33333, 1.66667], "rotation": 270, "texture": "#0"},
				"west": {"uv": [11.33333, 0.66667, 12.33333, 1.66667], "rotation": 270, "texture": "#0"},
				"up": {"uv": [11.33333, 0.66667, 12.33333, 1.66667], "rotation": 270, "texture": "#0"},
				"down": {"uv": [11.33333, 0.66667, 12.33333, 1.66667], "rotation": 270, "texture": "#0"}
			}
		},
		{
			"from": [7.39672, 3.37727, 2],
			"to": [7.51672, 3.61727, 2.2],
			"rotation": {"angle": 0, "axis": "z", "origin": [7.62441, 3.2463, 2.5]},
			"faces": {
				"north": {"uv": [11.33333, 0.66667, 12.33333, 1.66667], "rotation": 90, "texture": "#0"},
				"east": {"uv": [11.33333, 0.66667, 12.33333, 1.66667], "rotation": 270, "texture": "#0"},
				"south": {"uv": [11.33333, 0.66667, 12.33333, 1.66667], "rotation": 270, "texture": "#0"},
				"west": {"uv": [11.33333, 0.66667, 12.33333, 1.66667], "rotation": 270, "texture": "#0"},
				"up": {"uv": [11.33333, 0.66667, 12.33333, 1.66667], "rotation": 270, "texture": "#0"},
				"down": {"uv": [11.33333, 0.66667, 12.33333, 1.66667], "rotation": 270, "texture": "#0"}
			}
		},
		{
			"from": [7.46417, 3.21443, 2],
			"to": [7.58417, 3.45443, 2.2],
			"rotation": {"angle": 22.5, "axis": "z", "origin": [7.62441, 3.2463, 2.5]},
			"faces": {
				"north": {"uv": [11.33333, 0.66667, 12.33333, 1.66667], "rotation": 90, "texture": "#0"},
				"east": {"uv": [11.33333, 0.66667, 12.33333, 1.66667], "rotation": 270, "texture": "#0"},
				"south": {"uv": [11.33333, 0.66667, 12.33333, 1.66667], "rotation": 270, "texture": "#0"},
				"west": {"uv": [11.33333, 0.66667, 12.33333, 1.66667], "rotation": 270, "texture": "#0"},
				"up": {"uv": [11.33333, 0.66667, 12.33333, 1.66667], "rotation": 270, "texture": "#0"},
				"down": {"uv": [11.33333, 0.66667, 12.33333, 1.66667], "rotation": 270, "texture": "#0"}
			}
		},
		{
			"from": [7.46417, 3.03818, 2],
			"to": [7.58417, 3.27818, 2.2],
			"rotation": {"angle": 45, "axis": "z", "origin": [7.62441, 3.2463, 2.5]},
			"faces": {
				"north": {"uv": [11.33333, 0.66667, 12.33333, 1.66667], "rotation": 90, "texture": "#0"},
				"east": {"uv": [11.33333, 0.66667, 12.33333, 1.66667], "rotation": 270, "texture": "#0"},
				"south": {"uv": [11.33333, 0.66667, 12.33333, 1.66667], "rotation": 270, "texture": "#0"},
				"west": {"uv": [11.33333, 0.66667, 12.33333, 1.66667], "rotation": 270, "texture": "#0"},
				"up": {"uv": [11.33333, 0.66667, 12.33333, 1.66667], "rotation": 270, "texture": "#0"},
				"down": {"uv": [11.33333, 0.66667, 12.33333, 1.66667], "rotation": 270, "texture": "#0"}
			}
		},
		{
			"from": [7.75537, 3.01862, 2],
			"to": [7.99537, 3.13862, 2.2],
			"rotation": {"angle": -22.5, "axis": "z", "origin": [7.62441, 3.2463, 2.5]},
			"faces": {
				"north": {"uv": [11.33333, 0.66667, 12.33333, 1.66667], "rotation": 180, "texture": "#0"},
				"east": {"uv": [11.33333, 0.66667, 12.33333, 1.66667], "rotation": 180, "texture": "#0"},
				"south": {"uv": [11.33333, 0.66667, 12.33333, 1.66667], "rotation": 180, "texture": "#0"},
				"west": {"uv": [11.33333, 0.66667, 12.33333, 1.66667], "rotation": 180, "texture": "#0"},
				"up": {"uv": [11.33333, 0.66667, 12.33333, 1.66667], "rotation": 180, "texture": "#0"},
				"down": {"uv": [11.33333, 0.66667, 12.33333, 1.66667], "rotation": 180, "texture": "#0"}
			}
		},
		{
			"from": [7.88, 2.89399, 2],
			"to": [8.12, 3.01399, 2.2],
			"rotation": {"angle": 0, "axis": "z", "origin": [8.27164, 3.47659, 2.5]},
			"faces": {
				"north": {"uv": [11.33333, 0.66667, 12.33333, 1.66667], "rotation": 180, "texture": "#0"},
				"east": {"uv": [11.33333, 0.66667, 12.33333, 1.66667], "rotation": 180, "texture": "#0"},
				"south": {"uv": [11.33333, 0.66667, 12.33333, 1.66667], "rotation": 180, "texture": "#0"},
				"west": {"uv": [11.33333, 0.66667, 12.33333, 1.66667], "rotation": 180, "texture": "#0"},
				"up": {"uv": [11.33333, 0.66667, 12.33333, 1.66667], "rotation": 180, "texture": "#0"},
				"down": {"uv": [11.33333, 0.66667, 12.33333, 1.66667], "rotation": 180, "texture": "#0"}
			}
		},
		{
			"from": [7.90859, 2.99636, 2],
			"to": [8.14859, 3.11636, 2.2],
			"rotation": {"angle": 22.5, "axis": "z", "origin": [8.27164, 3.47659, 2.5]},
			"faces": {
				"north": {"uv": [11.33333, 0.66667, 12.33333, 1.66667], "rotation": 180, "texture": "#0"},
				"east": {"uv": [11.33333, 0.66667, 12.33333, 1.66667], "rotation": 180, "texture": "#0"},
				"south": {"uv": [11.33333, 0.66667, 12.33333, 1.66667], "rotation": 180, "texture": "#0"},
				"west": {"uv": [11.33333, 0.66667, 12.33333, 1.66667], "rotation": 180, "texture": "#0"},
				"up": {"uv": [11.33333, 0.66667, 12.33333, 1.66667], "rotation": 180, "texture": "#0"},
				"down": {"uv": [11.33333, 0.66667, 12.33333, 1.66667], "rotation": 180, "texture": "#0"}
			}
		},
		{
			"from": [7.97418, 3.08001, 2],
			"to": [8.21418, 3.20001, 2.2],
			"rotation": {"angle": 45, "axis": "z", "origin": [8.27164, 3.47659, 2.5]},
			"faces": {
				"north": {"uv": [11.33333, 0.66667, 12.33333, 1.66667], "rotation": 180, "texture": "#0"},
				"east": {"uv": [11.33333, 0.66667, 12.33333, 1.66667], "rotation": 180, "texture": "#0"},
				"south": {"uv": [11.33333, 0.66667, 12.33333, 1.66667], "rotation": 180, "texture": "#0"},
				"west": {"uv": [11.33333, 0.66667, 12.33333, 1.66667], "rotation": 180, "texture": "#0"},
				"up": {"uv": [11.33333, 0.66667, 12.33333, 1.66667], "rotation": 180, "texture": "#0"},
				"down": {"uv": [11.33333, 0.66667, 12.33333, 1.66667], "rotation": 180, "texture": "#0"}
			}
		},
		{
			"from": [8.49605, 3.27174, 2],
			"to": [8.61605, 3.51174, 2.2],
			"rotation": {"angle": -22.5, "axis": "z", "origin": [8.27164, 3.47659, 2.5]},
			"faces": {
				"north": {"uv": [11.33333, 0.66667, 12.33333, 1.66667], "rotation": 270, "texture": "#0"},
				"east": {"uv": [11.33333, 0.66667, 12.33333, 1.66667], "rotation": 90, "texture": "#0"},
				"south": {"uv": [11.33333, 0.66667, 12.33333, 1.66667], "rotation": 90, "texture": "#0"},
				"west": {"uv": [11.33333, 0.66667, 12.33333, 1.66667], "rotation": 90, "texture": "#0"},
				"up": {"uv": [11.33333, 0.66667, 12.33333, 1.66667], "rotation": 90, "texture": "#0"},
				"down": {"uv": [11.33333, 0.66667, 12.33333, 1.66667], "rotation": 90, "texture": "#0"}
			}
		},
		{
			"from": [8.48328, 3.37727, 2],
			"to": [8.60328, 3.61727, 2.2],
			"rotation": {"angle": 0, "axis": "z", "origin": [8.27164, 3.47659, 2.5]},
			"faces": {
				"north": {"uv": [11.33333, 0.66667, 12.33333, 1.66667], "rotation": 270, "texture": "#0"},
				"east": {"uv": [11.33333, 0.66667, 12.33333, 1.66667], "rotation": 90, "texture": "#0"},
				"south": {"uv": [11.33333, 0.66667, 12.33333, 1.66667], "rotation": 90, "texture": "#0"},
				"west": {"uv": [11.33333, 0.66667, 12.33333, 1.66667], "rotation": 90, "texture": "#0"},
				"up": {"uv": [11.33333, 0.66667, 12.33333, 1.66667], "rotation": 90, "texture": "#0"},
				"down": {"uv": [11.33333, 0.66667, 12.33333, 1.66667], "rotation": 90, "texture": "#0"}
			}
		},
		{
			"from": [8.51187, 3.47964, 2],
			"to": [8.63187, 3.71964, 2.2],
			"rotation": {"angle": 22.5, "axis": "z", "origin": [8.27164, 3.47659, 2.5]},
			"faces": {
				"north": {"uv": [11.33333, 0.66667, 12.33333, 1.66667], "rotation": 270, "texture": "#0"},
				"east": {"uv": [11.33333, 0.66667, 12.33333, 1.66667], "rotation": 90, "texture": "#0"},
				"south": {"uv": [11.33333, 0.66667, 12.33333, 1.66667], "rotation": 90, "texture": "#0"},
				"west": {"uv": [11.33333, 0.66667, 12.33333, 1.66667], "rotation": 90, "texture": "#0"},
				"up": {"uv": [11.33333, 0.66667, 12.33333, 1.66667], "rotation": 90, "texture": "#0"},
				"down": {"uv": [11.33333, 0.66667, 12.33333, 1.66667], "rotation": 90, "texture": "#0"}
			}
		},
		{
			"from": [8.57746, 3.56329, 2],
			"to": [8.69746, 3.80329, 2.2],
			"rotation": {"angle": 45, "axis": "z", "origin": [8.27164, 3.47659, 2.5]},
			"faces": {
				"north": {"uv": [11.33333, 0.66667, 12.33333, 1.66667], "rotation": 270, "texture": "#0"},
				"east": {"uv": [11.33333, 0.66667, 12.33333, 1.66667], "rotation": 90, "texture": "#0"},
				"south": {"uv": [11.33333, 0.66667, 12.33333, 1.66667], "rotation": 90, "texture": "#0"},
				"west": {"uv": [11.33333, 0.66667, 12.33333, 1.66667], "rotation": 90, "texture": "#0"},
				"up": {"uv": [11.33333, 0.66667, 12.33333, 1.66667], "rotation": 90, "texture": "#0"},
				"down": {"uv": [11.33333, 0.66667, 12.33333, 1.66667], "rotation": 90, "texture": "#0"}
			}
		},
		{
			"from": [7.89276, 3.87502, 2],
			"to": [8.13276, 3.99502, 2.2],
			"rotation": {"angle": -22.5, "axis": "z", "origin": [8.27164, 3.47659, 2.5]},
			"faces": {
				"north": {"uv": [11.33333, 0.66667, 12.33333, 1.66667], "texture": "#0"},
				"east": {"uv": [11.33333, 0.66667, 12.33333, 1.66667], "texture": "#0"},
				"south": {"uv": [11.33333, 0.66667, 12.33333, 1.66667], "texture": "#0"},
				"west": {"uv": [11.33333, 0.66667, 12.33333, 1.66667], "texture": "#0"},
				"up": {"uv": [11.33333, 0.66667, 12.33333, 1.66667], "texture": "#0"},
				"down": {"uv": [11.33333, 0.66667, 12.33333, 1.66667], "texture": "#0"}
			}
		},
		{
			"from": [7.94048, 3.71197, 1.2064],
			"to": [8.05952, 3.79649, 2.7936],
			"rotation": {"angle": 0, "axis": "x", "origin": [3.2384, 1.41569, 1.008]},
			"faces": {
				"north": {"uv": [0.66667, 3.66667, 1.66667, 4.66667], "texture": "#0"},
				"east": {"uv": [0.66667, 3.66667, 1.66667, 4.66667], "texture": "#0"},
				"south": {"uv": [0.66667, 3.66667, 1.66667, 4.66667], "texture": "#0"},
				"west": {"uv": [0.66667, 3.66667, 1.66667, 4.66667], "texture": "#0"},
				"up": {"uv": [0.66667, 3.66667, 1.66667, 4.66667], "texture": "#0"},
				"down": {"uv": [0.66667, 3.66667, 1.66667, 4.66667], "texture": "#0"}
			}
		},
		{
			"from": [7.83736, 3.69146, 1.2064],
			"to": [7.9564, 3.77598, 2.7936],
			"rotation": {"angle": 22.5, "axis": "z", "origin": [7.89688, 3.74622, 2.496]},
			"faces": {
				"north": {"uv": [0.66667, 3.66667, 1.66667, 4.66667], "texture": "#0"},
				"east": {"uv": [0.66667, 3.66667, 1.66667, 4.66667], "texture": "#0"},
				"south": {"uv": [0.66667, 3.66667, 1.66667, 4.66667], "texture": "#0"},
				"west": {"uv": [0.66667, 3.66667, 1.66667, 4.66667], "texture": "#0"},
				"up": {"uv": [0.66667, 3.66667, 1.66667, 4.66667], "texture": "#0"},
				"down": {"uv": [0.66667, 3.66667, 1.66667, 4.66667], "texture": "#0"}
			}
		},
		{
			"from": [7.77229, 3.59959, 1.2064],
			"to": [7.89133, 3.68411, 2.7936],
			"rotation": {"angle": 45, "axis": "z", "origin": [7.78025, 3.6441, 2.496]},
			"faces": {
				"north": {"uv": [0.66667, 3.66667, 1.66667, 4.66667], "texture": "#0"},
				"east": {"uv": [0.66667, 3.66667, 1.66667, 4.66667], "texture": "#0"},
				"south": {"uv": [0.66667, 3.66667, 1.66667, 4.66667], "texture": "#0"},
				"west": {"uv": [0.66667, 3.66667, 1.66667, 4.66667], "texture": "#0"},
				"up": {"uv": [0.66667, 3.66667, 1.66667, 4.66667], "texture": "#0"},
				"down": {"uv": [0.66667, 3.66667, 1.66667, 4.66667], "texture": "#0"}
			}
		},
		{
			"from": [7.74024, 3.53302, 1.2064],
			"to": [7.82476, 3.65206, 2.7936],
			"rotation": {"angle": -22.5, "axis": "z", "origin": [7.78025, 3.6441, 2.496]},
			"faces": {
				"north": {"uv": [0.66667, 3.66667, 1.66667, 4.66667], "rotation": 90, "texture": "#0"},
				"east": {"uv": [0.66667, 3.66667, 1.66667, 4.66667], "rotation": 270, "texture": "#0"},
				"south": {"uv": [0.66667, 3.66667, 1.66667, 4.66667], "rotation": 270, "texture": "#0"},
				"west": {"uv": [0.66667, 3.66667, 1.66667, 4.66667], "rotation": 270, "texture": "#0"},
				"up": {"uv": [0.66667, 3.66667, 1.66667, 4.66667], "rotation": 270, "texture": "#0"},
				"down": {"uv": [0.66667, 3.66667, 1.66667, 4.66667], "rotation": 270, "texture": "#0"}
			}
		},
		{
			"from": [7.70077, 3.43775, 1.2064],
			"to": [7.78529, 3.55679, 2.7936],
			"rotation": {"angle": 0, "axis": "z", "origin": [7.81371, 3.37279, 2.496]},
			"faces": {
				"north": {"uv": [0.66667, 3.66667, 1.66667, 4.66667], "rotation": 90, "texture": "#0"},
				"east": {"uv": [0.66667, 3.66667, 1.66667, 4.66667], "rotation": 270, "texture": "#0"},
				"south": {"uv": [0.66667, 3.66667, 1.66667, 4.66667], "rotation": 270, "texture": "#0"},
				"west": {"uv": [0.66667, 3.66667, 1.66667, 4.66667], "rotation": 270, "texture": "#0"},
				"up": {"uv": [0.66667, 3.66667, 1.66667, 4.66667], "rotation": 270, "texture": "#0"},
				"down": {"uv": [0.66667, 3.66667, 1.66667, 4.66667], "rotation": 270, "texture": "#0"}
			}
		},
		{
			"from": [7.73423, 3.35698, 1.2064],
			"to": [7.81875, 3.47602, 2.7936],
			"rotation": {"angle": 22.5, "axis": "z", "origin": [7.81371, 3.37279, 2.496]},
			"faces": {
				"north": {"uv": [0.66667, 3.66667, 1.66667, 4.66667], "rotation": 90, "texture": "#0"},
				"east": {"uv": [0.66667, 3.66667, 1.66667, 4.66667], "rotation": 270, "texture": "#0"},
				"south": {"uv": [0.66667, 3.66667, 1.66667, 4.66667], "rotation": 270, "texture": "#0"},
				"west": {"uv": [0.66667, 3.66667, 1.66667, 4.66667], "rotation": 270, "texture": "#0"},
				"up": {"uv": [0.66667, 3.66667, 1.66667, 4.66667], "rotation": 270, "texture": "#0"},
				"down": {"uv": [0.66667, 3.66667, 1.66667, 4.66667], "rotation": 270, "texture": "#0"}
			}
		},
		{
			"from": [7.73423, 3.26956, 1.2064],
			"to": [7.81875, 3.3886, 2.7936],
			"rotation": {"angle": 45, "axis": "z", "origin": [7.81371, 3.37279, 2.496]},
			"faces": {
				"north": {"uv": [0.66667, 3.66667, 1.66667, 4.66667], "rotation": 90, "texture": "#0"},
				"east": {"uv": [0.66667, 3.66667, 1.66667, 4.66667], "rotation": 270, "texture": "#0"},
				"south": {"uv": [0.66667, 3.66667, 1.66667, 4.66667], "rotation": 270, "texture": "#0"},
				"west": {"uv": [0.66667, 3.66667, 1.66667, 4.66667], "rotation": 270, "texture": "#0"},
				"up": {"uv": [0.66667, 3.66667, 1.66667, 4.66667], "rotation": 270, "texture": "#0"},
				"down": {"uv": [0.66667, 3.66667, 1.66667, 4.66667], "rotation": 270, "texture": "#0"}
			}
		},
		{
			"from": [7.87866, 3.25986, 1.2064],
			"to": [7.9977, 3.34438, 2.7936],
			"rotation": {"angle": -22.5, "axis": "z", "origin": [7.81371, 3.37279, 2.496]},
			"faces": {
				"north": {"uv": [0.66667, 3.66667, 1.66667, 4.66667], "rotation": 180, "texture": "#0"},
				"east": {"uv": [0.66667, 3.66667, 1.66667, 4.66667], "rotation": 180, "texture": "#0"},
				"south": {"uv": [0.66667, 3.66667, 1.66667, 4.66667], "rotation": 180, "texture": "#0"},
				"west": {"uv": [0.66667, 3.66667, 1.66667, 4.66667], "rotation": 180, "texture": "#0"},
				"up": {"uv": [0.66667, 3.66667, 1.66667, 4.66667], "rotation": 180, "texture": "#0"},
				"down": {"uv": [0.66667, 3.66667, 1.66667, 4.66667], "rotation": 180, "texture": "#0"}
			}
		},
		{
			"from": [7.94048, 3.19804, 1.2064],
			"to": [8.05952, 3.28256, 2.7936],
			"rotation": {"angle": 0, "axis": "z", "origin": [8.13473, 3.48701, 2.496]},
			"faces": {
				"north": {"uv": [0.66667, 3.66667, 1.66667, 4.66667], "rotation": 180, "texture": "#0"},
				"east": {"uv": [0.66667, 3.66667, 1.66667, 4.66667], "rotation": 180, "texture": "#0"},
				"south": {"uv": [0.66667, 3.66667, 1.66667, 4.66667], "rotation": 180, "texture": "#0"},
				"west": {"uv": [0.66667, 3.66667, 1.66667, 4.66667], "rotation": 180, "texture": "#0"},
				"up": {"uv": [0.66667, 3.66667, 1.66667, 4.66667], "rotation": 180, "texture": "#0"},
				"down": {"uv": [0.66667, 3.66667, 1.66667, 4.66667], "rotation": 180, "texture": "#0"}
			}
		},
		{
			"from": [7.95466, 3.24882, 1.2064],
			"to": [8.0737, 3.33334, 2.7936],
			"rotation": {"angle": 22.5, "axis": "z", "origin": [8.13473, 3.48701, 2.496]},
			"faces": {
				"north": {"uv": [0.66667, 3.66667, 1.66667, 4.66667], "rotation": 180, "texture": "#0"},
				"east": {"uv": [0.66667, 3.66667, 1.66667, 4.66667], "rotation": 180, "texture": "#0"},
				"south": {"uv": [0.66667, 3.66667, 1.66667, 4.66667], "rotation": 180, "texture": "#0"},
				"west": {"uv": [0.66667, 3.66667, 1.66667, 4.66667], "rotation": 180, "texture": "#0"},
				"up": {"uv": [0.66667, 3.66667, 1.66667, 4.66667], "rotation": 180, "texture": "#0"},
				"down": {"uv": [0.66667, 3.66667, 1.66667, 4.66667], "rotation": 180, "texture": "#0"}
			}
		},
		{
			"from": [7.98719, 3.29031, 1.2064],
			"to": [8.10623, 3.37483, 2.7936],
			"rotation": {"angle": 45, "axis": "z", "origin": [8.13473, 3.48701, 2.496]},
			"faces": {
				"north": {"uv": [0.66667, 3.66667, 1.66667, 4.66667], "rotation": 180, "texture": "#0"},
				"east": {"uv": [0.66667, 3.66667, 1.66667, 4.66667], "rotation": 180, "texture": "#0"},
				"south": {"uv": [0.66667, 3.66667, 1.66667, 4.66667], "rotation": 180, "texture": "#0"},
				"west": {"uv": [0.66667, 3.66667, 1.66667, 4.66667], "rotation": 180, "texture": "#0"},
				"up": {"uv": [0.66667, 3.66667, 1.66667, 4.66667], "rotation": 180, "texture": "#0"},
				"down": {"uv": [0.66667, 3.66667, 1.66667, 4.66667], "rotation": 180, "texture": "#0"}
			}
		},
		{
			"from": [8.22104, 3.38541, 1.2064],
			"to": [8.30556, 3.50445, 2.7936],
			"rotation": {"angle": -22.5, "axis": "z", "origin": [8.13473, 3.48701, 2.496]},
			"faces": {
				"north": {"uv": [0.66667, 3.66667, 1.66667, 4.66667], "rotation": 270, "texture": "#0"},
				"east": {"uv": [0.66667, 3.66667, 1.66667, 4.66667], "rotation": 90, "texture": "#0"},
				"south": {"uv": [0.66667, 3.66667, 1.66667, 4.66667], "rotation": 90, "texture": "#0"},
				"west": {"uv": [0.66667, 3.66667, 1.66667, 4.66667], "rotation": 90, "texture": "#0"},
				"up": {"uv": [0.66667, 3.66667, 1.66667, 4.66667], "rotation": 90, "texture": "#0"},
				"down": {"uv": [0.66667, 3.66667, 1.66667, 4.66667], "rotation": 90, "texture": "#0"}
			}
		},
		{
			"from": [8.21471, 3.43775, 1.2064],
			"to": [8.29923, 3.55679, 2.7936],
			"rotation": {"angle": 0, "axis": "z", "origin": [8.13473, 3.48701, 2.496]},
			"faces": {
				"north": {"uv": [0.66667, 3.66667, 1.66667, 4.66667], "rotation": 270, "texture": "#0"},
				"east": {"uv": [0.66667, 3.66667, 1.66667, 4.66667], "rotation": 90, "texture": "#0"},
				"south": {"uv": [0.66667, 3.66667, 1.66667, 4.66667], "rotation": 90, "texture": "#0"},
				"west": {"uv": [0.66667, 3.66667, 1.66667, 4.66667], "rotation": 90, "texture": "#0"},
				"up": {"uv": [0.66667, 3.66667, 1.66667, 4.66667], "rotation": 90, "texture": "#0"},
				"down": {"uv": [0.66667, 3.66667, 1.66667, 4.66667], "rotation": 90, "texture": "#0"}
			}
		},
		{
			"from": [8.22889, 3.48853, 1.2064],
			"to": [8.31341, 3.60757, 2.7936],
			"rotation": {"angle": 22.5, "axis": "z", "origin": [8.13473, 3.48701, 2.496]},
			"faces": {
				"north": {"uv": [0.66667, 3.66667, 1.66667, 4.66667], "rotation": 270, "texture": "#0"},
				"east": {"uv": [0.66667, 3.66667, 1.66667, 4.66667], "rotation": 90, "texture": "#0"},
				"south": {"uv": [0.66667, 3.66667, 1.66667, 4.66667], "rotation": 90, "texture": "#0"},
				"west": {"uv": [0.66667, 3.66667, 1.66667, 4.66667], "rotation": 90, "texture": "#0"},
				"up": {"uv": [0.66667, 3.66667, 1.66667, 4.66667], "rotation": 90, "texture": "#0"},
				"down": {"uv": [0.66667, 3.66667, 1.66667, 4.66667], "rotation": 90, "texture": "#0"}
			}
		},
		{
			"from": [8.26142, 3.53001, 1.2064],
			"to": [8.34594, 3.64905, 2.7936],
			"rotation": {"angle": 45, "axis": "z", "origin": [8.13473, 3.48701, 2.496]},
			"faces": {
				"north": {"uv": [0.66667, 3.66667, 1.66667, 4.66667], "rotation": 270, "texture": "#0"},
				"east": {"uv": [0.66667, 3.66667, 1.66667, 4.66667], "rotation": 90, "texture": "#0"},
				"south": {"uv": [0.66667, 3.66667, 1.66667, 4.66667], "rotation": 90, "texture": "#0"},
				"west": {"uv": [0.66667, 3.66667, 1.66667, 4.66667], "rotation": 90, "texture": "#0"},
				"up": {"uv": [0.66667, 3.66667, 1.66667, 4.66667], "rotation": 90, "texture": "#0"},
				"down": {"uv": [0.66667, 3.66667, 1.66667, 4.66667], "rotation": 90, "texture": "#0"}
			}
		},
		{
			"from": [7.94681, 3.65963, 1.2064],
			"to": [8.06585, 3.74415, 2.7936],
			"rotation": {"angle": -22.5, "axis": "z", "origin": [8.13473, 3.48701, 2.496]},
			"faces": {
				"north": {"uv": [0.66667, 3.66667, 1.66667, 4.66667], "texture": "#0"},
				"east": {"uv": [0.66667, 3.66667, 1.66667, 4.66667], "texture": "#0"},
				"south": {"uv": [0.66667, 3.66667, 1.66667, 4.66667], "texture": "#0"},
				"west": {"uv": [0.66667, 3.66667, 1.66667, 4.66667], "texture": "#0"},
				"up": {"uv": [0.66667, 3.66667, 1.66667, 4.66667], "texture": "#0"},
				"down": {"uv": [0.66667, 3.66667, 1.66667, 4.66667], "texture": "#0"}
			}
		},
		{
			"from": [7.4, 3.1, 3],
			"to": [8.6, 4.15, 11.3],
			"rotation": {"angle": 0, "axis": "y", "origin": [0, 0.1, 0]},
			"faces": {
				"north": {"uv": [11.33333, 2, 12.33333, 1], "texture": "#0"},
				"east": {"uv": [11.33333, 2, 12.33333, 1], "texture": "#0"},
				"south": {"uv": [11.33333, 2, 12.33333, 1], "texture": "#0"},
				"west": {"uv": [11.33333, 2, 12.33333, 1], "texture": "#0"},
				"up": {"uv": [11.33333, 2, 12.33333, 1], "texture": "#0"},
				"down": {"uv": [11.33333, 2, 12.33333, 1], "texture": "#0"}
			}
		},
		{
			"from": [7.6, 4.06207, 6.81749],
			"to": [8.4, 4.41207, 7.31749],
			"rotation": {"angle": -22.5, "axis": "x", "origin": [8, 4.23707, 7.46749]},
			"faces": {
				"north": {"uv": [11.33333, 2, 12.33333, 1], "texture": "#0"},
				"east": {"uv": [11.33333, 2, 12.33333, 1], "texture": "#0"},
				"south": {"uv": [11.33333, 2, 12.33333, 1], "texture": "#0"},
				"west": {"uv": [11.33333, 2, 12.33333, 1], "texture": "#0"},
				"up": {"uv": [11.33333, 2, 12.33333, 1], "texture": "#0"},
				"down": {"uv": [11.33333, 2, 12.33333, 1], "texture": "#0"}
			}
		},
		{
			"from": [7.6, 3.94773, 7.38256],
			"to": [8.4, 4.44773, 7.73256],
			"rotation": {"angle": 22.5, "axis": "x", "origin": [8, 4.59773, 7.55756]},
			"faces": {
				"north": {"uv": [11.33333, 2, 12.33333, 1], "rotation": 180, "texture": "#0"},
				"east": {"uv": [11.33333, 2, 12.33333, 1], "rotation": 90, "texture": "#0"},
				"south": {"uv": [11.33333, 2, 12.33333, 1], "texture": "#0"},
				"west": {"uv": [11.33333, 2, 12.33333, 1], "rotation": 270, "texture": "#0"},
				"up": {"uv": [11.33333, 2, 12.33333, 1], "texture": "#0"},
				"down": {"uv": [11.33333, 2, 12.33333, 1], "rotation": 180, "texture": "#0"}
			}
		},
		{
			"from": [7.6, 4.06191, 11.01842],
			"to": [8.4, 4.56191, 11.36842],
			"rotation": {"angle": -22.5, "axis": "x", "origin": [8, 3.21191, 11.19342]},
			"faces": {
				"north": {"uv": [11.33333, 2, 12.33333, 1], "rotation": 180, "texture": "#0"},
				"east": {"uv": [11.33333, 2, 12.33333, 1], "rotation": 90, "texture": "#0"},
				"south": {"uv": [11.33333, 2, 12.33333, 1], "texture": "#0"},
				"west": {"uv": [11.33333, 2, 12.33333, 1], "rotation": 270, "texture": "#0"},
				"up": {"uv": [11.33333, 2, 12.33333, 1], "texture": "#0"},
				"down": {"uv": [11.33333, 2, 12.33333, 1], "rotation": 180, "texture": "#0"}
			}
		},
		{
			"from": [7.6, 3.97612, 7.33848],
			"to": [8.4, 4.52612, 10.83848],
			"rotation": {"angle": 0, "axis": "x", "origin": [8, 4.35112, 5.88848]},
			"faces": {
				"north": {"uv": [11.33333, 2, 12.33333, 1], "texture": "#0"},
				"east": {"uv": [11.33333, 2, 12.33333, 1], "texture": "#0"},
				"south": {"uv": [11.33333, 2, 12.33333, 1], "texture": "#0"},
				"west": {"uv": [11.33333, 2, 12.33333, 1], "texture": "#0"},
				"up": {"uv": [11.33333, 2, 12.33333, 1], "texture": "#0"},
				"down": {"uv": [11.33333, 2, 12.33333, 1], "texture": "#0"}
			}
		},
		{
			"from": [8.85438, 3.70242, 3],
			"to": [9.30438, 4.30242, 11.3],
			"rotation": {"angle": 45, "axis": "z", "origin": [9.07938, 1.70242, 3.5]},
			"faces": {
				"north": {"uv": [11.33333, 2, 12.33333, 1], "rotation": 90, "texture": "#0"},
				"east": {"uv": [11.33333, 2, 12.33333, 1], "rotation": 270, "texture": "#0"},
				"south": {"uv": [11.33333, 2, 12.33333, 1], "rotation": 270, "texture": "#0"},
				"west": {"uv": [11.33333, 2, 12.33333, 1], "rotation": 270, "texture": "#0"},
				"up": {"uv": [11.33333, 2, 12.33333, 1], "rotation": 270, "texture": "#0"},
				"down": {"uv": [11.33333, 2, 12.33333, 1], "rotation": 270, "texture": "#0"}
			}
		},
		{
			"from": [7.0818, 2.4318, 3],
			"to": [7.6818, 3.3818, 11.3],
			"rotation": {"angle": 0, "axis": "z", "origin": [9.6818, 0.8568, 3.5]},
			"faces": {
				"north": {"uv": [11.33333, 2, 12.33333, 1], "rotation": 180, "texture": "#0"},
				"east": {"uv": [11.33333, 2, 12.33333, 1], "rotation": 180, "texture": "#0"},
				"south": {"uv": [11.33333, 2, 12.33333, 1], "rotation": 180, "texture": "#0"},
				"west": {"uv": [11.33333, 2, 12.33333, 1], "rotation": 180, "texture": "#0"},
				"up": {"uv": [11.33333, 2, 12.33333, 1], "rotation": 180, "texture": "#0"},
				"down": {"uv": [11.33333, 2, 12.33333, 1], "rotation": 180, "texture": "#0"}
			}
		},
		{
			"from": [8.33484, 2.89164, 3],
			"to": [8.93484, 3.34164, 11.3],
			"rotation": {"angle": 45, "axis": "z", "origin": [8.33484, 3.11664, 3.5]},
			"faces": {
				"north": {"uv": [11.33333, 2, 12.33333, 1], "texture": "#0"},
				"east": {"uv": [11.33333, 2, 12.33333, 1], "texture": "#0"},
				"south": {"uv": [11.33333, 2, 12.33333, 1], "texture": "#0"},
				"west": {"uv": [11.33333, 2, 12.33333, 1], "texture": "#0"},
				"up": {"uv": [11.33333, 2, 12.33333, 1], "texture": "#0"},
				"down": {"uv": [11.33333, 2, 12.33333, 1], "texture": "#0"}
			}
		},
		{
			"from": [8.3182, 2.4318, 3],
			"to": [8.9182, 3.3818, 11.3],
			"rotation": {"angle": 0, "axis": "z", "origin": [6.0182, 3.1568, 3.5]},
			"faces": {
				"north": {"uv": [11.33333, 2, 12.33333, 1], "texture": "#0"},
				"east": {"uv": [11.33333, 2, 12.33333, 1], "texture": "#0"},
				"south": {"uv": [11.33333, 2, 12.33333, 1], "texture": "#0"},
				"west": {"uv": [11.33333, 2, 12.33333, 1], "texture": "#0"},
				"up": {"uv": [11.33333, 2, 12.33333, 1], "texture": "#0"},
				"down": {"uv": [11.33333, 2, 12.33333, 1], "texture": "#0"}
			}
		},
		{
			"from": [8.16176, 1.79807, 3],
			"to": [8.61176, 2.39807, 11.3],
			"rotation": {"angle": 45, "axis": "z", "origin": [8, 2.48483, 3.5]},
			"faces": {
				"north": {"uv": [11.33333, 2, 12.33333, 1], "rotation": 270, "texture": "#0"},
				"east": {"uv": [11.33333, 2, 12.33333, 1], "rotation": 90, "texture": "#0"},
				"south": {"uv": [11.33333, 2, 12.33333, 1], "rotation": 90, "texture": "#0"},
				"west": {"uv": [11.33333, 2, 12.33333, 1], "rotation": 90, "texture": "#0"},
				"up": {"uv": [11.33333, 2, 12.33333, 1], "rotation": 90, "texture": "#0"},
				"down": {"uv": [11.33333, 2, 12.33333, 1], "rotation": 90, "texture": "#0"}
			}
		},
		{
			"from": [7.4, 2.1136, 3],
			"to": [8.6, 3.1636, 11.3],
			"rotation": {"angle": 0, "axis": "y", "origin": [0, -2.9864, 0]},
			"faces": {
				"north": {"uv": [11.33333, 2, 12.33333, 1], "texture": "#0"},
				"east": {"uv": [11.33333, 2, 12.33333, 1], "texture": "#0"},
				"south": {"uv": [11.33333, 2, 12.33333, 1], "texture": "#0"},
				"west": {"uv": [11.33333, 2, 12.33333, 1], "texture": "#0"},
				"up": {"uv": [11.33333, 2, 12.33333, 1], "texture": "#0"},
				"down": {"uv": [11.33333, 2, 12.33333, 1], "texture": "#0"}
			}
		},
		{
			"from": [7.31324, 2.6466, 3],
			"to": [7.91324, 3.0966, 11.3],
			"rotation": {"angle": 45, "axis": "z", "origin": [8, 2.48483, 3.5]},
			"faces": {
				"north": {"uv": [11.33333, 2, 12.33333, 1], "rotation": 180, "texture": "#0"},
				"east": {"uv": [11.33333, 2, 12.33333, 1], "rotation": 180, "texture": "#0"},
				"south": {"uv": [11.33333, 2, 12.33333, 1], "rotation": 180, "texture": "#0"},
				"west": {"uv": [11.33333, 2, 12.33333, 1], "rotation": 180, "texture": "#0"},
				"up": {"uv": [11.33333, 2, 12.33333, 1], "rotation": 180, "texture": "#0"},
				"down": {"uv": [11.33333, 2, 12.33333, 1], "rotation": 180, "texture": "#0"}
			}
		},
		{
			"from": [8.2432, 3.7818, 4.2],
			"to": [8.8432, 3.8818, 7.5],
			"rotation": {"angle": 0, "axis": "x", "origin": [8.6932, 3.7318, 4.925]},
			"faces": {
				"north": {"uv": [11.33333, 2, 12.33333, 1], "rotation": 180, "texture": "#0"},
				"east": {"uv": [11.33333, 2, 12.33333, 1], "rotation": 270, "texture": "#0"},
				"south": {"uv": [11.33333, 2, 12.33333, 1], "texture": "#0"},
				"west": {"uv": [11.33333, 2, 12.33333, 1], "rotation": 90, "texture": "#0"},
				"up": {"uv": [11.33333, 2, 12.33333, 1], "rotation": 180, "texture": "#0"},
				"down": {"uv": [11.33333, 2, 12.33333, 1], "texture": "#0"}
			}
		},
		{
			"from": [8.2432, 3.4318, 4.2],
			"to": [8.8432, 3.8818, 4.5],
			"rotation": {"angle": 0, "axis": "z", "origin": [6.1182, 3.1568, 4]},
			"faces": {
				"north": {"uv": [11.33333, 2, 12.33333, 1], "texture": "#0"},
				"east": {"uv": [11.33333, 2, 12.33333, 1], "texture": "#0"},
				"south": {"uv": [11.33333, 2, 12.33333, 1], "texture": "#0"},
				"west": {"uv": [11.33333, 2, 12.33333, 1], "texture": "#0"},
				"up": {"uv": [11.33333, 2, 12.33333, 1], "texture": "#0"},
				"down": {"uv": [11.33333, 2, 12.33333, 1], "texture": "#0"}
			}
		},
		{
			"from": [8.2182, 3.4318, 4.4],
			"to": [8.8182, 3.8568, 7.3],
			"rotation": {"angle": 0, "axis": "z", "origin": [6.1182, 3.1568, 5]},
			"faces": {
				"north": {"uv": [11.33333, 2, 12.33333, 1], "texture": "#0"},
				"east": {"uv": [6, 4.66667, 7, 3.66667], "texture": "#0"},
				"south": {"uv": [11.33333, 2, 12.33333, 1], "texture": "#0"},
				"west": {"uv": [11.33333, 2, 12.33333, 1], "texture": "#0"},
				"up": {"uv": [11.33333, 2, 12.33333, 1], "texture": "#0"},
				"down": {"uv": [11.33333, 2, 12.33333, 1], "texture": "#0"}
			}
		},
		{
			"from": [8.2432, 3.4318, 7.2],
			"to": [8.8432, 3.8818, 10.5],
			"rotation": {"angle": 0, "axis": "z", "origin": [6.1182, 3.1568, 8]},
			"faces": {
				"north": {"uv": [11.33333, 2, 12.33333, 1], "texture": "#0"},
				"east": {"uv": [11.33333, 2, 12.33333, 1], "texture": "#0"},
				"south": {"uv": [11.33333, 2, 12.33333, 1], "texture": "#0"},
				"west": {"uv": [11.33333, 2, 12.33333, 1], "texture": "#0"},
				"up": {"uv": [11.33333, 2, 12.33333, 1], "texture": "#0"},
				"down": {"uv": [11.33333, 2, 12.33333, 1], "texture": "#0"}
			}
		},
		{
			"from": [7.49392, 3.4318, 11.43311],
			"to": [8.09392, 3.8818, 11.73311],
			"rotation": {"angle": 22.5, "axis": "y", "origin": [5.36892, 0.6568, 9.23311]},
			"faces": {
				"north": {"uv": [11.33333, 2, 12.33333, 1], "texture": "#0"},
				"east": {"uv": [11.33333, 2, 12.33333, 1], "texture": "#0"},
				"south": {"uv": [11.33333, 2, 12.33333, 1], "texture": "#0"},
				"west": {"uv": [11.33333, 2, 12.33333, 1], "texture": "#0"},
				"up": {"uv": [11.33333, 2, 12.33333, 1], "texture": "#0"},
				"down": {"uv": [11.33333, 2, 12.33333, 1], "texture": "#0"}
			}
		},
		{
			"from": [8.20863, 3.4318, 4.07378],
			"to": [8.80863, 3.8818, 4.37378],
			"rotation": {"angle": -22.5, "axis": "y", "origin": [8.50863, 3.6568, 4.22378]},
			"faces": {
				"north": {"uv": [11.33333, 2, 12.33333, 1], "texture": "#0"},
				"east": {"uv": [11.33333, 2, 12.33333, 1], "texture": "#0"},
				"south": {"uv": [11.33333, 2, 12.33333, 1], "texture": "#0"},
				"west": {"uv": [11.33333, 2, 12.33333, 1], "texture": "#0"},
				"up": {"uv": [11.33333, 2, 12.33333, 1], "texture": "#0"},
				"down": {"uv": [11.33333, 2, 12.33333, 1], "texture": "#0"}
			}
		},
		{
			"from": [8.1932, 3.5068, 4.7],
			"to": [9.0932, 3.7318, 4.794],
			"rotation": {"angle": 0, "axis": "y", "origin": [6.0682, 3.1568, 3.7]},
			"faces": {
				"north": {"uv": [11.33333, 2, 12.33333, 1], "texture": "#0"},
				"east": {"uv": [9, 1.66667, 10, 0.66667], "texture": "#0"},
				"south": {"uv": [11.33333, 2, 12.33333, 1], "texture": "#0"},
				"west": {"uv": [11.33333, 2, 12.33333, 1], "texture": "#0"},
				"up": {"uv": [11.33333, 2, 12.33333, 1], "texture": "#0"},
				"down": {"uv": [11.33333, 2, 12.33333, 1], "texture": "#0"}
			}
		},
		{
			"from": [9.17498, 3.5068, 4.68373],
			"to": [9.26898, 3.7318, 4.80873],
			"rotation": {"angle": 22.5, "axis": "y", "origin": [9.22198, 3.6193, 5.13373]},
			"faces": {
				"north": {"uv": [11.33333, 2, 12.33333, 1], "texture": "#0"},
				"east": {"uv": [9, 1.66667, 10, 0.66667], "texture": "#0"},
				"south": {"uv": [11.33333, 2, 12.33333, 1], "texture": "#0"},
				"west": {"uv": [11.33333, 2, 12.33333, 1], "texture": "#0"},
				"up": {"uv": [11.33333, 2, 12.33333, 1], "rotation": 90, "texture": "#0"},
				"down": {"uv": [11.33333, 2, 12.33333, 1], "rotation": 270, "texture": "#0"}
			}
		},
		{
			"from": [8.88576, 3.5068, 4.81844],
			"to": [9.18576, 3.7318, 4.91244],
			"rotation": {"angle": -22.5, "axis": "y", "origin": [9.21076, 3.6193, 4.86544]},
			"faces": {
				"north": {"uv": [11.33333, 2, 12.33333, 1], "texture": "#0"},
				"east": {"uv": [9, 1.66667, 10, 0.66667], "texture": "#0"},
				"south": {"uv": [11.33333, 2, 12.33333, 1], "texture": "#0"},
				"west": {"uv": [11.33333, 2, 12.33333, 1], "texture": "#0"},
				"up": {"uv": [11.33333, 2, 12.33333, 1], "texture": "#0"},
				"down": {"uv": [11.33333, 2, 12.33333, 1], "texture": "#0"}
			}
		},
		{
			"from": [9.16967, 3.5068, 4.80529],
			"to": [9.29467, 3.7318, 4.89929],
			"rotation": {"angle": 0, "axis": "y", "origin": [9.23217, 3.6193, 4.85229]},
			"faces": {
				"north": {"uv": [11.33333, 2, 12.33333, 1], "texture": "#0"},
				"east": {"uv": [9, 1.66667, 10, 0.66667], "texture": "#0"},
				"south": {"uv": [11.33333, 2, 12.33333, 1], "texture": "#0"},
				"west": {"uv": [11.33333, 2, 12.33333, 1], "texture": "#0"},
				"up": {"uv": [11.33333, 2, 12.33333, 1], "texture": "#0"},
				"down": {"uv": [11.33333, 2, 12.33333, 1], "texture": "#0"}
			}
		},
		{
			"from": [8.1932, 3.5068, 4.7],
			"to": [9.0932, 3.7318, 4.794],
			"rotation": {"angle": 45, "axis": "x", "origin": [8.4932, 3.6193, 4.747]},
			"faces": {
				"north": {"uv": [11.33333, 2, 12.33333, 1], "texture": "#0"},
				"east": {"uv": [9, 1.66667, 10, 0.66667], "texture": "#0"},
				"south": {"uv": [11.33333, 2, 12.33333, 1], "texture": "#0"},
				"west": {"uv": [11.33333, 2, 12.33333, 1], "texture": "#0"},
				"up": {"uv": [11.33333, 2, 12.33333, 1], "texture": "#0"},
				"down": {"uv": [11.33333, 2, 12.33333, 1], "texture": "#0"}
			}
		},
		{
			"from": [8.1932, 3.5723, 4.6345],
			"to": [9.0932, 3.6663, 4.8595],
			"rotation": {"angle": 0, "axis": "x", "origin": [8.4932, 3.6193, 4.747]},
			"faces": {
				"north": {"uv": [11.33333, 2, 12.33333, 1], "rotation": 180, "texture": "#0"},
				"east": {"uv": [9, 1.66667, 10, 0.66667], "rotation": 90, "texture": "#0"},
				"south": {"uv": [11.33333, 2, 12.33333, 1], "texture": "#0"},
				"west": {"uv": [11.33333, 2, 12.33333, 1], "rotation": 270, "texture": "#0"},
				"up": {"uv": [11.33333, 2, 12.33333, 1], "texture": "#0"},
				"down": {"uv": [11.33333, 2, 12.33333, 1], "rotation": 180, "texture": "#0"}
			}
		},
		{
			"from": [8.1932, 3.5723, 4.6345],
			"to": [9.0932, 3.6663, 4.8595],
			"rotation": {"angle": 45, "axis": "x", "origin": [8.4932, 3.6193, 4.747]},
			"faces": {
				"north": {"uv": [11.33333, 2, 12.33333, 1], "rotation": 180, "texture": "#0"},
				"east": {"uv": [9, 1.66667, 10, 0.66667], "rotation": 90, "texture": "#0"},
				"south": {"uv": [11.33333, 2, 12.33333, 1], "texture": "#0"},
				"west": {"uv": [11.33333, 2, 12.33333, 1], "rotation": 270, "texture": "#0"},
				"up": {"uv": [11.33333, 2, 12.33333, 1], "texture": "#0"},
				"down": {"uv": [11.33333, 2, 12.33333, 1], "rotation": 180, "texture": "#0"}
			}
		},
		{
			"from": [10.48457, 5.36962, 7.748],
			"to": [10.91657, 5.41762, 10.352],
			"rotation": {"angle": 45, "axis": "z", "origin": [10.70057, 0.52162, 7.752]},
			"faces": {
				"north": {"uv": [0.66667, 4.66667, 2, 3.33333], "rotation": 90, "texture": "#0"},
				"east": {"uv": [0.66667, 4.66667, 2, 3.33333], "rotation": 270, "texture": "#0"},
				"south": {"uv": [0.66667, 4.66667, 2, 3.33333], "rotation": 270, "texture": "#0"},
				"west": {"uv": [0.66667, 4.66667, 2, 3.33333], "rotation": 270, "texture": "#0"},
				"up": {"uv": [0.66667, 4.66667, 2, 3.33333], "rotation": 270, "texture": "#0"},
				"down": {"uv": [0.66667, 4.66667, 2, 3.33333], "rotation": 270, "texture": "#0"}
			}
		},
		{
			"from": [7.375, 4.125, 7.8],
			"to": [7.425, 4.175, 10.2],
			"rotation": {"angle": 0, "axis": "z", "origin": [7.425, 4.175, 9]},
			"faces": {
				"north": {"uv": [11.33333, 2, 12.66667, 0.66667], "rotation": 180, "texture": "#0"},
				"east": {"uv": [11.33333, 2, 12.66667, 0.66667], "rotation": 180, "texture": "#0"},
				"south": {"uv": [11.33333, 2, 12.66667, 0.66667], "rotation": 180, "texture": "#0"},
				"west": {"uv": [11.33333, 2, 12.66667, 0.66667], "rotation": 180, "texture": "#0"},
				"up": {"uv": [11.33333, 2, 12.66667, 0.66667], "rotation": 180, "texture": "#0"},
				"down": {"uv": [11.33333, 2, 12.66667, 0.66667], "rotation": 180, "texture": "#0"}
			}
		},
		{
			"from": [7.08584, 3.37088, 7.748],
			"to": [7.13384, 3.83088, 10.352],
			"rotation": {"angle": 0, "axis": "z", "origin": [9.58184, -1.66512, 7.752]},
			"faces": {
				"north": {"uv": [11.33333, 2, 12.66667, 0.66667], "rotation": 180, "texture": "#0"},
				"east": {"uv": [11.33333, 2, 12.66667, 0.66667], "rotation": 180, "texture": "#0"},
				"south": {"uv": [11.33333, 2, 12.66667, 0.66667], "rotation": 180, "texture": "#0"},
				"west": {"uv": [0.66667, 4.66667, 2, 3.33333], "rotation": 180, "texture": "#0"},
				"up": {"uv": [11.33333, 2, 12.66667, 0.66667], "rotation": 180, "texture": "#0"},
				"down": {"uv": [11.33333, 2, 12.66667, 0.66667], "rotation": 180, "texture": "#0"}
			}
		},
		{
			"from": [10.62215, 4.88466, 7.6],
			"to": [11.07215, 5.48466, 7.8],
			"rotation": {"angle": 45, "axis": "z", "origin": [10.84715, 0.38466, 7.5]},
			"faces": {
				"north": {"uv": [11.33333, 2, 12.66667, 0.66667], "rotation": 90, "texture": "#0"},
				"east": {"uv": [11.33333, 2, 12.66667, 0.66667], "rotation": 270, "texture": "#0"},
				"south": {"uv": [11.33333, 2, 12.66667, 0.66667], "rotation": 270, "texture": "#0"},
				"west": {"uv": [11.33333, 2, 12.66667, 0.66667], "rotation": 270, "texture": "#0"},
				"up": {"uv": [11.33333, 2, 12.66667, 0.66667], "rotation": 270, "texture": "#0"},
				"down": {"uv": [11.33333, 2, 12.66667, 0.66667], "rotation": 270, "texture": "#0"}
			}
		},
		{
			"from": [10.62215, 4.88466, 10.2],
			"to": [11.07215, 5.48466, 10.4],
			"rotation": {"angle": 45, "axis": "z", "origin": [10.84715, 0.38466, 10.1]},
			"faces": {
				"north": {"uv": [11.33333, 2, 12.66667, 0.66667], "rotation": 90, "texture": "#0"},
				"east": {"uv": [11.33333, 2, 12.66667, 0.66667], "rotation": 270, "texture": "#0"},
				"south": {"uv": [11.33333, 2, 12.66667, 0.66667], "rotation": 270, "texture": "#0"},
				"west": {"uv": [11.33333, 2, 12.66667, 0.66667], "rotation": 270, "texture": "#0"},
				"up": {"uv": [11.33333, 2, 12.66667, 0.66667], "rotation": 270, "texture": "#0"},
				"down": {"uv": [11.33333, 2, 12.66667, 0.66667], "rotation": 270, "texture": "#0"}
			}
		},
		{
			"from": [7.0818, 3.3818, 10.2],
			"to": [7.6818, 3.8318, 10.4],
			"rotation": {"angle": 0, "axis": "z", "origin": [9.6818, -1.8932, 10.1]},
			"faces": {
				"north": {"uv": [11.33333, 2, 12.66667, 0.66667], "rotation": 180, "texture": "#0"},
				"east": {"uv": [11.33333, 2, 12.66667, 0.66667], "rotation": 180, "texture": "#0"},
				"south": {"uv": [11.33333, 2, 12.66667, 0.66667], "rotation": 180, "texture": "#0"},
				"west": {"uv": [11.33333, 2, 12.66667, 0.66667], "rotation": 180, "texture": "#0"},
				"up": {"uv": [11.33333, 2, 12.66667, 0.66667], "rotation": 180, "texture": "#0"},
				"down": {"uv": [11.33333, 2, 12.66667, 0.66667], "rotation": 180, "texture": "#0"}
			}
		},
		{
			"from": [7.0818, 3.3818, 7.6],
			"to": [7.6818, 3.8318, 7.8],
			"rotation": {"angle": 0, "axis": "z", "origin": [9.6818, -1.8932, 7.5]},
			"faces": {
				"north": {"uv": [11.33333, 2, 12.66667, 0.66667], "rotation": 180, "texture": "#0"},
				"east": {"uv": [11.33333, 2, 12.66667, 0.66667], "rotation": 180, "texture": "#0"},
				"south": {"uv": [11.33333, 2, 12.66667, 0.66667], "rotation": 180, "texture": "#0"},
				"west": {"uv": [11.33333, 2, 12.66667, 0.66667], "rotation": 180, "texture": "#0"},
				"up": {"uv": [11.33333, 2, 12.66667, 0.66667], "rotation": 180, "texture": "#0"},
				"down": {"uv": [11.33333, 2, 12.66667, 0.66667], "rotation": 180, "texture": "#0"}
			}
		},
		{
			"from": [7.4, 4.15, 7.55],
			"to": [7.6, 4.25, 11.3],
			"rotation": {"angle": 0, "axis": "x", "origin": [7.45, 4.2, 11.225]},
			"faces": {
				"north": {"uv": [11.33333, 2, 12.33333, 1], "rotation": 180, "texture": "#0"},
				"east": {"uv": [11.33333, 2, 12.33333, 1], "rotation": 90, "texture": "#0"},
				"south": {"uv": [11.33333, 2, 12.33333, 1], "texture": "#0"},
				"west": {"uv": [11.33333, 2, 12.33333, 1], "rotation": 270, "texture": "#0"},
				"up": {"uv": [11.33333, 2, 12.33333, 1], "texture": "#0"},
				"down": {"uv": [11.33333, 2, 12.33333, 1], "rotation": 180, "texture": "#0"}
			}
		},
		{
			"from": [7.41533, 4.22706, 7.55],
			"to": [7.61533, 4.32706, 11.3],
			"rotation": {"angle": -22.5, "axis": "z", "origin": [7.46533, 4.27706, 11.225]},
			"faces": {
				"north": {"uv": [11.33333, 2, 12.33333, 1], "rotation": 270, "texture": "#0"},
				"east": {"uv": [11.33333, 2, 12.33333, 1], "rotation": 90, "texture": "#0"},
				"south": {"uv": [11.33333, 2, 12.33333, 1], "rotation": 270, "texture": "#0"},
				"west": {"uv": [11.33333, 2, 12.33333, 1], "rotation": 270, "texture": "#0"},
				"up": {"uv": [11.33333, 2, 12.33333, 1], "texture": "#0"},
				"down": {"uv": [11.33333, 2, 12.33333, 1], "rotation": 180, "texture": "#0"}
			}
		},
		{
			"from": [7.4536, 4.26533, 7.55],
			"to": [7.5536, 4.36533, 11.3],
			"rotation": {"angle": 22.5, "axis": "z", "origin": [7.5036, 4.31533, 11.225]},
			"faces": {
				"north": {"uv": [11.33333, 2, 12.33333, 1], "rotation": 180, "texture": "#0"},
				"east": {"uv": [11.33333, 2, 12.33333, 1], "rotation": 90, "texture": "#0"},
				"south": {"uv": [11.33333, 2, 12.33333, 1], "texture": "#0"},
				"west": {"uv": [11.33333, 2, 12.33333, 1], "rotation": 270, "texture": "#0"},
				"up": {"uv": [11.33333, 2, 12.33333, 1], "texture": "#0"},
				"down": {"uv": [11.33333, 2, 12.33333, 1], "rotation": 180, "texture": "#0"}
			}
		},
		{
			"from": [7.53066, 4.18066, 7.55],
			"to": [7.63066, 4.38066, 11.3],
			"rotation": {"angle": 0, "axis": "z", "origin": [7.58066, 4.33066, 11.225]},
			"faces": {
				"north": {"uv": [11.33333, 2, 12.33333, 1], "rotation": 180, "texture": "#0"},
				"east": {"uv": [11.33333, 2, 12.33333, 1], "rotation": 90, "texture": "#0"},
				"south": {"uv": [11.33333, 2, 12.33333, 1], "texture": "#0"},
				"west": {"uv": [11.33333, 2, 12.33333, 1], "rotation": 270, "texture": "#0"},
				"up": {"uv": [11.33333, 2, 12.33333, 1], "texture": "#0"},
				"down": {"uv": [11.33333, 2, 12.33333, 1], "rotation": 180, "texture": "#0"}
			}
		},
		{
			"from": [7.60772, 4.26533, 7.55],
			"to": [7.70772, 4.36533, 11.3],
			"rotation": {"angle": -22.5, "axis": "z", "origin": [7.65772, 4.31533, 11.225]},
			"faces": {
				"north": {"uv": [11.33333, 2, 12.33333, 1], "texture": "#0"},
				"east": {"uv": [11.33333, 2, 12.33333, 1], "rotation": 270, "texture": "#0"},
				"south": {"uv": [11.33333, 2, 12.33333, 1], "rotation": 180, "texture": "#0"},
				"west": {"uv": [11.33333, 2, 12.33333, 1], "rotation": 90, "texture": "#0"},
				"up": {"uv": [11.33333, 2, 12.33333, 1], "rotation": 180, "texture": "#0"},
				"down": {"uv": [11.33333, 2, 12.33333, 1], "texture": "#0"}
			}
		},
		{
			"from": [7.54598, 4.22706, 7.55],
			"to": [7.74598, 4.32706, 11.3],
			"rotation": {"angle": 22.5, "axis": "z", "origin": [7.69598, 4.27706, 11.225]},
			"faces": {
				"north": {"uv": [11.33333, 2, 12.33333, 1], "rotation": 270, "texture": "#0"},
				"east": {"uv": [11.33333, 2, 12.33333, 1], "rotation": 270, "texture": "#0"},
				"south": {"uv": [11.33333, 2, 12.33333, 1], "rotation": 270, "texture": "#0"},
				"west": {"uv": [11.33333, 2, 12.33333, 1], "rotation": 90, "texture": "#0"},
				"up": {"uv": [11.33333, 2, 12.33333, 1], "rotation": 180, "texture": "#0"},
				"down": {"uv": [11.33333, 2, 12.33333, 1], "texture": "#0"}
			}
		},
		{
			"from": [7.56131, 4.15, 7.55],
			"to": [7.76131, 4.25, 11.3],
			"rotation": {"angle": 0, "axis": "x", "origin": [7.71131, 4.2, 11.225]},
			"faces": {
				"north": {"uv": [11.33333, 2, 12.33333, 1], "texture": "#0"},
				"east": {"uv": [11.33333, 2, 12.33333, 1], "rotation": 270, "texture": "#0"},
				"south": {"uv": [11.33333, 2, 12.33333, 1], "rotation": 180, "texture": "#0"},
				"west": {"uv": [11.33333, 2, 12.33333, 1], "rotation": 90, "texture": "#0"},
				"up": {"uv": [11.33333, 2, 12.33333, 1], "rotation": 180, "texture": "#0"},
				"down": {"uv": [11.33333, 2, 12.33333, 1], "texture": "#0"}
			}
		},
		{
			"from": [8.23869, 4.15, 7.55],
			"to": [8.43869, 4.25, 11.3],
			"rotation": {"angle": 0, "axis": "x", "origin": [8.28869, 4.2, 11.225]},
			"faces": {
				"north": {"uv": [11.33333, 2, 12.33333, 1], "rotation": 180, "texture": "#0"},
				"east": {"uv": [11.33333, 2, 12.33333, 1], "rotation": 90, "texture": "#0"},
				"south": {"uv": [11.33333, 2, 12.33333, 1], "texture": "#0"},
				"west": {"uv": [11.33333, 2, 12.33333, 1], "rotation": 270, "texture": "#0"},
				"up": {"uv": [11.33333, 2, 12.33333, 1], "texture": "#0"},
				"down": {"uv": [11.33333, 2, 12.33333, 1], "rotation": 180, "texture": "#0"}
			}
		},
		{
			"from": [8.25402, 4.22706, 7.55],
			"to": [8.45402, 4.32706, 11.3],
			"rotation": {"angle": -22.5, "axis": "z", "origin": [8.30402, 4.27706, 11.225]},
			"faces": {
				"north": {"uv": [11.33333, 2, 12.33333, 1], "rotation": 270, "texture": "#0"},
				"east": {"uv": [11.33333, 2, 12.33333, 1], "rotation": 90, "texture": "#0"},
				"south": {"uv": [11.33333, 2, 12.33333, 1], "rotation": 270, "texture": "#0"},
				"west": {"uv": [11.33333, 2, 12.33333, 1], "rotation": 270, "texture": "#0"},
				"up": {"uv": [11.33333, 2, 12.33333, 1], "texture": "#0"},
				"down": {"uv": [11.33333, 2, 12.33333, 1], "rotation": 180, "texture": "#0"}
			}
		},
		{
			"from": [8.29228, 4.26533, 7.55],
			"to": [8.39228, 4.36533, 11.3],
			"rotation": {"angle": 22.5, "axis": "z", "origin": [8.34228, 4.31533, 11.225]},
			"faces": {
				"north": {"uv": [11.33333, 2, 12.33333, 1], "rotation": 180, "texture": "#0"},
				"east": {"uv": [11.33333, 2, 12.33333, 1], "rotation": 90, "texture": "#0"},
				"south": {"uv": [11.33333, 2, 12.33333, 1], "texture": "#0"},
				"west": {"uv": [11.33333, 2, 12.33333, 1], "rotation": 270, "texture": "#0"},
				"up": {"uv": [11.33333, 2, 12.33333, 1], "texture": "#0"},
				"down": {"uv": [11.33333, 2, 12.33333, 1], "rotation": 180, "texture": "#0"}
			}
		},
		{
			"from": [8.36934, 4.08066, 7.55],
			"to": [8.46934, 4.38066, 11.3],
			"rotation": {"angle": 0, "axis": "z", "origin": [8.41934, 4.33066, 11.225]},
			"faces": {
				"north": {"uv": [11.33333, 2, 12.33333, 1], "rotation": 180, "texture": "#0"},
				"east": {"uv": [11.33333, 2, 12.33333, 1], "rotation": 90, "texture": "#0"},
				"south": {"uv": [11.33333, 2, 12.33333, 1], "texture": "#0"},
				"west": {"uv": [11.33333, 2, 12.33333, 1], "rotation": 270, "texture": "#0"},
				"up": {"uv": [11.33333, 2, 12.33333, 1], "texture": "#0"},
				"down": {"uv": [11.33333, 2, 12.33333, 1], "rotation": 180, "texture": "#0"}
			}
		},
		{
			"from": [8.4464, 4.26533, 7.55],
			"to": [8.5464, 4.36533, 11.3],
			"rotation": {"angle": -22.5, "axis": "z", "origin": [8.4964, 4.31533, 11.225]},
			"faces": {
				"north": {"uv": [11.33333, 2, 12.33333, 1], "texture": "#0"},
				"east": {"uv": [11.33333, 2, 12.33333, 1], "rotation": 270, "texture": "#0"},
				"south": {"uv": [11.33333, 2, 12.33333, 1], "rotation": 180, "texture": "#0"},
				"west": {"uv": [11.33333, 2, 12.33333, 1], "rotation": 90, "texture": "#0"},
				"up": {"uv": [11.33333, 2, 12.33333, 1], "rotation": 180, "texture": "#0"},
				"down": {"uv": [11.33333, 2, 12.33333, 1], "texture": "#0"}
			}
		},
		{
			"from": [8.38467, 4.22706, 7.55],
			"to": [8.58467, 4.32706, 11.3],
			"rotation": {"angle": 22.5, "axis": "z", "origin": [8.53467, 4.27706, 11.225]},
			"faces": {
				"north": {"uv": [11.33333, 2, 12.33333, 1], "rotation": 270, "texture": "#0"},
				"east": {"uv": [11.33333, 2, 12.33333, 1], "rotation": 270, "texture": "#0"},
				"south": {"uv": [11.33333, 2, 12.33333, 1], "rotation": 270, "texture": "#0"},
				"west": {"uv": [11.33333, 2, 12.33333, 1], "rotation": 90, "texture": "#0"},
				"up": {"uv": [11.33333, 2, 12.33333, 1], "rotation": 180, "texture": "#0"},
				"down": {"uv": [11.33333, 2, 12.33333, 1], "texture": "#0"}
			}
		},
		{
			"from": [8.4, 4.15, 7.55],
			"to": [8.6, 4.25, 11.3],
			"rotation": {"angle": 0, "axis": "x", "origin": [8.55, 4.2, 11.225]},
			"faces": {
				"north": {"uv": [11.33333, 2, 12.33333, 1], "texture": "#0"},
				"east": {"uv": [11.33333, 2, 12.33333, 1], "rotation": 270, "texture": "#0"},
				"south": {"uv": [11.33333, 2, 12.33333, 1], "rotation": 180, "texture": "#0"},
				"west": {"uv": [11.33333, 2, 12.33333, 1], "rotation": 90, "texture": "#0"},
				"up": {"uv": [11.33333, 2, 12.33333, 1], "rotation": 180, "texture": "#0"},
				"down": {"uv": [11.33333, 2, 12.33333, 1], "texture": "#0"}
			}
		},
		{
			"from": [7.94048, 4.98697, 3.2936],
			"to": [8.05952, 5.04649, 3.5436],
			"rotation": {"angle": 0, "axis": "x", "origin": [3.2384, 2.66569, 1.758]},
			"faces": {
				"north": {"uv": [3.33333, 4.66667, 4.33333, 3.66667], "texture": "#0"},
				"east": {"uv": [3.33333, 4.66667, 4.33333, 3.66667], "texture": "#0"},
				"south": {"uv": [3.33333, 4.66667, 4.33333, 3.66667], "texture": "#0"},
				"west": {"uv": [3.33333, 4.66667, 4.33333, 3.66667], "texture": "#0"},
				"up": {"uv": [3.33333, 4.66667, 4.33333, 3.66667], "texture": "#0"},
				"down": {"uv": [3.33333, 4.66667, 4.33333, 3.66667], "texture": "#0"}
			}
		},
		{
			"from": [7.83736, 4.96646, 3.2936],
			"to": [7.9564, 5.02598, 3.5436],
			"rotation": {"angle": 22.5, "axis": "z", "origin": [7.89688, 4.99622, 3.246]},
			"faces": {
				"north": {"uv": [3.33333, 4.66667, 4.33333, 3.66667], "texture": "#0"},
				"east": {"uv": [3.33333, 4.66667, 4.33333, 3.66667], "texture": "#0"},
				"south": {"uv": [3.33333, 4.66667, 4.33333, 3.66667], "texture": "#0"},
				"west": {"uv": [3.33333, 4.66667, 4.33333, 3.66667], "texture": "#0"},
				"up": {"uv": [3.33333, 4.66667, 4.33333, 3.66667], "texture": "#0"},
				"down": {"uv": [3.33333, 4.66667, 4.33333, 3.66667], "texture": "#0"}
			}
		},
		{
			"from": [7.77229, 4.87459, 3.2936],
			"to": [7.89133, 4.93411, 3.5436],
			"rotation": {"angle": 45, "axis": "z", "origin": [7.78025, 4.8941, 3.246]},
			"faces": {
				"north": {"uv": [3.33333, 4.66667, 4.33333, 3.66667], "texture": "#0"},
				"east": {"uv": [3.33333, 4.66667, 4.33333, 3.66667], "texture": "#0"},
				"south": {"uv": [3.33333, 4.66667, 4.33333, 3.66667], "texture": "#0"},
				"west": {"uv": [3.33333, 4.66667, 4.33333, 3.66667], "texture": "#0"},
				"up": {"uv": [3.33333, 4.66667, 4.33333, 3.66667], "texture": "#0"},
				"down": {"uv": [3.33333, 4.66667, 4.33333, 3.66667], "texture": "#0"}
			}
		},
		{
			"from": [7.74024, 4.78302, 3.2936],
			"to": [7.79976, 4.90206, 3.5436],
			"rotation": {"angle": -22.5, "axis": "z", "origin": [7.78025, 4.8941, 3.246]},
			"faces": {
				"north": {"uv": [3.33333, 4.66667, 4.33333, 3.66667], "rotation": 90, "texture": "#0"},
				"east": {"uv": [3.33333, 4.66667, 4.33333, 3.66667], "rotation": 90, "texture": "#0"},
				"south": {"uv": [3.33333, 4.66667, 4.33333, 3.66667], "rotation": 90, "texture": "#0"},
				"west": {"uv": [3.33333, 4.66667, 4.33333, 3.66667], "rotation": 90, "texture": "#0"},
				"up": {"uv": [3.33333, 4.66667, 4.33333, 3.66667], "rotation": 90, "texture": "#0"},
				"down": {"uv": [3.33333, 4.66667, 4.33333, 3.66667], "rotation": 90, "texture": "#0"}
			}
		},
		{
			"from": [7.70077, 4.68775, 3.2936],
			"to": [7.76029, 4.80679, 3.5436],
			"rotation": {"angle": 0, "axis": "z", "origin": [7.81371, 4.62279, 3.246]},
			"faces": {
				"north": {"uv": [3.33333, 4.66667, 4.33333, 3.66667], "rotation": 90, "texture": "#0"},
				"east": {"uv": [3.33333, 4.66667, 4.33333, 3.66667], "rotation": 90, "texture": "#0"},
				"south": {"uv": [3.33333, 4.66667, 4.33333, 3.66667], "rotation": 90, "texture": "#0"},
				"west": {"uv": [3.33333, 4.66667, 4.33333, 3.66667], "rotation": 90, "texture": "#0"},
				"up": {"uv": [3.33333, 4.66667, 4.33333, 3.66667], "rotation": 90, "texture": "#0"},
				"down": {"uv": [3.33333, 4.66667, 4.33333, 3.66667], "rotation": 90, "texture": "#0"}
			}
		},
		{
			"from": [7.73423, 4.60698, 3.2936],
			"to": [7.79375, 4.72602, 3.5436],
			"rotation": {"angle": 22.5, "axis": "z", "origin": [7.81371, 4.62279, 3.246]},
			"faces": {
				"north": {"uv": [3.33333, 4.66667, 4.33333, 3.66667], "rotation": 90, "texture": "#0"},
				"east": {"uv": [3.33333, 4.66667, 4.33333, 3.66667], "rotation": 90, "texture": "#0"},
				"south": {"uv": [3.33333, 4.66667, 4.33333, 3.66667], "rotation": 90, "texture": "#0"},
				"west": {"uv": [3.33333, 4.66667, 4.33333, 3.66667], "rotation": 90, "texture": "#0"},
				"up": {"uv": [3.33333, 4.66667, 4.33333, 3.66667], "rotation": 90, "texture": "#0"},
				"down": {"uv": [3.33333, 4.66667, 4.33333, 3.66667], "rotation": 90, "texture": "#0"}
			}
		},
		{
			"from": [7.73423, 4.51956, 3.2936],
			"to": [7.79375, 4.6386, 3.5436],
			"rotation": {"angle": 45, "axis": "z", "origin": [7.81371, 4.62279, 3.246]},
			"faces": {
				"north": {"uv": [3.33333, 4.66667, 4.33333, 3.66667], "rotation": 90, "texture": "#0"},
				"east": {"uv": [3.33333, 4.66667, 4.33333, 3.66667], "rotation": 90, "texture": "#0"},
				"south": {"uv": [3.33333, 4.66667, 4.33333, 3.66667], "rotation": 90, "texture": "#0"},
				"west": {"uv": [3.33333, 4.66667, 4.33333, 3.66667], "rotation": 90, "texture": "#0"},
				"up": {"uv": [3.33333, 4.66667, 4.33333, 3.66667], "rotation": 90, "texture": "#0"},
				"down": {"uv": [3.33333, 4.66667, 4.33333, 3.66667], "rotation": 90, "texture": "#0"}
			}
		},
		{
			"from": [7.87866, 4.50986, 3.2936],
			"to": [7.9977, 4.56938, 3.5436],
			"rotation": {"angle": -22.5, "axis": "z", "origin": [7.81371, 4.62279, 3.246]},
			"faces": {
				"north": {"uv": [3.33333, 4.66667, 4.33333, 3.66667], "rotation": 180, "texture": "#0"},
				"east": {"uv": [3.33333, 4.66667, 4.33333, 3.66667], "rotation": 180, "texture": "#0"},
				"south": {"uv": [3.33333, 4.66667, 4.33333, 3.66667], "rotation": 180, "texture": "#0"},
				"west": {"uv": [3.33333, 4.66667, 4.33333, 3.66667], "rotation": 180, "texture": "#0"},
				"up": {"uv": [3.33333, 4.66667, 4.33333, 3.66667], "rotation": 180, "texture": "#0"},
				"down": {"uv": [3.33333, 4.66667, 4.33333, 3.66667], "rotation": 180, "texture": "#0"}
			}
		},
		{
			"from": [7.94048, 4.44804, 3.2936],
			"to": [8.05952, 4.50756, 3.5436],
			"rotation": {"angle": 0, "axis": "z", "origin": [8.13473, 4.73701, 3.246]},
			"faces": {
				"north": {"uv": [3.33333, 4.66667, 4.33333, 3.66667], "rotation": 180, "texture": "#0"},
				"east": {"uv": [3.33333, 4.66667, 4.33333, 3.66667], "rotation": 180, "texture": "#0"},
				"south": {"uv": [3.33333, 4.66667, 4.33333, 3.66667], "rotation": 180, "texture": "#0"},
				"west": {"uv": [3.33333, 4.66667, 4.33333, 3.66667], "rotation": 180, "texture": "#0"},
				"up": {"uv": [3.33333, 4.66667, 4.33333, 3.66667], "rotation": 180, "texture": "#0"},
				"down": {"uv": [3.33333, 4.66667, 4.33333, 3.66667], "rotation": 180, "texture": "#0"}
			}
		},
		{
			"from": [7.84048, 4.14804, 3.2936],
			"to": [8.15952, 4.50756, 3.5436],
			"rotation": {"angle": 0, "axis": "z", "origin": [8.13473, 4.73701, 3.246]},
			"faces": {
				"north": {"uv": [3.33333, 4.66667, 4.33333, 3.66667], "rotation": 180, "texture": "#0"},
				"east": {"uv": [3.33333, 4.66667, 4.33333, 3.66667], "rotation": 180, "texture": "#0"},
				"south": {"uv": [3.33333, 4.66667, 4.33333, 3.66667], "rotation": 180, "texture": "#0"},
				"west": {"uv": [3.33333, 4.66667, 4.33333, 3.66667], "rotation": 180, "texture": "#0"},
				"up": {"uv": [3.33333, 4.66667, 4.33333, 3.66667], "rotation": 180, "texture": "#0"},
				"down": {"uv": [3.33333, 4.66667, 4.33333, 3.66667], "rotation": 180, "texture": "#0"}
			}
		},
		{
			"from": [7.99048, 4.14804, 3.2936],
			"to": [8.00952, 4.70756, 3.5436],
			"rotation": {"angle": 0, "axis": "z", "origin": [8.13473, 4.73701, 3.246]},
			"faces": {
				"north": {"uv": [3.33333, 4.66667, 4.33333, 3.66667], "rotation": 180, "texture": "#0"},
				"east": {"uv": [3.33333, 4.66667, 4.33333, 3.66667], "rotation": 180, "texture": "#0"},
				"south": {"uv": [3.33333, 4.66667, 4.33333, 3.66667], "rotation": 180, "texture": "#0"},
				"west": {"uv": [3.33333, 4.66667, 4.33333, 3.66667], "rotation": 180, "texture": "#0"},
				"up": {"uv": [3.33333, 4.66667, 4.33333, 3.66667], "rotation": 180, "texture": "#0"},
				"down": {"uv": [3.33333, 4.66667, 4.33333, 3.66667], "rotation": 180, "texture": "#0"}
			}
		},
		{
			"from": [8.00952, 4.14804, 7.5936],
			"to": [8.02856, 4.70756, 7.8436],
			"rotation": {"angle": 0, "axis": "z", "origin": [7.55377, 4.73701, 3.246]},
			"faces": {
				"north": {"uv": [3.33333, 4.66667, 4.33333, 3.66667], "rotation": 180, "texture": "#0"},
				"east": {"uv": [3.33333, 4.66667, 4.33333, 3.66667], "rotation": 180, "texture": "#0"},
				"south": {"uv": [3.33333, 4.66667, 4.33333, 3.66667], "rotation": 180, "texture": "#0"},
				"west": {"uv": [3.33333, 4.66667, 4.33333, 3.66667], "rotation": 180, "texture": "#0"},
				"up": {"uv": [3.33333, 4.66667, 4.33333, 3.66667], "rotation": 180, "texture": "#0"},
				"down": {"uv": [3.33333, 4.66667, 4.33333, 3.66667], "rotation": 180, "texture": "#0"}
			}
		},
		{
			"from": [7.99048, 4.12304, 7.5936],
			"to": [8.00952, 4.68256, 7.8436],
			"rotation": {"angle": 0, "axis": "z", "origin": [7.13473, 4.33701, 3.246]},
			"faces": {
				"north": {"uv": [3.33333, 4.66667, 4.33333, 3.66667], "rotation": 180, "texture": "#0"},
				"east": {"uv": [3.33333, 4.66667, 4.33333, 3.66667], "rotation": 180, "texture": "#0"},
				"south": {"uv": [3.33333, 4.66667, 4.33333, 3.66667], "rotation": 180, "texture": "#0"},
				"west": {"uv": [3.33333, 4.66667, 4.33333, 3.66667], "rotation": 180, "texture": "#0"},
				"up": {"uv": [3.33333, 4.66667, 4.33333, 3.66667], "rotation": 180, "texture": "#0"},
				"down": {"uv": [3.33333, 4.66667, 4.33333, 3.66667], "rotation": 180, "texture": "#0"}
			}
		},
		{
			"from": [7.97144, 4.14804, 7.5936],
			"to": [7.99048, 4.70756, 7.8436],
			"rotation": {"angle": 0, "axis": "z", "origin": [8.71569, 4.73701, 3.246]},
			"faces": {
				"north": {"uv": [3.33333, 4.66667, 4.33333, 3.66667], "rotation": 180, "texture": "#0"},
				"east": {"uv": [3.33333, 4.66667, 4.33333, 3.66667], "rotation": 180, "texture": "#0"},
				"south": {"uv": [3.33333, 4.66667, 4.33333, 3.66667], "rotation": 180, "texture": "#0"},
				"west": {"uv": [3.33333, 4.66667, 4.33333, 3.66667], "rotation": 180, "texture": "#0"},
				"up": {"uv": [3.33333, 4.66667, 4.33333, 3.66667], "rotation": 180, "texture": "#0"},
				"down": {"uv": [3.33333, 4.66667, 4.33333, 3.66667], "rotation": 180, "texture": "#0"}
			}
		},
		{
			"from": [7.91192, 4.48852, 7.5936],
			"to": [7.97144, 4.70756, 7.8436],
			"rotation": {"angle": 0, "axis": "z", "origin": [7.94168, 4.69804, 7.7186]},
			"faces": {
				"north": {"uv": [3.33333, 4.66667, 4.33333, 3.66667], "rotation": 270, "texture": "#0"},
				"east": {"uv": [3.33333, 4.66667, 4.33333, 3.66667], "rotation": 270, "texture": "#0"},
				"south": {"uv": [3.33333, 4.66667, 4.33333, 3.66667], "rotation": 270, "texture": "#0"},
				"west": {"uv": [3.33333, 4.66667, 4.33333, 3.66667], "rotation": 270, "texture": "#0"},
				"up": {"uv": [3.33333, 4.66667, 4.33333, 3.66667], "rotation": 270, "texture": "#0"},
				"down": {"uv": [3.33333, 4.66667, 4.33333, 3.66667], "rotation": 270, "texture": "#0"}
			}
		},
		{
			"from": [8.02856, 4.48852, 7.5936],
			"to": [8.08808, 4.70756, 7.8436],
			"rotation": {"angle": 0, "axis": "z", "origin": [7.85832, 4.69804, 7.7186]},
			"faces": {
				"north": {"uv": [3.33333, 4.66667, 4.33333, 3.66667], "rotation": 270, "texture": "#0"},
				"east": {"uv": [3.33333, 4.66667, 4.33333, 3.66667], "rotation": 270, "texture": "#0"},
				"south": {"uv": [3.33333, 4.66667, 4.33333, 3.66667], "rotation": 270, "texture": "#0"},
				"west": {"uv": [3.33333, 4.66667, 4.33333, 3.66667], "rotation": 270, "texture": "#0"},
				"up": {"uv": [3.33333, 4.66667, 4.33333, 3.66667], "rotation": 270, "texture": "#0"},
				"down": {"uv": [3.33333, 4.66667, 4.33333, 3.66667], "rotation": 270, "texture": "#0"}
			}
		},
		{
			"from": [7.86774, 4.48547, 7.5936],
			"to": [8.02726, 4.70451, 7.8436],
			"rotation": {"angle": -22.5, "axis": "z", "origin": [7.8975, 4.59499, 7.7186]},
			"faces": {
				"north": {"uv": [3.33333, 4.66667, 4.33333, 3.66667], "rotation": 270, "texture": "#0"},
				"east": {"uv": [3.33333, 4.66667, 4.33333, 3.66667], "rotation": 270, "texture": "#0"},
				"south": {"uv": [3.33333, 4.66667, 4.33333, 3.66667], "rotation": 270, "texture": "#0"},
				"west": {"uv": [3.33333, 4.66667, 4.33333, 3.66667], "rotation": 270, "texture": "#0"},
				"up": {"uv": [3.33333, 4.66667, 4.33333, 3.66667], "rotation": 270, "texture": "#0"},
				"down": {"uv": [3.33333, 4.66667, 4.33333, 3.66667], "rotation": 270, "texture": "#0"}
			}
		},
		{
			"from": [8.0645, 4.42415, 7.5936],
			"to": [8.22402, 4.64319, 7.8436],
			"rotation": {"angle": 22.5, "axis": "z", "origin": [7.99426, 4.33367, 7.7186]},
			"faces": {
				"north": {"uv": [3.33333, 4.66667, 4.33333, 3.66667], "rotation": 270, "texture": "#0"},
				"east": {"uv": [3.33333, 4.66667, 4.33333, 3.66667], "rotation": 270, "texture": "#0"},
				"south": {"uv": [3.33333, 4.66667, 4.33333, 3.66667], "rotation": 270, "texture": "#0"},
				"west": {"uv": [3.33333, 4.66667, 4.33333, 3.66667], "rotation": 270, "texture": "#0"},
				"up": {"uv": [3.33333, 4.66667, 4.33333, 3.66667], "rotation": 270, "texture": "#0"},
				"down": {"uv": [3.33333, 4.66667, 4.33333, 3.66667], "rotation": 270, "texture": "#0"}
			}
		},
		{
			"from": [7.98762, 4.70471, 3.2811],
			"to": [8.01238, 4.72941, 3.5561],
			"rotation": {"angle": 45, "axis": "z", "origin": [8, 4.71706, 3.4186]},
			"faces": {
				"north": {"uv": [3.33333, 4.66667, 4.33333, 3.66667], "rotation": 180, "texture": "#0"},
				"east": {"uv": [3.33333, 4.66667, 4.33333, 3.66667], "rotation": 180, "texture": "#0"},
				"south": {"uv": [3.33333, 4.66667, 4.33333, 3.66667], "rotation": 180, "texture": "#0"},
				"west": {"uv": [3.33333, 4.66667, 4.33333, 3.66667], "rotation": 180, "texture": "#0"},
				"up": {"uv": [3.33333, 4.66667, 4.33333, 3.66667], "rotation": 180, "texture": "#0"},
				"down": {"uv": [3.33333, 4.66667, 4.33333, 3.66667], "rotation": 180, "texture": "#0"}
			}
		},
		{
			"from": [7.95466, 4.49882, 3.2936],
			"to": [8.0737, 4.55834, 3.5436],
			"rotation": {"angle": 22.5, "axis": "z", "origin": [8.13473, 4.73701, 3.246]},
			"faces": {
				"north": {"uv": [3.33333, 4.66667, 4.33333, 3.66667], "rotation": 180, "texture": "#0"},
				"east": {"uv": [3.33333, 4.66667, 4.33333, 3.66667], "rotation": 180, "texture": "#0"},
				"south": {"uv": [3.33333, 4.66667, 4.33333, 3.66667], "rotation": 180, "texture": "#0"},
				"west": {"uv": [3.33333, 4.66667, 4.33333, 3.66667], "rotation": 180, "texture": "#0"},
				"up": {"uv": [3.33333, 4.66667, 4.33333, 3.66667], "rotation": 180, "texture": "#0"},
				"down": {"uv": [3.33333, 4.66667, 4.33333, 3.66667], "rotation": 180, "texture": "#0"}
			}
		},
		{
			"from": [7.98719, 4.54031, 3.2936],
			"to": [8.10623, 4.59983, 3.5436],
			"rotation": {"angle": 45, "axis": "z", "origin": [8.13473, 4.73701, 3.246]},
			"faces": {
				"north": {"uv": [3.33333, 4.66667, 4.33333, 3.66667], "rotation": 180, "texture": "#0"},
				"east": {"uv": [3.33333, 4.66667, 4.33333, 3.66667], "rotation": 180, "texture": "#0"},
				"south": {"uv": [3.33333, 4.66667, 4.33333, 3.66667], "rotation": 180, "texture": "#0"},
				"west": {"uv": [3.33333, 4.66667, 4.33333, 3.66667], "rotation": 180, "texture": "#0"},
				"up": {"uv": [3.33333, 4.66667, 4.33333, 3.66667], "rotation": 180, "texture": "#0"},
				"down": {"uv": [3.33333, 4.66667, 4.33333, 3.66667], "rotation": 180, "texture": "#0"}
			}
		},
		{
			"from": [8.24604, 4.63541, 3.2936],
			"to": [8.30556, 4.75445, 3.5436],
			"rotation": {"angle": -22.5, "axis": "z", "origin": [8.13473, 4.73701, 3.246]},
			"faces": {
				"north": {"uv": [3.33333, 4.66667, 4.33333, 3.66667], "rotation": 270, "texture": "#0"},
				"east": {"uv": [3.33333, 4.66667, 4.33333, 3.66667], "rotation": 270, "texture": "#0"},
				"south": {"uv": [3.33333, 4.66667, 4.33333, 3.66667], "rotation": 270, "texture": "#0"},
				"west": {"uv": [3.33333, 4.66667, 4.33333, 3.66667], "rotation": 270, "texture": "#0"},
				"up": {"uv": [3.33333, 4.66667, 4.33333, 3.66667], "rotation": 270, "texture": "#0"},
				"down": {"uv": [3.33333, 4.66667, 4.33333, 3.66667], "rotation": 270, "texture": "#0"}
			}
		},
		{
			"from": [8.23971, 4.68775, 3.2936],
			"to": [8.29923, 4.80679, 3.5436],
			"rotation": {"angle": 0, "axis": "z", "origin": [8.13473, 4.73701, 3.246]},
			"faces": {
				"north": {"uv": [3.33333, 4.66667, 4.33333, 3.66667], "rotation": 270, "texture": "#0"},
				"east": {"uv": [3.33333, 4.66667, 4.33333, 3.66667], "rotation": 270, "texture": "#0"},
				"south": {"uv": [3.33333, 4.66667, 4.33333, 3.66667], "rotation": 270, "texture": "#0"},
				"west": {"uv": [3.33333, 4.66667, 4.33333, 3.66667], "rotation": 270, "texture": "#0"},
				"up": {"uv": [3.33333, 4.66667, 4.33333, 3.66667], "rotation": 270, "texture": "#0"},
				"down": {"uv": [3.33333, 4.66667, 4.33333, 3.66667], "rotation": 270, "texture": "#0"}
			}
		},
		{
			"from": [8.25389, 4.73853, 3.2936],
			"to": [8.31341, 4.85757, 3.5436],
			"rotation": {"angle": 22.5, "axis": "z", "origin": [8.13473, 4.73701, 3.246]},
			"faces": {
				"north": {"uv": [3.33333, 4.66667, 4.33333, 3.66667], "rotation": 270, "texture": "#0"},
				"east": {"uv": [3.33333, 4.66667, 4.33333, 3.66667], "rotation": 270, "texture": "#0"},
				"south": {"uv": [3.33333, 4.66667, 4.33333, 3.66667], "rotation": 270, "texture": "#0"},
				"west": {"uv": [3.33333, 4.66667, 4.33333, 3.66667], "rotation": 270, "texture": "#0"},
				"up": {"uv": [3.33333, 4.66667, 4.33333, 3.66667], "rotation": 270, "texture": "#0"},
				"down": {"uv": [3.33333, 4.66667, 4.33333, 3.66667], "rotation": 270, "texture": "#0"}
			}
		},
		{
			"from": [8.28642, 4.78001, 3.2936],
			"to": [8.34594, 4.89905, 3.5436],
			"rotation": {"angle": 45, "axis": "z", "origin": [8.13473, 4.73701, 3.246]},
			"faces": {
				"north": {"uv": [3.33333, 4.66667, 4.33333, 3.66667], "rotation": 270, "texture": "#0"},
				"east": {"uv": [3.33333, 4.66667, 4.33333, 3.66667], "rotation": 270, "texture": "#0"},
				"south": {"uv": [3.33333, 4.66667, 4.33333, 3.66667], "rotation": 270, "texture": "#0"},
				"west": {"uv": [3.33333, 4.66667, 4.33333, 3.66667], "rotation": 270, "texture": "#0"},
				"up": {"uv": [3.33333, 4.66667, 4.33333, 3.66667], "rotation": 270, "texture": "#0"},
				"down": {"uv": [3.33333, 4.66667, 4.33333, 3.66667], "rotation": 270, "texture": "#0"}
			}
		},
		{
			"from": [7.94681, 4.93463, 3.2936],
			"to": [8.06585, 4.99415, 3.5436],
			"rotation": {"angle": -22.5, "axis": "z", "origin": [8.13473, 4.73701, 3.246]},
			"faces": {
				"north": {"uv": [3.33333, 4.66667, 4.33333, 3.66667], "texture": "#0"},
				"east": {"uv": [3.33333, 4.66667, 4.33333, 3.66667], "texture": "#0"},
				"south": {"uv": [3.33333, 4.66667, 4.33333, 3.66667], "texture": "#0"},
				"west": {"uv": [3.33333, 4.66667, 4.33333, 3.66667], "texture": "#0"},
				"up": {"uv": [3.33333, 4.66667, 4.33333, 3.66667], "texture": "#0"},
				"down": {"uv": [3.33333, 4.66667, 4.33333, 3.66667], "texture": "#0"}
			}
		},
		{
			"from": [7.75, 1.5636, 5.75],
			"to": [8.25, 2.1136, 6.85],
			"rotation": {"angle": 0, "axis": "y", "origin": [0, -2.9864, -0.25]},
			"faces": {
				"north": {"uv": [11.33333, 1.66667, 12.33333, 0.66667], "texture": "#0"},
				"east": {"uv": [11.33333, 1.66667, 12.33333, 0.66667], "texture": "#0"},
				"south": {"uv": [11.33333, 1.66667, 12.33333, 0.66667], "texture": "#0"},
				"west": {"uv": [11.33333, 1.66667, 12.33333, 0.66667], "texture": "#0"},
				"up": {"uv": [11.33333, 1.66667, 12.33333, 0.66667], "texture": "#0"},
				"down": {"uv": [11.33333, 1.66667, 12.33333, 0.66667], "texture": "#0"}
			}
		},
		{
			"from": [7.75, 0.94501, 5.81337],
			"to": [8.25, 1.79501, 6.91337],
			"rotation": {"angle": -22.5, "axis": "x", "origin": [8, 1.52001, 6.36337]},
			"faces": {
				"north": {"uv": [11.33333, 1.66667, 12.33333, 0.66667], "texture": "#0"},
				"east": {"uv": [11.33333, 1.66667, 12.33333, 0.66667], "texture": "#0"},
				"south": {"uv": [11.33333, 1.66667, 12.33333, 0.66667], "texture": "#0"},
				"west": {"uv": [11.33333, 1.66667, 12.33333, 0.66667], "texture": "#0"},
				"up": {"uv": [11.33333, 1.66667, 12.33333, 0.66667], "texture": "#0"},
				"down": {"uv": [11.33333, 1.66667, 12.33333, 0.66667], "texture": "#0"}
			}
		},
		{
			"from": [7.75, 0.14926, 5.99155],
			"to": [8.25, 1.19926, 7.09155],
			"rotation": {"angle": 0, "axis": "x", "origin": [8, 0.77426, 6.54155]},
			"faces": {
				"north": {"uv": [11.33333, 1.66667, 12.33333, 0.66667], "texture": "#0"},
				"east": {"uv": [11.33333, 1.66667, 12.33333, 0.66667], "texture": "#0"},
				"south": {"uv": [11.33333, 1.66667, 12.33333, 0.66667], "texture": "#0"},
				"west": {"uv": [11.33333, 1.66667, 12.33333, 0.66667], "texture": "#0"},
				"up": {"uv": [11.33333, 1.66667, 12.33333, 0.66667], "texture": "#0"},
				"down": {"uv": [11.33333, 1.66667, 12.33333, 0.66667], "texture": "#0"}
			}
		},
		{
			"from": [7.725, 0.25998, 6.03447],
			"to": [8.275, 1.20498, 7.02447],
			"rotation": {"angle": 0, "axis": "x", "origin": [8, 0.82248, 6.52947]},
			"faces": {
				"north": {"uv": [3.66667, 10, 4.66667, 9], "texture": "#0"},
				"east": {"uv": [3.66667, 10, 4.66667, 9], "texture": "#0"},
				"south": {"uv": [3.66667, 10, 4.66667, 9], "texture": "#0"},
				"west": {"uv": [3.66667, 10, 4.66667, 9], "texture": "#0"},
				"up": {"uv": [3.66667, 10, 4.66667, 9], "texture": "#0"},
				"down": {"uv": [3.66667, 10, 4.66667, 9], "texture": "#0"}
			}
		},
		{
			"from": [7.725, 0.97615, 5.87411],
			"to": [8.275, 1.74115, 6.86411],
			"rotation": {"angle": -22.5, "axis": "x", "origin": [8, 1.49365, 6.36911]},
			"faces": {
				"north": {"uv": [3.66667, 10, 4.66667, 9], "texture": "#0"},
				"east": {"uv": [3.66667, 10, 4.66667, 9], "texture": "#0"},
				"south": {"uv": [3.66667, 10, 4.66667, 9], "texture": "#0"},
				"west": {"uv": [3.66667, 10, 4.66667, 9], "texture": "#0"},
				"up": {"uv": [3.66667, 10, 4.66667, 9], "texture": "#0"},
				"down": {"uv": [3.66667, 10, 4.66667, 9], "texture": "#0"}
			}
		},
		{
			"from": [7.725, 1.53289, 5.81708],
			"to": [8.275, 2.12789, 6.80708],
			"rotation": {"angle": 0, "axis": "y", "origin": [0.8, -2.56211, 0.41708]},
			"faces": {
				"north": {"uv": [3.66667, 10, 4.66667, 9], "texture": "#0"},
				"east": {"uv": [3.66667, 10, 4.66667, 9], "texture": "#0"},
				"south": {"uv": [3.66667, 10, 4.66667, 9], "texture": "#0"},
				"west": {"uv": [3.66667, 10, 4.66667, 9], "texture": "#0"},
				"up": {"uv": [3.66667, 10, 4.66667, 9], "texture": "#0"},
				"down": {"uv": [3.66667, 10, 4.66667, 9], "texture": "#0"}
			}
		},
		{
			"from": [7.975, 1.96558, 5.51129],
			"to": [8.075, 2.11558, 5.61129],
			"rotation": {"angle": 0, "axis": "x", "origin": [8.025, 1.92495, 5.51339]},
			"faces": {
				"north": {"uv": [11.33333, 1.66667, 12.33333, 0.66667], "rotation": 180, "texture": "#0"},
				"east": {"uv": [11.33333, 1.66667, 12.33333, 0.66667], "rotation": 180, "texture": "#0"},
				"south": {"uv": [11.33333, 1.66667, 12.33333, 0.66667], "rotation": 180, "texture": "#0"},
				"west": {"uv": [11.33333, 1.66667, 12.33333, 0.66667], "rotation": 180, "texture": "#0"},
				"up": {"uv": [11.33333, 1.66667, 12.33333, 0.66667], "rotation": 180, "texture": "#0"},
				"down": {"uv": [11.33333, 1.66667, 12.33333, 0.66667], "rotation": 180, "texture": "#0"}
			}
		},
		{
			"from": [7.975, 1.84995, 5.48829],
			"to": [8.075, 1.99995, 5.58829],
			"rotation": {"angle": 22.5, "axis": "x", "origin": [8.025, 1.92495, 5.51339]},
			"faces": {
				"north": {"uv": [11.33333, 1.66667, 12.33333, 0.66667], "rotation": 180, "texture": "#0"},
				"east": {"uv": [11.33333, 1.66667, 12.33333, 0.66667], "rotation": 180, "texture": "#0"},
				"south": {"uv": [11.33333, 1.66667, 12.33333, 0.66667], "rotation": 180, "texture": "#0"},
				"west": {"uv": [11.33333, 1.66667, 12.33333, 0.66667], "rotation": 180, "texture": "#0"},
				"up": {"uv": [11.33333, 1.66667, 12.33333, 0.66667], "rotation": 180, "texture": "#0"},
				"down": {"uv": [11.33333, 1.66667, 12.33333, 0.66667], "rotation": 180, "texture": "#0"}
			}
		},
		{
			"from": [7.975, 1.73432, 5.51129],
			"to": [8.075, 1.88432, 5.61129],
			"rotation": {"angle": 45, "axis": "x", "origin": [8.025, 1.92495, 5.51339]},
			"faces": {
				"north": {"uv": [11.33333, 1.66667, 12.33333, 0.66667], "rotation": 180, "texture": "#0"},
				"east": {"uv": [11.33333, 1.66667, 12.33333, 0.66667], "rotation": 180, "texture": "#0"},
				"south": {"uv": [11.33333, 1.66667, 12.33333, 0.66667], "rotation": 180, "texture": "#0"},
				"west": {"uv": [11.33333, 1.66667, 12.33333, 0.66667], "rotation": 180, "texture": "#0"},
				"up": {"uv": [11.33333, 1.66667, 12.33333, 0.66667], "rotation": 180, "texture": "#0"},
				"down": {"uv": [11.33333, 1.66667, 12.33333, 0.66667], "rotation": 180, "texture": "#0"}
			}
		},
		{
			"from": [7.925, 1.7636, 4.75],
			"to": [8.125, 2.1136, 4.85],
			"rotation": {"angle": 0, "axis": "y", "origin": [0, -2.9864, -0.25]},
			"faces": {
				"north": {"uv": [11.33333, 1.66667, 12.33333, 0.66667], "texture": "#0"},
				"east": {"uv": [11.33333, 1.66667, 12.33333, 0.66667], "texture": "#0"},
				"south": {"uv": [11.33333, 1.66667, 12.33333, 0.66667], "texture": "#0"},
				"west": {"uv": [11.33333, 1.66667, 12.33333, 0.66667], "texture": "#0"},
				"up": {"uv": [11.33333, 1.66667, 12.33333, 0.66667], "texture": "#0"},
				"down": {"uv": [11.33333, 1.66667, 12.33333, 0.66667], "texture": "#0"}
			}
		},
		{
			"from": [7.925, 1.64606, 4.81316],
			"to": [8.125, 1.79606, 4.91316],
			"rotation": {"angle": -22.5, "axis": "x", "origin": [8.025, 1.62106, 4.86316]},
			"faces": {
				"north": {"uv": [11.33333, 1.66667, 12.33333, 0.66667], "texture": "#0"},
				"east": {"uv": [11.33333, 1.66667, 12.33333, 0.66667], "texture": "#0"},
				"south": {"uv": [11.33333, 1.66667, 12.33333, 0.66667], "texture": "#0"},
				"west": {"uv": [11.33333, 1.66667, 12.33333, 0.66667], "texture": "#0"},
				"up": {"uv": [11.33333, 1.66667, 12.33333, 0.66667], "texture": "#0"},
				"down": {"uv": [11.33333, 1.66667, 12.33333, 0.66667], "texture": "#0"}
			}
		},
		{
			"from": [7.925, 1.52199, 4.80615],
			"to": [8.125, 1.62199, 4.95615],
			"rotation": {"angle": 45, "axis": "x", "origin": [8.025, 1.57199, 4.93115]},
			"faces": {
				"north": {"uv": [11.33333, 1.66667, 12.33333, 0.66667], "rotation": 180, "texture": "#0"},
				"east": {"uv": [11.33333, 1.66667, 12.33333, 0.66667], "rotation": 180, "texture": "#0"},
				"south": {"uv": [11.33333, 1.66667, 12.33333, 0.66667], "rotation": 180, "texture": "#0"},
				"west": {"uv": [11.33333, 1.66667, 12.33333, 0.66667], "rotation": 180, "texture": "#0"},
				"up": {"uv": [11.33333, 1.66667, 12.33333, 0.66667], "rotation": 180, "texture": "#0"},
				"down": {"uv": [11.33333, 1.66667, 12.33333, 0.66667], "rotation": 180, "texture": "#0"}
			}
		},
		{
			"from": [7.925, 1.42925, 5.11443],
			"to": [8.125, 1.52925, 5.26443],
			"rotation": {"angle": 22.5, "axis": "x", "origin": [8.025, 1.97925, 5.23943]},
			"faces": {
				"north": {"uv": [11.33333, 1.66667, 12.33333, 0.66667], "rotation": 180, "texture": "#0"},
				"east": {"uv": [11.33333, 1.66667, 12.33333, 0.66667], "rotation": 180, "texture": "#0"},
				"south": {"uv": [11.33333, 1.66667, 12.33333, 0.66667], "rotation": 180, "texture": "#0"},
				"west": {"uv": [11.33333, 1.66667, 12.33333, 0.66667], "rotation": 180, "texture": "#0"},
				"up": {"uv": [11.33333, 1.66667, 12.33333, 0.66667], "rotation": 180, "texture": "#0"},
				"down": {"uv": [11.33333, 1.66667, 12.33333, 0.66667], "rotation": 180, "texture": "#0"}
			}
		},
		{
			"from": [7.925, 1.46155, 5.05205],
			"to": [8.125, 1.56155, 5.90205],
			"rotation": {"angle": 0, "axis": "x", "origin": [8.025, 1.51155, 5.12705]},
			"faces": {
				"north": {"uv": [11.33333, 1.66667, 12.33333, 0.66667], "rotation": 180, "texture": "#0"},
				"east": {"uv": [11.33333, 1.66667, 12.33333, 0.66667], "rotation": 180, "texture": "#0"},
				"south": {"uv": [11.33333, 1.66667, 12.33333, 0.66667], "rotation": 180, "texture": "#0"},
				"west": {"uv": [11.33333, 1.66667, 12.33333, 0.66667], "rotation": 180, "texture": "#0"},
				"up": {"uv": [11.33333, 1.66667, 12.33333, 0.66667], "rotation": 180, "texture": "#0"},
				"down": {"uv": [11.33333, 1.66667, 12.33333, 0.66667], "rotation": 180, "texture": "#0"}
			}
		},
		{
			"from": [7.85, 1.64606, 10.06316],
			"to": [8.15, 1.79606, 10.16316],
			"rotation": {"angle": -22.5, "axis": "x", "origin": [8, 1.62106, 10.11316]},
			"faces": {
				"north": {"uv": [11.66667, 1.66667, 12.66667, 0.66667], "texture": "#0"},
				"east": {"uv": [11.66667, 1.66667, 12.66667, 0.66667], "texture": "#0"},
				"south": {"uv": [11.66667, 1.66667, 12.66667, 0.66667], "texture": "#0"},
				"west": {"uv": [11.66667, 1.66667, 12.66667, 0.66667], "texture": "#0"},
				"up": {"uv": [11.66667, 1.66667, 12.66667, 0.66667], "texture": "#0"},
				"down": {"uv": [11.66667, 1.66667, 12.66667, 0.66667], "texture": "#0"}
			}
		},
		{
			"from": [7.85, 1.7636, 10],
			"to": [8.15, 2.1136, 10.1],
			"rotation": {"angle": 0, "axis": "y", "origin": [0, -2.9864, 0]},
			"faces": {
				"north": {"uv": [11.66667, 1.66667, 12.66667, 0.66667], "texture": "#0"},
				"east": {"uv": [11.66667, 1.66667, 12.66667, 0.66667], "texture": "#0"},
				"south": {"uv": [11.66667, 1.66667, 12.66667, 0.66667], "texture": "#0"},
				"west": {"uv": [11.66667, 1.66667, 12.66667, 0.66667], "texture": "#0"},
				"up": {"uv": [11.66667, 1.66667, 12.66667, 0.66667], "texture": "#0"},
				"down": {"uv": [11.66667, 1.66667, 12.66667, 0.66667], "texture": "#0"}
			}
		},
		{
			"from": [7.75, 2.0636, 9.8],
			"to": [8.25, 2.1136, 10.2],
			"rotation": {"angle": 0, "axis": "y", "origin": [0, -2.9864, 0]},
			"faces": {
				"north": {"uv": [11.66667, 1.66667, 12.66667, 0.66667], "texture": "#0"},
				"east": {"uv": [11.66667, 1.66667, 12.66667, 0.66667], "texture": "#0"},
				"south": {"uv": [11.66667, 1.66667, 12.66667, 0.66667], "texture": "#0"},
				"west": {"uv": [11.66667, 1.66667, 12.66667, 0.66667], "texture": "#0"},
				"up": {"uv": [11.66667, 1.66667, 12.66667, 0.66667], "texture": "#0"},
				"down": {"uv": [11.66667, 1.66667, 12.66667, 0.66667], "texture": "#0"}
			}
		},
		{
			"from": [7.45, 2.0636, 8.2],
			"to": [8.55, 2.1136, 9.9],
			"rotation": {"angle": 0, "axis": "y", "origin": [0, -2.9864, 0]},
			"faces": {
				"north": {"uv": [11.66667, 1.66667, 12.66667, 0.66667], "texture": "#0"},
				"east": {"uv": [11.66667, 1.66667, 12.66667, 0.66667], "texture": "#0"},
				"south": {"uv": [11.66667, 1.66667, 12.66667, 0.66667], "texture": "#0"},
				"west": {"uv": [11.66667, 1.66667, 12.66667, 0.66667], "texture": "#0"},
				"up": {"uv": [11.66667, 1.66667, 12.66667, 0.66667], "texture": "#0"},
				"down": {"uv": [11.66667, 1.66667, 12.66667, 0.66667], "texture": "#0"}
			}
		}
	],
	"display": {
		"thirdperson_righthand": {
			"translation": [0.25, 6, 3]
		},
		"thirdperson_lefthand": {
			"translation": [0, 5.75, 2.75]
		},
		"firstperson_righthand": {
			"translation": [-4.5, 8.5, 3.5]
		},
		"firstperson_lefthand": {
			"translation": [-4.75, 8, 3.5]
		},
		"ground": {
			"translation": [0, 9, 0]
		},
		"gui": {
			"rotation": [87, -49, 100],
			"translation": [-4, 5.25, 0],
			"scale": [1.45, 1.45, 1.45]
		},
		"head": {
			"translation": [0, 15.5, 0]
		},
		"fixed": {
			"rotation": [90, 45, -90],
			"translation": [4, 4.5, -1.25]
		}
	},
	"groups": [
		{
			"name": "base",
			"origin": [8, 8, 8],
			"color": 0,
			"children": [
				{
					"name": "barrel",
					"origin": [8, 8, 8],
					"color": 0,
					"children": [
						{
							"name": "group",
							"origin": [8.22637, 3.48004, 2.5],
							"color": 0,
							"children": [0, 1, 2, 3, 4, 5, 6, 7, 8, 9, 10, 11, 12, 13, 14, 15]
						},
						{
							"name": "group",
							"origin": [8.22637, 3.48004, 2.5],
							"color": 0,
							"children": [16, 17, 18, 19, 20, 21, 22, 23, 24, 25, 26, 27, 28, 29, 30, 31]
						},
						{
							"name": "group",
							"origin": [8.22637, 3.48004, 2.5],
							"color": 0,
							"children": [32, 33, 34, 35, 36, 37, 38, 39, 40, 41, 42, 43, 44, 45, 46, 47]
						}
					]
				},
				{
					"name": "chassis",
					"origin": [8, 8, 8],
					"color": 0,
					"children": [
						{
							"name": "chassis",
							"origin": [8, 2.48483, 3.5],
							"color": 0,
							"children": [48, 49, 50, 51, 52, 53, 54, 55, 56, 57, 58, 59]
						},
						{
							"name": "bolt",
							"origin": [8.50863, 3.6568, 3.72378],
							"color": 0,
							"children": [
								{
									"name": "frame",
									"origin": [8.50863, 3.6568, 7.72378],
									"color": 0,
									"children": [60, 61, 62, 63, 64, 65]
								},
								{
									"name": "bolt",
									"origin": [6.1182, 3.1568, 3.5],
									"color": 0,
									"children": [66, 67, 68, 69, 70, 71, 72]
								}
							]
						},
						{
							"name": "extractor",
							"origin": [9.6818, -1.8932, 3.7],
							"color": 0,
							"children": [73, 74, 75, 76, 77, 78, 79]
						},
						{
							"name": "frame",
							"origin": [8, 8, 8],
							"color": 0,
							"children": [80, 81, 82, 83, 84, 85, 86, 87, 88, 89, 90, 91, 92, 93]
						},
						{
							"name": "musk",
							"origin": [8.22637, 3.48004, 2.5],
							"color": 0,
							"children": [94, 95, 96, 97, 98, 99, 100, 101, 102, 103, 104, 105, 106, 107, 108, 109, 110, 111, 112, 113, 114, 115, 116, 117, 118, 119]
						}
					]
				},
				{
					"name": "grip",
					"origin": [8, 8, 8],
					"color": 0,
					"children": [
						120,
						121,
						122,
						{
							"name": "group",
							"origin": [0, -2.9864, -0.25],
							"color": 0,
							"children": [123, 124, 125]
						},
						{
							"name": "group",
							"origin": [8, 8, 8],
							"color": 0,
							"children": [
								{
									"name": "group",
									"origin": [8.025, 1.92495, 5.51339],
									"color": 0,
									"children": [126, 127, 128]
								},
								129,
								130,
								131,
								132,
								133
							]
						}
					]
				},
				{
					"name": "mag_slot",
					"origin": [0, -2.9864, 0],
					"color": 0,
					"children": [134, 135, 136, 137]
				}
			]
		}
	]
}