{
    "textures": {
        "0": "gci:items/common/mpz",
        "particle": "Desktop/MPZ"
    },
    "elements": [
        {
            "from": [
                4.7284,
                3.69504,
                7.1407
            ],
            "to": [
                5.2664,
                5.08304,
                7.9407
            ],
            "rotation": {
                "angle": 0,
                "axis": "y",
                "origin": [
                    4.9974,
                    4.18904,
                    9.84072
                ]
            },
            "faces": {
                "north": {
                    "uv": [
                        3.33333,
                        11.66667,
                        4,
                        12.33333
                    ],
                    "rotation": 270,
                    "texture": "#0"
                },
                "east": {
                    "uv": [
                        3.33333,
                        11.66667,
                        4,
                        12.33333
                    ],
                    "rotation": 270,
                    "texture": "#0"
                },
                "south": {
                    "uv": [
                        3.33333,
                        11.66667,
                        4,
                        12.33333
                    ],
                    "rotation": 270,
                    "texture": "#0"
                },
                "west": {
                    "uv": [
                        3.33333,
                        11.66667,
                        4,
                        12.33333
                    ],
                    "rotation": 270,
                    "texture": "#0"
                },
                "up": {
                    "uv": [
                        3.33333,
                        11.66667,
                        4,
                        12.33333
                    ],
                    "rotation": 270,
                    "texture": "#0"
                },
                "down": {
                    "uv": [
                        3.33333,
                        11.66667,
                        4,
                        12.33333
                    ],
                    "rotation": 270,
                    "texture": "#0"
                }
            }
        },
        {
            "from": [
                4.7284,
                2.51294,
                6.90557
            ],
            "to": [
                5.2664,
                3.90094,
                7.70557
            ],
            "rotation": {
                "angle": 22.5,
                "axis": "x",
                "origin": [
                    4.9974,
                    3.20694,
                    7.30557
                ]
            },
            "faces": {
                "north": {
                    "uv": [
                        3.33333,
                        11.66667,
                        4,
                        12.33333
                    ],
                    "rotation": 270,
                    "texture": "#0"
                },
                "east": {
                    "uv": [
                        3.33333,
                        11.66667,
                        4,
                        12.33333
                    ],
                    "rotation": 270,
                    "texture": "#0"
                },
                "south": {
                    "uv": [
                        3.33333,
                        11.66667,
                        4,
                        12.33333
                    ],
                    "rotation": 270,
                    "texture": "#0"
                },
                "west": {
                    "uv": [
                        3.33333,
                        11.66667,
                        4,
                        12.33333
                    ],
                    "rotation": 270,
                    "texture": "#0"
                },
                "up": {
                    "uv": [
                        3.33333,
                        11.66667,
                        4,
                        12.33333
                    ],
                    "rotation": 270,
                    "texture": "#0"
                },
                "down": {
                    "uv": [
                        3.33333,
                        11.66667,
                        4,
                        12.33333
                    ],
                    "rotation": 270,
                    "texture": "#0"
                }
            }
        },
        {
            "from": [
                4.7284,
                1.42206,
                7.24737
            ],
            "to": [
                5.2664,
                1.51006,
                8.14737
            ],
            "rotation": {
                "angle": 22.5,
                "axis": "x",
                "origin": [
                    4.9974,
                    3.81606,
                    10.04739
                ]
            },
            "faces": {
                "north": {
                    "uv": [
                        3.33333,
                        11.66667,
                        4,
                        12.33333
                    ],
                    "rotation": 270,
                    "texture": "#0"
                },
                "east": {
                    "uv": [
                        3.33333,
                        11.66667,
                        4,
                        12.33333
                    ],
                    "rotation": 270,
                    "texture": "#0"
                },
                "south": {
                    "uv": [
                        3.33333,
                        11.66667,
                        4,
                        12.33333
                    ],
                    "rotation": 270,
                    "texture": "#0"
                },
                "west": {
                    "uv": [
                        3.33333,
                        11.66667,
                        4,
                        12.33333
                    ],
                    "rotation": 270,
                    "texture": "#0"
                },
                "up": {
                    "uv": [
                        3.33333,
                        11.66667,
                        4,
                        12.33333
                    ],
                    "rotation": 270,
                    "texture": "#0"
                },
                "down": {
                    "uv": [
                        3.33333,
                        11.66667,
                        4,
                        12.33333
                    ],
                    "rotation": 270,
                    "texture": "#0"
                }
            }
        }
    ],
    "display": {
        "thirdperson_righthand": {
            "translation": [
                3,
                3,
                -1
            ]
        },
        "thirdperson_lefthand": {
            "translation": [
                -3.25,
                3,
                -1
            ]
        },
        "firstperson_righthand": {
            "translation": [
                0,
                6,
                2.25
            ]
        },
        "firstperson_lefthand": {
            "translation": [
                -5.75,
                6,
                3
            ]
        },
        "ground": {
            "translation": [
                3.5,
                7.25,
                0
            ],
            "scale": [
                1.5,
                1.5,
                1.5
            ]
        },
        "gui": {
            "rotation": [
                40,
                40,
                -21
            ],
            "translation": [
                6.5,
                5.5,
                0
            ],
            "scale": [
                2,
                2,
                2
            ]
        },
        "head": {
            "rotation": [
                -90,
                49,
                90
            ],
            "translation": [
                -1.75,
                -19.5,
                -0.5
            ],
            "scale": [
                1.2,
                1.2,
                1.2
            ]
        },
        "fixed": {
            "rotation": [
                90,
                45,
                -90
            ],
            "translation": [
                2.25,
                3.25,
                -4.25
            ],
            "scale": [
                1.2,
                1.2,
                1.2
            ]
        }
    }
}