{
    "textures": {
        "0": "gci:items/gun_mammoth/mammoth",
        "1": "gci:items/gun_mammoth/optic_uni_scope_reflex_small",
        "2": "gci:items/gun_mammoth/optic_uni_scope_assault",
        "3": "gci:items/gun_mammoth/barrel_uni_compensator",
        "5": "gci:items/gun_mammoth/barrel_uni_silencer",
        "8": "gci:items/gun_mammoth/barrel_uni_supressor",
        "12": "gci:items/gun_mammoth/reflex_scope",
        "13": "gci:items/gun_mammoth/holo",
        "14": "gci:items/gun_mammoth/holo",
        "particle": "gci:items/gun_mammoth/mammoth"
    },
    "elements": [
        {
            "from": [
                7,
                15.275,
                -0.8
            ],
            "to": [
                9,
                17.275,
                -0.6
            ],
            "rotation": {
                "angle": 22.5,
                "axis": "x",
                "origin": [
                    8,
                    16.1,
                    -1
                ]
            },
            "faces": {
                "north": {
                    "uv": [
                        14.25,
                        15,
                        15,
                        15.75
                    ],
                    "texture": "#0"
                },
                "east": {
                    "uv": [
                        16,
                        14.25,
                        16,
                        14.75
                    ],
                    "texture": "#0"
                },
                "south": {
                    "uv": [
                        15,
                        15,
                        15.75,
                        15.75
                    ],
                    "texture": "#0"
                },
                "west": {
                    "uv": [
                        16,
                        14.25,
                        16,
                        14.75
                    ],
                    "texture": "#0"
                },
                "up": {
                    "uv": [
                        16,
                        14.25,
                        16,
                        14.3
                    ],
                    "texture": "#0"
                },
                "down": {
                    "uv": [
                        16,
                        14.25,
                        16,
                        14.3
                    ],
                    "texture": "#0"
                }
            }
        }
    ],
    "display": {
        "thirdperson_righthand": {
            "rotation": [
                0,
                0,
                2
            ],
            "translation": [
                -0.25,
                -5.25,
                -1.25
            ],
            "scale": [
                0.56,
                0.56,
                0.56
            ]
        },
        "thirdperson_lefthand": {
            "rotation": [
                0,
                0,
                2
            ],
            "translation": [
                -0.25,
                -5.25,
                -1.25
            ],
            "scale": [
                0.56,
                0.56,
                0.56
            ]
        },
        "firstperson_righthand": {
            "rotation": [
                0.5,
                4,
                10
            ],
            "translation": [
                1,
                -7.25,
                -5.25
            ]
        },
        "firstperson_lefthand": {
            "rotation": [
                0.5,
                4,
                10
            ],
            "translation": [
                1,
                -7.25,
                -5.25
            ]
        },
        "ground": {
            "scale": [
                0.4,
                0.4,
                0.4
            ]
        },
        "gui": {
            "rotation": [
                -90,
                52.5,
                90
            ],
            "translation": [
                6,
                -3,
                0
            ],
            "scale": [
                0.75977,
                0.75977,
                0.75977
            ]
        },
        "fixed": {
            "rotation": [
                -90,
                -53.25,
                -90
            ],
            "translation": [
                -7,
                -4.5,
                0
            ]
        }
    }
}