{
	"credit": "Made with Blockbench",
	"textures": {
		"0": "gci:items/common/mpz",
		"particle": "gci:items/common/mpz"
	},
	"elements": [
		{
			"from": [3.2211, 2.35145, 3.67459],
			"to": [3.8091, 19.12915, 3.91861],
			"rotation": {"angle": 0, "axis": "y", "origin": [3.5151, 5.38905, 3.79513]},
			"faces": {
				"north": {"uv": [3.33333, 14, 4.75, 15.33333], "rotation": 180, "texture": "#0"},
				"east": {"uv": [3.33333, 14, 4.75, 15.33333], "rotation": 180, "texture": "#0"},
				"south": {"uv": [3.33333, 14, 4.75, 15.33333], "rotation": 180, "texture": "#0"},
				"west": {"uv": [3.33333, 14, 4.75, 15.33333], "rotation": 180, "texture": "#0"},
				"up": {"uv": [3.33333, 14, 4.75, 15.33333], "rotation": 180, "texture": "#0"},
				"down": {"uv": [3.33333, 14, 4.75, 15.33333], "rotation": 180, "texture": "#0"}
			}
		},
		{
			"from": [3.2211, 2.35145, 3.67459],
			"to": [3.8091, 19.12915, 3.91861],
			"rotation": {"angle": -45, "axis": "y", "origin": [3.5151, 5.38905, 3.7966]},
			"faces": {
				"north": {"uv": [3.33333, 14, 4.75, 15.33333], "rotation": 180, "texture": "#0"},
				"east": {"uv": [3.33333, 14, 4.75, 15.33333], "rotation": 180, "texture": "#0"},
				"south": {"uv": [3.33333, 14, 4.75, 15.33333], "rotation": 180, "texture": "#0"},
				"west": {"uv": [3.33333, 14, 4.75, 15.33333], "rotation": 180, "texture": "#0"},
				"up": {"uv": [3.33333, 14, 4.75, 15.33333], "rotation": 180, "texture": "#0"},
				"down": {"uv": [3.33333, 14, 4.75, 15.33333], "rotation": 180, "texture": "#0"}
			}
		},
		{
			"from": [3.2211, 2.35145, 3.67459],
			"to": [3.8091, 19.12915, 3.91861],
			"rotation": {"angle": 45, "axis": "y", "origin": [3.5151, 5.38905, 3.7966]},
			"faces": {
				"north": {"uv": [3.33333, 14, 4.75, 15.33333], "rotation": 180, "texture": "#0"},
				"east": {"uv": [3.33333, 14, 4.75, 15.33333], "rotation": 180, "texture": "#0"},
				"south": {"uv": [3.33333, 14, 4.75, 15.33333], "rotation": 180, "texture": "#0"},
				"west": {"uv": [3.33333, 14, 4.75, 15.33333], "rotation": 180, "texture": "#0"},
				"up": {"uv": [3.33333, 14, 4.75, 15.33333], "rotation": 180, "texture": "#0"},
				"down": {"uv": [3.33333, 14, 4.75, 15.33333], "rotation": 180, "texture": "#0"}
			}
		},
		{
			"from": [3.39309, 2.35145, 3.5026],
			"to": [3.63711, 19.12915, 4.0906],
			"rotation": {"angle": 0, "axis": "y", "origin": [3.5151, 5.38905, 3.7966]},
			"faces": {
				"north": {"uv": [3.33333, 14, 4.75, 15.33333], "texture": "#0"},
				"east": {"uv": [3.33333, 14, 4.75, 15.33333], "texture": "#0"},
				"south": {"uv": [3.33333, 14, 4.75, 15.33333], "texture": "#0"},
				"west": {"uv": [3.33333, 14, 4.75, 15.33333], "texture": "#0"},
				"up": {"uv": [3.33333, 14, 4.75, 15.33333], "texture": "#0"},
				"down": {"uv": [3.33333, 14, 4.75, 15.33333], "texture": "#0"}
			}
		},
		{
			"from": [3.20346, 18.73707, 3.66727],
			"to": [3.82674, 19.30978, 3.92593],
			"rotation": {"angle": 0, "axis": "y", "origin": [3.5151, 20.41993, 3.79504]},
			"faces": {
				"north": {"uv": [6, 3.33333, 7.25, 4.58333], "rotation": 180, "texture": "#0"},
				"east": {"uv": [6, 3.33333, 7.25, 4.58333], "rotation": 180, "texture": "#0"},
				"south": {"uv": [6, 3.33333, 7.25, 4.58333], "rotation": 180, "texture": "#0"},
				"west": {"uv": [6, 3.33333, 7.25, 4.58333], "rotation": 180, "texture": "#0"},
				"up": {"uv": [6, 3.33333, 7.25, 4.58333], "rotation": 180, "texture": "#0"},
				"down": {"uv": [6, 3.33333, 7.25, 4.58333], "rotation": 180, "texture": "#0"}
			}
		},
		{
			"from": [3.20346, 18.73707, 3.66727],
			"to": [3.82674, 19.30978, 3.92593],
			"rotation": {"angle": -45, "axis": "y", "origin": [3.5151, 20.41993, 3.7966]},
			"faces": {
				"north": {"uv": [6, 3.33333, 7.25, 4.58333], "rotation": 180, "texture": "#0"},
				"east": {"uv": [6, 3.33333, 7.25, 4.58333], "rotation": 180, "texture": "#0"},
				"south": {"uv": [6, 3.33333, 7.25, 4.58333], "rotation": 180, "texture": "#0"},
				"west": {"uv": [6, 3.33333, 7.25, 4.58333], "rotation": 180, "texture": "#0"},
				"up": {"uv": [6, 3.33333, 7.25, 4.58333], "rotation": 180, "texture": "#0"},
				"down": {"uv": [6, 3.33333, 7.25, 4.58333], "rotation": 180, "texture": "#0"}
			}
		},
		{
			"from": [3.20346, 18.73707, 3.66727],
			"to": [3.82674, 19.30978, 3.92593],
			"rotation": {"angle": 45, "axis": "y", "origin": [3.5151, 20.41993, 3.7966]},
			"faces": {
				"north": {"uv": [6, 3.33333, 7.25, 4.58333], "rotation": 180, "texture": "#0"},
				"east": {"uv": [6, 3.33333, 7.25, 4.58333], "rotation": 180, "texture": "#0"},
				"south": {"uv": [6, 3.33333, 7.25, 4.58333], "rotation": 180, "texture": "#0"},
				"west": {"uv": [6, 3.33333, 7.25, 4.58333], "rotation": 180, "texture": "#0"},
				"up": {"uv": [6, 3.33333, 7.25, 4.58333], "rotation": 180, "texture": "#0"},
				"down": {"uv": [6, 3.33333, 7.25, 4.58333], "rotation": 180, "texture": "#0"}
			}
		},
		{
			"from": [3.38577, 18.73707, 3.48496],
			"to": [3.64443, 19.30978, 4.10824],
			"rotation": {"angle": 0, "axis": "y", "origin": [3.5151, 20.41993, 3.7966]},
			"faces": {
				"north": {"uv": [6, 3.33333, 7.25, 4.58333], "texture": "#0"},
				"east": {"uv": [6, 3.33333, 7.25, 4.58333], "texture": "#0"},
				"south": {"uv": [6, 3.33333, 7.25, 4.58333], "texture": "#0"},
				"west": {"uv": [6, 3.33333, 7.25, 4.58333], "texture": "#0"},
				"up": {"uv": [6, 3.33333, 7.25, 4.58333], "texture": "#0"},
				"down": {"uv": [6, 3.33333, 7.25, 4.58333], "texture": "#0"}
			}
		},
		{
			"from": [3.18226, 19.15426, 3.77464],
			"to": [3.84794, 19.2601, 3.81856],
			"rotation": {"angle": 0, "axis": "y", "origin": [3.5151, 19.20718, 3.7966]},
			"faces": {
				"north": {"uv": [3.33333, 3.33333, 4.66667, 4.66667], "rotation": 180, "texture": "#0"},
				"east": {"uv": [3.33333, 3.33333, 4.66667, 4.66667], "rotation": 180, "texture": "#0"},
				"south": {"uv": [3.33333, 3.33333, 4.66667, 4.66667], "rotation": 180, "texture": "#0"},
				"west": {"uv": [3.33333, 3.33333, 4.66667, 4.66667], "rotation": 180, "texture": "#0"},
				"up": {"uv": [3.33333, 3.33333, 4.66667, 4.66667], "rotation": 180, "texture": "#0"},
				"down": {"uv": [3.33333, 3.33333, 4.66667, 4.66667], "rotation": 180, "texture": "#0"}
			}
		},
		{
			"from": [3.18226, 19.15426, 3.77464],
			"to": [3.84794, 19.2601, 3.81856],
			"rotation": {"angle": 45, "axis": "x", "origin": [3.5151, 19.20718, 3.7966]},
			"faces": {
				"north": {"uv": [3.33333, 3.33333, 4.66667, 4.66667], "rotation": 180, "texture": "#0"},
				"east": {"uv": [3.33333, 3.33333, 4.66667, 4.66667], "rotation": 180, "texture": "#0"},
				"south": {"uv": [3.33333, 3.33333, 4.66667, 4.66667], "rotation": 180, "texture": "#0"},
				"west": {"uv": [3.33333, 3.33333, 4.66667, 4.66667], "rotation": 180, "texture": "#0"},
				"up": {"uv": [3.33333, 3.33333, 4.66667, 4.66667], "rotation": 180, "texture": "#0"},
				"down": {"uv": [3.33333, 3.33333, 4.66667, 4.66667], "rotation": 180, "texture": "#0"}
			}
		},
		{
			"from": [3.18226, 19.15426, 3.77464],
			"to": [3.84794, 19.2601, 3.81856],
			"rotation": {"angle": -45, "axis": "x", "origin": [3.5151, 19.20718, 3.7966]},
			"faces": {
				"north": {"uv": [3.33333, 3.33333, 4.66667, 4.66667], "rotation": 180, "texture": "#0"},
				"east": {"uv": [3.33333, 3.33333, 4.66667, 4.66667], "rotation": 180, "texture": "#0"},
				"south": {"uv": [3.33333, 3.33333, 4.66667, 4.66667], "rotation": 180, "texture": "#0"},
				"west": {"uv": [3.33333, 3.33333, 4.66667, 4.66667], "rotation": 180, "texture": "#0"},
				"up": {"uv": [3.33333, 3.33333, 4.66667, 4.66667], "rotation": 180, "texture": "#0"},
				"down": {"uv": [3.33333, 3.33333, 4.66667, 4.66667], "rotation": 180, "texture": "#0"}
			}
		},
		{
			"from": [3.18226, 19.18521, 3.74368],
			"to": [3.84794, 19.22914, 3.84952],
			"rotation": {"angle": 0, "axis": "y", "origin": [3.5151, 19.20718, 3.7966]},
			"faces": {
				"north": {"uv": [3.33333, 3.33333, 4.66667, 4.66667], "rotation": 90, "texture": "#0"},
				"east": {"uv": [3.33333, 3.33333, 4.66667, 4.66667], "rotation": 90, "texture": "#0"},
				"south": {"uv": [3.33333, 3.33333, 4.66667, 4.66667], "rotation": 90, "texture": "#0"},
				"west": {"uv": [3.33333, 3.33333, 4.66667, 4.66667], "rotation": 90, "texture": "#0"},
				"up": {"uv": [3.33333, 3.33333, 4.66667, 4.66667], "rotation": 90, "texture": "#0"},
				"down": {"uv": [3.33333, 3.33333, 4.66667, 4.66667], "rotation": 90, "texture": "#0"}
			}
		},
		{
			"from": [3.18226, 18.80426, 3.77464],
			"to": [3.84794, 18.9101, 3.81856],
			"rotation": {"angle": 0, "axis": "y", "origin": [3.5151, 18.85718, 3.7966]},
			"faces": {
				"north": {"uv": [3.33333, 3.33333, 4.66667, 4.66667], "rotation": 180, "texture": "#0"},
				"east": {"uv": [3.33333, 3.33333, 4.66667, 4.66667], "rotation": 180, "texture": "#0"},
				"south": {"uv": [3.33333, 3.33333, 4.66667, 4.66667], "rotation": 180, "texture": "#0"},
				"west": {"uv": [3.33333, 3.33333, 4.66667, 4.66667], "rotation": 180, "texture": "#0"},
				"up": {"uv": [3.33333, 3.33333, 4.66667, 4.66667], "rotation": 180, "texture": "#0"},
				"down": {"uv": [3.33333, 3.33333, 4.66667, 4.66667], "rotation": 180, "texture": "#0"}
			}
		},
		{
			"from": [3.18226, 18.80426, 3.77464],
			"to": [3.84794, 18.9101, 3.81856],
			"rotation": {"angle": 45, "axis": "x", "origin": [3.5151, 18.85718, 3.7966]},
			"faces": {
				"north": {"uv": [3.33333, 3.33333, 4.66667, 4.66667], "rotation": 180, "texture": "#0"},
				"east": {"uv": [3.33333, 3.33333, 4.66667, 4.66667], "rotation": 180, "texture": "#0"},
				"south": {"uv": [3.33333, 3.33333, 4.66667, 4.66667], "rotation": 180, "texture": "#0"},
				"west": {"uv": [3.33333, 3.33333, 4.66667, 4.66667], "rotation": 180, "texture": "#0"},
				"up": {"uv": [3.33333, 3.33333, 4.66667, 4.66667], "rotation": 180, "texture": "#0"},
				"down": {"uv": [3.33333, 3.33333, 4.66667, 4.66667], "rotation": 180, "texture": "#0"}
			}
		},
		{
			"from": [3.18226, 18.80426, 3.77464],
			"to": [3.84794, 18.9101, 3.81856],
			"rotation": {"angle": -45, "axis": "x", "origin": [3.5151, 18.85718, 3.7966]},
			"faces": {
				"north": {"uv": [3.33333, 3.33333, 4.66667, 4.66667], "rotation": 180, "texture": "#0"},
				"east": {"uv": [3.33333, 3.33333, 4.66667, 4.66667], "rotation": 180, "texture": "#0"},
				"south": {"uv": [3.33333, 3.33333, 4.66667, 4.66667], "rotation": 180, "texture": "#0"},
				"west": {"uv": [3.33333, 3.33333, 4.66667, 4.66667], "rotation": 180, "texture": "#0"},
				"up": {"uv": [3.33333, 3.33333, 4.66667, 4.66667], "rotation": 180, "texture": "#0"},
				"down": {"uv": [3.33333, 3.33333, 4.66667, 4.66667], "rotation": 180, "texture": "#0"}
			}
		},
		{
			"from": [3.18226, 18.83521, 3.74368],
			"to": [3.84794, 18.87914, 3.84952],
			"rotation": {"angle": 0, "axis": "y", "origin": [3.5151, 18.85718, 3.7966]},
			"faces": {
				"north": {"uv": [3.33333, 3.33333, 4.66667, 4.66667], "rotation": 90, "texture": "#0"},
				"east": {"uv": [3.33333, 3.33333, 4.66667, 4.66667], "rotation": 90, "texture": "#0"},
				"south": {"uv": [3.33333, 3.33333, 4.66667, 4.66667], "rotation": 90, "texture": "#0"},
				"west": {"uv": [3.33333, 3.33333, 4.66667, 4.66667], "rotation": 90, "texture": "#0"},
				"up": {"uv": [3.33333, 3.33333, 4.66667, 4.66667], "rotation": 90, "texture": "#0"},
				"down": {"uv": [3.33333, 3.33333, 4.66667, 4.66667], "rotation": 90, "texture": "#0"}
			}
		},
		{
			"from": [3.49314, 19.15426, 3.46376],
			"to": [3.53706, 19.2601, 4.12944],
			"rotation": {"angle": 0, "axis": "y", "origin": [3.5151, 19.20718, 3.7966]},
			"faces": {
				"north": {"uv": [3.33333, 3.33333, 4.66667, 4.66667], "rotation": 270, "texture": "#0"},
				"east": {"uv": [3.33333, 3.33333, 4.66667, 4.66667], "rotation": 270, "texture": "#0"},
				"south": {"uv": [3.33333, 3.33333, 4.66667, 4.66667], "rotation": 270, "texture": "#0"},
				"west": {"uv": [3.33333, 3.33333, 4.66667, 4.66667], "rotation": 270, "texture": "#0"},
				"up": {"uv": [3.33333, 3.33333, 4.66667, 4.66667], "rotation": 270, "texture": "#0"},
				"down": {"uv": [3.33333, 3.33333, 4.66667, 4.66667], "rotation": 270, "texture": "#0"}
			}
		},
		{
			"from": [3.49314, 19.15426, 3.46376],
			"to": [3.53706, 19.2601, 4.12944],
			"rotation": {"angle": 45, "axis": "z", "origin": [3.5151, 19.20718, 3.7966]},
			"faces": {
				"north": {"uv": [3.33333, 3.33333, 4.66667, 4.66667], "rotation": 270, "texture": "#0"},
				"east": {"uv": [3.33333, 3.33333, 4.66667, 4.66667], "rotation": 270, "texture": "#0"},
				"south": {"uv": [3.33333, 3.33333, 4.66667, 4.66667], "rotation": 270, "texture": "#0"},
				"west": {"uv": [3.33333, 3.33333, 4.66667, 4.66667], "rotation": 270, "texture": "#0"},
				"up": {"uv": [3.33333, 3.33333, 4.66667, 4.66667], "rotation": 270, "texture": "#0"},
				"down": {"uv": [3.33333, 3.33333, 4.66667, 4.66667], "rotation": 270, "texture": "#0"}
			}
		},
		{
			"from": [3.49314, 19.15426, 3.46376],
			"to": [3.53706, 19.2601, 4.12944],
			"rotation": {"angle": -45, "axis": "z", "origin": [3.5151, 19.20718, 3.7966]},
			"faces": {
				"north": {"uv": [3.33333, 3.33333, 4.66667, 4.66667], "rotation": 270, "texture": "#0"},
				"east": {"uv": [3.33333, 3.33333, 4.66667, 4.66667], "rotation": 270, "texture": "#0"},
				"south": {"uv": [3.33333, 3.33333, 4.66667, 4.66667], "rotation": 270, "texture": "#0"},
				"west": {"uv": [3.33333, 3.33333, 4.66667, 4.66667], "rotation": 270, "texture": "#0"},
				"up": {"uv": [3.33333, 3.33333, 4.66667, 4.66667], "rotation": 270, "texture": "#0"},
				"down": {"uv": [3.33333, 3.33333, 4.66667, 4.66667], "rotation": 270, "texture": "#0"}
			}
		},
		{
			"from": [3.46218, 19.18521, 3.46376],
			"to": [3.56802, 19.22914, 4.12944],
			"rotation": {"angle": 0, "axis": "y", "origin": [3.5151, 19.20718, 3.7966]},
			"faces": {
				"north": {"uv": [3.33333, 3.33333, 4.66667, 4.66667], "rotation": 90, "texture": "#0"},
				"east": {"uv": [3.33333, 3.33333, 4.66667, 4.66667], "rotation": 90, "texture": "#0"},
				"south": {"uv": [3.33333, 3.33333, 4.66667, 4.66667], "rotation": 90, "texture": "#0"},
				"west": {"uv": [3.33333, 3.33333, 4.66667, 4.66667], "rotation": 90, "texture": "#0"},
				"up": {"uv": [3.33333, 3.33333, 4.66667, 4.66667], "rotation": 90, "texture": "#0"},
				"down": {"uv": [3.33333, 3.33333, 4.66667, 4.66667], "rotation": 90, "texture": "#0"}
			}
		},
		{
			"from": [3.49314, 18.80426, 3.46376],
			"to": [3.53706, 18.9101, 4.12944],
			"rotation": {"angle": 0, "axis": "y", "origin": [3.5151, 18.85718, 3.7966]},
			"faces": {
				"north": {"uv": [3.33333, 3.33333, 4.66667, 4.66667], "rotation": 270, "texture": "#0"},
				"east": {"uv": [3.33333, 3.33333, 4.66667, 4.66667], "rotation": 270, "texture": "#0"},
				"south": {"uv": [3.33333, 3.33333, 4.66667, 4.66667], "rotation": 270, "texture": "#0"},
				"west": {"uv": [3.33333, 3.33333, 4.66667, 4.66667], "rotation": 270, "texture": "#0"},
				"up": {"uv": [3.33333, 3.33333, 4.66667, 4.66667], "rotation": 270, "texture": "#0"},
				"down": {"uv": [3.33333, 3.33333, 4.66667, 4.66667], "rotation": 270, "texture": "#0"}
			}
		},
		{
			"from": [3.49314, 18.80426, 3.46376],
			"to": [3.53706, 18.9101, 4.12944],
			"rotation": {"angle": 45, "axis": "z", "origin": [3.5151, 18.85718, 3.7966]},
			"faces": {
				"north": {"uv": [3.33333, 3.33333, 4.66667, 4.66667], "rotation": 270, "texture": "#0"},
				"east": {"uv": [3.33333, 3.33333, 4.66667, 4.66667], "rotation": 270, "texture": "#0"},
				"south": {"uv": [3.33333, 3.33333, 4.66667, 4.66667], "rotation": 270, "texture": "#0"},
				"west": {"uv": [3.33333, 3.33333, 4.66667, 4.66667], "rotation": 270, "texture": "#0"},
				"up": {"uv": [3.33333, 3.33333, 4.66667, 4.66667], "rotation": 270, "texture": "#0"},
				"down": {"uv": [3.33333, 3.33333, 4.66667, 4.66667], "rotation": 270, "texture": "#0"}
			}
		},
		{
			"from": [3.49314, 18.80426, 3.46376],
			"to": [3.53706, 18.9101, 4.12944],
			"rotation": {"angle": -45, "axis": "z", "origin": [3.5151, 18.85718, 3.7966]},
			"faces": {
				"north": {"uv": [3.33333, 3.33333, 4.66667, 4.66667], "rotation": 270, "texture": "#0"},
				"east": {"uv": [3.33333, 3.33333, 4.66667, 4.66667], "rotation": 270, "texture": "#0"},
				"south": {"uv": [3.33333, 3.33333, 4.66667, 4.66667], "rotation": 270, "texture": "#0"},
				"west": {"uv": [3.33333, 3.33333, 4.66667, 4.66667], "rotation": 270, "texture": "#0"},
				"up": {"uv": [3.33333, 3.33333, 4.66667, 4.66667], "rotation": 270, "texture": "#0"},
				"down": {"uv": [3.33333, 3.33333, 4.66667, 4.66667], "rotation": 270, "texture": "#0"}
			}
		},
		{
			"from": [3.46218, 18.83521, 3.46376],
			"to": [3.56802, 18.87914, 4.12944],
			"rotation": {"angle": 0, "axis": "y", "origin": [3.5151, 18.85718, 3.7966]},
			"faces": {
				"north": {"uv": [3.33333, 3.33333, 4.66667, 4.66667], "rotation": 90, "texture": "#0"},
				"east": {"uv": [3.33333, 3.33333, 4.66667, 4.66667], "rotation": 90, "texture": "#0"},
				"south": {"uv": [3.33333, 3.33333, 4.66667, 4.66667], "rotation": 90, "texture": "#0"},
				"west": {"uv": [3.33333, 3.33333, 4.66667, 4.66667], "rotation": 90, "texture": "#0"},
				"up": {"uv": [3.33333, 3.33333, 4.66667, 4.66667], "rotation": 90, "texture": "#0"},
				"down": {"uv": [3.33333, 3.33333, 4.66667, 4.66667], "rotation": 90, "texture": "#0"}
			}
		}
	],
	"display": {
		"thirdperson_righthand": {
			"translation": [6.5, -6, 7.75],
			"scale": [1.5, 1.5, 1.5]
		},
		"thirdperson_lefthand": {
			"rotation": [0, -180, 0],
			"translation": [6.75, -6, -4.5],
			"scale": [1.5, 1.5, 1.5]
		},
		"firstperson_righthand": {
			"rotation": [-26, 9, 0],
			"translation": [0.75, 1.25, 9.25]
		},
		"firstperson_lefthand": {
			"rotation": [-26, 9, 0],
			"translation": [-7.75, 1.25, 10]
		},
		"ground": {
			"rotation": [44, 0, 0],
			"translation": [4, 2, 2.5]
		},
		"gui": {
			"rotation": [90, 45, -90],
			"translation": [2, -4.25, 0],
			"scale": [1.1, 1.1, 1.1]
		},
		"fixed": {
			"rotation": [90, 45, -90],
			"translation": [2.75, -5.75, -7.5],
			"scale": [1.5, 1.5, 1.5]
		}
	},
	"groups": [
		{
			"name": "base",
			"origin": [8, 8, 8],
			"color": 0,
			"children": [
				{
					"name": "wood",
					"origin": [3.4001, 5.10284, 7.875],
					"color": 0,
					"children": [
						{
							"name": "Bolt",
							"origin": [3.4001, 5.10284, 7.875],
							"color": 0,
							"children": [0, 1, 2, 3]
						}
					]
				},
				{
					"name": "metal",
					"origin": [8, 8, 8],
					"color": 0,
					"children": [
						{
							"name": "Bolt",
							"origin": [3.4001, 5.10284, 7.875],
							"color": 0,
							"children": [4, 5, 6, 7]
						}
					]
				},
				{
					"name": "bolts",
					"origin": [8, 8, 8],
					"color": 0,
					"children": [
						{
							"name": "group",
							"origin": [8, 8, 8],
							"color": 0,
							"children": [
								{
									"name": "group",
									"origin": [8, 8, 8],
									"color": 0,
									"children": [
										{
											"name": "Bolt",
											"origin": [3.4001, 5.10284, 7.875],
											"color": 0,
											"children": [8, 9, 10, 11]
										},
										{
											"name": "Bolt",
											"origin": [3.4001, 5.10284, 7.875],
											"color": 0,
											"children": [12, 13, 14, 15]
										}
									]
								},
								{
									"name": "group",
									"origin": [8, 8, 8],
									"color": 0,
									"children": [
										{
											"name": "Bolt",
											"origin": [3.4001, 5.10284, 7.875],
											"color": 0,
											"children": [16, 17, 18, 19]
										},
										{
											"name": "Bolt",
											"origin": [3.4001, 5.10284, 7.875],
											"color": 0,
											"children": [20, 21, 22, 23]
										}
									]
								}
							]
						}
					]
				}
			]
		}
	]
}