{
    "textures": {
        "0": "gci:items/common/mpz",
        "particle": "gci:items/common/mpz"
    },
    "elements": [
        {
            "from": [
                3.19309,
                19.30145,
                0.4026
            ],
            "to": [
                3.83711,
                19.60415,
                7.1906
            ],
            "rotation": {
                "angle": 0,
                "axis": "y",
                "origin": [
                    3.5151,
                    5.38905,
                    3.7966
                ]
            },
            "faces": {
                "north": {
                    "uv": [
                        3.33333,
                        14,
                        4.75,
                        15.33333
                    ],
                    "texture": "#0"
                },
                "east": {
                    "uv": [
                        3.33333,
                        14,
                        4.75,
                        15.33333
                    ],
                    "texture": "#0"
                },
                "south": {
                    "uv": [
                        3.33333,
                        14,
                        4.75,
                        15.33333
                    ],
                    "texture": "#0"
                },
                "west": {
                    "uv": [
                        3.33333,
                        14,
                        4.75,
                        15.33333
                    ],
                    "texture": "#0"
                },
                "up": {
                    "uv": [
                        3.33333,
                        14,
                        4.75,
                        15.33333
                    ],
                    "texture": "#0"
                },
                "down": {
                    "uv": [
                        3.33333,
                        14,
                        4.75,
                        15.33333
                    ],
                    "texture": "#0"
                }
            }
        }
    ],
    "display": {
        "thirdperson_righthand": {
            "translation": [
                6.5,
                -6,
                7.75
            ],
            "scale": [
                1.5,
                1.5,
                1.5
            ]
        },
        "thirdperson_lefthand": {
            "rotation": [
                0,
                -180,
                0
            ],
            "translation": [
                6.75,
                -6,
                -4.5
            ],
            "scale": [
                1.5,
                1.5,
                1.5
            ]
        },
        "firstperson_righthand": {
            "rotation": [
                -26,
                9,
                0
            ],
            "translation": [
                0.75,
                1.25,
                9.25
            ]
        },
        "firstperson_lefthand": {
            "rotation": [
                -26,
                9,
                0
            ],
            "translation": [
                -7.75,
                1.25,
                10
            ]
        },
        "ground": {
            "rotation": [
                44,
                0,
                0
            ],
            "translation": [
                4,
                2,
                2.5
            ]
        },
        "gui": {
            "rotation": [
                90,
                45,
                -90
            ],
            "translation": [
                2,
                -4.25,
                0
            ],
            "scale": [
                1.1,
                1.1,
                1.1
            ]
        },
        "fixed": {
            "rotation": [
                90,
                45,
                -90
            ],
            "translation": [
                2.75,
                -5.75,
                -7.25
            ],
            "scale": [
                1.5,
                1.5,
                1.5
            ]
        }
    }
}