{
    "textures": {
        "0": "gci:items/common/all_in_one",
        "2": "gci:items/common/mpz",
        "particle": "gci:items/common/all_in_one"
    },
    "elements": [
        {
            "from": [
                7.5,
                7.724,
                16.5
            ],
            "to": [
                8.5,
                9.012,
                18.524
            ],
            "rotation": {
                "angle": 0,
                "axis": "x",
                "origin": [
                    8,
                    7.84,
                    17.704
                ]
            },
            "faces": {
                "north": {
                    "uv": [
                        4,
                        4,
                        4,
                        4
                    ],
                    "texture": "#0"
                },
                "east": {
                    "uv": [
                        4,
                        4,
                        4,
                        4
                    ],
                    "texture": "#0"
                },
                "south": {
                    "uv": [
                        4,
                        4,
                        4,
                        4
                    ],
                    "texture": "#0"
                },
                "west": {
                    "uv": [
                        4,
                        4,
                        4,
                        4
                    ],
                    "texture": "#0"
                },
                "up": {
                    "uv": [
                        4,
                        4,
                        4,
                        4
                    ],
                    "texture": "#0"
                },
                "down": {
                    "uv": [
                        4,
                        4,
                        4,
                        4
                    ],
                    "texture": "#0"
                }
            }
        },
        {
            "from": [
                7.468,
                7.692,
                16.5
            ],
            "to": [
                8.532,
                9.748,
                17.052
            ],
            "rotation": {
                "angle": 0,
                "axis": "x",
                "origin": [
                    8,
                    7.84,
                    17.704
                ]
            },
            "faces": {
                "north": {
                    "uv": [
                        4,
                        4.25,
                        4,
                        4.25
                    ],
                    "texture": "#0"
                },
                "east": {
                    "uv": [
                        4,
                        4.25,
                        4,
                        4.25
                    ],
                    "texture": "#0"
                },
                "south": {
                    "uv": [
                        4,
                        4.25,
                        4,
                        4.25
                    ],
                    "texture": "#0"
                },
                "west": {
                    "uv": [
                        4,
                        4.25,
                        4,
                        4.25
                    ],
                    "texture": "#0"
                },
                "up": {
                    "uv": [
                        4,
                        4.25,
                        4,
                        4.25
                    ],
                    "texture": "#0"
                },
                "down": {
                    "uv": [
                        4,
                        4.25,
                        4,
                        4.25
                    ],
                    "texture": "#0"
                }
            }
        },
        {
            "from": [
                7.5,
                8.23805,
                16.24244
            ],
            "to": [
                8.5,
                9.39805,
                18.52244
            ],
            "rotation": {
                "angle": 22.5,
                "axis": "x",
                "origin": [
                    8,
                    7.52205,
                    17.44644
                ]
            },
            "faces": {
                "north": {
                    "uv": [
                        4,
                        4,
                        4,
                        4
                    ],
                    "texture": "#0"
                },
                "east": {
                    "uv": [
                        4,
                        4,
                        4,
                        4
                    ],
                    "texture": "#0"
                },
                "south": {
                    "uv": [
                        4,
                        4,
                        4,
                        4
                    ],
                    "texture": "#0"
                },
                "west": {
                    "uv": [
                        4,
                        4,
                        4,
                        4
                    ],
                    "texture": "#0"
                },
                "up": {
                    "uv": [
                        4,
                        4,
                        4,
                        4
                    ],
                    "texture": "#0"
                },
                "down": {
                    "uv": [
                        4,
                        4,
                        4,
                        4
                    ],
                    "texture": "#0"
                }
            }
        },
        {
            "from": [
                7.66,
                8.36605,
                15.95444
            ],
            "to": [
                8.34,
                9.52605,
                18.52244
            ],
            "rotation": {
                "angle": 22.5,
                "axis": "x",
                "origin": [
                    8,
                    7.65005,
                    17.44644
                ]
            },
            "faces": {
                "north": {
                    "uv": [
                        4,
                        3.875,
                        4,
                        3.875
                    ],
                    "texture": "#0"
                },
                "east": {
                    "uv": [
                        4,
                        3.875,
                        4,
                        3.875
                    ],
                    "texture": "#0"
                },
                "south": {
                    "uv": [
                        4,
                        3.875,
                        4,
                        3.875
                    ],
                    "texture": "#0"
                },
                "west": {
                    "uv": [
                        4,
                        3.875,
                        4,
                        3.875
                    ],
                    "texture": "#0"
                },
                "up": {
                    "uv": [
                        4,
                        3.875,
                        4,
                        3.875
                    ],
                    "texture": "#0"
                },
                "down": {
                    "uv": [
                        4,
                        3.875,
                        4,
                        3.875
                    ],
                    "texture": "#0"
                }
            }
        },
        {
            "from": [
                7.852,
                8.39805,
                15.95444
            ],
            "to": [
                8.148,
                9.55805,
                17.69044
            ],
            "rotation": {
                "angle": 22.5,
                "axis": "x",
                "origin": [
                    8,
                    7.68205,
                    17.44644
                ]
            },
            "faces": {
                "north": {
                    "uv": [
                        3,
                        3.375,
                        3,
                        3.375
                    ],
                    "texture": "#0"
                },
                "east": {
                    "uv": [
                        3,
                        3.375,
                        3,
                        3.375
                    ],
                    "texture": "#0"
                },
                "south": {
                    "uv": [
                        3,
                        3.375,
                        3,
                        3.375
                    ],
                    "texture": "#0"
                },
                "west": {
                    "uv": [
                        3,
                        3.375,
                        3,
                        3.375
                    ],
                    "texture": "#0"
                },
                "up": {
                    "uv": [
                        3,
                        3.375,
                        3,
                        3.375
                    ],
                    "texture": "#0"
                },
                "down": {
                    "uv": [
                        3,
                        3.375,
                        3,
                        3.375
                    ],
                    "texture": "#0"
                }
            }
        },
        {
            "from": [
                7.66,
                7.66205,
                22.03444
            ],
            "to": [
                8.34,
                8.82205,
                24.60244
            ],
            "rotation": {
                "angle": -22.5,
                "axis": "x",
                "origin": [
                    8,
                    6.94605,
                    23.52644
                ]
            },
            "faces": {
                "north": {
                    "uv": [
                        4,
                        3.75,
                        4,
                        3.75
                    ],
                    "texture": "#0"
                },
                "east": {
                    "uv": [
                        4,
                        3.75,
                        4,
                        3.75
                    ],
                    "texture": "#0"
                },
                "south": {
                    "uv": [
                        4,
                        3.75,
                        4,
                        3.75
                    ],
                    "texture": "#0"
                },
                "west": {
                    "uv": [
                        4,
                        3.75,
                        4,
                        3.75
                    ],
                    "texture": "#0"
                },
                "up": {
                    "uv": [
                        4,
                        3.75,
                        4,
                        3.75
                    ],
                    "texture": "#0"
                },
                "down": {
                    "uv": [
                        4,
                        3.75,
                        4,
                        3.75
                    ],
                    "texture": "#0"
                }
            }
        },
        {
            "from": [
                7.5,
                7.724,
                16.916
            ],
            "to": [
                8.5,
                9.012,
                25.948
            ],
            "rotation": {
                "angle": 22.5,
                "axis": "x",
                "origin": [
                    8,
                    7.84,
                    17.704
                ]
            },
            "faces": {
                "north": {
                    "uv": [
                        4,
                        4,
                        4,
                        4
                    ],
                    "texture": "#0"
                },
                "east": {
                    "uv": [
                        4,
                        4,
                        4,
                        4
                    ],
                    "texture": "#0"
                },
                "south": {
                    "uv": [
                        4,
                        4,
                        4,
                        4
                    ],
                    "texture": "#0"
                },
                "west": {
                    "uv": [
                        4,
                        4,
                        4,
                        4
                    ],
                    "texture": "#0"
                },
                "up": {
                    "uv": [
                        4,
                        4,
                        4,
                        4
                    ],
                    "texture": "#0"
                },
                "down": {
                    "uv": [
                        4,
                        4,
                        4,
                        4
                    ],
                    "texture": "#0"
                }
            }
        },
        {
            "from": [
                7.692,
                7.66,
                16.916
            ],
            "to": [
                8.308,
                8.948,
                25.948
            ],
            "rotation": {
                "angle": 22.5,
                "axis": "x",
                "origin": [
                    8,
                    7.776,
                    17.704
                ]
            },
            "faces": {
                "north": {
                    "uv": [
                        3,
                        3.5,
                        3,
                        3.5
                    ],
                    "texture": "#0"
                },
                "east": {
                    "uv": [
                        3,
                        3.5,
                        3,
                        3.5
                    ],
                    "texture": "#0"
                },
                "south": {
                    "uv": [
                        3,
                        3.5,
                        3,
                        3.5
                    ],
                    "texture": "#0"
                },
                "west": {
                    "uv": [
                        3,
                        3.5,
                        3,
                        3.5
                    ],
                    "texture": "#0"
                },
                "up": {
                    "uv": [
                        3,
                        3.5,
                        3,
                        3.5
                    ],
                    "texture": "#0"
                },
                "down": {
                    "uv": [
                        3,
                        3.5,
                        3,
                        3.5
                    ],
                    "texture": "#0"
                }
            }
        },
        {
            "from": [
                7.5,
                8.364,
                20.948
            ],
            "to": [
                8.5,
                9.908,
                25.564
            ],
            "rotation": {
                "angle": 22.5,
                "axis": "x",
                "origin": [
                    8,
                    7.84,
                    17.704
                ]
            },
            "faces": {
                "north": {
                    "uv": [
                        4,
                        4,
                        4,
                        4
                    ],
                    "texture": "#0"
                },
                "east": {
                    "uv": [
                        4,
                        4,
                        4,
                        4
                    ],
                    "texture": "#0"
                },
                "south": {
                    "uv": [
                        4,
                        4,
                        4,
                        4
                    ],
                    "texture": "#0"
                },
                "west": {
                    "uv": [
                        4,
                        4,
                        4,
                        4
                    ],
                    "texture": "#0"
                },
                "up": {
                    "uv": [
                        4,
                        4,
                        4,
                        4
                    ],
                    "texture": "#0"
                },
                "down": {
                    "uv": [
                        4,
                        4,
                        4,
                        4
                    ],
                    "texture": "#0"
                }
            }
        },
        {
            "from": [
                7.5,
                9.196,
                23.028
            ],
            "to": [
                8.5,
                10.74,
                25.564
            ],
            "rotation": {
                "angle": 22.5,
                "axis": "x",
                "origin": [
                    8,
                    8.672,
                    17.704
                ]
            },
            "faces": {
                "north": {
                    "uv": [
                        4,
                        4,
                        4,
                        4
                    ],
                    "texture": "#0"
                },
                "east": {
                    "uv": [
                        4,
                        4,
                        4,
                        4
                    ],
                    "texture": "#0"
                },
                "south": {
                    "uv": [
                        4,
                        4,
                        4,
                        4
                    ],
                    "texture": "#0"
                },
                "west": {
                    "uv": [
                        4,
                        4,
                        4,
                        4
                    ],
                    "texture": "#0"
                },
                "up": {
                    "uv": [
                        4,
                        4,
                        4,
                        4
                    ],
                    "texture": "#0"
                },
                "down": {
                    "uv": [
                        4,
                        4,
                        4,
                        4
                    ],
                    "texture": "#0"
                }
            }
        },
        {
            "from": [
                7.5,
                7.66,
                23.764
            ],
            "to": [
                8.5,
                9.044,
                25.98
            ],
            "rotation": {
                "angle": 0,
                "axis": "x",
                "origin": [
                    8,
                    7.776,
                    19.72
                ]
            },
            "faces": {
                "north": {
                    "uv": [
                        4,
                        4,
                        4,
                        4
                    ],
                    "texture": "#0"
                },
                "east": {
                    "uv": [
                        4,
                        4,
                        4,
                        4
                    ],
                    "texture": "#0"
                },
                "south": {
                    "uv": [
                        4,
                        4,
                        4,
                        4
                    ],
                    "texture": "#0"
                },
                "west": {
                    "uv": [
                        4,
                        4,
                        4,
                        4
                    ],
                    "texture": "#0"
                },
                "up": {
                    "uv": [
                        4,
                        4,
                        4,
                        4
                    ],
                    "texture": "#0"
                },
                "down": {
                    "uv": [
                        4,
                        4,
                        4,
                        4
                    ],
                    "texture": "#0"
                }
            }
        },
        {
            "from": [
                7.5,
                7.66,
                25.98
            ],
            "to": [
                8.5,
                9.044,
                26.684
            ],
            "rotation": {
                "angle": 0,
                "axis": "x",
                "origin": [
                    8,
                    7.776,
                    20.424
                ]
            },
            "faces": {
                "north": {
                    "uv": [
                        7.375,
                        12.375,
                        7.375,
                        12.375
                    ],
                    "texture": "#0"
                },
                "east": {
                    "uv": [
                        7.375,
                        12.375,
                        7.375,
                        12.375
                    ],
                    "texture": "#0"
                },
                "south": {
                    "uv": [
                        7.375,
                        12.375,
                        7.375,
                        12.375
                    ],
                    "texture": "#0"
                },
                "west": {
                    "uv": [
                        7.375,
                        12.375,
                        7.375,
                        12.375
                    ],
                    "texture": "#0"
                },
                "up": {
                    "uv": [
                        7.375,
                        12.375,
                        7.375,
                        12.375
                    ],
                    "texture": "#0"
                },
                "down": {
                    "uv": [
                        7.375,
                        12.375,
                        7.375,
                        12.375
                    ],
                    "texture": "#0"
                }
            }
        },
        {
            "from": [
                7.5,
                4.588,
                25.3
            ],
            "to": [
                8.5,
                8.948,
                25.98
            ],
            "rotation": {
                "angle": 0,
                "axis": "x",
                "origin": [
                    8,
                    8.128,
                    20.2
                ]
            },
            "faces": {
                "north": {
                    "uv": [
                        4,
                        4,
                        4,
                        4
                    ],
                    "texture": "#0"
                },
                "east": {
                    "uv": [
                        4,
                        4,
                        4,
                        4
                    ],
                    "texture": "#0"
                },
                "south": {
                    "uv": [
                        4,
                        4,
                        4,
                        4
                    ],
                    "texture": "#0"
                },
                "west": {
                    "uv": [
                        4,
                        4,
                        4,
                        4
                    ],
                    "texture": "#0"
                },
                "up": {
                    "uv": [
                        4,
                        4,
                        4,
                        4
                    ],
                    "texture": "#0"
                },
                "down": {
                    "uv": [
                        4,
                        4,
                        4,
                        4
                    ],
                    "texture": "#0"
                }
            }
        },
        {
            "from": [
                7.5,
                4.588,
                25.98
            ],
            "to": [
                8.5,
                8.948,
                26.684
            ],
            "rotation": {
                "angle": 0,
                "axis": "x",
                "origin": [
                    8,
                    8.128,
                    20.904
                ]
            },
            "faces": {
                "north": {
                    "uv": [
                        7.375,
                        12.375,
                        7.375,
                        12.375
                    ],
                    "texture": "#0"
                },
                "east": {
                    "uv": [
                        7.375,
                        12.375,
                        7.375,
                        12.375
                    ],
                    "texture": "#0"
                },
                "south": {
                    "uv": [
                        7.375,
                        12.375,
                        7.375,
                        12.375
                    ],
                    "texture": "#0"
                },
                "west": {
                    "uv": [
                        7.375,
                        12.375,
                        7.375,
                        12.375
                    ],
                    "texture": "#0"
                },
                "up": {
                    "uv": [
                        7.375,
                        12.375,
                        7.375,
                        12.375
                    ],
                    "texture": "#0"
                },
                "down": {
                    "uv": [
                        7.375,
                        12.375,
                        7.375,
                        12.375
                    ],
                    "texture": "#0"
                }
            }
        },
        {
            "from": [
                7.5,
                7.596,
                18.612
            ],
            "to": [
                8.5,
                8.916,
                24.028
            ],
            "rotation": {
                "angle": 0,
                "axis": "x",
                "origin": [
                    8,
                    7.712,
                    14.568
                ]
            },
            "faces": {
                "north": {
                    "uv": [
                        4,
                        4,
                        4,
                        4
                    ],
                    "texture": "#0"
                },
                "east": {
                    "uv": [
                        4,
                        4,
                        4,
                        4
                    ],
                    "texture": "#0"
                },
                "south": {
                    "uv": [
                        4,
                        4,
                        4,
                        4
                    ],
                    "texture": "#0"
                },
                "west": {
                    "uv": [
                        4,
                        4,
                        4,
                        4
                    ],
                    "texture": "#0"
                },
                "up": {
                    "uv": [
                        4,
                        4,
                        4,
                        4
                    ],
                    "texture": "#0"
                },
                "down": {
                    "uv": [
                        4,
                        4,
                        4,
                        4
                    ],
                    "texture": "#0"
                }
            }
        },
        {
            "from": [
                7.8326,
                7.73377,
                18.612
            ],
            "to": [
                8.1674,
                9.05377,
                24.028
            ],
            "rotation": {
                "angle": 0,
                "axis": "x",
                "origin": [
                    8.0446,
                    7.84977,
                    14.568
                ]
            },
            "faces": {
                "north": {
                    "uv": [
                        4,
                        3.875,
                        4,
                        3.875
                    ],
                    "texture": "#0"
                },
                "east": {
                    "uv": [
                        4,
                        3.875,
                        4,
                        3.875
                    ],
                    "texture": "#0"
                },
                "south": {
                    "uv": [
                        4,
                        3.875,
                        4,
                        3.875
                    ],
                    "texture": "#0"
                },
                "west": {
                    "uv": [
                        4,
                        3.875,
                        4,
                        3.875
                    ],
                    "texture": "#0"
                },
                "up": {
                    "uv": [
                        4,
                        3.875,
                        4,
                        3.875
                    ],
                    "texture": "#0"
                },
                "down": {
                    "uv": [
                        4,
                        3.875,
                        4,
                        3.875
                    ],
                    "texture": "#0"
                }
            }
        },
        {
            "from": [
                7.8326,
                8.91777,
                23.764
            ],
            "to": [
                8.1674,
                9.18177,
                25.98
            ],
            "rotation": {
                "angle": 0,
                "axis": "x",
                "origin": [
                    8.0446,
                    7.97777,
                    16.52
                ]
            },
            "faces": {
                "north": {
                    "uv": [
                        3.75,
                        4.25,
                        3.75,
                        4.25
                    ],
                    "texture": "#0"
                },
                "east": {
                    "uv": [
                        3.75,
                        4.25,
                        3.75,
                        4.25
                    ],
                    "texture": "#0"
                },
                "south": {
                    "uv": [
                        3.75,
                        4.25,
                        3.75,
                        4.25
                    ],
                    "texture": "#0"
                },
                "west": {
                    "uv": [
                        3.75,
                        4.25,
                        3.75,
                        4.25
                    ],
                    "texture": "#0"
                },
                "up": {
                    "uv": [
                        3.75,
                        4.25,
                        3.75,
                        4.25
                    ],
                    "texture": "#0"
                },
                "down": {
                    "uv": [
                        3.75,
                        4.25,
                        3.75,
                        4.25
                    ],
                    "texture": "#0"
                }
            }
        },
        {
            "from": [
                7.8326,
                8.91777,
                25.98
            ],
            "to": [
                8.1674,
                9.18177,
                26.684
            ],
            "rotation": {
                "angle": 0,
                "axis": "x",
                "origin": [
                    8.0446,
                    7.97777,
                    17.224
                ]
            },
            "faces": {
                "north": {
                    "uv": [
                        7.375,
                        12.375,
                        7.375,
                        12.375
                    ],
                    "texture": "#0"
                },
                "east": {
                    "uv": [
                        7.375,
                        12.375,
                        7.375,
                        12.375
                    ],
                    "texture": "#0"
                },
                "south": {
                    "uv": [
                        7.375,
                        12.375,
                        7.375,
                        12.375
                    ],
                    "texture": "#0"
                },
                "west": {
                    "uv": [
                        7.375,
                        12.375,
                        7.375,
                        12.375
                    ],
                    "texture": "#0"
                },
                "up": {
                    "uv": [
                        7.375,
                        12.375,
                        7.375,
                        12.375
                    ],
                    "texture": "#0"
                },
                "down": {
                    "uv": [
                        7.375,
                        12.375,
                        7.375,
                        12.375
                    ],
                    "texture": "#0"
                }
            }
        },
        {
            "from": [
                7.8326,
                4.45023,
                25.268
            ],
            "to": [
                8.1674,
                4.71423,
                25.98
            ],
            "rotation": {
                "angle": 0,
                "axis": "z",
                "origin": [
                    7.99796,
                    4.59682,
                    24.872
                ]
            },
            "faces": {
                "north": {
                    "uv": [
                        3,
                        3.375,
                        3,
                        3.375
                    ],
                    "rotation": 180,
                    "texture": "#0"
                },
                "east": {
                    "uv": [
                        3,
                        3.375,
                        3,
                        3.375
                    ],
                    "rotation": 180,
                    "texture": "#0"
                },
                "south": {
                    "uv": [
                        3,
                        3.375,
                        3,
                        3.375
                    ],
                    "rotation": 180,
                    "texture": "#0"
                },
                "west": {
                    "uv": [
                        3,
                        3.375,
                        3,
                        3.375
                    ],
                    "rotation": 180,
                    "texture": "#0"
                },
                "up": {
                    "uv": [
                        3,
                        3.375,
                        3,
                        3.375
                    ],
                    "rotation": 180,
                    "texture": "#0"
                },
                "down": {
                    "uv": [
                        3,
                        3.375,
                        3,
                        3.375
                    ],
                    "rotation": 180,
                    "texture": "#0"
                }
            }
        },
        {
            "from": [
                7.8326,
                4.45023,
                25.268
            ],
            "to": [
                8.1674,
                4.71423,
                25.98
            ],
            "rotation": {
                "angle": 0,
                "axis": "z",
                "origin": [
                    7.99796,
                    4.59682,
                    24.872
                ]
            },
            "faces": {
                "north": {
                    "uv": [
                        3,
                        3.375,
                        3,
                        3.375
                    ],
                    "rotation": 180,
                    "texture": "#0"
                },
                "east": {
                    "uv": [
                        3,
                        3.375,
                        3,
                        3.375
                    ],
                    "rotation": 180,
                    "texture": "#0"
                },
                "south": {
                    "uv": [
                        3,
                        3.375,
                        3,
                        3.375
                    ],
                    "rotation": 180,
                    "texture": "#0"
                },
                "west": {
                    "uv": [
                        3,
                        3.375,
                        3,
                        3.375
                    ],
                    "rotation": 180,
                    "texture": "#0"
                },
                "up": {
                    "uv": [
                        3,
                        3.375,
                        3,
                        3.375
                    ],
                    "rotation": 180,
                    "texture": "#0"
                },
                "down": {
                    "uv": [
                        3,
                        3.375,
                        3,
                        3.375
                    ],
                    "rotation": 180,
                    "texture": "#0"
                }
            }
        },
        {
            "from": [
                7.8326,
                4.45023,
                25.98
            ],
            "to": [
                8.1674,
                4.71423,
                26.684
            ],
            "rotation": {
                "angle": 0,
                "axis": "z",
                "origin": [
                    7.99796,
                    4.59682,
                    25.576
                ]
            },
            "faces": {
                "north": {
                    "uv": [
                        7.375,
                        12.375,
                        7.375,
                        12.375
                    ],
                    "rotation": 180,
                    "texture": "#0"
                },
                "east": {
                    "uv": [
                        7.375,
                        12.375,
                        7.375,
                        12.375
                    ],
                    "rotation": 180,
                    "texture": "#0"
                },
                "south": {
                    "uv": [
                        7.375,
                        12.375,
                        7.375,
                        12.375
                    ],
                    "rotation": 180,
                    "texture": "#0"
                },
                "west": {
                    "uv": [
                        7.375,
                        12.375,
                        7.375,
                        12.375
                    ],
                    "rotation": 180,
                    "texture": "#0"
                },
                "up": {
                    "uv": [
                        7.375,
                        12.375,
                        7.375,
                        12.375
                    ],
                    "rotation": 180,
                    "texture": "#0"
                },
                "down": {
                    "uv": [
                        7.375,
                        12.375,
                        7.375,
                        12.375
                    ],
                    "rotation": 180,
                    "texture": "#0"
                }
            }
        },
        {
            "from": [
                7.94461,
                8.98478,
                18.612
            ],
            "to": [
                8.30461,
                9.08878,
                24.028
            ],
            "rotation": {
                "angle": 22.5,
                "axis": "z",
                "origin": [
                    8.15661,
                    7.88478,
                    14.568
                ]
            },
            "faces": {
                "north": {
                    "uv": [
                        3.75,
                        4.25,
                        3.75,
                        4.25
                    ],
                    "texture": "#0"
                },
                "east": {
                    "uv": [
                        3.75,
                        4.25,
                        3.75,
                        4.25
                    ],
                    "texture": "#0"
                },
                "south": {
                    "uv": [
                        3.75,
                        4.25,
                        3.75,
                        4.25
                    ],
                    "texture": "#0"
                },
                "west": {
                    "uv": [
                        3.75,
                        4.25,
                        3.75,
                        4.25
                    ],
                    "texture": "#0"
                },
                "up": {
                    "uv": [
                        3.75,
                        4.25,
                        3.75,
                        4.25
                    ],
                    "texture": "#0"
                },
                "down": {
                    "uv": [
                        3.75,
                        4.25,
                        3.75,
                        4.25
                    ],
                    "texture": "#0"
                }
            }
        },
        {
            "from": [
                7.94461,
                9.01678,
                23.764
            ],
            "to": [
                8.30461,
                9.21678,
                25.98
            ],
            "rotation": {
                "angle": 22.5,
                "axis": "z",
                "origin": [
                    8.15661,
                    8.01278,
                    16.52
                ]
            },
            "faces": {
                "north": {
                    "uv": [
                        3.75,
                        4.25,
                        3.75,
                        4.25
                    ],
                    "texture": "#0"
                },
                "east": {
                    "uv": [
                        3.75,
                        4.25,
                        3.75,
                        4.25
                    ],
                    "texture": "#0"
                },
                "south": {
                    "uv": [
                        3.75,
                        4.25,
                        3.75,
                        4.25
                    ],
                    "texture": "#0"
                },
                "west": {
                    "uv": [
                        3.75,
                        4.25,
                        3.75,
                        4.25
                    ],
                    "texture": "#0"
                },
                "up": {
                    "uv": [
                        3.75,
                        4.25,
                        3.75,
                        4.25
                    ],
                    "texture": "#0"
                },
                "down": {
                    "uv": [
                        3.75,
                        4.25,
                        3.75,
                        4.25
                    ],
                    "texture": "#0"
                }
            }
        },
        {
            "from": [
                7.94461,
                9.01678,
                25.98
            ],
            "to": [
                8.30461,
                9.21678,
                26.684
            ],
            "rotation": {
                "angle": 22.5,
                "axis": "z",
                "origin": [
                    8.15661,
                    8.01278,
                    17.224
                ]
            },
            "faces": {
                "north": {
                    "uv": [
                        7.375,
                        12.375,
                        7.375,
                        12.375
                    ],
                    "texture": "#0"
                },
                "east": {
                    "uv": [
                        7.375,
                        12.375,
                        7.375,
                        12.375
                    ],
                    "texture": "#0"
                },
                "south": {
                    "uv": [
                        7.375,
                        12.375,
                        7.375,
                        12.375
                    ],
                    "texture": "#0"
                },
                "west": {
                    "uv": [
                        7.375,
                        12.375,
                        7.375,
                        12.375
                    ],
                    "texture": "#0"
                },
                "up": {
                    "uv": [
                        7.375,
                        12.375,
                        7.375,
                        12.375
                    ],
                    "texture": "#0"
                },
                "down": {
                    "uv": [
                        7.375,
                        12.375,
                        7.375,
                        12.375
                    ],
                    "texture": "#0"
                }
            }
        },
        {
            "from": [
                8.09841,
                4.39655,
                25.268
            ],
            "to": [
                8.45841,
                4.59655,
                25.98
            ],
            "rotation": {
                "angle": 22.5,
                "axis": "z",
                "origin": [
                    7.99796,
                    4.59682,
                    24.872
                ]
            },
            "faces": {
                "north": {
                    "uv": [
                        3,
                        3.375,
                        3,
                        3.375
                    ],
                    "rotation": 180,
                    "texture": "#0"
                },
                "east": {
                    "uv": [
                        3,
                        3.375,
                        3,
                        3.375
                    ],
                    "rotation": 180,
                    "texture": "#0"
                },
                "south": {
                    "uv": [
                        3,
                        3.375,
                        3,
                        3.375
                    ],
                    "rotation": 180,
                    "texture": "#0"
                },
                "west": {
                    "uv": [
                        3,
                        3.375,
                        3,
                        3.375
                    ],
                    "rotation": 180,
                    "texture": "#0"
                },
                "up": {
                    "uv": [
                        3,
                        3.375,
                        3,
                        3.375
                    ],
                    "rotation": 180,
                    "texture": "#0"
                },
                "down": {
                    "uv": [
                        3,
                        3.375,
                        3,
                        3.375
                    ],
                    "rotation": 180,
                    "texture": "#0"
                }
            }
        },
        {
            "from": [
                8.09841,
                4.39655,
                25.268
            ],
            "to": [
                8.45841,
                4.59655,
                25.98
            ],
            "rotation": {
                "angle": 22.5,
                "axis": "z",
                "origin": [
                    7.99796,
                    4.59682,
                    24.872
                ]
            },
            "faces": {
                "north": {
                    "uv": [
                        3,
                        3.375,
                        3,
                        3.375
                    ],
                    "rotation": 180,
                    "texture": "#0"
                },
                "east": {
                    "uv": [
                        3,
                        3.375,
                        3,
                        3.375
                    ],
                    "rotation": 180,
                    "texture": "#0"
                },
                "south": {
                    "uv": [
                        3,
                        3.375,
                        3,
                        3.375
                    ],
                    "rotation": 180,
                    "texture": "#0"
                },
                "west": {
                    "uv": [
                        3,
                        3.375,
                        3,
                        3.375
                    ],
                    "rotation": 180,
                    "texture": "#0"
                },
                "up": {
                    "uv": [
                        3,
                        3.375,
                        3,
                        3.375
                    ],
                    "rotation": 180,
                    "texture": "#0"
                },
                "down": {
                    "uv": [
                        3,
                        3.375,
                        3,
                        3.375
                    ],
                    "rotation": 180,
                    "texture": "#0"
                }
            }
        },
        {
            "from": [
                8.09841,
                4.39655,
                25.98
            ],
            "to": [
                8.45841,
                4.59655,
                26.684
            ],
            "rotation": {
                "angle": 22.5,
                "axis": "z",
                "origin": [
                    7.99796,
                    4.59682,
                    25.576
                ]
            },
            "faces": {
                "north": {
                    "uv": [
                        7.375,
                        12.375,
                        7.375,
                        12.375
                    ],
                    "rotation": 180,
                    "texture": "#0"
                },
                "east": {
                    "uv": [
                        7.375,
                        12.375,
                        7.375,
                        12.375
                    ],
                    "rotation": 180,
                    "texture": "#0"
                },
                "south": {
                    "uv": [
                        7.375,
                        12.375,
                        7.375,
                        12.375
                    ],
                    "rotation": 180,
                    "texture": "#0"
                },
                "west": {
                    "uv": [
                        7.375,
                        12.375,
                        7.375,
                        12.375
                    ],
                    "rotation": 180,
                    "texture": "#0"
                },
                "up": {
                    "uv": [
                        7.375,
                        12.375,
                        7.375,
                        12.375
                    ],
                    "rotation": 180,
                    "texture": "#0"
                },
                "down": {
                    "uv": [
                        7.375,
                        12.375,
                        7.375,
                        12.375
                    ],
                    "rotation": 180,
                    "texture": "#0"
                }
            }
        },
        {
            "from": [
                7.69539,
                8.98478,
                18.612
            ],
            "to": [
                8.05539,
                9.08878,
                24.028
            ],
            "rotation": {
                "angle": -22.5,
                "axis": "z",
                "origin": [
                    7.84339,
                    7.88478,
                    14.568
                ]
            },
            "faces": {
                "north": {
                    "uv": [
                        3.75,
                        4.25,
                        3.75,
                        4.25
                    ],
                    "texture": "#0"
                },
                "east": {
                    "uv": [
                        3.75,
                        4.25,
                        3.75,
                        4.25
                    ],
                    "texture": "#0"
                },
                "south": {
                    "uv": [
                        3.75,
                        4.25,
                        3.75,
                        4.25
                    ],
                    "texture": "#0"
                },
                "west": {
                    "uv": [
                        3.75,
                        4.25,
                        3.75,
                        4.25
                    ],
                    "texture": "#0"
                },
                "up": {
                    "uv": [
                        3.75,
                        4.25,
                        3.75,
                        4.25
                    ],
                    "texture": "#0"
                },
                "down": {
                    "uv": [
                        3.75,
                        4.25,
                        3.75,
                        4.25
                    ],
                    "texture": "#0"
                }
            }
        },
        {
            "from": [
                7.69539,
                9.04878,
                23.764
            ],
            "to": [
                8.05539,
                9.21678,
                25.98
            ],
            "rotation": {
                "angle": -22.5,
                "axis": "z",
                "origin": [
                    7.84339,
                    8.01278,
                    16.52
                ]
            },
            "faces": {
                "north": {
                    "uv": [
                        3.75,
                        4.25,
                        3.75,
                        4.25
                    ],
                    "texture": "#0"
                },
                "east": {
                    "uv": [
                        3.75,
                        4.25,
                        3.75,
                        4.25
                    ],
                    "texture": "#0"
                },
                "south": {
                    "uv": [
                        3.75,
                        4.25,
                        3.75,
                        4.25
                    ],
                    "texture": "#0"
                },
                "west": {
                    "uv": [
                        3.75,
                        4.25,
                        3.75,
                        4.25
                    ],
                    "texture": "#0"
                },
                "up": {
                    "uv": [
                        3.75,
                        4.25,
                        3.75,
                        4.25
                    ],
                    "texture": "#0"
                },
                "down": {
                    "uv": [
                        3.75,
                        4.25,
                        3.75,
                        4.25
                    ],
                    "texture": "#0"
                }
            }
        },
        {
            "from": [
                7.69539,
                9.04878,
                25.98
            ],
            "to": [
                8.05539,
                9.21678,
                26.684
            ],
            "rotation": {
                "angle": -22.5,
                "axis": "z",
                "origin": [
                    7.84339,
                    8.01278,
                    17.224
                ]
            },
            "faces": {
                "north": {
                    "uv": [
                        7.375,
                        12.375,
                        7.375,
                        12.375
                    ],
                    "texture": "#0"
                },
                "east": {
                    "uv": [
                        7.375,
                        12.375,
                        7.375,
                        12.375
                    ],
                    "texture": "#0"
                },
                "south": {
                    "uv": [
                        7.375,
                        12.375,
                        7.375,
                        12.375
                    ],
                    "texture": "#0"
                },
                "west": {
                    "uv": [
                        7.375,
                        12.375,
                        7.375,
                        12.375
                    ],
                    "texture": "#0"
                },
                "up": {
                    "uv": [
                        7.375,
                        12.375,
                        7.375,
                        12.375
                    ],
                    "texture": "#0"
                },
                "down": {
                    "uv": [
                        7.375,
                        12.375,
                        7.375,
                        12.375
                    ],
                    "texture": "#0"
                }
            }
        },
        {
            "from": [
                7.54128,
                4.39811,
                25.268
            ],
            "to": [
                7.90128,
                4.69411,
                25.98
            ],
            "rotation": {
                "angle": -22.5,
                "axis": "z",
                "origin": [
                    7.99796,
                    4.59682,
                    24.872
                ]
            },
            "faces": {
                "north": {
                    "uv": [
                        3,
                        3.375,
                        3,
                        3.375
                    ],
                    "rotation": 180,
                    "texture": "#0"
                },
                "east": {
                    "uv": [
                        3,
                        3.375,
                        3,
                        3.375
                    ],
                    "rotation": 180,
                    "texture": "#0"
                },
                "south": {
                    "uv": [
                        3,
                        3.375,
                        3,
                        3.375
                    ],
                    "rotation": 180,
                    "texture": "#0"
                },
                "west": {
                    "uv": [
                        3,
                        3.375,
                        3,
                        3.375
                    ],
                    "rotation": 180,
                    "texture": "#0"
                },
                "up": {
                    "uv": [
                        3,
                        3.375,
                        3,
                        3.375
                    ],
                    "rotation": 180,
                    "texture": "#0"
                },
                "down": {
                    "uv": [
                        3,
                        3.375,
                        3,
                        3.375
                    ],
                    "rotation": 180,
                    "texture": "#0"
                }
            }
        },
        {
            "from": [
                7.54128,
                4.39811,
                25.268
            ],
            "to": [
                7.90128,
                4.69411,
                25.98
            ],
            "rotation": {
                "angle": -22.5,
                "axis": "z",
                "origin": [
                    7.99796,
                    4.59682,
                    24.872
                ]
            },
            "faces": {
                "north": {
                    "uv": [
                        3,
                        3.375,
                        3,
                        3.375
                    ],
                    "rotation": 180,
                    "texture": "#0"
                },
                "east": {
                    "uv": [
                        3,
                        3.375,
                        3,
                        3.375
                    ],
                    "rotation": 180,
                    "texture": "#0"
                },
                "south": {
                    "uv": [
                        3,
                        3.375,
                        3,
                        3.375
                    ],
                    "rotation": 180,
                    "texture": "#0"
                },
                "west": {
                    "uv": [
                        3,
                        3.375,
                        3,
                        3.375
                    ],
                    "rotation": 180,
                    "texture": "#0"
                },
                "up": {
                    "uv": [
                        3,
                        3.375,
                        3,
                        3.375
                    ],
                    "rotation": 180,
                    "texture": "#0"
                },
                "down": {
                    "uv": [
                        3,
                        3.375,
                        3,
                        3.375
                    ],
                    "rotation": 180,
                    "texture": "#0"
                }
            }
        },
        {
            "from": [
                7.54128,
                4.39811,
                25.98
            ],
            "to": [
                7.90128,
                4.69411,
                26.684
            ],
            "rotation": {
                "angle": -22.5,
                "axis": "z",
                "origin": [
                    7.99796,
                    4.59682,
                    25.576
                ]
            },
            "faces": {
                "north": {
                    "uv": [
                        7.375,
                        12.375,
                        7.375,
                        12.375
                    ],
                    "rotation": 180,
                    "texture": "#0"
                },
                "east": {
                    "uv": [
                        7.375,
                        12.375,
                        7.375,
                        12.375
                    ],
                    "rotation": 180,
                    "texture": "#0"
                },
                "south": {
                    "uv": [
                        7.375,
                        12.375,
                        7.375,
                        12.375
                    ],
                    "rotation": 180,
                    "texture": "#0"
                },
                "west": {
                    "uv": [
                        7.375,
                        12.375,
                        7.375,
                        12.375
                    ],
                    "rotation": 180,
                    "texture": "#0"
                },
                "up": {
                    "uv": [
                        7.375,
                        12.375,
                        7.375,
                        12.375
                    ],
                    "rotation": 180,
                    "texture": "#0"
                },
                "down": {
                    "uv": [
                        7.375,
                        12.375,
                        7.375,
                        12.375
                    ],
                    "rotation": 180,
                    "texture": "#0"
                }
            }
        }
    ],
    "display": {
        "thirdperson_righthand": {
            "translation": [
                -0.75,
                0,
                -3.75
            ],
            "scale": [
                0.8,
                0.8,
                0.8
            ]
        },
        "thirdperson_lefthand": {
            "translation": [
                -0.75,
                0,
                -3.75
            ],
            "scale": [
                0.8,
                0.8,
                0.8
            ]
        },
        "firstperson_righthand": {
            "translation": [
                -5.5,
                4.75,
                0
            ],
            "scale": [
                1,
                1,
                0.9
            ]
        },
        "firstperson_lefthand": {
            "translation": [
                -5.5,
                4.75,
                0
            ],
            "scale": [
                1,
                1,
                0.9
            ]
        },
        "ground": {
            "rotation": [
                0,
                0,
                45
            ],
            "scale": [
                0.88,
                0.88,
                0.88
            ]
        },
        "gui": {
            "rotation": [
                20,
                27,
                -14
            ],
            "translation": [
                -1,
                2,
                0
            ]
        },
        "head": {
            "rotation": [
                0,
                122,
                90
            ],
            "translation": [
                -3.25,
                7.25,
                1.75
            ]
        },
        "fixed": {
            "rotation": [
                0,
                90,
                0
            ],
            "translation": [
                -1.75,
                0,
                -2.25
            ]
        }
    }
}