{
	"credit": "Made with Blockbench",
	"textures": {
		"0": "gci:items/common/mpz",
		"particle": "gci:items/common/mpz"
	},
	"elements": [
		{
			"from": [7.46672, 4.91704, 7.39238],
			"to": [8.53328, 6.80032, 7.89238],
			"rotation": {"angle": 0, "axis": "y", "origin": [8.12756, 6.01591, 2.80646]},
			"faces": {
				"north": {"uv": [0.33333, 3, 2.16667, 4.66667], "rotation": 180, "texture": "#0"},
				"east": {"uv": [0.33333, 3, 2.16667, 4.66667], "rotation": 180, "texture": "#0"},
				"south": {"uv": [0.33333, 3, 2.16667, 4.66667], "rotation": 180, "texture": "#0"},
				"west": {"uv": [0.33333, 3, 2.16667, 4.66667], "rotation": 180, "texture": "#0"},
				"up": {"uv": [0.33333, 3, 2.16667, 4.66667], "rotation": 180, "texture": "#0"},
				"down": {"uv": [0.33333, 3, 2.16667, 4.66667], "rotation": 180, "texture": "#0"}
			}
		},
		{
			"from": [7.46672, 4.91704, 10.39238],
			"to": [8.53328, 6.80032, 14.09238],
			"rotation": {"angle": 0, "axis": "y", "origin": [8.12756, 6.01591, 2.80646]},
			"faces": {
				"north": {"uv": [0.33333, 3, 2.16667, 4.66667], "rotation": 180, "texture": "#0"},
				"east": {"uv": [0.33333, 3, 2.16667, 4.66667], "rotation": 180, "texture": "#0"},
				"south": {"uv": [0.33333, 3, 2.16667, 4.66667], "rotation": 180, "texture": "#0"},
				"west": {"uv": [0.33333, 3, 2.16667, 4.66667], "rotation": 180, "texture": "#0"},
				"up": {"uv": [0.33333, 3, 2.16667, 4.66667], "rotation": 180, "texture": "#0"},
				"down": {"uv": [0.33333, 3, 2.16667, 4.66667], "rotation": 180, "texture": "#0"}
			}
		},
		{
			"from": [7.36672, 6.26704, 7.36738],
			"to": [8.63328, 6.90032, 14.31738],
			"rotation": {"angle": 0, "axis": "y", "origin": [8.12756, 6.01591, 1.30646]},
			"faces": {
				"north": {"uv": [8.33333, 11.33333, 10.16667, 13], "rotation": 180, "texture": "#0"},
				"east": {"uv": [8.33333, 11.33333, 10.16667, 13], "rotation": 180, "texture": "#0"},
				"south": {"uv": [8.33333, 11.33333, 10.16667, 13], "rotation": 180, "texture": "#0"},
				"west": {"uv": [8.33333, 11.33333, 10.16667, 13], "rotation": 180, "texture": "#0"},
				"up": {"uv": [8.33333, 11.33333, 10.16667, 13], "rotation": 180, "texture": "#0"},
				"down": {"uv": [8.33333, 11.33333, 10.16667, 13], "rotation": 180, "texture": "#0"}
			}
		},
		{
			"from": [7.46672, 4.91704, 7.89238],
			"to": [8.53328, 5.70032, 10.39238],
			"rotation": {"angle": 0, "axis": "y", "origin": [8.12756, 4.61591, 1.30646]},
			"faces": {
				"north": {"uv": [0.33333, 3, 2.16667, 4.66667], "rotation": 180, "texture": "#0"},
				"east": {"uv": [0.33333, 3, 2.16667, 4.66667], "rotation": 180, "texture": "#0"},
				"south": {"uv": [0.33333, 3, 2.16667, 4.66667], "rotation": 180, "texture": "#0"},
				"west": {"uv": [0.33333, 3, 2.16667, 4.66667], "rotation": 180, "texture": "#0"},
				"up": {"uv": [0.33333, 3, 2.16667, 4.66667], "rotation": 180, "texture": "#0"},
				"down": {"uv": [0.33333, 3, 2.16667, 4.66667], "rotation": 180, "texture": "#0"}
			}
		},
		{
			"from": [7.46672, 5.70032, 7.89238],
			"to": [7.56672, 5.80032, 10.39238],
			"rotation": {"angle": 0, "axis": "y", "origin": [8.12756, 5.39919, 1.30646]},
			"faces": {
				"north": {"uv": [0.33333, 3, 2.16667, 4.66667], "rotation": 180, "texture": "#0"},
				"east": {"uv": [0.33333, 3, 2.16667, 4.66667], "rotation": 180, "texture": "#0"},
				"south": {"uv": [0.33333, 3, 2.16667, 4.66667], "rotation": 180, "texture": "#0"},
				"west": {"uv": [0.33333, 3, 2.16667, 4.66667], "rotation": 180, "texture": "#0"},
				"up": {"uv": [0.33333, 3, 2.16667, 4.66667], "rotation": 180, "texture": "#0"},
				"down": {"uv": [0.33333, 3, 2.16667, 4.66667], "rotation": 180, "texture": "#0"}
			}
		},
		{
			"from": [7.46672, 6.1836, 7.89238],
			"to": [7.56672, 6.4836, 10.39238],
			"rotation": {"angle": 0, "axis": "y", "origin": [8.12756, 5.39919, 1.30646]},
			"faces": {
				"north": {"uv": [0.33333, 3, 2.16667, 4.66667], "rotation": 180, "texture": "#0"},
				"east": {"uv": [0.33333, 3, 2.16667, 4.66667], "rotation": 180, "texture": "#0"},
				"south": {"uv": [0.33333, 3, 2.16667, 4.66667], "rotation": 180, "texture": "#0"},
				"west": {"uv": [0.33333, 3, 2.16667, 4.66667], "rotation": 180, "texture": "#0"},
				"up": {"uv": [0.33333, 3, 2.16667, 4.66667], "rotation": 180, "texture": "#0"},
				"down": {"uv": [0.33333, 3, 2.16667, 4.66667], "rotation": 180, "texture": "#0"}
			}
		},
		{
			"from": [8.43328, 4.33376, 7.89238],
			"to": [8.53328, 4.91704, 9.89238],
			"rotation": {"angle": 0, "axis": "y", "origin": [8.12756, 3.83263, 1.30646]},
			"faces": {
				"north": {"uv": [8.33333, 11, 10.16667, 12.66667], "rotation": 180, "texture": "#0"},
				"east": {"uv": [8.33333, 11, 10.16667, 12.66667], "rotation": 180, "texture": "#0"},
				"south": {"uv": [8.33333, 11, 10.16667, 12.66667], "rotation": 180, "texture": "#0"},
				"west": {"uv": [8.33333, 11, 10.16667, 12.66667], "rotation": 180, "texture": "#0"},
				"up": {"uv": [8.33333, 11, 10.16667, 12.66667], "rotation": 180, "texture": "#0"},
				"down": {"uv": [8.33333, 11, 10.16667, 12.66667], "rotation": 180, "texture": "#0"}
			}
		},
		{
			"from": [7.46672, 4.33376, 7.89238],
			"to": [7.56672, 4.91704, 9.89238],
			"rotation": {"angle": 0, "axis": "y", "origin": [7.161, 3.83263, 1.30646]},
			"faces": {
				"north": {"uv": [8.33333, 11, 10.16667, 12.66667], "rotation": 180, "texture": "#0"},
				"east": {"uv": [8.33333, 11, 10.16667, 12.66667], "rotation": 180, "texture": "#0"},
				"south": {"uv": [8.33333, 11, 10.16667, 12.66667], "rotation": 180, "texture": "#0"},
				"west": {"uv": [8.33333, 11, 10.16667, 12.66667], "rotation": 180, "texture": "#0"},
				"up": {"uv": [8.33333, 11, 10.16667, 12.66667], "rotation": 180, "texture": "#0"},
				"down": {"uv": [8.33333, 11, 10.16667, 12.66667], "rotation": 180, "texture": "#0"}
			}
		},
		{
			"from": [7.46672, 4.33376, 7.89238],
			"to": [8.53328, 4.91704, 7.99238],
			"rotation": {"angle": 0, "axis": "y", "origin": [8.12756, 4.63263, 1.30646]},
			"faces": {
				"north": {"uv": [8.33333, 11, 10.16667, 12.66667], "rotation": 180, "texture": "#0"},
				"east": {"uv": [8.33333, 11, 10.16667, 12.66667], "rotation": 180, "texture": "#0"},
				"south": {"uv": [8.33333, 11, 10.16667, 12.66667], "rotation": 180, "texture": "#0"},
				"west": {"uv": [8.33333, 11, 10.16667, 12.66667], "rotation": 180, "texture": "#0"},
				"up": {"uv": [8.33333, 11, 10.16667, 12.66667], "rotation": 180, "texture": "#0"},
				"down": {"uv": [8.33333, 11, 10.16667, 12.66667], "rotation": 180, "texture": "#0"}
			}
		},
		{
			"from": [7.46672, 4.33376, 9.79238],
			"to": [8.53328, 4.91704, 9.89238],
			"rotation": {"angle": 0, "axis": "y", "origin": [8.12756, 5.13263, 3.70646]},
			"faces": {
				"north": {"uv": [8.33333, 11, 10.16667, 12.66667], "rotation": 180, "texture": "#0"},
				"east": {"uv": [8.33333, 11, 10.16667, 12.66667], "rotation": 180, "texture": "#0"},
				"south": {"uv": [8.33333, 11, 10.16667, 12.66667], "rotation": 180, "texture": "#0"},
				"west": {"uv": [8.33333, 11, 10.16667, 12.66667], "rotation": 180, "texture": "#0"},
				"up": {"uv": [8.33333, 11, 10.16667, 12.66667], "rotation": 180, "texture": "#0"},
				"down": {"uv": [8.33333, 11, 10.16667, 12.66667], "rotation": 180, "texture": "#0"}
			}
		},
		{
			"from": [7.86672, 4.03376, 10.39238],
			"to": [8.13328, 4.91704, 10.49238],
			"rotation": {"angle": 0, "axis": "y", "origin": [8.12756, 5.13263, 3.70646]},
			"faces": {
				"north": {"uv": [0.33333, 3, 2.16667, 4.66667], "rotation": 180, "texture": "#0"},
				"east": {"uv": [0.33333, 3, 2.16667, 4.66667], "rotation": 180, "texture": "#0"},
				"south": {"uv": [0.33333, 3, 2.16667, 4.66667], "rotation": 180, "texture": "#0"},
				"west": {"uv": [0.33333, 3, 2.16667, 4.66667], "rotation": 180, "texture": "#0"},
				"up": {"uv": [0.33333, 3, 2.16667, 4.66667], "rotation": 180, "texture": "#0"},
				"down": {"uv": [0.33333, 3, 2.16667, 4.66667], "rotation": 180, "texture": "#0"}
			}
		},
		{
			"from": [7.86672, 3.88039, 10.44278],
			"to": [8.13328, 4.06367, 10.54278],
			"rotation": {"angle": -22.5, "axis": "x", "origin": [8, 3.92203, 10.49278]},
			"faces": {
				"north": {"uv": [0.33333, 3, 2.16667, 4.66667], "rotation": 180, "texture": "#0"},
				"east": {"uv": [0.33333, 3, 2.16667, 4.66667], "rotation": 180, "texture": "#0"},
				"south": {"uv": [0.33333, 3, 2.16667, 4.66667], "rotation": 180, "texture": "#0"},
				"west": {"uv": [0.33333, 3, 2.16667, 4.66667], "rotation": 180, "texture": "#0"},
				"up": {"uv": [0.33333, 3, 2.16667, 4.66667], "rotation": 180, "texture": "#0"},
				"down": {"uv": [0.33333, 3, 2.16667, 4.66667], "rotation": 180, "texture": "#0"}
			}
		},
		{
			"from": [7.86672, 3.82555, 10.47468],
			"to": [8.13328, 3.92555, 10.65796],
			"rotation": {"angle": 22.5, "axis": "x", "origin": [8, 3.87555, 10.56632]},
			"faces": {
				"north": {"uv": [0.33333, 3, 2.16667, 4.66667], "rotation": 180, "texture": "#0"},
				"east": {"uv": [0.33333, 3, 2.16667, 4.66667], "rotation": 180, "texture": "#0"},
				"south": {"uv": [0.33333, 3, 2.16667, 4.66667], "rotation": 180, "texture": "#0"},
				"west": {"uv": [0.33333, 3, 2.16667, 4.66667], "rotation": 180, "texture": "#0"},
				"up": {"uv": [0.33333, 3, 2.16667, 4.66667], "rotation": 180, "texture": "#0"},
				"down": {"uv": [0.33333, 3, 2.16667, 4.66667], "rotation": 180, "texture": "#0"}
			}
		},
		{
			"from": [7.86672, 3.79429, 10.63185],
			"to": [8.13328, 3.89429, 11.81513],
			"rotation": {"angle": 0, "axis": "y", "origin": [8, 3.84429, 10.72349]},
			"faces": {
				"north": {"uv": [0.33333, 3, 2.16667, 4.66667], "rotation": 180, "texture": "#0"},
				"east": {"uv": [0.33333, 3, 2.16667, 4.66667], "rotation": 180, "texture": "#0"},
				"south": {"uv": [0.33333, 3, 2.16667, 4.66667], "rotation": 180, "texture": "#0"},
				"west": {"uv": [0.33333, 3, 2.16667, 4.66667], "rotation": 180, "texture": "#0"},
				"up": {"uv": [0.33333, 3, 2.16667, 4.66667], "rotation": 180, "texture": "#0"},
				"down": {"uv": [0.33333, 3, 2.16667, 4.66667], "rotation": 180, "texture": "#0"}
			}
		},
		{
			"from": [7.34172, 6.34204, 13.76738],
			"to": [8.65828, 6.44204, 13.86738],
			"rotation": {"angle": 0, "axis": "y", "origin": [8, 6.79204, 7.56738]},
			"faces": {
				"north": {"uv": [3, 3, 4.83333, 4.66667], "rotation": 180, "texture": "#0"},
				"east": {"uv": [3, 3, 4.83333, 4.66667], "rotation": 180, "texture": "#0"},
				"south": {"uv": [3, 3, 4.83333, 4.66667], "rotation": 180, "texture": "#0"},
				"west": {"uv": [3, 3, 4.83333, 4.66667], "rotation": 180, "texture": "#0"},
				"up": {"uv": [3, 3, 4.83333, 4.66667], "rotation": 180, "texture": "#0"},
				"down": {"uv": [3, 3, 4.83333, 4.66667], "rotation": 180, "texture": "#0"}
			}
		},
		{
			"from": [7.34172, 6.74204, 7.76738],
			"to": [8.65828, 6.84204, 7.86738],
			"rotation": {"angle": 0, "axis": "y", "origin": [8, 6.79204, 7.56738]},
			"faces": {
				"north": {"uv": [3, 3, 4.83333, 4.66667], "rotation": 180, "texture": "#0"},
				"east": {"uv": [3, 3, 4.83333, 4.66667], "rotation": 180, "texture": "#0"},
				"south": {"uv": [3, 3, 4.83333, 4.66667], "rotation": 180, "texture": "#0"},
				"west": {"uv": [3, 3, 4.83333, 4.66667], "rotation": 180, "texture": "#0"},
				"up": {"uv": [3, 3, 4.83333, 4.66667], "rotation": 180, "texture": "#0"},
				"down": {"uv": [3, 3, 4.83333, 4.66667], "rotation": 180, "texture": "#0"}
			}
		},
		{
			"from": [7.34172, 6.74204, 8.76738],
			"to": [8.65828, 6.84204, 8.86738],
			"rotation": {"angle": 0, "axis": "y", "origin": [8, 6.79204, 7.56738]},
			"faces": {
				"north": {"uv": [3, 3, 4.83333, 4.66667], "rotation": 180, "texture": "#0"},
				"east": {"uv": [3, 3, 4.83333, 4.66667], "rotation": 180, "texture": "#0"},
				"south": {"uv": [3, 3, 4.83333, 4.66667], "rotation": 180, "texture": "#0"},
				"west": {"uv": [3, 3, 4.83333, 4.66667], "rotation": 180, "texture": "#0"},
				"up": {"uv": [3, 3, 4.83333, 4.66667], "rotation": 180, "texture": "#0"},
				"down": {"uv": [3, 3, 4.83333, 4.66667], "rotation": 180, "texture": "#0"}
			}
		},
		{
			"from": [7.34172, 6.74204, 9.76738],
			"to": [8.65828, 6.84204, 9.86738],
			"rotation": {"angle": 0, "axis": "y", "origin": [8, 6.79204, 7.56738]},
			"faces": {
				"north": {"uv": [3, 3, 4.83333, 4.66667], "rotation": 180, "texture": "#0"},
				"east": {"uv": [3, 3, 4.83333, 4.66667], "rotation": 180, "texture": "#0"},
				"south": {"uv": [3, 3, 4.83333, 4.66667], "rotation": 180, "texture": "#0"},
				"west": {"uv": [3, 3, 4.83333, 4.66667], "rotation": 180, "texture": "#0"},
				"up": {"uv": [3, 3, 4.83333, 4.66667], "rotation": 180, "texture": "#0"},
				"down": {"uv": [3, 3, 4.83333, 4.66667], "rotation": 180, "texture": "#0"}
			}
		},
		{
			"from": [7.34172, 6.74204, 10.76738],
			"to": [8.65828, 6.84204, 10.86738],
			"rotation": {"angle": 0, "axis": "y", "origin": [8, 6.79204, 7.56738]},
			"faces": {
				"north": {"uv": [3, 3, 4.83333, 4.66667], "rotation": 180, "texture": "#0"},
				"east": {"uv": [3, 3, 4.83333, 4.66667], "rotation": 180, "texture": "#0"},
				"south": {"uv": [3, 3, 4.83333, 4.66667], "rotation": 180, "texture": "#0"},
				"west": {"uv": [3, 3, 4.83333, 4.66667], "rotation": 180, "texture": "#0"},
				"up": {"uv": [3, 3, 4.83333, 4.66667], "rotation": 180, "texture": "#0"},
				"down": {"uv": [3, 3, 4.83333, 4.66667], "rotation": 180, "texture": "#0"}
			}
		},
		{
			"from": [7.34172, 6.74204, 11.76738],
			"to": [8.65828, 6.84204, 11.86738],
			"rotation": {"angle": 0, "axis": "y", "origin": [8, 6.79204, 7.56738]},
			"faces": {
				"north": {"uv": [3, 3, 4.83333, 4.66667], "rotation": 180, "texture": "#0"},
				"east": {"uv": [3, 3, 4.83333, 4.66667], "rotation": 180, "texture": "#0"},
				"south": {"uv": [3, 3, 4.83333, 4.66667], "rotation": 180, "texture": "#0"},
				"west": {"uv": [3, 3, 4.83333, 4.66667], "rotation": 180, "texture": "#0"},
				"up": {"uv": [3, 3, 4.83333, 4.66667], "rotation": 180, "texture": "#0"},
				"down": {"uv": [3, 3, 4.83333, 4.66667], "rotation": 180, "texture": "#0"}
			}
		},
		{
			"from": [7.34172, 6.74204, 12.76738],
			"to": [8.65828, 6.84204, 12.86738],
			"rotation": {"angle": 0, "axis": "y", "origin": [8, 6.79204, 7.56738]},
			"faces": {
				"north": {"uv": [3, 3, 4.83333, 4.66667], "rotation": 180, "texture": "#0"},
				"east": {"uv": [3, 3, 4.83333, 4.66667], "rotation": 180, "texture": "#0"},
				"south": {"uv": [3, 3, 4.83333, 4.66667], "rotation": 180, "texture": "#0"},
				"west": {"uv": [3, 3, 4.83333, 4.66667], "rotation": 180, "texture": "#0"},
				"up": {"uv": [3, 3, 4.83333, 4.66667], "rotation": 180, "texture": "#0"},
				"down": {"uv": [3, 3, 4.83333, 4.66667], "rotation": 180, "texture": "#0"}
			}
		},
		{
			"from": [7.34172, 6.74204, 13.76738],
			"to": [8.65828, 6.84204, 13.86738],
			"rotation": {"angle": 0, "axis": "y", "origin": [8, 6.79204, 7.56738]},
			"faces": {
				"north": {"uv": [3, 3, 4.83333, 4.66667], "rotation": 180, "texture": "#0"},
				"east": {"uv": [3, 3, 4.83333, 4.66667], "rotation": 180, "texture": "#0"},
				"south": {"uv": [3, 3, 4.83333, 4.66667], "rotation": 180, "texture": "#0"},
				"west": {"uv": [3, 3, 4.83333, 4.66667], "rotation": 180, "texture": "#0"},
				"up": {"uv": [3, 3, 4.83333, 4.66667], "rotation": 180, "texture": "#0"},
				"down": {"uv": [3, 3, 4.83333, 4.66667], "rotation": 180, "texture": "#0"}
			}
		},
		{
			"from": [7.34172, 6.34204, 7.76738],
			"to": [8.65828, 6.44204, 7.86738],
			"rotation": {"angle": 0, "axis": "y", "origin": [8, 6.79204, 7.56738]},
			"faces": {
				"north": {"uv": [3, 3, 4.83333, 4.66667], "rotation": 180, "texture": "#0"},
				"east": {"uv": [3, 3, 4.83333, 4.66667], "rotation": 180, "texture": "#0"},
				"south": {"uv": [3, 3, 4.83333, 4.66667], "rotation": 180, "texture": "#0"},
				"west": {"uv": [3, 3, 4.83333, 4.66667], "rotation": 180, "texture": "#0"},
				"up": {"uv": [3, 3, 4.83333, 4.66667], "rotation": 180, "texture": "#0"},
				"down": {"uv": [3, 3, 4.83333, 4.66667], "rotation": 180, "texture": "#0"}
			}
		},
		{
			"from": [7.34172, 6.34204, 10.76738],
			"to": [8.65828, 6.44204, 10.86738],
			"rotation": {"angle": 0, "axis": "y", "origin": [8, 6.79204, 7.56738]},
			"faces": {
				"north": {"uv": [3, 3, 4.83333, 4.66667], "rotation": 180, "texture": "#0"},
				"east": {"uv": [3, 3, 4.83333, 4.66667], "rotation": 180, "texture": "#0"},
				"south": {"uv": [3, 3, 4.83333, 4.66667], "rotation": 180, "texture": "#0"},
				"west": {"uv": [3, 3, 4.83333, 4.66667], "rotation": 180, "texture": "#0"},
				"up": {"uv": [3, 3, 4.83333, 4.66667], "rotation": 180, "texture": "#0"},
				"down": {"uv": [3, 3, 4.83333, 4.66667], "rotation": 180, "texture": "#0"}
			}
		},
		{
			"from": [7.34172, 6.34204, 11.76738],
			"to": [8.65828, 6.44204, 11.86738],
			"rotation": {"angle": 0, "axis": "y", "origin": [8, 6.79204, 7.56738]},
			"faces": {
				"north": {"uv": [3, 3, 4.83333, 4.66667], "rotation": 180, "texture": "#0"},
				"east": {"uv": [3, 3, 4.83333, 4.66667], "rotation": 180, "texture": "#0"},
				"south": {"uv": [3, 3, 4.83333, 4.66667], "rotation": 180, "texture": "#0"},
				"west": {"uv": [3, 3, 4.83333, 4.66667], "rotation": 180, "texture": "#0"},
				"up": {"uv": [3, 3, 4.83333, 4.66667], "rotation": 180, "texture": "#0"},
				"down": {"uv": [3, 3, 4.83333, 4.66667], "rotation": 180, "texture": "#0"}
			}
		},
		{
			"from": [7.34172, 6.34204, 12.76738],
			"to": [8.65828, 6.44204, 12.86738],
			"rotation": {"angle": 0, "axis": "y", "origin": [8, 6.79204, 7.56738]},
			"faces": {
				"north": {"uv": [3, 3, 4.83333, 4.66667], "rotation": 180, "texture": "#0"},
				"east": {"uv": [3, 3, 4.83333, 4.66667], "rotation": 180, "texture": "#0"},
				"south": {"uv": [3, 3, 4.83333, 4.66667], "rotation": 180, "texture": "#0"},
				"west": {"uv": [3, 3, 4.83333, 4.66667], "rotation": 180, "texture": "#0"},
				"up": {"uv": [3, 3, 4.83333, 4.66667], "rotation": 180, "texture": "#0"},
				"down": {"uv": [3, 3, 4.83333, 4.66667], "rotation": 180, "texture": "#0"}
			}
		},
		{
			"from": [7.44172, 6.04204, 13.76738],
			"to": [8.55828, 6.14204, 13.86738],
			"rotation": {"angle": 0, "axis": "y", "origin": [8, 6.79204, 7.56738]},
			"faces": {
				"north": {"uv": [3, 3, 4.83333, 4.66667], "rotation": 180, "texture": "#0"},
				"east": {"uv": [3, 3, 4.83333, 4.66667], "rotation": 180, "texture": "#0"},
				"south": {"uv": [3, 3, 4.83333, 4.66667], "rotation": 180, "texture": "#0"},
				"west": {"uv": [3, 3, 4.83333, 4.66667], "rotation": 180, "texture": "#0"},
				"up": {"uv": [3, 3, 4.83333, 4.66667], "rotation": 180, "texture": "#0"},
				"down": {"uv": [3, 3, 4.83333, 4.66667], "rotation": 180, "texture": "#0"}
			}
		},
		{
			"from": [7.44172, 5.04204, 13.76738],
			"to": [8.55828, 5.14204, 13.86738],
			"rotation": {"angle": 0, "axis": "y", "origin": [8, 6.79204, 7.56738]},
			"faces": {
				"north": {"uv": [3, 3, 4.83333, 4.66667], "rotation": 180, "texture": "#0"},
				"east": {"uv": [3, 3, 4.83333, 4.66667], "rotation": 180, "texture": "#0"},
				"south": {"uv": [3, 3, 4.83333, 4.66667], "rotation": 180, "texture": "#0"},
				"west": {"uv": [3, 3, 4.83333, 4.66667], "rotation": 180, "texture": "#0"},
				"up": {"uv": [3, 3, 4.83333, 4.66667], "rotation": 180, "texture": "#0"},
				"down": {"uv": [3, 3, 4.83333, 4.66667], "rotation": 180, "texture": "#0"}
			}
		},
		{
			"from": [7.44172, 5.04204, 12.76738],
			"to": [8.55828, 5.14204, 12.86738],
			"rotation": {"angle": 0, "axis": "y", "origin": [8, 6.79204, 7.56738]},
			"faces": {
				"north": {"uv": [3, 3, 4.83333, 4.66667], "rotation": 180, "texture": "#0"},
				"east": {"uv": [3, 3, 4.83333, 4.66667], "rotation": 180, "texture": "#0"},
				"south": {"uv": [3, 3, 4.83333, 4.66667], "rotation": 180, "texture": "#0"},
				"west": {"uv": [3, 3, 4.83333, 4.66667], "rotation": 180, "texture": "#0"},
				"up": {"uv": [3, 3, 4.83333, 4.66667], "rotation": 180, "texture": "#0"},
				"down": {"uv": [3, 3, 4.83333, 4.66667], "rotation": 180, "texture": "#0"}
			}
		},
		{
			"from": [7.44172, 5.04204, 12.01738],
			"to": [8.55828, 5.14204, 12.11738],
			"rotation": {"angle": 0, "axis": "y", "origin": [8, 6.79204, 7.56738]},
			"faces": {
				"north": {"uv": [3, 3, 4.83333, 4.66667], "rotation": 180, "texture": "#0"},
				"east": {"uv": [3, 3, 4.83333, 4.66667], "rotation": 180, "texture": "#0"},
				"south": {"uv": [3, 3, 4.83333, 4.66667], "rotation": 180, "texture": "#0"},
				"west": {"uv": [3, 3, 4.83333, 4.66667], "rotation": 180, "texture": "#0"},
				"up": {"uv": [3, 3, 4.83333, 4.66667], "rotation": 180, "texture": "#0"},
				"down": {"uv": [3, 3, 4.83333, 4.66667], "rotation": 180, "texture": "#0"}
			}
		},
		{
			"from": [7.44172, 5.04204, 11.01738],
			"to": [8.55828, 5.14204, 11.11738],
			"rotation": {"angle": 0, "axis": "y", "origin": [8, 6.79204, 7.56738]},
			"faces": {
				"north": {"uv": [3, 3, 4.83333, 4.66667], "rotation": 180, "texture": "#0"},
				"east": {"uv": [3, 3, 4.83333, 4.66667], "rotation": 180, "texture": "#0"},
				"south": {"uv": [3, 3, 4.83333, 4.66667], "rotation": 180, "texture": "#0"},
				"west": {"uv": [3, 3, 4.83333, 4.66667], "rotation": 180, "texture": "#0"},
				"up": {"uv": [3, 3, 4.83333, 4.66667], "rotation": 180, "texture": "#0"},
				"down": {"uv": [3, 3, 4.83333, 4.66667], "rotation": 180, "texture": "#0"}
			}
		},
		{
			"from": [7.44172, 5.29204, 12.01738],
			"to": [8.55828, 5.39204, 12.11738],
			"rotation": {"angle": 0, "axis": "y", "origin": [8, 6.79204, 7.56738]},
			"faces": {
				"north": {"uv": [3, 3, 4.83333, 4.66667], "rotation": 180, "texture": "#0"},
				"east": {"uv": [3, 3, 4.83333, 4.66667], "rotation": 180, "texture": "#0"},
				"south": {"uv": [3, 3, 4.83333, 4.66667], "rotation": 180, "texture": "#0"},
				"west": {"uv": [3, 3, 4.83333, 4.66667], "rotation": 180, "texture": "#0"},
				"up": {"uv": [3, 3, 4.83333, 4.66667], "rotation": 180, "texture": "#0"},
				"down": {"uv": [3, 3, 4.83333, 4.66667], "rotation": 180, "texture": "#0"}
			}
		},
		{
			"from": [7.44172, 5.29204, 12.76738],
			"to": [8.55828, 5.39204, 12.86738],
			"rotation": {"angle": 0, "axis": "y", "origin": [8, 6.79204, 7.56738]},
			"faces": {
				"north": {"uv": [3, 3, 4.83333, 4.66667], "rotation": 180, "texture": "#0"},
				"east": {"uv": [3, 3, 4.83333, 4.66667], "rotation": 180, "texture": "#0"},
				"south": {"uv": [3, 3, 4.83333, 4.66667], "rotation": 180, "texture": "#0"},
				"west": {"uv": [3, 3, 4.83333, 4.66667], "rotation": 180, "texture": "#0"},
				"up": {"uv": [3, 3, 4.83333, 4.66667], "rotation": 180, "texture": "#0"},
				"down": {"uv": [3, 3, 4.83333, 4.66667], "rotation": 180, "texture": "#0"}
			}
		},
		{
			"from": [7.44172, 5.29204, 9.76738],
			"to": [8.55828, 5.39204, 9.86738],
			"rotation": {"angle": 0, "axis": "y", "origin": [8, 6.79204, 7.56738]},
			"faces": {
				"north": {"uv": [3, 3, 4.83333, 4.66667], "rotation": 180, "texture": "#0"},
				"east": {"uv": [3, 3, 4.83333, 4.66667], "rotation": 180, "texture": "#0"},
				"south": {"uv": [3, 3, 4.83333, 4.66667], "rotation": 180, "texture": "#0"},
				"west": {"uv": [3, 3, 4.83333, 4.66667], "rotation": 180, "texture": "#0"},
				"up": {"uv": [3, 3, 4.83333, 4.66667], "rotation": 180, "texture": "#0"},
				"down": {"uv": [3, 3, 4.83333, 4.66667], "rotation": 180, "texture": "#0"}
			}
		},
		{
			"from": [7.44172, 5.04204, 9.76738],
			"to": [8.55828, 5.14204, 9.86738],
			"rotation": {"angle": 0, "axis": "y", "origin": [8, 6.79204, 7.56738]},
			"faces": {
				"north": {"uv": [3, 3, 4.83333, 4.66667], "rotation": 180, "texture": "#0"},
				"east": {"uv": [3, 3, 4.83333, 4.66667], "rotation": 180, "texture": "#0"},
				"south": {"uv": [3, 3, 4.83333, 4.66667], "rotation": 180, "texture": "#0"},
				"west": {"uv": [3, 3, 4.83333, 4.66667], "rotation": 180, "texture": "#0"},
				"up": {"uv": [3, 3, 4.83333, 4.66667], "rotation": 180, "texture": "#0"},
				"down": {"uv": [3, 3, 4.83333, 4.66667], "rotation": 180, "texture": "#0"}
			}
		},
		{
			"from": [7.44172, 5.04204, 7.89238],
			"to": [8.55828, 5.14204, 7.99238],
			"rotation": {"angle": 0, "axis": "y", "origin": [8, 6.79204, 7.56738]},
			"faces": {
				"north": {"uv": [3, 3, 4.83333, 4.66667], "rotation": 180, "texture": "#0"},
				"east": {"uv": [3, 3, 4.83333, 4.66667], "rotation": 180, "texture": "#0"},
				"south": {"uv": [3, 3, 4.83333, 4.66667], "rotation": 180, "texture": "#0"},
				"west": {"uv": [3, 3, 4.83333, 4.66667], "rotation": 180, "texture": "#0"},
				"up": {"uv": [3, 3, 4.83333, 4.66667], "rotation": 180, "texture": "#0"},
				"down": {"uv": [3, 3, 4.83333, 4.66667], "rotation": 180, "texture": "#0"}
			}
		},
		{
			"from": [7.44172, 5.29204, 7.89238],
			"to": [8.55828, 5.39204, 7.99238],
			"rotation": {"angle": 0, "axis": "y", "origin": [8, 6.79204, 7.56738]},
			"faces": {
				"north": {"uv": [3, 3, 4.83333, 4.66667], "rotation": 180, "texture": "#0"},
				"east": {"uv": [3, 3, 4.83333, 4.66667], "rotation": 180, "texture": "#0"},
				"south": {"uv": [3, 3, 4.83333, 4.66667], "rotation": 180, "texture": "#0"},
				"west": {"uv": [3, 3, 4.83333, 4.66667], "rotation": 180, "texture": "#0"},
				"up": {"uv": [3, 3, 4.83333, 4.66667], "rotation": 180, "texture": "#0"},
				"down": {"uv": [3, 3, 4.83333, 4.66667], "rotation": 180, "texture": "#0"}
			}
		},
		{
			"from": [7.71672, 5.16704, 10.39238],
			"to": [8.28328, 6.72532, 14.24238],
			"rotation": {"angle": 0, "axis": "y", "origin": [8.12756, 6.01591, 2.80646]},
			"faces": {
				"north": {"uv": [0.33333, 3, 2.16667, 4.66667], "rotation": 180, "texture": "#0"},
				"east": {"uv": [0.33333, 3, 2.16667, 4.66667], "rotation": 180, "texture": "#0"},
				"south": {"uv": [0.33333, 3, 2.16667, 4.66667], "rotation": 180, "texture": "#0"},
				"west": {"uv": [0.33333, 3, 2.16667, 4.66667], "rotation": 180, "texture": "#0"},
				"up": {"uv": [0.33333, 3, 2.16667, 4.66667], "rotation": 180, "texture": "#0"},
				"down": {"uv": [0.33333, 3, 2.16667, 4.66667], "rotation": 180, "texture": "#0"}
			}
		},
		{
			"from": [6.66672, 5.84204, 7.94238],
			"to": [8.23328, 6.12532, 8.22568],
			"rotation": {"angle": 0, "axis": "y", "origin": [8.12756, 6.01591, 2.80646]},
			"faces": {
				"north": {"uv": [3, 3, 4.83333, 4.66667], "rotation": 180, "texture": "#0"},
				"east": {"uv": [3, 3, 4.83333, 4.66667], "rotation": 180, "texture": "#0"},
				"south": {"uv": [3, 3, 4.83333, 4.66667], "rotation": 180, "texture": "#0"},
				"west": {"uv": [3, 3, 4.83333, 4.66667], "rotation": 180, "texture": "#0"},
				"up": {"uv": [3, 3, 4.83333, 4.66667], "rotation": 180, "texture": "#0"},
				"down": {"uv": [3, 3, 4.83333, 4.66667], "rotation": 180, "texture": "#0"}
			}
		},
		{
			"from": [7.56672, 5.61704, 7.79238],
			"to": [8.43328, 6.30032, 10.59238],
			"rotation": {"angle": 0, "axis": "y", "origin": [8.12756, 6.01591, 2.80646]},
			"faces": {
				"north": {"uv": [3, 3, 4.83333, 4.66667], "rotation": 180, "texture": "#0"},
				"east": {"uv": [3, 3, 4.83333, 4.66667], "rotation": 180, "texture": "#0"},
				"south": {"uv": [3, 3, 4.83333, 4.66667], "rotation": 180, "texture": "#0"},
				"west": {"uv": [3, 3, 4.83333, 4.66667], "rotation": 180, "texture": "#0"},
				"up": {"uv": [3, 3, 4.83333, 4.66667], "rotation": 180, "texture": "#0"},
				"down": {"uv": [3, 3, 4.83333, 4.66667], "rotation": 180, "texture": "#0"}
			}
		},
		{
			"from": [6.66451, 5.75975, 7.98777],
			"to": [7.33549, 5.85038, 8.16903],
			"rotation": {"angle": 0, "axis": "y", "origin": [6.65, 5.97855, 8.0784]},
			"faces": {
				"north": {"uv": [3, 13.66667, 4.83333, 15.33333], "rotation": 90, "texture": "#0"},
				"east": {"uv": [3, 13.66667, 4.83333, 15.33333], "rotation": 90, "texture": "#0"},
				"south": {"uv": [3, 13.66667, 4.83333, 15.33333], "rotation": 90, "texture": "#0"},
				"west": {"uv": [3, 13.66667, 4.83333, 15.33333], "rotation": 90, "texture": "#0"},
				"up": {"uv": [3, 13.66667, 4.83333, 15.33333], "rotation": 90, "texture": "#0"},
				"down": {"uv": [3, 13.66667, 4.83333, 15.33333], "rotation": 90, "texture": "#0"}
			}
		},
		{
			"from": [6.66451, 5.75975, 7.98777],
			"to": [7.33549, 5.85038, 8.16903],
			"rotation": {"angle": 45, "axis": "x", "origin": [6.65, 5.97855, 8.0784]},
			"faces": {
				"north": {"uv": [3, 13.66667, 4.83333, 15.33333], "rotation": 90, "texture": "#0"},
				"east": {"uv": [3, 13.66667, 4.83333, 15.33333], "rotation": 90, "texture": "#0"},
				"south": {"uv": [3, 13.66667, 4.83333, 15.33333], "rotation": 90, "texture": "#0"},
				"west": {"uv": [3, 13.66667, 4.83333, 15.33333], "rotation": 90, "texture": "#0"},
				"up": {"uv": [3, 13.66667, 4.83333, 15.33333], "rotation": 90, "texture": "#0"},
				"down": {"uv": [3, 13.66667, 4.83333, 15.33333], "rotation": 90, "texture": "#0"}
			}
		},
		{
			"from": [6.66451, 5.88792, 7.8596],
			"to": [7.33549, 6.06918, 7.95023],
			"rotation": {"angle": 0, "axis": "y", "origin": [6.65, 5.97855, 8.0784]},
			"faces": {
				"north": {"uv": [3, 13.66667, 4.83333, 15.33333], "rotation": 180, "texture": "#0"},
				"east": {"uv": [3, 13.66667, 4.83333, 15.33333], "rotation": 180, "texture": "#0"},
				"south": {"uv": [3, 13.66667, 4.83333, 15.33333], "rotation": 180, "texture": "#0"},
				"west": {"uv": [3, 13.66667, 4.83333, 15.33333], "rotation": 180, "texture": "#0"},
				"up": {"uv": [3, 13.66667, 4.83333, 15.33333], "rotation": 180, "texture": "#0"},
				"down": {"uv": [3, 13.66667, 4.83333, 15.33333], "rotation": 180, "texture": "#0"}
			}
		},
		{
			"from": [6.66451, 5.88792, 7.8596],
			"to": [7.33549, 6.06918, 7.95023],
			"rotation": {"angle": 45, "axis": "x", "origin": [6.65, 5.97855, 8.0784]},
			"faces": {
				"north": {"uv": [3, 13.66667, 4.83333, 15.33333], "rotation": 180, "texture": "#0"},
				"east": {"uv": [3, 13.66667, 4.83333, 15.33333], "rotation": 180, "texture": "#0"},
				"south": {"uv": [3, 13.66667, 4.83333, 15.33333], "rotation": 180, "texture": "#0"},
				"west": {"uv": [3, 13.66667, 4.83333, 15.33333], "rotation": 180, "texture": "#0"},
				"up": {"uv": [3, 13.66667, 4.83333, 15.33333], "rotation": 180, "texture": "#0"},
				"down": {"uv": [3, 13.66667, 4.83333, 15.33333], "rotation": 180, "texture": "#0"}
			}
		},
		{
			"from": [6.66451, 5.75975, 7.98777],
			"to": [7.33549, 5.85038, 8.16903],
			"rotation": {"angle": -45, "axis": "x", "origin": [6.65, 5.97855, 8.0784]},
			"faces": {
				"north": {"uv": [3, 13.66667, 4.83333, 15.33333], "rotation": 90, "texture": "#0"},
				"east": {"uv": [3, 13.66667, 4.83333, 15.33333], "rotation": 90, "texture": "#0"},
				"south": {"uv": [3, 13.66667, 4.83333, 15.33333], "rotation": 90, "texture": "#0"},
				"west": {"uv": [3, 13.66667, 4.83333, 15.33333], "rotation": 90, "texture": "#0"},
				"up": {"uv": [3, 13.66667, 4.83333, 15.33333], "rotation": 90, "texture": "#0"},
				"down": {"uv": [3, 13.66667, 4.83333, 15.33333], "rotation": 90, "texture": "#0"}
			}
		},
		{
			"from": [6.66451, 5.88792, 8.20657],
			"to": [7.33549, 6.06918, 8.2972],
			"rotation": {"angle": 0, "axis": "y", "origin": [6.65, 5.97855, 8.0784]},
			"faces": {
				"north": {"uv": [3, 13.66667, 4.83333, 15.33333], "texture": "#0"},
				"east": {"uv": [3, 13.66667, 4.83333, 15.33333], "texture": "#0"},
				"south": {"uv": [3, 13.66667, 4.83333, 15.33333], "texture": "#0"},
				"west": {"uv": [3, 13.66667, 4.83333, 15.33333], "texture": "#0"},
				"up": {"uv": [3, 13.66667, 4.83333, 15.33333], "texture": "#0"},
				"down": {"uv": [3, 13.66667, 4.83333, 15.33333], "texture": "#0"}
			}
		},
		{
			"from": [6.66451, 5.88792, 8.20657],
			"to": [7.33549, 6.06918, 8.2972],
			"rotation": {"angle": -45, "axis": "x", "origin": [6.65, 5.97855, 8.0784]},
			"faces": {
				"north": {"uv": [3, 13.66667, 4.83333, 15.33333], "texture": "#0"},
				"east": {"uv": [3, 13.66667, 4.83333, 15.33333], "texture": "#0"},
				"south": {"uv": [3, 13.66667, 4.83333, 15.33333], "texture": "#0"},
				"west": {"uv": [3, 13.66667, 4.83333, 15.33333], "texture": "#0"},
				"up": {"uv": [3, 13.66667, 4.83333, 15.33333], "texture": "#0"},
				"down": {"uv": [3, 13.66667, 4.83333, 15.33333], "texture": "#0"}
			}
		},
		{
			"from": [6.66451, 6.10672, 7.98777],
			"to": [7.33549, 6.19735, 8.16903],
			"rotation": {"angle": 0, "axis": "y", "origin": [6.65, 5.97855, 8.0784]},
			"faces": {
				"north": {"uv": [3, 13.66667, 4.83333, 15.33333], "rotation": 270, "texture": "#0"},
				"east": {"uv": [3, 13.66667, 4.83333, 15.33333], "rotation": 270, "texture": "#0"},
				"south": {"uv": [3, 13.66667, 4.83333, 15.33333], "rotation": 270, "texture": "#0"},
				"west": {"uv": [3, 13.66667, 4.83333, 15.33333], "rotation": 270, "texture": "#0"},
				"up": {"uv": [3, 13.66667, 4.83333, 15.33333], "rotation": 270, "texture": "#0"},
				"down": {"uv": [3, 13.66667, 4.83333, 15.33333], "rotation": 270, "texture": "#0"}
			}
		},
		{
			"from": [7.56672, 3.73376, 11.79238],
			"to": [8.43328, 4.91704, 12.99238],
			"rotation": {"angle": 0, "axis": "y", "origin": [8.12756, 4.13263, 4.80646]},
			"faces": {
				"north": {"uv": [3, 13.66667, 4.83333, 15.33333], "rotation": 180, "texture": "#0"},
				"east": {"uv": [3, 13.66667, 4.83333, 15.33333], "rotation": 180, "texture": "#0"},
				"south": {"uv": [3, 13.66667, 4.83333, 15.33333], "rotation": 180, "texture": "#0"},
				"west": {"uv": [3, 13.66667, 4.83333, 15.33333], "rotation": 180, "texture": "#0"},
				"up": {"uv": [3, 13.66667, 4.83333, 15.33333], "rotation": 180, "texture": "#0"},
				"down": {"uv": [3, 13.66667, 4.83333, 15.33333], "rotation": 180, "texture": "#0"}
			}
		},
		{
			"from": [7.56672, 4.74918, 11.5203],
			"to": [8.43328, 5.33246, 12.7203],
			"rotation": {"angle": 22.5, "axis": "x", "origin": [8, 4.14082, 12.1203]},
			"faces": {
				"north": {"uv": [3, 13.66667, 4.83333, 15.33333], "rotation": 180, "texture": "#0"},
				"east": {"uv": [3, 13.66667, 4.83333, 15.33333], "rotation": 180, "texture": "#0"},
				"south": {"uv": [3, 13.66667, 4.83333, 15.33333], "rotation": 180, "texture": "#0"},
				"west": {"uv": [3, 13.66667, 4.83333, 15.33333], "rotation": 180, "texture": "#0"},
				"up": {"uv": [3, 13.66667, 4.83333, 15.33333], "rotation": 180, "texture": "#0"},
				"down": {"uv": [3, 13.66667, 4.83333, 15.33333], "rotation": 180, "texture": "#0"}
			}
		},
		{
			"from": [7.56672, 4.96168, 12.05247],
			"to": [8.43328, 5.54496, 13.25247],
			"rotation": {"angle": 45, "axis": "x", "origin": [8, 5.25332, 12.65247]},
			"faces": {
				"north": {"uv": [3, 13.66667, 4.83333, 15.33333], "rotation": 180, "texture": "#0"},
				"east": {"uv": [3, 13.66667, 4.83333, 15.33333], "rotation": 180, "texture": "#0"},
				"south": {"uv": [3, 13.66667, 4.83333, 15.33333], "rotation": 180, "texture": "#0"},
				"west": {"uv": [3, 13.66667, 4.83333, 15.33333], "rotation": 180, "texture": "#0"},
				"up": {"uv": [3, 13.66667, 4.83333, 15.33333], "rotation": 180, "texture": "#0"},
				"down": {"uv": [3, 13.66667, 4.83333, 15.33333], "rotation": 180, "texture": "#0"}
			}
		},
		{
			"from": [7.56672, 2.82512, 11.97312],
			"to": [8.43328, 4.0084, 13.17312],
			"rotation": {"angle": -22.5, "axis": "x", "origin": [8, 3.41676, 12.57312]},
			"faces": {
				"north": {"uv": [3, 13.66667, 4.83333, 15.33333], "rotation": 180, "texture": "#0"},
				"east": {"uv": [3, 13.66667, 4.83333, 15.33333], "rotation": 180, "texture": "#0"},
				"south": {"uv": [3, 13.66667, 4.83333, 15.33333], "rotation": 180, "texture": "#0"},
				"west": {"uv": [3, 13.66667, 4.83333, 15.33333], "rotation": 180, "texture": "#0"},
				"up": {"uv": [3, 13.66667, 4.83333, 15.33333], "rotation": 180, "texture": "#0"},
				"down": {"uv": [3, 13.66667, 4.83333, 15.33333], "rotation": 180, "texture": "#0"}
			}
		},
		{
			"from": [7.56672, 1.91649, 12.15386],
			"to": [8.43328, 3.09977, 13.35386],
			"rotation": {"angle": 0, "axis": "y", "origin": [8, 2.50813, 12.75386]},
			"faces": {
				"north": {"uv": [3, 13.66667, 4.83333, 15.33333], "rotation": 180, "texture": "#0"},
				"east": {"uv": [3, 13.66667, 4.83333, 15.33333], "rotation": 180, "texture": "#0"},
				"south": {"uv": [3, 13.66667, 4.83333, 15.33333], "rotation": 180, "texture": "#0"},
				"west": {"uv": [3, 13.66667, 4.83333, 15.33333], "rotation": 180, "texture": "#0"},
				"up": {"uv": [3, 13.66667, 4.83333, 15.33333], "rotation": 180, "texture": "#0"},
				"down": {"uv": [3, 13.66667, 4.83333, 15.33333], "rotation": 180, "texture": "#0"}
			}
		},
		{
			"from": [7.56672, 1.81649, 11.95386],
			"to": [8.43328, 1.91649, 13.35386],
			"rotation": {"angle": 0, "axis": "y", "origin": [8, 2.50813, 12.75386]},
			"faces": {
				"north": {"uv": [3, 13.66667, 4.83333, 15.33333], "rotation": 180, "texture": "#0"},
				"east": {"uv": [3, 13.66667, 4.83333, 15.33333], "rotation": 180, "texture": "#0"},
				"south": {"uv": [3, 13.66667, 4.83333, 15.33333], "rotation": 180, "texture": "#0"},
				"west": {"uv": [3, 13.66667, 4.83333, 15.33333], "rotation": 180, "texture": "#0"},
				"up": {"uv": [3, 13.66667, 4.83333, 15.33333], "rotation": 180, "texture": "#0"},
				"down": {"uv": [3, 13.66667, 4.83333, 15.33333], "rotation": 180, "texture": "#0"}
			}
		},
		{
			"from": [7.86672, 4.43376, 11.41632],
			"to": [8.13328, 5.31704, 11.51632],
			"rotation": {"angle": 0, "axis": "y", "origin": [8, 4.57547, 11.40435]},
			"faces": {
				"north": {"uv": [5.66667, 3, 7.5, 4.66667], "rotation": 180, "texture": "#0"},
				"east": {"uv": [5.66667, 3, 7.5, 4.66667], "rotation": 180, "texture": "#0"},
				"south": {"uv": [5.66667, 3, 7.5, 4.66667], "rotation": 180, "texture": "#0"},
				"west": {"uv": [5.66667, 3, 7.5, 4.66667], "rotation": 180, "texture": "#0"},
				"up": {"uv": [5.66667, 3, 7.5, 4.66667], "rotation": 180, "texture": "#0"},
				"down": {"uv": [5.66667, 3, 7.5, 4.66667], "rotation": 180, "texture": "#0"}
			}
		},
		{
			"from": [7.86672, 4.63376, 11.46632],
			"to": [8.13328, 5.31704, 11.56632],
			"rotation": {"angle": 0, "axis": "y", "origin": [8, 4.57547, 11.40435]},
			"faces": {
				"north": {"uv": [5.66667, 3, 7.5, 4.66667], "rotation": 180, "texture": "#0"},
				"east": {"uv": [5.66667, 3, 7.5, 4.66667], "rotation": 180, "texture": "#0"},
				"south": {"uv": [5.66667, 3, 7.5, 4.66667], "rotation": 180, "texture": "#0"},
				"west": {"uv": [5.66667, 3, 7.5, 4.66667], "rotation": 180, "texture": "#0"},
				"up": {"uv": [5.66667, 3, 7.5, 4.66667], "rotation": 180, "texture": "#0"},
				"down": {"uv": [5.66667, 3, 7.5, 4.66667], "rotation": 180, "texture": "#0"}
			}
		},
		{
			"from": [7.86672, 4.78376, 11.46632],
			"to": [8.13328, 5.31704, 11.64132],
			"rotation": {"angle": 0, "axis": "y", "origin": [8, 4.57547, 11.40435]},
			"faces": {
				"north": {"uv": [5.66667, 3, 7.5, 4.66667], "rotation": 180, "texture": "#0"},
				"east": {"uv": [5.66667, 3, 7.5, 4.66667], "rotation": 180, "texture": "#0"},
				"south": {"uv": [5.66667, 3, 7.5, 4.66667], "rotation": 180, "texture": "#0"},
				"west": {"uv": [5.66667, 3, 7.5, 4.66667], "rotation": 180, "texture": "#0"},
				"up": {"uv": [5.66667, 3, 7.5, 4.66667], "rotation": 180, "texture": "#0"},
				"down": {"uv": [5.66667, 3, 7.5, 4.66667], "rotation": 180, "texture": "#0"}
			}
		},
		{
			"from": [7.86672, 4.41927, 11.58913],
			"to": [8.13328, 5.30255, 11.68913],
			"rotation": {"angle": 22.5, "axis": "x", "origin": [8, 4.86091, 11.63913]},
			"faces": {
				"north": {"uv": [5.66667, 3, 7.5, 4.66667], "rotation": 180, "texture": "#0"},
				"east": {"uv": [5.66667, 3, 7.5, 4.66667], "rotation": 180, "texture": "#0"},
				"south": {"uv": [5.66667, 3, 7.5, 4.66667], "rotation": 180, "texture": "#0"},
				"west": {"uv": [5.66667, 3, 7.5, 4.66667], "rotation": 180, "texture": "#0"},
				"up": {"uv": [5.66667, 3, 7.5, 4.66667], "rotation": 180, "texture": "#0"},
				"down": {"uv": [5.66667, 3, 7.5, 4.66667], "rotation": 180, "texture": "#0"}
			}
		},
		{
			"from": [7.86672, 4.30411, 11.46203],
			"to": [8.13328, 4.48739, 11.56203],
			"rotation": {"angle": 22.5, "axis": "x", "origin": [8, 4.57547, 11.40435]},
			"faces": {
				"north": {"uv": [5.66667, 3, 7.5, 4.66667], "rotation": 180, "texture": "#0"},
				"east": {"uv": [5.66667, 3, 7.5, 4.66667], "rotation": 180, "texture": "#0"},
				"south": {"uv": [5.66667, 3, 7.5, 4.66667], "rotation": 180, "texture": "#0"},
				"west": {"uv": [5.66667, 3, 7.5, 4.66667], "rotation": 180, "texture": "#0"},
				"up": {"uv": [5.66667, 3, 7.5, 4.66667], "rotation": 180, "texture": "#0"},
				"down": {"uv": [5.66667, 3, 7.5, 4.66667], "rotation": 180, "texture": "#0"}
			}
		},
		{
			"from": [7.86672, 4.2721, 11.14068],
			"to": [8.13328, 4.3721, 11.32396],
			"rotation": {"angle": -22.5, "axis": "x", "origin": [8, 4.57547, 11.40435]},
			"faces": {
				"north": {"uv": [5.66667, 3, 7.5, 4.66667], "texture": "#0"},
				"east": {"uv": [5.66667, 3, 7.5, 4.66667], "texture": "#0"},
				"south": {"uv": [5.66667, 3, 7.5, 4.66667], "texture": "#0"},
				"west": {"uv": [5.66667, 3, 7.5, 4.66667], "texture": "#0"},
				"up": {"uv": [5.66667, 3, 7.5, 4.66667], "texture": "#0"},
				"down": {"uv": [5.66667, 3, 7.5, 4.66667], "texture": "#0"}
			}
		},
		{
			"from": [7.86672, 6.90032, 8.06738],
			"to": [8.13328, 7.10032, 8.61738],
			"rotation": {"angle": 0, "axis": "y", "origin": [8.12756, 6.01591, 1.30646]},
			"faces": {
				"north": {"uv": [5.66667, 3, 7.5, 4.66667], "rotation": 180, "texture": "#0"},
				"east": {"uv": [5.66667, 3, 7.5, 4.66667], "rotation": 180, "texture": "#0"},
				"south": {"uv": [5.66667, 3, 7.5, 4.66667], "rotation": 180, "texture": "#0"},
				"west": {"uv": [5.66667, 3, 7.5, 4.66667], "rotation": 180, "texture": "#0"},
				"up": {"uv": [5.66667, 3, 7.5, 4.66667], "rotation": 180, "texture": "#0"},
				"down": {"uv": [5.66667, 3, 7.5, 4.66667], "rotation": 180, "texture": "#0"}
			}
		},
		{
			"from": [7.86672, 6.90032, 12.76738],
			"to": [8.13328, 7.10032, 13.31738],
			"rotation": {"angle": 0, "axis": "y", "origin": [8.12756, 6.01591, 1.30646]},
			"faces": {
				"north": {"uv": [5.66667, 3, 7.5, 4.66667], "rotation": 180, "texture": "#0"},
				"east": {"uv": [5.66667, 3, 7.5, 4.66667], "rotation": 180, "texture": "#0"},
				"south": {"uv": [5.66667, 3, 7.5, 4.66667], "rotation": 180, "texture": "#0"},
				"west": {"uv": [5.66667, 3, 7.5, 4.66667], "rotation": 180, "texture": "#0"},
				"up": {"uv": [5.66667, 3, 7.5, 4.66667], "rotation": 180, "texture": "#0"},
				"down": {"uv": [5.66667, 3, 7.5, 4.66667], "rotation": 180, "texture": "#0"}
			}
		},
		{
			"from": [7.96672, 6.87532, 8.16738],
			"to": [8.03328, 7.27532, 8.51738],
			"rotation": {"angle": 0, "axis": "y", "origin": [8.12756, 5.99091, 1.30646]},
			"faces": {
				"north": {"uv": [5.66667, 3, 7.5, 4.66667], "rotation": 180, "texture": "#0"},
				"east": {"uv": [5.66667, 3, 7.5, 4.66667], "rotation": 180, "texture": "#0"},
				"south": {"uv": [5.66667, 3, 7.5, 4.66667], "rotation": 180, "texture": "#0"},
				"west": {"uv": [5.66667, 3, 7.5, 4.66667], "rotation": 180, "texture": "#0"},
				"up": {"uv": [5.66667, 3, 7.5, 4.66667], "rotation": 180, "texture": "#0"},
				"down": {"uv": [5.66667, 3, 7.5, 4.66667], "rotation": 180, "texture": "#0"}
			}
		},
		{
			"from": [7.88765, 7.0278, 8.16738],
			"to": [7.95421, 7.2778, 8.51738],
			"rotation": {"angle": -22.5, "axis": "z", "origin": [7.92093, 7.0778, 8.34238]},
			"faces": {
				"north": {"uv": [5.66667, 3, 7.5, 4.66667], "rotation": 180, "texture": "#0"},
				"east": {"uv": [5.66667, 3, 7.5, 4.66667], "rotation": 180, "texture": "#0"},
				"south": {"uv": [5.66667, 3, 7.5, 4.66667], "rotation": 180, "texture": "#0"},
				"west": {"uv": [5.66667, 3, 7.5, 4.66667], "rotation": 180, "texture": "#0"},
				"up": {"uv": [5.66667, 3, 7.5, 4.66667], "rotation": 180, "texture": "#0"},
				"down": {"uv": [5.66667, 3, 7.5, 4.66667], "rotation": 180, "texture": "#0"}
			}
		},
		{
			"from": [8.01709, 7.0221, 8.16738],
			"to": [8.08365, 7.2721, 8.51738],
			"rotation": {"angle": 22.5, "axis": "z", "origin": [8.05037, 7.1471, 8.34238]},
			"faces": {
				"north": {"uv": [5.66667, 3, 7.5, 4.66667], "rotation": 180, "texture": "#0"},
				"east": {"uv": [5.66667, 3, 7.5, 4.66667], "rotation": 180, "texture": "#0"},
				"south": {"uv": [5.66667, 3, 7.5, 4.66667], "rotation": 180, "texture": "#0"},
				"west": {"uv": [5.66667, 3, 7.5, 4.66667], "rotation": 180, "texture": "#0"},
				"up": {"uv": [5.66667, 3, 7.5, 4.66667], "rotation": 180, "texture": "#0"},
				"down": {"uv": [5.66667, 3, 7.5, 4.66667], "rotation": 180, "texture": "#0"}
			}
		},
		{
			"from": [7.86672, 6.90032, 12.91738],
			"to": [7.95828, 7.30032, 13.26738],
			"rotation": {"angle": 0, "axis": "y", "origin": [8.12756, 6.01591, 1.30646]},
			"faces": {
				"north": {"uv": [5.66667, 3, 7.5, 4.66667], "rotation": 180, "texture": "#0"},
				"east": {"uv": [5.66667, 3, 7.5, 4.66667], "rotation": 180, "texture": "#0"},
				"south": {"uv": [5.66667, 3, 7.5, 4.66667], "rotation": 180, "texture": "#0"},
				"west": {"uv": [5.66667, 3, 7.5, 4.66667], "rotation": 180, "texture": "#0"},
				"up": {"uv": [5.66667, 3, 7.5, 4.66667], "rotation": 180, "texture": "#0"},
				"down": {"uv": [5.66667, 3, 7.5, 4.66667], "rotation": 180, "texture": "#0"}
			}
		},
		{
			"from": [8.04172, 6.90032, 12.91738],
			"to": [8.13328, 7.30032, 13.26738],
			"rotation": {"angle": 0, "axis": "y", "origin": [8.12756, 6.01591, 1.30646]},
			"faces": {
				"north": {"uv": [5.66667, 3, 7.5, 4.66667], "rotation": 180, "texture": "#0"},
				"east": {"uv": [5.66667, 3, 7.5, 4.66667], "rotation": 180, "texture": "#0"},
				"south": {"uv": [5.66667, 3, 7.5, 4.66667], "rotation": 180, "texture": "#0"},
				"west": {"uv": [5.66667, 3, 7.5, 4.66667], "rotation": 180, "texture": "#0"},
				"up": {"uv": [5.66667, 3, 7.5, 4.66667], "rotation": 180, "texture": "#0"},
				"down": {"uv": [5.66667, 3, 7.5, 4.66667], "rotation": 180, "texture": "#0"}
			}
		},
		{
			"from": [7.90752, 7.04519, 12.91738],
			"to": [7.97408, 7.29519, 13.26738],
			"rotation": {"angle": 22.5, "axis": "z", "origin": [7.9408, 7.19519, 13.09238]},
			"faces": {
				"north": {"uv": [5.66667, 3, 7.5, 4.66667], "rotation": 180, "texture": "#0"},
				"east": {"uv": [5.66667, 3, 7.5, 4.66667], "rotation": 180, "texture": "#0"},
				"south": {"uv": [5.66667, 3, 7.5, 4.66667], "rotation": 180, "texture": "#0"},
				"west": {"uv": [5.66667, 3, 7.5, 4.66667], "rotation": 180, "texture": "#0"},
				"up": {"uv": [5.66667, 3, 7.5, 4.66667], "rotation": 180, "texture": "#0"},
				"down": {"uv": [5.66667, 3, 7.5, 4.66667], "rotation": 180, "texture": "#0"}
			}
		},
		{
			"from": [7.22615, 7.16831, 12.91738],
			"to": [7.29271, 7.44331, 13.26738],
			"rotation": {"angle": -22.5, "axis": "z", "origin": [7.287, 5.25891, 1.30646]},
			"faces": {
				"north": {"uv": [5.66667, 3, 7.5, 4.66667], "rotation": 180, "texture": "#0"},
				"east": {"uv": [5.66667, 3, 7.5, 4.66667], "rotation": 180, "texture": "#0"},
				"south": {"uv": [5.66667, 3, 7.5, 4.66667], "rotation": 180, "texture": "#0"},
				"west": {"uv": [5.66667, 3, 7.5, 4.66667], "rotation": 180, "texture": "#0"},
				"up": {"uv": [5.66667, 3, 7.5, 4.66667], "rotation": 180, "texture": "#0"},
				"down": {"uv": [5.66667, 3, 7.5, 4.66667], "rotation": 180, "texture": "#0"}
			}
		}
	],
	"display": {
		"thirdperson_righthand": {
			"translation": [0, 3.25, -2.75]
		},
		"thirdperson_lefthand": {
			"translation": [0, 3.25, -2.75]
		},
		"firstperson_righthand": {
			"translation": [-4.75, 6, 1.25]
		},
		"firstperson_lefthand": {
			"translation": [-6, 6.25, 0.75]
		},
		"ground": {
			"translation": [0, 4.25, 0]
		},
		"gui": {
			"rotation": [90, 48, -90],
			"translation": [1, 2, 0],
			"scale": [0.9, 0.9, 0.9]
		},
		"head": {
			"translation": [0, 13, 0]
		},
		"fixed": {
			"rotation": [90, 45, -90],
			"translation": [1.5, 2.25, -1]
		}
	},
	"groups": [
		{
			"name": "gun",
			"origin": [8, 8, 8],
			"color": 0,
			"children": [
				{
					"name": "chassis",
					"origin": [8, 8, 8],
					"color": 0,
					"children": [
						0,
						1,
						2,
						3,
						4,
						5,
						{
							"name": "group",
							"origin": [8, 8, 8],
							"color": 0,
							"children": [6, 7, 8, 9, 10, 11, 12, 13]
						},
						{
							"name": "rivets",
							"origin": [8, 8, 8],
							"color": 0,
							"children": [
								{
									"name": "group",
									"origin": [8, 6.79204, 7.56738],
									"color": 0,
									"children": [14, 15, 16, 17, 18, 19, 20, 21, 22, 23, 24, 25]
								},
								{
									"name": "group",
									"origin": [8, 6.79204, 7.56738],
									"color": 0,
									"children": [26, 27, 28, 29, 30, 31, 32, 33, 34, 35, 36]
								}
							]
						},
						37
					]
				},
				{
					"name": "bolt",
					"origin": [8.12756, 6.01591, 2.80646],
					"color": 0,
					"children": [
						38,
						39,
						{
							"name": "barrel",
							"origin": [8.26799, 6.05704, 8.6884],
							"color": 0,
							"children": [40, 41, 42, 43, 44, 45, 46, 47]
						}
					]
				},
				{
					"name": "grip",
					"origin": [8, 8, 8],
					"color": 0,
					"children": [48, 49, 50, 51, 52, 53]
				},
				{
					"name": "trigger",
					"origin": [8, 8, 8],
					"color": 0,
					"children": [54, 55, 56, 57, 58, 59]
				},
				{
					"name": "musk",
					"origin": [8, 8, 8],
					"color": 0,
					"children": [60, 61, 62, 63, 64, 65, 66, 67, 68]
				}
			]
		}
	]
}