{
	"credit": "Made with Blockbench",
	"textures": {
		"0": "gci:items/common/mpz",
		"particle": "gci:items/common/mpz"
	},
	"elements": [
		{
			"from": [7.62506, 4.0326, 19.64352],
			"to": [8.37494, 6.19515, 19.87739],
			"rotation": {"angle": 0, "axis": "y", "origin": [8, 2.87186, 19.61046]},
			"faces": {
				"north": {"uv": [8.33333, 0.33333, 10.16667, 2], "rotation": 270, "texture": "#0"},
				"east": {"uv": [8.33333, 0.33333, 10.16667, 2], "rotation": 270, "texture": "#0"},
				"south": {"uv": [8.33333, 0.33333, 10.16667, 2], "rotation": 270, "texture": "#0"},
				"west": {"uv": [8.33333, 0.33333, 10.16667, 2], "rotation": 270, "texture": "#0"},
				"up": {"uv": [8.33333, 0.33333, 10.16667, 2], "rotation": 270, "texture": "#0"},
				"down": {"uv": [8.33333, 0.33333, 10.16667, 2], "rotation": 270, "texture": "#0"}
			}
		},
		{
			"from": [7.86672, 5.53178, 13.89238],
			"to": [8.13328, 5.66506, 17.91442],
			"rotation": {"angle": 0, "axis": "y", "origin": [8, 5.47847, 11.43966]},
			"faces": {
				"north": {"uv": [0.33333, 3, 2.16667, 4.66667], "texture": "#0"},
				"east": {"uv": [0.33333, 3, 2.16667, 4.66667], "texture": "#0"},
				"south": {"uv": [0.33333, 3, 2.16667, 4.66667], "texture": "#0"},
				"west": {"uv": [0.33333, 3, 2.16667, 4.66667], "texture": "#0"},
				"up": {"uv": [0.33333, 3, 2.16667, 4.66667], "texture": "#0"},
				"down": {"uv": [0.33333, 3, 2.16667, 4.66667], "texture": "#0"}
			}
		},
		{
			"from": [7.68632, 5.60651, 13.89238],
			"to": [7.95288, 5.73979, 17.91442],
			"rotation": {"angle": -45, "axis": "z", "origin": [7.8196, 5.67315, 11.10646]},
			"faces": {
				"north": {"uv": [0.33333, 3, 2.16667, 4.66667], "texture": "#0"},
				"east": {"uv": [0.33333, 3, 2.16667, 4.66667], "texture": "#0"},
				"south": {"uv": [0.33333, 3, 2.16667, 4.66667], "texture": "#0"},
				"west": {"uv": [0.33333, 3, 2.16667, 4.66667], "texture": "#0"},
				"up": {"uv": [0.33333, 3, 2.16667, 4.66667], "texture": "#0"},
				"down": {"uv": [0.33333, 3, 2.16667, 4.66667], "texture": "#0"}
			}
		},
		{
			"from": [7.67823, 5.72027, 13.89238],
			"to": [7.81151, 5.98683, 17.91442],
			"rotation": {"angle": 0, "axis": "y", "origin": [7.78224, 5.94375, 11.10646]},
			"faces": {
				"north": {"uv": [0.33333, 3, 2.16667, 4.66667], "rotation": 90, "texture": "#0"},
				"east": {"uv": [0.33333, 3, 2.16667, 4.66667], "rotation": 90, "texture": "#0"},
				"south": {"uv": [0.33333, 3, 2.16667, 4.66667], "rotation": 90, "texture": "#0"},
				"west": {"uv": [0.33333, 3, 2.16667, 4.66667], "rotation": 90, "texture": "#0"},
				"up": {"uv": [0.33333, 3, 2.16667, 4.66667], "rotation": 90, "texture": "#0"},
				"down": {"uv": [0.33333, 3, 2.16667, 4.66667], "rotation": 90, "texture": "#0"}
			}
		},
		{
			"from": [7.67823, 5.90067, 13.89238],
			"to": [7.81151, 6.16723, 17.91442],
			"rotation": {"angle": -45, "axis": "z", "origin": [7.78224, 5.94375, 11.10646]},
			"faces": {
				"north": {"uv": [0.33333, 3, 2.16667, 4.66667], "rotation": 90, "texture": "#0"},
				"east": {"uv": [0.33333, 3, 2.16667, 4.66667], "rotation": 90, "texture": "#0"},
				"south": {"uv": [0.33333, 3, 2.16667, 4.66667], "rotation": 90, "texture": "#0"},
				"west": {"uv": [0.33333, 3, 2.16667, 4.66667], "rotation": 90, "texture": "#0"},
				"up": {"uv": [0.33333, 3, 2.16667, 4.66667], "rotation": 90, "texture": "#0"},
				"down": {"uv": [0.33333, 3, 2.16667, 4.66667], "rotation": 90, "texture": "#0"}
			}
		},
		{
			"from": [7.87766, 5.63293, 13.89238],
			"to": [8.14422, 5.76621, 17.91442],
			"rotation": {"angle": 45, "axis": "z", "origin": [8.12756, 5.89091, 11.10646]},
			"faces": {
				"north": {"uv": [0.33333, 3, 2.16667, 4.66667], "texture": "#0"},
				"east": {"uv": [0.33333, 3, 2.16667, 4.66667], "texture": "#0"},
				"south": {"uv": [0.33333, 3, 2.16667, 4.66667], "texture": "#0"},
				"west": {"uv": [0.33333, 3, 2.16667, 4.66667], "texture": "#0"},
				"up": {"uv": [0.33333, 3, 2.16667, 4.66667], "texture": "#0"},
				"down": {"uv": [0.33333, 3, 2.16667, 4.66667], "texture": "#0"}
			}
		},
		{
			"from": [8.18849, 5.72027, 13.89238],
			"to": [8.32177, 5.98683, 17.91442],
			"rotation": {"angle": 0, "axis": "y", "origin": [8.12756, 5.89091, 11.10646]},
			"faces": {
				"north": {"uv": [0.33333, 3, 2.16667, 4.66667], "rotation": 270, "texture": "#0"},
				"east": {"uv": [0.33333, 3, 2.16667, 4.66667], "rotation": 270, "texture": "#0"},
				"south": {"uv": [0.33333, 3, 2.16667, 4.66667], "rotation": 270, "texture": "#0"},
				"west": {"uv": [0.33333, 3, 2.16667, 4.66667], "rotation": 270, "texture": "#0"},
				"up": {"uv": [0.33333, 3, 2.16667, 4.66667], "rotation": 270, "texture": "#0"},
				"down": {"uv": [0.33333, 3, 2.16667, 4.66667], "rotation": 270, "texture": "#0"}
			}
		},
		{
			"from": [8.19943, 5.82141, 13.89238],
			"to": [8.33271, 6.08797, 17.91442],
			"rotation": {"angle": 45, "axis": "z", "origin": [8.12756, 5.89091, 11.10646]},
			"faces": {
				"north": {"uv": [0.33333, 3, 2.16667, 4.66667], "rotation": 270, "texture": "#0"},
				"east": {"uv": [0.33333, 3, 2.16667, 4.66667], "rotation": 270, "texture": "#0"},
				"south": {"uv": [0.33333, 3, 2.16667, 4.66667], "rotation": 270, "texture": "#0"},
				"west": {"uv": [0.33333, 3, 2.16667, 4.66667], "rotation": 270, "texture": "#0"},
				"up": {"uv": [0.33333, 3, 2.16667, 4.66667], "rotation": 270, "texture": "#0"},
				"down": {"uv": [0.33333, 3, 2.16667, 4.66667], "rotation": 270, "texture": "#0"}
			}
		},
		{
			"from": [7.86672, 6.04204, 13.89238],
			"to": [8.13328, 6.17532, 17.91442],
			"rotation": {"angle": 0, "axis": "y", "origin": [8.12756, 5.89091, 11.10646]},
			"faces": {
				"north": {"uv": [0.33333, 3, 2.16667, 4.66667], "rotation": 180, "texture": "#0"},
				"east": {"uv": [0.33333, 3, 2.16667, 4.66667], "rotation": 180, "texture": "#0"},
				"south": {"uv": [0.33333, 3, 2.16667, 4.66667], "rotation": 180, "texture": "#0"},
				"west": {"uv": [0.33333, 3, 2.16667, 4.66667], "rotation": 180, "texture": "#0"},
				"up": {"uv": [0.33333, 3, 2.16667, 4.66667], "rotation": 180, "texture": "#0"},
				"down": {"uv": [0.33333, 3, 2.16667, 4.66667], "rotation": 180, "texture": "#0"}
			}
		},
		{
			"from": [7.62506, 4.0326, 19.64352],
			"to": [8.37494, 6.19515, 19.87739],
			"rotation": {"angle": 0, "axis": "y", "origin": [8, 2.87186, 19.61046]},
			"faces": {
				"north": {"uv": [8.33333, 0.33333, 10.16667, 2], "rotation": 270, "texture": "#0"},
				"east": {"uv": [8.33333, 0.33333, 10.16667, 2], "rotation": 270, "texture": "#0"},
				"south": {"uv": [8.33333, 0.33333, 10.16667, 2], "rotation": 270, "texture": "#0"},
				"west": {"uv": [8.33333, 0.33333, 10.16667, 2], "rotation": 270, "texture": "#0"},
				"up": {"uv": [8.33333, 0.33333, 10.16667, 2], "rotation": 270, "texture": "#0"},
				"down": {"uv": [8.33333, 0.33333, 10.16667, 2], "rotation": 270, "texture": "#0"}
			}
		},
		{
			"from": [7.68632, 5.60651, 13.89238],
			"to": [7.95288, 5.73979, 17.91442],
			"rotation": {"angle": -45, "axis": "z", "origin": [7.8196, 5.67315, 11.10646]},
			"faces": {
				"north": {"uv": [0.33333, 3, 2.16667, 4.66667], "texture": "#0"},
				"east": {"uv": [0.33333, 3, 2.16667, 4.66667], "texture": "#0"},
				"south": {"uv": [0.33333, 3, 2.16667, 4.66667], "texture": "#0"},
				"west": {"uv": [0.33333, 3, 2.16667, 4.66667], "texture": "#0"},
				"up": {"uv": [0.33333, 3, 2.16667, 4.66667], "texture": "#0"},
				"down": {"uv": [0.33333, 3, 2.16667, 4.66667], "texture": "#0"}
			}
		},
		{
			"from": [7.67823, 5.72027, 13.89238],
			"to": [7.81151, 5.98683, 17.91442],
			"rotation": {"angle": 0, "axis": "y", "origin": [7.78224, 5.94375, 11.10646]},
			"faces": {
				"north": {"uv": [0.33333, 3, 2.16667, 4.66667], "rotation": 90, "texture": "#0"},
				"east": {"uv": [0.33333, 3, 2.16667, 4.66667], "rotation": 90, "texture": "#0"},
				"south": {"uv": [0.33333, 3, 2.16667, 4.66667], "rotation": 90, "texture": "#0"},
				"west": {"uv": [0.33333, 3, 2.16667, 4.66667], "rotation": 90, "texture": "#0"},
				"up": {"uv": [0.33333, 3, 2.16667, 4.66667], "rotation": 90, "texture": "#0"},
				"down": {"uv": [0.33333, 3, 2.16667, 4.66667], "rotation": 90, "texture": "#0"}
			}
		},
		{
			"from": [7.67823, 5.90067, 13.89238],
			"to": [7.81151, 6.16723, 17.91442],
			"rotation": {"angle": -45, "axis": "z", "origin": [7.78224, 5.94375, 11.10646]},
			"faces": {
				"north": {"uv": [0.33333, 3, 2.16667, 4.66667], "rotation": 90, "texture": "#0"},
				"east": {"uv": [0.33333, 3, 2.16667, 4.66667], "rotation": 90, "texture": "#0"},
				"south": {"uv": [0.33333, 3, 2.16667, 4.66667], "rotation": 90, "texture": "#0"},
				"west": {"uv": [0.33333, 3, 2.16667, 4.66667], "rotation": 90, "texture": "#0"},
				"up": {"uv": [0.33333, 3, 2.16667, 4.66667], "rotation": 90, "texture": "#0"},
				"down": {"uv": [0.33333, 3, 2.16667, 4.66667], "rotation": 90, "texture": "#0"}
			}
		},
		{
			"from": [7.87766, 5.63293, 13.89238],
			"to": [8.14422, 5.76621, 17.91442],
			"rotation": {"angle": 45, "axis": "z", "origin": [8.12756, 5.89091, 11.10646]},
			"faces": {
				"north": {"uv": [0.33333, 3, 2.16667, 4.66667], "texture": "#0"},
				"east": {"uv": [0.33333, 3, 2.16667, 4.66667], "texture": "#0"},
				"south": {"uv": [0.33333, 3, 2.16667, 4.66667], "texture": "#0"},
				"west": {"uv": [0.33333, 3, 2.16667, 4.66667], "texture": "#0"},
				"up": {"uv": [0.33333, 3, 2.16667, 4.66667], "texture": "#0"},
				"down": {"uv": [0.33333, 3, 2.16667, 4.66667], "texture": "#0"}
			}
		},
		{
			"from": [8.18849, 5.72027, 13.89238],
			"to": [8.32177, 5.98683, 17.91442],
			"rotation": {"angle": 0, "axis": "y", "origin": [8.12756, 5.89091, 11.10646]},
			"faces": {
				"north": {"uv": [0.33333, 3, 2.16667, 4.66667], "rotation": 270, "texture": "#0"},
				"east": {"uv": [0.33333, 3, 2.16667, 4.66667], "rotation": 270, "texture": "#0"},
				"south": {"uv": [0.33333, 3, 2.16667, 4.66667], "rotation": 270, "texture": "#0"},
				"west": {"uv": [0.33333, 3, 2.16667, 4.66667], "rotation": 270, "texture": "#0"},
				"up": {"uv": [0.33333, 3, 2.16667, 4.66667], "rotation": 270, "texture": "#0"},
				"down": {"uv": [0.33333, 3, 2.16667, 4.66667], "rotation": 270, "texture": "#0"}
			}
		},
		{
			"from": [8.19943, 5.82141, 13.89238],
			"to": [8.33271, 6.08797, 17.91442],
			"rotation": {"angle": 45, "axis": "z", "origin": [8.12756, 5.89091, 11.10646]},
			"faces": {
				"north": {"uv": [0.33333, 3, 2.16667, 4.66667], "rotation": 270, "texture": "#0"},
				"east": {"uv": [0.33333, 3, 2.16667, 4.66667], "rotation": 270, "texture": "#0"},
				"south": {"uv": [0.33333, 3, 2.16667, 4.66667], "rotation": 270, "texture": "#0"},
				"west": {"uv": [0.33333, 3, 2.16667, 4.66667], "rotation": 270, "texture": "#0"},
				"up": {"uv": [0.33333, 3, 2.16667, 4.66667], "rotation": 270, "texture": "#0"},
				"down": {"uv": [0.33333, 3, 2.16667, 4.66667], "rotation": 270, "texture": "#0"}
			}
		},
		{
			"from": [7.86672, 6.04204, 13.89238],
			"to": [8.13328, 6.17532, 17.91442],
			"rotation": {"angle": 0, "axis": "y", "origin": [8.12756, 5.89091, 11.10646]},
			"faces": {
				"north": {"uv": [0.33333, 3, 2.16667, 4.66667], "rotation": 180, "texture": "#0"},
				"east": {"uv": [0.33333, 3, 2.16667, 4.66667], "rotation": 180, "texture": "#0"},
				"south": {"uv": [0.33333, 3, 2.16667, 4.66667], "rotation": 180, "texture": "#0"},
				"west": {"uv": [0.33333, 3, 2.16667, 4.66667], "rotation": 180, "texture": "#0"},
				"up": {"uv": [0.33333, 3, 2.16667, 4.66667], "rotation": 180, "texture": "#0"},
				"down": {"uv": [0.33333, 3, 2.16667, 4.66667], "rotation": 180, "texture": "#0"}
			}
		},
		{
			"from": [7.59172, 5.54204, 14.14238],
			"to": [8.40828, 5.64204, 14.24238],
			"rotation": {"angle": 0, "axis": "y", "origin": [8, 6.79204, 7.56738]},
			"faces": {
				"north": {"uv": [3, 3, 4.83333, 4.66667], "rotation": 270, "texture": "#0"},
				"east": {"uv": [3, 3, 4.83333, 4.66667], "rotation": 270, "texture": "#0"},
				"south": {"uv": [3, 3, 4.83333, 4.66667], "rotation": 270, "texture": "#0"},
				"west": {"uv": [3, 3, 4.83333, 4.66667], "rotation": 270, "texture": "#0"},
				"up": {"uv": [3, 3, 4.83333, 4.66667], "rotation": 270, "texture": "#0"},
				"down": {"uv": [3, 3, 4.83333, 4.66667], "rotation": 270, "texture": "#0"}
			}
		},
		{
			"from": [7.69172, 5.39204, 16.06738],
			"to": [8.30828, 5.49204, 16.16738],
			"rotation": {"angle": 0, "axis": "y", "origin": [8, 6.79204, 7.56738]},
			"faces": {
				"north": {"uv": [3, 3, 4.83333, 4.66667], "rotation": 270, "texture": "#0"},
				"east": {"uv": [3, 3, 4.83333, 4.66667], "rotation": 270, "texture": "#0"},
				"south": {"uv": [3, 3, 4.83333, 4.66667], "rotation": 270, "texture": "#0"},
				"west": {"uv": [3, 3, 4.83333, 4.66667], "rotation": 270, "texture": "#0"},
				"up": {"uv": [3, 3, 4.83333, 4.66667], "rotation": 270, "texture": "#0"},
				"down": {"uv": [3, 3, 4.83333, 4.66667], "rotation": 270, "texture": "#0"}
			}
		},
		{
			"from": [7.69172, 6.19204, 16.06738],
			"to": [8.30828, 6.29204, 16.16738],
			"rotation": {"angle": 0, "axis": "y", "origin": [8, 6.79204, 7.56738]},
			"faces": {
				"north": {"uv": [3, 3, 4.83333, 4.66667], "rotation": 270, "texture": "#0"},
				"east": {"uv": [3, 3, 4.83333, 4.66667], "rotation": 270, "texture": "#0"},
				"south": {"uv": [3, 3, 4.83333, 4.66667], "rotation": 270, "texture": "#0"},
				"west": {"uv": [3, 3, 4.83333, 4.66667], "rotation": 270, "texture": "#0"},
				"up": {"uv": [3, 3, 4.83333, 4.66667], "rotation": 270, "texture": "#0"},
				"down": {"uv": [3, 3, 4.83333, 4.66667], "rotation": 270, "texture": "#0"}
			}
		},
		{
			"from": [7.66672, 5.81704, 16.14238],
			"to": [8.33328, 5.91704, 16.24238],
			"rotation": {"angle": 0, "axis": "y", "origin": [8, 6.79204, 7.56738]},
			"faces": {
				"north": {"uv": [3, 3, 4.83333, 4.66667], "rotation": 270, "texture": "#0"},
				"east": {"uv": [3, 3, 4.83333, 4.66667], "rotation": 270, "texture": "#0"},
				"south": {"uv": [3, 3, 4.83333, 4.66667], "rotation": 270, "texture": "#0"},
				"west": {"uv": [3, 3, 4.83333, 4.66667], "rotation": 270, "texture": "#0"},
				"up": {"uv": [3, 3, 4.83333, 4.66667], "rotation": 270, "texture": "#0"},
				"down": {"uv": [3, 3, 4.83333, 4.66667], "rotation": 270, "texture": "#0"}
			}
		},
		{
			"from": [7.66672, 5.81704, 16.64238],
			"to": [8.33328, 5.91704, 16.74238],
			"rotation": {"angle": 0, "axis": "y", "origin": [8, 6.79204, 7.56738]},
			"faces": {
				"north": {"uv": [3, 3, 4.83333, 4.66667], "rotation": 270, "texture": "#0"},
				"east": {"uv": [3, 3, 4.83333, 4.66667], "rotation": 270, "texture": "#0"},
				"south": {"uv": [3, 3, 4.83333, 4.66667], "rotation": 270, "texture": "#0"},
				"west": {"uv": [3, 3, 4.83333, 4.66667], "rotation": 270, "texture": "#0"},
				"up": {"uv": [3, 3, 4.83333, 4.66667], "rotation": 270, "texture": "#0"},
				"down": {"uv": [3, 3, 4.83333, 4.66667], "rotation": 270, "texture": "#0"}
			}
		},
		{
			"from": [7.66672, 5.81704, 17.14238],
			"to": [8.33328, 5.91704, 17.24238],
			"rotation": {"angle": 0, "axis": "y", "origin": [8, 6.79204, 7.56738]},
			"faces": {
				"north": {"uv": [3, 3, 4.83333, 4.66667], "rotation": 270, "texture": "#0"},
				"east": {"uv": [3, 3, 4.83333, 4.66667], "rotation": 270, "texture": "#0"},
				"south": {"uv": [3, 3, 4.83333, 4.66667], "rotation": 270, "texture": "#0"},
				"west": {"uv": [3, 3, 4.83333, 4.66667], "rotation": 270, "texture": "#0"},
				"up": {"uv": [3, 3, 4.83333, 4.66667], "rotation": 270, "texture": "#0"},
				"down": {"uv": [3, 3, 4.83333, 4.66667], "rotation": 270, "texture": "#0"}
			}
		},
		{
			"from": [7.66672, 5.81704, 17.64238],
			"to": [8.33328, 5.91704, 17.74238],
			"rotation": {"angle": 0, "axis": "y", "origin": [8, 6.79204, 7.56738]},
			"faces": {
				"north": {"uv": [3, 3, 4.83333, 4.66667], "rotation": 270, "texture": "#0"},
				"east": {"uv": [3, 3, 4.83333, 4.66667], "rotation": 270, "texture": "#0"},
				"south": {"uv": [3, 3, 4.83333, 4.66667], "rotation": 270, "texture": "#0"},
				"west": {"uv": [3, 3, 4.83333, 4.66667], "rotation": 270, "texture": "#0"},
				"up": {"uv": [3, 3, 4.83333, 4.66667], "rotation": 270, "texture": "#0"},
				"down": {"uv": [3, 3, 4.83333, 4.66667], "rotation": 270, "texture": "#0"}
			}
		},
		{
			"from": [7.69172, 6.19204, 17.06738],
			"to": [8.30828, 6.29204, 17.16738],
			"rotation": {"angle": 0, "axis": "y", "origin": [8, 6.79204, 7.56738]},
			"faces": {
				"north": {"uv": [3, 3, 4.83333, 4.66667], "rotation": 270, "texture": "#0"},
				"east": {"uv": [3, 3, 4.83333, 4.66667], "rotation": 270, "texture": "#0"},
				"south": {"uv": [3, 3, 4.83333, 4.66667], "rotation": 270, "texture": "#0"},
				"west": {"uv": [3, 3, 4.83333, 4.66667], "rotation": 270, "texture": "#0"},
				"up": {"uv": [3, 3, 4.83333, 4.66667], "rotation": 270, "texture": "#0"},
				"down": {"uv": [3, 3, 4.83333, 4.66667], "rotation": 270, "texture": "#0"}
			}
		},
		{
			"from": [7.69172, 6.19204, 18.06738],
			"to": [8.30828, 6.29204, 18.16738],
			"rotation": {"angle": 0, "axis": "y", "origin": [8, 6.79204, 7.56738]},
			"faces": {
				"north": {"uv": [3, 3, 4.83333, 4.66667], "rotation": 270, "texture": "#0"},
				"east": {"uv": [3, 3, 4.83333, 4.66667], "rotation": 270, "texture": "#0"},
				"south": {"uv": [3, 3, 4.83333, 4.66667], "rotation": 270, "texture": "#0"},
				"west": {"uv": [3, 3, 4.83333, 4.66667], "rotation": 270, "texture": "#0"},
				"up": {"uv": [3, 3, 4.83333, 4.66667], "rotation": 270, "texture": "#0"},
				"down": {"uv": [3, 3, 4.83333, 4.66667], "rotation": 270, "texture": "#0"}
			}
		},
		{
			"from": [7.69172, 6.19204, 19.06738],
			"to": [8.30828, 6.29204, 19.16738],
			"rotation": {"angle": 0, "axis": "y", "origin": [8, 6.79204, 7.56738]},
			"faces": {
				"north": {"uv": [3, 3, 4.83333, 4.66667], "rotation": 270, "texture": "#0"},
				"east": {"uv": [3, 3, 4.83333, 4.66667], "rotation": 270, "texture": "#0"},
				"south": {"uv": [3, 3, 4.83333, 4.66667], "rotation": 270, "texture": "#0"},
				"west": {"uv": [3, 3, 4.83333, 4.66667], "rotation": 270, "texture": "#0"},
				"up": {"uv": [3, 3, 4.83333, 4.66667], "rotation": 270, "texture": "#0"},
				"down": {"uv": [3, 3, 4.83333, 4.66667], "rotation": 270, "texture": "#0"}
			}
		},
		{
			"from": [7.69172, 4.94204, 17.06738],
			"to": [8.30828, 5.04204, 17.16738],
			"rotation": {"angle": 0, "axis": "y", "origin": [8, 6.79204, 7.56738]},
			"faces": {
				"north": {"uv": [3, 3, 4.83333, 4.66667], "rotation": 270, "texture": "#0"},
				"east": {"uv": [3, 3, 4.83333, 4.66667], "rotation": 270, "texture": "#0"},
				"south": {"uv": [3, 3, 4.83333, 4.66667], "rotation": 270, "texture": "#0"},
				"west": {"uv": [3, 3, 4.83333, 4.66667], "rotation": 270, "texture": "#0"},
				"up": {"uv": [3, 3, 4.83333, 4.66667], "rotation": 270, "texture": "#0"},
				"down": {"uv": [3, 3, 4.83333, 4.66667], "rotation": 270, "texture": "#0"}
			}
		},
		{
			"from": [7.69172, 4.51704, 18.06738],
			"to": [8.30828, 4.61704, 18.16738],
			"rotation": {"angle": 0, "axis": "y", "origin": [8, 6.79204, 7.56738]},
			"faces": {
				"north": {"uv": [3, 3, 4.83333, 4.66667], "rotation": 270, "texture": "#0"},
				"east": {"uv": [3, 3, 4.83333, 4.66667], "rotation": 270, "texture": "#0"},
				"south": {"uv": [3, 3, 4.83333, 4.66667], "rotation": 270, "texture": "#0"},
				"west": {"uv": [3, 3, 4.83333, 4.66667], "rotation": 270, "texture": "#0"},
				"up": {"uv": [3, 3, 4.83333, 4.66667], "rotation": 270, "texture": "#0"},
				"down": {"uv": [3, 3, 4.83333, 4.66667], "rotation": 270, "texture": "#0"}
			}
		},
		{
			"from": [7.69172, 4.11704, 19.06738],
			"to": [8.30828, 4.21704, 19.16738],
			"rotation": {"angle": 0, "axis": "y", "origin": [8, 6.79204, 7.56738]},
			"faces": {
				"north": {"uv": [3, 3, 4.83333, 4.66667], "rotation": 270, "texture": "#0"},
				"east": {"uv": [3, 3, 4.83333, 4.66667], "rotation": 270, "texture": "#0"},
				"south": {"uv": [3, 3, 4.83333, 4.66667], "rotation": 270, "texture": "#0"},
				"west": {"uv": [3, 3, 4.83333, 4.66667], "rotation": 270, "texture": "#0"},
				"up": {"uv": [3, 3, 4.83333, 4.66667], "rotation": 270, "texture": "#0"},
				"down": {"uv": [3, 3, 4.83333, 4.66667], "rotation": 270, "texture": "#0"}
			}
		},
		{
			"from": [7.72506, 5.34692, 16.00587],
			"to": [8.27494, 6.32903, 16.35945],
			"rotation": {"angle": 0, "axis": "y", "origin": [8.15035, 6.11169, 0.22923]},
			"faces": {
				"north": {"uv": [3, 13.66667, 4.83333, 15.33333], "rotation": 180, "texture": "#0"},
				"east": {"uv": [3, 13.66667, 4.83333, 15.33333], "rotation": 180, "texture": "#0"},
				"south": {"uv": [3, 13.66667, 4.83333, 15.33333], "rotation": 180, "texture": "#0"},
				"west": {"uv": [3, 13.66667, 4.83333, 15.33333], "rotation": 180, "texture": "#0"},
				"up": {"uv": [3, 13.66667, 4.83333, 15.33333], "rotation": 180, "texture": "#0"},
				"down": {"uv": [3, 13.66667, 4.83333, 15.33333], "rotation": 180, "texture": "#0"}
			}
		},
		{
			"from": [7.72506, 3.9326, 19.44352],
			"to": [8.27494, 5.99515, 19.77739],
			"rotation": {"angle": 0, "axis": "y", "origin": [8, 2.87186, 19.61046]},
			"faces": {
				"north": {"uv": [3, 13.66667, 4.83333, 15.33333], "rotation": 270, "texture": "#0"},
				"east": {"uv": [3, 13.66667, 4.83333, 15.33333], "rotation": 270, "texture": "#0"},
				"south": {"uv": [3, 13.66667, 4.83333, 15.33333], "rotation": 270, "texture": "#0"},
				"west": {"uv": [3, 13.66667, 4.83333, 15.33333], "rotation": 270, "texture": "#0"},
				"up": {"uv": [3, 13.66667, 4.83333, 15.33333], "rotation": 270, "texture": "#0"},
				"down": {"uv": [3, 13.66667, 4.83333, 15.33333], "rotation": 270, "texture": "#0"}
			}
		},
		{
			"from": [7.72506, 4.31455, 15.87331],
			"to": [8.27494, 4.64842, 19.5859],
			"rotation": {"angle": 22.5, "axis": "x", "origin": [8, 4.48148, 18.55463]},
			"faces": {
				"north": {"uv": [3, 13.66667, 4.83333, 15.33333], "rotation": 180, "texture": "#0"},
				"east": {"uv": [3, 13.66667, 4.83333, 15.33333], "rotation": 180, "texture": "#0"},
				"south": {"uv": [3, 13.66667, 4.83333, 15.33333], "rotation": 180, "texture": "#0"},
				"west": {"uv": [3, 13.66667, 4.83333, 15.33333], "rotation": 180, "texture": "#0"},
				"up": {"uv": [3, 13.66667, 4.83333, 15.33333], "rotation": 180, "texture": "#0"},
				"down": {"uv": [3, 13.66667, 4.83333, 15.33333], "rotation": 180, "texture": "#0"}
			}
		},
		{
			"from": [7.61672, 5.46704, 10.39238],
			"to": [8.38328, 6.22532, 14.29238],
			"rotation": {"angle": 0, "axis": "y", "origin": [8.12756, 6.01591, 2.80646]},
			"faces": {
				"north": {"uv": [0.33333, 3, 2.16667, 4.66667], "rotation": 180, "texture": "#0"},
				"east": {"uv": [0.33333, 3, 2.16667, 4.66667], "rotation": 180, "texture": "#0"},
				"south": {"uv": [0.33333, 3, 2.16667, 4.66667], "rotation": 180, "texture": "#0"},
				"west": {"uv": [0.33333, 3, 2.16667, 4.66667], "rotation": 180, "texture": "#0"},
				"up": {"uv": [0.33333, 3, 2.16667, 4.66667], "rotation": 180, "texture": "#0"},
				"down": {"uv": [0.33333, 3, 2.16667, 4.66667], "rotation": 180, "texture": "#0"}
			}
		},
		{
			"from": [7.62506, 4.0326, 19.64352],
			"to": [8.37494, 6.19515, 19.87739],
			"rotation": {"angle": 0, "axis": "y", "origin": [8, 2.87186, 19.61046]},
			"faces": {
				"north": {"uv": [8.33333, 0.33333, 10.16667, 2], "rotation": 270, "texture": "#0"},
				"east": {"uv": [8.33333, 0.33333, 10.16667, 2], "rotation": 270, "texture": "#0"},
				"south": {"uv": [8.33333, 0.33333, 10.16667, 2], "rotation": 270, "texture": "#0"},
				"west": {"uv": [8.33333, 0.33333, 10.16667, 2], "rotation": 270, "texture": "#0"},
				"up": {"uv": [8.33333, 0.33333, 10.16667, 2], "rotation": 270, "texture": "#0"},
				"down": {"uv": [8.33333, 0.33333, 10.16667, 2], "rotation": 270, "texture": "#0"}
			}
		},
		{
			"from": [7.86672, 5.53178, 13.89238],
			"to": [8.13328, 5.66506, 17.91442],
			"rotation": {"angle": 0, "axis": "y", "origin": [8, 5.47847, 11.43966]},
			"faces": {
				"north": {"uv": [0.33333, 3, 2.16667, 4.66667], "texture": "#0"},
				"east": {"uv": [0.33333, 3, 2.16667, 4.66667], "texture": "#0"},
				"south": {"uv": [0.33333, 3, 2.16667, 4.66667], "texture": "#0"},
				"west": {"uv": [0.33333, 3, 2.16667, 4.66667], "texture": "#0"},
				"up": {"uv": [0.33333, 3, 2.16667, 4.66667], "texture": "#0"},
				"down": {"uv": [0.33333, 3, 2.16667, 4.66667], "texture": "#0"}
			}
		},
		{
			"from": [7.68632, 5.60651, 13.89238],
			"to": [7.95288, 5.73979, 17.91442],
			"rotation": {"angle": -45, "axis": "z", "origin": [7.8196, 5.67315, 11.10646]},
			"faces": {
				"north": {"uv": [0.33333, 3, 2.16667, 4.66667], "texture": "#0"},
				"east": {"uv": [0.33333, 3, 2.16667, 4.66667], "texture": "#0"},
				"south": {"uv": [0.33333, 3, 2.16667, 4.66667], "texture": "#0"},
				"west": {"uv": [0.33333, 3, 2.16667, 4.66667], "texture": "#0"},
				"up": {"uv": [0.33333, 3, 2.16667, 4.66667], "texture": "#0"},
				"down": {"uv": [0.33333, 3, 2.16667, 4.66667], "texture": "#0"}
			}
		},
		{
			"from": [7.67823, 5.72027, 13.89238],
			"to": [7.81151, 5.98683, 17.91442],
			"rotation": {"angle": 0, "axis": "y", "origin": [7.78224, 5.94375, 11.10646]},
			"faces": {
				"north": {"uv": [0.33333, 3, 2.16667, 4.66667], "rotation": 90, "texture": "#0"},
				"east": {"uv": [0.33333, 3, 2.16667, 4.66667], "rotation": 90, "texture": "#0"},
				"south": {"uv": [0.33333, 3, 2.16667, 4.66667], "rotation": 90, "texture": "#0"},
				"west": {"uv": [0.33333, 3, 2.16667, 4.66667], "rotation": 90, "texture": "#0"},
				"up": {"uv": [0.33333, 3, 2.16667, 4.66667], "rotation": 90, "texture": "#0"},
				"down": {"uv": [0.33333, 3, 2.16667, 4.66667], "rotation": 90, "texture": "#0"}
			}
		},
		{
			"from": [7.67823, 5.90067, 13.89238],
			"to": [7.81151, 6.16723, 17.91442],
			"rotation": {"angle": -45, "axis": "z", "origin": [7.78224, 5.94375, 11.10646]},
			"faces": {
				"north": {"uv": [0.33333, 3, 2.16667, 4.66667], "rotation": 90, "texture": "#0"},
				"east": {"uv": [0.33333, 3, 2.16667, 4.66667], "rotation": 90, "texture": "#0"},
				"south": {"uv": [0.33333, 3, 2.16667, 4.66667], "rotation": 90, "texture": "#0"},
				"west": {"uv": [0.33333, 3, 2.16667, 4.66667], "rotation": 90, "texture": "#0"},
				"up": {"uv": [0.33333, 3, 2.16667, 4.66667], "rotation": 90, "texture": "#0"},
				"down": {"uv": [0.33333, 3, 2.16667, 4.66667], "rotation": 90, "texture": "#0"}
			}
		},
		{
			"from": [7.87766, 5.63293, 13.89238],
			"to": [8.14422, 5.76621, 17.91442],
			"rotation": {"angle": 45, "axis": "z", "origin": [8.12756, 5.89091, 11.10646]},
			"faces": {
				"north": {"uv": [0.33333, 3, 2.16667, 4.66667], "texture": "#0"},
				"east": {"uv": [0.33333, 3, 2.16667, 4.66667], "texture": "#0"},
				"south": {"uv": [0.33333, 3, 2.16667, 4.66667], "texture": "#0"},
				"west": {"uv": [0.33333, 3, 2.16667, 4.66667], "texture": "#0"},
				"up": {"uv": [0.33333, 3, 2.16667, 4.66667], "texture": "#0"},
				"down": {"uv": [0.33333, 3, 2.16667, 4.66667], "texture": "#0"}
			}
		},
		{
			"from": [8.18849, 5.72027, 13.89238],
			"to": [8.32177, 5.98683, 17.91442],
			"rotation": {"angle": 0, "axis": "y", "origin": [8.12756, 5.89091, 11.10646]},
			"faces": {
				"north": {"uv": [0.33333, 3, 2.16667, 4.66667], "rotation": 270, "texture": "#0"},
				"east": {"uv": [0.33333, 3, 2.16667, 4.66667], "rotation": 270, "texture": "#0"},
				"south": {"uv": [0.33333, 3, 2.16667, 4.66667], "rotation": 270, "texture": "#0"},
				"west": {"uv": [0.33333, 3, 2.16667, 4.66667], "rotation": 270, "texture": "#0"},
				"up": {"uv": [0.33333, 3, 2.16667, 4.66667], "rotation": 270, "texture": "#0"},
				"down": {"uv": [0.33333, 3, 2.16667, 4.66667], "rotation": 270, "texture": "#0"}
			}
		},
		{
			"from": [8.19943, 5.82141, 13.89238],
			"to": [8.33271, 6.08797, 17.91442],
			"rotation": {"angle": 45, "axis": "z", "origin": [8.12756, 5.89091, 11.10646]},
			"faces": {
				"north": {"uv": [0.33333, 3, 2.16667, 4.66667], "rotation": 270, "texture": "#0"},
				"east": {"uv": [0.33333, 3, 2.16667, 4.66667], "rotation": 270, "texture": "#0"},
				"south": {"uv": [0.33333, 3, 2.16667, 4.66667], "rotation": 270, "texture": "#0"},
				"west": {"uv": [0.33333, 3, 2.16667, 4.66667], "rotation": 270, "texture": "#0"},
				"up": {"uv": [0.33333, 3, 2.16667, 4.66667], "rotation": 270, "texture": "#0"},
				"down": {"uv": [0.33333, 3, 2.16667, 4.66667], "rotation": 270, "texture": "#0"}
			}
		},
		{
			"from": [7.86672, 6.04204, 13.89238],
			"to": [8.13328, 6.17532, 17.91442],
			"rotation": {"angle": 0, "axis": "y", "origin": [8.12756, 5.89091, 11.10646]},
			"faces": {
				"north": {"uv": [0.33333, 3, 2.16667, 4.66667], "rotation": 180, "texture": "#0"},
				"east": {"uv": [0.33333, 3, 2.16667, 4.66667], "rotation": 180, "texture": "#0"},
				"south": {"uv": [0.33333, 3, 2.16667, 4.66667], "rotation": 180, "texture": "#0"},
				"west": {"uv": [0.33333, 3, 2.16667, 4.66667], "rotation": 180, "texture": "#0"},
				"up": {"uv": [0.33333, 3, 2.16667, 4.66667], "rotation": 180, "texture": "#0"},
				"down": {"uv": [0.33333, 3, 2.16667, 4.66667], "rotation": 180, "texture": "#0"}
			}
		},
		{
			"from": [7.59172, 6.04204, 14.14238],
			"to": [8.40828, 6.14204, 14.24238],
			"rotation": {"angle": 0, "axis": "y", "origin": [8, 6.79204, 7.56738]},
			"faces": {
				"north": {"uv": [3, 3, 4.83333, 4.66667], "rotation": 270, "texture": "#0"},
				"east": {"uv": [3, 3, 4.83333, 4.66667], "rotation": 270, "texture": "#0"},
				"south": {"uv": [3, 3, 4.83333, 4.66667], "rotation": 270, "texture": "#0"},
				"west": {"uv": [3, 3, 4.83333, 4.66667], "rotation": 270, "texture": "#0"},
				"up": {"uv": [3, 3, 4.83333, 4.66667], "rotation": 270, "texture": "#0"},
				"down": {"uv": [3, 3, 4.83333, 4.66667], "rotation": 270, "texture": "#0"}
			}
		},
		{
			"from": [7.59172, 5.54204, 14.14238],
			"to": [8.40828, 5.64204, 14.24238],
			"rotation": {"angle": 0, "axis": "y", "origin": [8, 6.79204, 7.56738]},
			"faces": {
				"north": {"uv": [3, 3, 4.83333, 4.66667], "rotation": 270, "texture": "#0"},
				"east": {"uv": [3, 3, 4.83333, 4.66667], "rotation": 270, "texture": "#0"},
				"south": {"uv": [3, 3, 4.83333, 4.66667], "rotation": 270, "texture": "#0"},
				"west": {"uv": [3, 3, 4.83333, 4.66667], "rotation": 270, "texture": "#0"},
				"up": {"uv": [3, 3, 4.83333, 4.66667], "rotation": 270, "texture": "#0"},
				"down": {"uv": [3, 3, 4.83333, 4.66667], "rotation": 270, "texture": "#0"}
			}
		},
		{
			"from": [7.69172, 5.39204, 16.06738],
			"to": [8.30828, 5.49204, 16.16738],
			"rotation": {"angle": 0, "axis": "y", "origin": [8, 6.79204, 7.56738]},
			"faces": {
				"north": {"uv": [3, 3, 4.83333, 4.66667], "rotation": 270, "texture": "#0"},
				"east": {"uv": [3, 3, 4.83333, 4.66667], "rotation": 270, "texture": "#0"},
				"south": {"uv": [3, 3, 4.83333, 4.66667], "rotation": 270, "texture": "#0"},
				"west": {"uv": [3, 3, 4.83333, 4.66667], "rotation": 270, "texture": "#0"},
				"up": {"uv": [3, 3, 4.83333, 4.66667], "rotation": 270, "texture": "#0"},
				"down": {"uv": [3, 3, 4.83333, 4.66667], "rotation": 270, "texture": "#0"}
			}
		},
		{
			"from": [7.69172, 6.19204, 16.06738],
			"to": [8.30828, 6.29204, 16.16738],
			"rotation": {"angle": 0, "axis": "y", "origin": [8, 6.79204, 7.56738]},
			"faces": {
				"north": {"uv": [3, 3, 4.83333, 4.66667], "rotation": 270, "texture": "#0"},
				"east": {"uv": [3, 3, 4.83333, 4.66667], "rotation": 270, "texture": "#0"},
				"south": {"uv": [3, 3, 4.83333, 4.66667], "rotation": 270, "texture": "#0"},
				"west": {"uv": [3, 3, 4.83333, 4.66667], "rotation": 270, "texture": "#0"},
				"up": {"uv": [3, 3, 4.83333, 4.66667], "rotation": 270, "texture": "#0"},
				"down": {"uv": [3, 3, 4.83333, 4.66667], "rotation": 270, "texture": "#0"}
			}
		},
		{
			"from": [7.66672, 5.81704, 16.14238],
			"to": [8.33328, 5.91704, 16.24238],
			"rotation": {"angle": 0, "axis": "y", "origin": [8, 6.79204, 7.56738]},
			"faces": {
				"north": {"uv": [3, 3, 4.83333, 4.66667], "rotation": 270, "texture": "#0"},
				"east": {"uv": [3, 3, 4.83333, 4.66667], "rotation": 270, "texture": "#0"},
				"south": {"uv": [3, 3, 4.83333, 4.66667], "rotation": 270, "texture": "#0"},
				"west": {"uv": [3, 3, 4.83333, 4.66667], "rotation": 270, "texture": "#0"},
				"up": {"uv": [3, 3, 4.83333, 4.66667], "rotation": 270, "texture": "#0"},
				"down": {"uv": [3, 3, 4.83333, 4.66667], "rotation": 270, "texture": "#0"}
			}
		},
		{
			"from": [7.66672, 5.81704, 16.64238],
			"to": [8.33328, 5.91704, 16.74238],
			"rotation": {"angle": 0, "axis": "y", "origin": [8, 6.79204, 7.56738]},
			"faces": {
				"north": {"uv": [3, 3, 4.83333, 4.66667], "rotation": 270, "texture": "#0"},
				"east": {"uv": [3, 3, 4.83333, 4.66667], "rotation": 270, "texture": "#0"},
				"south": {"uv": [3, 3, 4.83333, 4.66667], "rotation": 270, "texture": "#0"},
				"west": {"uv": [3, 3, 4.83333, 4.66667], "rotation": 270, "texture": "#0"},
				"up": {"uv": [3, 3, 4.83333, 4.66667], "rotation": 270, "texture": "#0"},
				"down": {"uv": [3, 3, 4.83333, 4.66667], "rotation": 270, "texture": "#0"}
			}
		},
		{
			"from": [7.66672, 5.81704, 17.14238],
			"to": [8.33328, 5.91704, 17.24238],
			"rotation": {"angle": 0, "axis": "y", "origin": [8, 6.79204, 7.56738]},
			"faces": {
				"north": {"uv": [3, 3, 4.83333, 4.66667], "rotation": 270, "texture": "#0"},
				"east": {"uv": [3, 3, 4.83333, 4.66667], "rotation": 270, "texture": "#0"},
				"south": {"uv": [3, 3, 4.83333, 4.66667], "rotation": 270, "texture": "#0"},
				"west": {"uv": [3, 3, 4.83333, 4.66667], "rotation": 270, "texture": "#0"},
				"up": {"uv": [3, 3, 4.83333, 4.66667], "rotation": 270, "texture": "#0"},
				"down": {"uv": [3, 3, 4.83333, 4.66667], "rotation": 270, "texture": "#0"}
			}
		},
		{
			"from": [7.66672, 5.81704, 17.64238],
			"to": [8.33328, 5.91704, 17.74238],
			"rotation": {"angle": 0, "axis": "y", "origin": [8, 6.79204, 7.56738]},
			"faces": {
				"north": {"uv": [3, 3, 4.83333, 4.66667], "rotation": 270, "texture": "#0"},
				"east": {"uv": [3, 3, 4.83333, 4.66667], "rotation": 270, "texture": "#0"},
				"south": {"uv": [3, 3, 4.83333, 4.66667], "rotation": 270, "texture": "#0"},
				"west": {"uv": [3, 3, 4.83333, 4.66667], "rotation": 270, "texture": "#0"},
				"up": {"uv": [3, 3, 4.83333, 4.66667], "rotation": 270, "texture": "#0"},
				"down": {"uv": [3, 3, 4.83333, 4.66667], "rotation": 270, "texture": "#0"}
			}
		},
		{
			"from": [7.69172, 6.19204, 17.06738],
			"to": [8.30828, 6.29204, 17.16738],
			"rotation": {"angle": 0, "axis": "y", "origin": [8, 6.79204, 7.56738]},
			"faces": {
				"north": {"uv": [3, 3, 4.83333, 4.66667], "rotation": 270, "texture": "#0"},
				"east": {"uv": [3, 3, 4.83333, 4.66667], "rotation": 270, "texture": "#0"},
				"south": {"uv": [3, 3, 4.83333, 4.66667], "rotation": 270, "texture": "#0"},
				"west": {"uv": [3, 3, 4.83333, 4.66667], "rotation": 270, "texture": "#0"},
				"up": {"uv": [3, 3, 4.83333, 4.66667], "rotation": 270, "texture": "#0"},
				"down": {"uv": [3, 3, 4.83333, 4.66667], "rotation": 270, "texture": "#0"}
			}
		},
		{
			"from": [7.69172, 6.19204, 18.06738],
			"to": [8.30828, 6.29204, 18.16738],
			"rotation": {"angle": 0, "axis": "y", "origin": [8, 6.79204, 7.56738]},
			"faces": {
				"north": {"uv": [3, 3, 4.83333, 4.66667], "rotation": 270, "texture": "#0"},
				"east": {"uv": [3, 3, 4.83333, 4.66667], "rotation": 270, "texture": "#0"},
				"south": {"uv": [3, 3, 4.83333, 4.66667], "rotation": 270, "texture": "#0"},
				"west": {"uv": [3, 3, 4.83333, 4.66667], "rotation": 270, "texture": "#0"},
				"up": {"uv": [3, 3, 4.83333, 4.66667], "rotation": 270, "texture": "#0"},
				"down": {"uv": [3, 3, 4.83333, 4.66667], "rotation": 270, "texture": "#0"}
			}
		},
		{
			"from": [7.69172, 6.19204, 19.06738],
			"to": [8.30828, 6.29204, 19.16738],
			"rotation": {"angle": 0, "axis": "y", "origin": [8, 6.79204, 7.56738]},
			"faces": {
				"north": {"uv": [3, 3, 4.83333, 4.66667], "rotation": 270, "texture": "#0"},
				"east": {"uv": [3, 3, 4.83333, 4.66667], "rotation": 270, "texture": "#0"},
				"south": {"uv": [3, 3, 4.83333, 4.66667], "rotation": 270, "texture": "#0"},
				"west": {"uv": [3, 3, 4.83333, 4.66667], "rotation": 270, "texture": "#0"},
				"up": {"uv": [3, 3, 4.83333, 4.66667], "rotation": 270, "texture": "#0"},
				"down": {"uv": [3, 3, 4.83333, 4.66667], "rotation": 270, "texture": "#0"}
			}
		},
		{
			"from": [7.69172, 4.94204, 17.06738],
			"to": [8.30828, 5.04204, 17.16738],
			"rotation": {"angle": 0, "axis": "y", "origin": [8, 6.79204, 7.56738]},
			"faces": {
				"north": {"uv": [3, 3, 4.83333, 4.66667], "rotation": 270, "texture": "#0"},
				"east": {"uv": [3, 3, 4.83333, 4.66667], "rotation": 270, "texture": "#0"},
				"south": {"uv": [3, 3, 4.83333, 4.66667], "rotation": 270, "texture": "#0"},
				"west": {"uv": [3, 3, 4.83333, 4.66667], "rotation": 270, "texture": "#0"},
				"up": {"uv": [3, 3, 4.83333, 4.66667], "rotation": 270, "texture": "#0"},
				"down": {"uv": [3, 3, 4.83333, 4.66667], "rotation": 270, "texture": "#0"}
			}
		},
		{
			"from": [7.69172, 4.51704, 18.06738],
			"to": [8.30828, 4.61704, 18.16738],
			"rotation": {"angle": 0, "axis": "y", "origin": [8, 6.79204, 7.56738]},
			"faces": {
				"north": {"uv": [3, 3, 4.83333, 4.66667], "rotation": 270, "texture": "#0"},
				"east": {"uv": [3, 3, 4.83333, 4.66667], "rotation": 270, "texture": "#0"},
				"south": {"uv": [3, 3, 4.83333, 4.66667], "rotation": 270, "texture": "#0"},
				"west": {"uv": [3, 3, 4.83333, 4.66667], "rotation": 270, "texture": "#0"},
				"up": {"uv": [3, 3, 4.83333, 4.66667], "rotation": 270, "texture": "#0"},
				"down": {"uv": [3, 3, 4.83333, 4.66667], "rotation": 270, "texture": "#0"}
			}
		},
		{
			"from": [7.69172, 4.11704, 19.06738],
			"to": [8.30828, 4.21704, 19.16738],
			"rotation": {"angle": 0, "axis": "y", "origin": [8, 6.79204, 7.56738]},
			"faces": {
				"north": {"uv": [3, 3, 4.83333, 4.66667], "rotation": 270, "texture": "#0"},
				"east": {"uv": [3, 3, 4.83333, 4.66667], "rotation": 270, "texture": "#0"},
				"south": {"uv": [3, 3, 4.83333, 4.66667], "rotation": 270, "texture": "#0"},
				"west": {"uv": [3, 3, 4.83333, 4.66667], "rotation": 270, "texture": "#0"},
				"up": {"uv": [3, 3, 4.83333, 4.66667], "rotation": 270, "texture": "#0"},
				"down": {"uv": [3, 3, 4.83333, 4.66667], "rotation": 270, "texture": "#0"}
			}
		},
		{
			"from": [7.72506, 5.34692, 16.00587],
			"to": [8.27494, 6.32903, 16.35945],
			"rotation": {"angle": 0, "axis": "y", "origin": [8.15035, 6.11169, 0.22923]},
			"faces": {
				"north": {"uv": [3, 13.66667, 4.83333, 15.33333], "rotation": 180, "texture": "#0"},
				"east": {"uv": [3, 13.66667, 4.83333, 15.33333], "rotation": 180, "texture": "#0"},
				"south": {"uv": [3, 13.66667, 4.83333, 15.33333], "rotation": 180, "texture": "#0"},
				"west": {"uv": [3, 13.66667, 4.83333, 15.33333], "rotation": 180, "texture": "#0"},
				"up": {"uv": [3, 13.66667, 4.83333, 15.33333], "rotation": 180, "texture": "#0"},
				"down": {"uv": [3, 13.66667, 4.83333, 15.33333], "rotation": 180, "texture": "#0"}
			}
		},
		{
			"from": [7.72506, 3.9326, 19.44352],
			"to": [8.27494, 5.99515, 19.77739],
			"rotation": {"angle": 0, "axis": "y", "origin": [8, 2.87186, 19.61046]},
			"faces": {
				"north": {"uv": [3, 13.66667, 4.83333, 15.33333], "rotation": 270, "texture": "#0"},
				"east": {"uv": [3, 13.66667, 4.83333, 15.33333], "rotation": 270, "texture": "#0"},
				"south": {"uv": [3, 13.66667, 4.83333, 15.33333], "rotation": 270, "texture": "#0"},
				"west": {"uv": [3, 13.66667, 4.83333, 15.33333], "rotation": 270, "texture": "#0"},
				"up": {"uv": [3, 13.66667, 4.83333, 15.33333], "rotation": 270, "texture": "#0"},
				"down": {"uv": [3, 13.66667, 4.83333, 15.33333], "rotation": 270, "texture": "#0"}
			}
		},
		{
			"from": [7.72506, 4.31455, 15.87331],
			"to": [8.27494, 4.64842, 19.5859],
			"rotation": {"angle": 22.5, "axis": "x", "origin": [8, 4.48148, 18.55463]},
			"faces": {
				"north": {"uv": [3, 13.66667, 4.83333, 15.33333], "rotation": 180, "texture": "#0"},
				"east": {"uv": [3, 13.66667, 4.83333, 15.33333], "rotation": 180, "texture": "#0"},
				"south": {"uv": [3, 13.66667, 4.83333, 15.33333], "rotation": 180, "texture": "#0"},
				"west": {"uv": [3, 13.66667, 4.83333, 15.33333], "rotation": 180, "texture": "#0"},
				"up": {"uv": [3, 13.66667, 4.83333, 15.33333], "rotation": 180, "texture": "#0"},
				"down": {"uv": [3, 13.66667, 4.83333, 15.33333], "rotation": 180, "texture": "#0"}
			}
		},
		{
			"from": [7.68004, 5.09995, 17.28401],
			"to": [8.31996, 6.14205, 19.60123],
			"rotation": {"angle": 0, "axis": "y", "origin": [8.12028, 5.96818, 3.96269]},
			"faces": {
				"north": {"uv": [3, 13.66667, 4.83333, 15.33333], "rotation": 180, "texture": "#0"},
				"east": {"uv": [3, 13.66667, 4.83333, 15.33333], "rotation": 180, "texture": "#0"},
				"south": {"uv": [3, 13.66667, 4.83333, 15.33333], "rotation": 180, "texture": "#0"},
				"west": {"uv": [3, 13.66667, 4.83333, 15.33333], "rotation": 180, "texture": "#0"},
				"up": {"uv": [3, 13.66667, 4.83333, 15.33333], "rotation": 180, "texture": "#0"},
				"down": {"uv": [3, 13.66667, 4.83333, 15.33333], "rotation": 180, "texture": "#0"}
			}
		},
		{
			"from": [7.68004, 4.69995, 18.08401],
			"to": [8.31996, 6.14205, 19.60123],
			"rotation": {"angle": 0, "axis": "y", "origin": [8.12028, 5.96818, 3.96269]},
			"faces": {
				"north": {"uv": [3, 13.66667, 4.83333, 15.33333], "rotation": 180, "texture": "#0"},
				"east": {"uv": [3, 13.66667, 4.83333, 15.33333], "rotation": 180, "texture": "#0"},
				"south": {"uv": [3, 13.66667, 4.83333, 15.33333], "rotation": 180, "texture": "#0"},
				"west": {"uv": [3, 13.66667, 4.83333, 15.33333], "rotation": 180, "texture": "#0"},
				"up": {"uv": [3, 13.66667, 4.83333, 15.33333], "rotation": 180, "texture": "#0"},
				"down": {"uv": [3, 13.66667, 4.83333, 15.33333], "rotation": 180, "texture": "#0"}
			}
		},
		{
			"from": [7.68004, 5.35637, 16.20901],
			"to": [8.31996, 6.14205, 16.96687],
			"rotation": {"angle": 0, "axis": "y", "origin": [8.12028, 5.96818, 4.06269]},
			"faces": {
				"north": {"uv": [3, 13.66667, 4.83333, 15.33333], "rotation": 180, "texture": "#0"},
				"east": {"uv": [3, 13.66667, 4.83333, 15.33333], "rotation": 180, "texture": "#0"},
				"south": {"uv": [3, 13.66667, 4.83333, 15.33333], "rotation": 180, "texture": "#0"},
				"west": {"uv": [3, 13.66667, 4.83333, 15.33333], "rotation": 180, "texture": "#0"},
				"up": {"uv": [3, 13.66667, 4.83333, 15.33333], "rotation": 180, "texture": "#0"},
				"down": {"uv": [3, 13.66667, 4.83333, 15.33333], "rotation": 180, "texture": "#0"}
			}
		},
		{
			"from": [7.68004, 4.24201, 19.13413],
			"to": [8.31996, 6.14205, 19.60123],
			"rotation": {"angle": 0, "axis": "y", "origin": [8, 3.39342, 19.26768]},
			"faces": {
				"north": {"uv": [3, 13.66667, 4.83333, 15.33333], "rotation": 270, "texture": "#0"},
				"east": {"uv": [3, 13.66667, 4.83333, 15.33333], "rotation": 270, "texture": "#0"},
				"south": {"uv": [3, 13.66667, 4.83333, 15.33333], "rotation": 270, "texture": "#0"},
				"west": {"uv": [3, 13.66667, 4.83333, 15.33333], "rotation": 270, "texture": "#0"},
				"up": {"uv": [3, 13.66667, 4.83333, 15.33333], "rotation": 270, "texture": "#0"},
				"down": {"uv": [3, 13.66667, 4.83333, 15.33333], "rotation": 270, "texture": "#0"}
			}
		},
		{
			"from": [7.68004, 4.54757, 16.27796],
			"to": [8.31996, 5.13967, 19.24804],
			"rotation": {"angle": 22.5, "axis": "x", "origin": [8, 4.68112, 18.42302]},
			"faces": {
				"north": {"uv": [3, 13.66667, 4.83333, 15.33333], "rotation": 180, "texture": "#0"},
				"east": {"uv": [3, 13.66667, 4.83333, 15.33333], "rotation": 180, "texture": "#0"},
				"south": {"uv": [3, 13.66667, 4.83333, 15.33333], "rotation": 180, "texture": "#0"},
				"west": {"uv": [3, 13.66667, 4.83333, 15.33333], "rotation": 180, "texture": "#0"},
				"up": {"uv": [3, 13.66667, 4.83333, 15.33333], "rotation": 180, "texture": "#0"},
				"down": {"uv": [3, 13.66667, 4.83333, 15.33333], "rotation": 180, "texture": "#0"}
			}
		},
		{
			"from": [7.61672, 5.46704, 10.39238],
			"to": [8.38328, 6.22532, 14.29238],
			"rotation": {"angle": 0, "axis": "y", "origin": [8.12756, 6.01591, 2.80646]},
			"faces": {
				"north": {"uv": [0.33333, 3, 2.16667, 4.66667], "rotation": 180, "texture": "#0"},
				"east": {"uv": [0.33333, 3, 2.16667, 4.66667], "rotation": 180, "texture": "#0"},
				"south": {"uv": [0.33333, 3, 2.16667, 4.66667], "rotation": 180, "texture": "#0"},
				"west": {"uv": [0.33333, 3, 2.16667, 4.66667], "rotation": 180, "texture": "#0"},
				"up": {"uv": [0.33333, 3, 2.16667, 4.66667], "rotation": 180, "texture": "#0"},
				"down": {"uv": [0.33333, 3, 2.16667, 4.66667], "rotation": 180, "texture": "#0"}
			}
		},
		{
			"from": [7.62506, 4.0326, 19.64352],
			"to": [8.37494, 6.19515, 19.87739],
			"rotation": {"angle": 0, "axis": "y", "origin": [8, 2.87186, 19.61046]},
			"faces": {
				"north": {"uv": [8.33333, 0.33333, 10.16667, 2], "rotation": 270, "texture": "#0"},
				"east": {"uv": [8.33333, 0.33333, 10.16667, 2], "rotation": 270, "texture": "#0"},
				"south": {"uv": [8.33333, 0.33333, 10.16667, 2], "rotation": 270, "texture": "#0"},
				"west": {"uv": [8.33333, 0.33333, 10.16667, 2], "rotation": 270, "texture": "#0"},
				"up": {"uv": [8.33333, 0.33333, 10.16667, 2], "rotation": 270, "texture": "#0"},
				"down": {"uv": [8.33333, 0.33333, 10.16667, 2], "rotation": 270, "texture": "#0"}
			}
		},
		{
			"from": [7.86672, 5.53178, 13.89238],
			"to": [8.13328, 5.66506, 17.91442],
			"rotation": {"angle": 0, "axis": "y", "origin": [8, 5.47847, 11.43966]},
			"faces": {
				"north": {"uv": [0.33333, 3, 2.16667, 4.66667], "texture": "#0"},
				"east": {"uv": [0.33333, 3, 2.16667, 4.66667], "texture": "#0"},
				"south": {"uv": [0.33333, 3, 2.16667, 4.66667], "texture": "#0"},
				"west": {"uv": [0.33333, 3, 2.16667, 4.66667], "texture": "#0"},
				"up": {"uv": [0.33333, 3, 2.16667, 4.66667], "texture": "#0"},
				"down": {"uv": [0.33333, 3, 2.16667, 4.66667], "texture": "#0"}
			}
		},
		{
			"from": [7.68632, 5.60651, 13.89238],
			"to": [7.95288, 5.73979, 17.91442],
			"rotation": {"angle": -45, "axis": "z", "origin": [7.8196, 5.67315, 11.10646]},
			"faces": {
				"north": {"uv": [0.33333, 3, 2.16667, 4.66667], "texture": "#0"},
				"east": {"uv": [0.33333, 3, 2.16667, 4.66667], "texture": "#0"},
				"south": {"uv": [0.33333, 3, 2.16667, 4.66667], "texture": "#0"},
				"west": {"uv": [0.33333, 3, 2.16667, 4.66667], "texture": "#0"},
				"up": {"uv": [0.33333, 3, 2.16667, 4.66667], "texture": "#0"},
				"down": {"uv": [0.33333, 3, 2.16667, 4.66667], "texture": "#0"}
			}
		},
		{
			"from": [7.67823, 5.72027, 13.89238],
			"to": [7.81151, 5.98683, 17.91442],
			"rotation": {"angle": 0, "axis": "y", "origin": [7.78224, 5.94375, 11.10646]},
			"faces": {
				"north": {"uv": [0.33333, 3, 2.16667, 4.66667], "rotation": 90, "texture": "#0"},
				"east": {"uv": [0.33333, 3, 2.16667, 4.66667], "rotation": 90, "texture": "#0"},
				"south": {"uv": [0.33333, 3, 2.16667, 4.66667], "rotation": 90, "texture": "#0"},
				"west": {"uv": [0.33333, 3, 2.16667, 4.66667], "rotation": 90, "texture": "#0"},
				"up": {"uv": [0.33333, 3, 2.16667, 4.66667], "rotation": 90, "texture": "#0"},
				"down": {"uv": [0.33333, 3, 2.16667, 4.66667], "rotation": 90, "texture": "#0"}
			}
		},
		{
			"from": [7.67823, 5.90067, 13.89238],
			"to": [7.81151, 6.16723, 17.91442],
			"rotation": {"angle": -45, "axis": "z", "origin": [7.78224, 5.94375, 11.10646]},
			"faces": {
				"north": {"uv": [0.33333, 3, 2.16667, 4.66667], "rotation": 90, "texture": "#0"},
				"east": {"uv": [0.33333, 3, 2.16667, 4.66667], "rotation": 90, "texture": "#0"},
				"south": {"uv": [0.33333, 3, 2.16667, 4.66667], "rotation": 90, "texture": "#0"},
				"west": {"uv": [0.33333, 3, 2.16667, 4.66667], "rotation": 90, "texture": "#0"},
				"up": {"uv": [0.33333, 3, 2.16667, 4.66667], "rotation": 90, "texture": "#0"},
				"down": {"uv": [0.33333, 3, 2.16667, 4.66667], "rotation": 90, "texture": "#0"}
			}
		},
		{
			"from": [7.87766, 5.63293, 13.89238],
			"to": [8.14422, 5.76621, 17.91442],
			"rotation": {"angle": 45, "axis": "z", "origin": [8.12756, 5.89091, 11.10646]},
			"faces": {
				"north": {"uv": [0.33333, 3, 2.16667, 4.66667], "texture": "#0"},
				"east": {"uv": [0.33333, 3, 2.16667, 4.66667], "texture": "#0"},
				"south": {"uv": [0.33333, 3, 2.16667, 4.66667], "texture": "#0"},
				"west": {"uv": [0.33333, 3, 2.16667, 4.66667], "texture": "#0"},
				"up": {"uv": [0.33333, 3, 2.16667, 4.66667], "texture": "#0"},
				"down": {"uv": [0.33333, 3, 2.16667, 4.66667], "texture": "#0"}
			}
		},
		{
			"from": [8.18849, 5.72027, 13.89238],
			"to": [8.32177, 5.98683, 17.91442],
			"rotation": {"angle": 0, "axis": "y", "origin": [8.12756, 5.89091, 11.10646]},
			"faces": {
				"north": {"uv": [0.33333, 3, 2.16667, 4.66667], "rotation": 270, "texture": "#0"},
				"east": {"uv": [0.33333, 3, 2.16667, 4.66667], "rotation": 270, "texture": "#0"},
				"south": {"uv": [0.33333, 3, 2.16667, 4.66667], "rotation": 270, "texture": "#0"},
				"west": {"uv": [0.33333, 3, 2.16667, 4.66667], "rotation": 270, "texture": "#0"},
				"up": {"uv": [0.33333, 3, 2.16667, 4.66667], "rotation": 270, "texture": "#0"},
				"down": {"uv": [0.33333, 3, 2.16667, 4.66667], "rotation": 270, "texture": "#0"}
			}
		},
		{
			"from": [8.19943, 5.82141, 13.89238],
			"to": [8.33271, 6.08797, 17.91442],
			"rotation": {"angle": 45, "axis": "z", "origin": [8.12756, 5.89091, 11.10646]},
			"faces": {
				"north": {"uv": [0.33333, 3, 2.16667, 4.66667], "rotation": 270, "texture": "#0"},
				"east": {"uv": [0.33333, 3, 2.16667, 4.66667], "rotation": 270, "texture": "#0"},
				"south": {"uv": [0.33333, 3, 2.16667, 4.66667], "rotation": 270, "texture": "#0"},
				"west": {"uv": [0.33333, 3, 2.16667, 4.66667], "rotation": 270, "texture": "#0"},
				"up": {"uv": [0.33333, 3, 2.16667, 4.66667], "rotation": 270, "texture": "#0"},
				"down": {"uv": [0.33333, 3, 2.16667, 4.66667], "rotation": 270, "texture": "#0"}
			}
		},
		{
			"from": [7.86672, 6.04204, 13.89238],
			"to": [8.13328, 6.17532, 17.91442],
			"rotation": {"angle": 0, "axis": "y", "origin": [8.12756, 5.89091, 11.10646]},
			"faces": {
				"north": {"uv": [0.33333, 3, 2.16667, 4.66667], "rotation": 180, "texture": "#0"},
				"east": {"uv": [0.33333, 3, 2.16667, 4.66667], "rotation": 180, "texture": "#0"},
				"south": {"uv": [0.33333, 3, 2.16667, 4.66667], "rotation": 180, "texture": "#0"},
				"west": {"uv": [0.33333, 3, 2.16667, 4.66667], "rotation": 180, "texture": "#0"},
				"up": {"uv": [0.33333, 3, 2.16667, 4.66667], "rotation": 180, "texture": "#0"},
				"down": {"uv": [0.33333, 3, 2.16667, 4.66667], "rotation": 180, "texture": "#0"}
			}
		},
		{
			"from": [7.59172, 6.04204, 14.14238],
			"to": [8.40828, 6.14204, 14.24238],
			"rotation": {"angle": 0, "axis": "y", "origin": [8, 6.79204, 7.56738]},
			"faces": {
				"north": {"uv": [3, 3, 4.83333, 4.66667], "rotation": 270, "texture": "#0"},
				"east": {"uv": [3, 3, 4.83333, 4.66667], "rotation": 270, "texture": "#0"},
				"south": {"uv": [3, 3, 4.83333, 4.66667], "rotation": 270, "texture": "#0"},
				"west": {"uv": [3, 3, 4.83333, 4.66667], "rotation": 270, "texture": "#0"},
				"up": {"uv": [3, 3, 4.83333, 4.66667], "rotation": 270, "texture": "#0"},
				"down": {"uv": [3, 3, 4.83333, 4.66667], "rotation": 270, "texture": "#0"}
			}
		},
		{
			"from": [7.59172, 5.54204, 14.14238],
			"to": [8.40828, 5.64204, 14.24238],
			"rotation": {"angle": 0, "axis": "y", "origin": [8, 6.79204, 7.56738]},
			"faces": {
				"north": {"uv": [3, 3, 4.83333, 4.66667], "rotation": 270, "texture": "#0"},
				"east": {"uv": [3, 3, 4.83333, 4.66667], "rotation": 270, "texture": "#0"},
				"south": {"uv": [3, 3, 4.83333, 4.66667], "rotation": 270, "texture": "#0"},
				"west": {"uv": [3, 3, 4.83333, 4.66667], "rotation": 270, "texture": "#0"},
				"up": {"uv": [3, 3, 4.83333, 4.66667], "rotation": 270, "texture": "#0"},
				"down": {"uv": [3, 3, 4.83333, 4.66667], "rotation": 270, "texture": "#0"}
			}
		},
		{
			"from": [7.69172, 5.39204, 16.06738],
			"to": [8.30828, 5.49204, 16.16738],
			"rotation": {"angle": 0, "axis": "y", "origin": [8, 6.79204, 7.56738]},
			"faces": {
				"north": {"uv": [3, 3, 4.83333, 4.66667], "rotation": 270, "texture": "#0"},
				"east": {"uv": [3, 3, 4.83333, 4.66667], "rotation": 270, "texture": "#0"},
				"south": {"uv": [3, 3, 4.83333, 4.66667], "rotation": 270, "texture": "#0"},
				"west": {"uv": [3, 3, 4.83333, 4.66667], "rotation": 270, "texture": "#0"},
				"up": {"uv": [3, 3, 4.83333, 4.66667], "rotation": 270, "texture": "#0"},
				"down": {"uv": [3, 3, 4.83333, 4.66667], "rotation": 270, "texture": "#0"}
			}
		},
		{
			"from": [7.69172, 6.19204, 16.06738],
			"to": [8.30828, 6.29204, 16.16738],
			"rotation": {"angle": 0, "axis": "y", "origin": [8, 6.79204, 7.56738]},
			"faces": {
				"north": {"uv": [3, 3, 4.83333, 4.66667], "rotation": 270, "texture": "#0"},
				"east": {"uv": [3, 3, 4.83333, 4.66667], "rotation": 270, "texture": "#0"},
				"south": {"uv": [3, 3, 4.83333, 4.66667], "rotation": 270, "texture": "#0"},
				"west": {"uv": [3, 3, 4.83333, 4.66667], "rotation": 270, "texture": "#0"},
				"up": {"uv": [3, 3, 4.83333, 4.66667], "rotation": 270, "texture": "#0"},
				"down": {"uv": [3, 3, 4.83333, 4.66667], "rotation": 270, "texture": "#0"}
			}
		},
		{
			"from": [7.66672, 5.81704, 16.14238],
			"to": [8.33328, 5.91704, 16.24238],
			"rotation": {"angle": 0, "axis": "y", "origin": [8, 6.79204, 7.56738]},
			"faces": {
				"north": {"uv": [3, 3, 4.83333, 4.66667], "rotation": 270, "texture": "#0"},
				"east": {"uv": [3, 3, 4.83333, 4.66667], "rotation": 270, "texture": "#0"},
				"south": {"uv": [3, 3, 4.83333, 4.66667], "rotation": 270, "texture": "#0"},
				"west": {"uv": [3, 3, 4.83333, 4.66667], "rotation": 270, "texture": "#0"},
				"up": {"uv": [3, 3, 4.83333, 4.66667], "rotation": 270, "texture": "#0"},
				"down": {"uv": [3, 3, 4.83333, 4.66667], "rotation": 270, "texture": "#0"}
			}
		},
		{
			"from": [7.66672, 5.81704, 16.64238],
			"to": [8.33328, 5.91704, 16.74238],
			"rotation": {"angle": 0, "axis": "y", "origin": [8, 6.79204, 7.56738]},
			"faces": {
				"north": {"uv": [3, 3, 4.83333, 4.66667], "rotation": 270, "texture": "#0"},
				"east": {"uv": [3, 3, 4.83333, 4.66667], "rotation": 270, "texture": "#0"},
				"south": {"uv": [3, 3, 4.83333, 4.66667], "rotation": 270, "texture": "#0"},
				"west": {"uv": [3, 3, 4.83333, 4.66667], "rotation": 270, "texture": "#0"},
				"up": {"uv": [3, 3, 4.83333, 4.66667], "rotation": 270, "texture": "#0"},
				"down": {"uv": [3, 3, 4.83333, 4.66667], "rotation": 270, "texture": "#0"}
			}
		},
		{
			"from": [7.66672, 5.81704, 17.14238],
			"to": [8.33328, 5.91704, 17.24238],
			"rotation": {"angle": 0, "axis": "y", "origin": [8, 6.79204, 7.56738]},
			"faces": {
				"north": {"uv": [3, 3, 4.83333, 4.66667], "rotation": 270, "texture": "#0"},
				"east": {"uv": [3, 3, 4.83333, 4.66667], "rotation": 270, "texture": "#0"},
				"south": {"uv": [3, 3, 4.83333, 4.66667], "rotation": 270, "texture": "#0"},
				"west": {"uv": [3, 3, 4.83333, 4.66667], "rotation": 270, "texture": "#0"},
				"up": {"uv": [3, 3, 4.83333, 4.66667], "rotation": 270, "texture": "#0"},
				"down": {"uv": [3, 3, 4.83333, 4.66667], "rotation": 270, "texture": "#0"}
			}
		},
		{
			"from": [7.66672, 5.81704, 17.64238],
			"to": [8.33328, 5.91704, 17.74238],
			"rotation": {"angle": 0, "axis": "y", "origin": [8, 6.79204, 7.56738]},
			"faces": {
				"north": {"uv": [3, 3, 4.83333, 4.66667], "rotation": 270, "texture": "#0"},
				"east": {"uv": [3, 3, 4.83333, 4.66667], "rotation": 270, "texture": "#0"},
				"south": {"uv": [3, 3, 4.83333, 4.66667], "rotation": 270, "texture": "#0"},
				"west": {"uv": [3, 3, 4.83333, 4.66667], "rotation": 270, "texture": "#0"},
				"up": {"uv": [3, 3, 4.83333, 4.66667], "rotation": 270, "texture": "#0"},
				"down": {"uv": [3, 3, 4.83333, 4.66667], "rotation": 270, "texture": "#0"}
			}
		},
		{
			"from": [7.69172, 6.19204, 17.06738],
			"to": [8.30828, 6.29204, 17.16738],
			"rotation": {"angle": 0, "axis": "y", "origin": [8, 6.79204, 7.56738]},
			"faces": {
				"north": {"uv": [3, 3, 4.83333, 4.66667], "rotation": 270, "texture": "#0"},
				"east": {"uv": [3, 3, 4.83333, 4.66667], "rotation": 270, "texture": "#0"},
				"south": {"uv": [3, 3, 4.83333, 4.66667], "rotation": 270, "texture": "#0"},
				"west": {"uv": [3, 3, 4.83333, 4.66667], "rotation": 270, "texture": "#0"},
				"up": {"uv": [3, 3, 4.83333, 4.66667], "rotation": 270, "texture": "#0"},
				"down": {"uv": [3, 3, 4.83333, 4.66667], "rotation": 270, "texture": "#0"}
			}
		},
		{
			"from": [7.69172, 6.19204, 18.06738],
			"to": [8.30828, 6.29204, 18.16738],
			"rotation": {"angle": 0, "axis": "y", "origin": [8, 6.79204, 7.56738]},
			"faces": {
				"north": {"uv": [3, 3, 4.83333, 4.66667], "rotation": 270, "texture": "#0"},
				"east": {"uv": [3, 3, 4.83333, 4.66667], "rotation": 270, "texture": "#0"},
				"south": {"uv": [3, 3, 4.83333, 4.66667], "rotation": 270, "texture": "#0"},
				"west": {"uv": [3, 3, 4.83333, 4.66667], "rotation": 270, "texture": "#0"},
				"up": {"uv": [3, 3, 4.83333, 4.66667], "rotation": 270, "texture": "#0"},
				"down": {"uv": [3, 3, 4.83333, 4.66667], "rotation": 270, "texture": "#0"}
			}
		},
		{
			"from": [7.69172, 6.19204, 19.06738],
			"to": [8.30828, 6.29204, 19.16738],
			"rotation": {"angle": 0, "axis": "y", "origin": [8, 6.79204, 7.56738]},
			"faces": {
				"north": {"uv": [3, 3, 4.83333, 4.66667], "rotation": 270, "texture": "#0"},
				"east": {"uv": [3, 3, 4.83333, 4.66667], "rotation": 270, "texture": "#0"},
				"south": {"uv": [3, 3, 4.83333, 4.66667], "rotation": 270, "texture": "#0"},
				"west": {"uv": [3, 3, 4.83333, 4.66667], "rotation": 270, "texture": "#0"},
				"up": {"uv": [3, 3, 4.83333, 4.66667], "rotation": 270, "texture": "#0"},
				"down": {"uv": [3, 3, 4.83333, 4.66667], "rotation": 270, "texture": "#0"}
			}
		},
		{
			"from": [7.69172, 4.94204, 17.06738],
			"to": [8.30828, 5.04204, 17.16738],
			"rotation": {"angle": 0, "axis": "y", "origin": [8, 6.79204, 7.56738]},
			"faces": {
				"north": {"uv": [3, 3, 4.83333, 4.66667], "rotation": 270, "texture": "#0"},
				"east": {"uv": [3, 3, 4.83333, 4.66667], "rotation": 270, "texture": "#0"},
				"south": {"uv": [3, 3, 4.83333, 4.66667], "rotation": 270, "texture": "#0"},
				"west": {"uv": [3, 3, 4.83333, 4.66667], "rotation": 270, "texture": "#0"},
				"up": {"uv": [3, 3, 4.83333, 4.66667], "rotation": 270, "texture": "#0"},
				"down": {"uv": [3, 3, 4.83333, 4.66667], "rotation": 270, "texture": "#0"}
			}
		},
		{
			"from": [7.69172, 4.51704, 18.06738],
			"to": [8.30828, 4.61704, 18.16738],
			"rotation": {"angle": 0, "axis": "y", "origin": [8, 6.79204, 7.56738]},
			"faces": {
				"north": {"uv": [3, 3, 4.83333, 4.66667], "rotation": 270, "texture": "#0"},
				"east": {"uv": [3, 3, 4.83333, 4.66667], "rotation": 270, "texture": "#0"},
				"south": {"uv": [3, 3, 4.83333, 4.66667], "rotation": 270, "texture": "#0"},
				"west": {"uv": [3, 3, 4.83333, 4.66667], "rotation": 270, "texture": "#0"},
				"up": {"uv": [3, 3, 4.83333, 4.66667], "rotation": 270, "texture": "#0"},
				"down": {"uv": [3, 3, 4.83333, 4.66667], "rotation": 270, "texture": "#0"}
			}
		},
		{
			"from": [7.69172, 4.11704, 19.06738],
			"to": [8.30828, 4.21704, 19.16738],
			"rotation": {"angle": 0, "axis": "y", "origin": [8, 6.79204, 7.56738]},
			"faces": {
				"north": {"uv": [3, 3, 4.83333, 4.66667], "rotation": 270, "texture": "#0"},
				"east": {"uv": [3, 3, 4.83333, 4.66667], "rotation": 270, "texture": "#0"},
				"south": {"uv": [3, 3, 4.83333, 4.66667], "rotation": 270, "texture": "#0"},
				"west": {"uv": [3, 3, 4.83333, 4.66667], "rotation": 270, "texture": "#0"},
				"up": {"uv": [3, 3, 4.83333, 4.66667], "rotation": 270, "texture": "#0"},
				"down": {"uv": [3, 3, 4.83333, 4.66667], "rotation": 270, "texture": "#0"}
			}
		},
		{
			"from": [7.72506, 5.99515, 16.00587],
			"to": [8.27494, 6.32903, 19.77739],
			"rotation": {"angle": 0, "axis": "y", "origin": [8.15035, 6.11169, 0.22923]},
			"faces": {
				"north": {"uv": [3, 13.66667, 4.83333, 15.33333], "rotation": 180, "texture": "#0"},
				"east": {"uv": [3, 13.66667, 4.83333, 15.33333], "rotation": 180, "texture": "#0"},
				"south": {"uv": [3, 13.66667, 4.83333, 15.33333], "rotation": 180, "texture": "#0"},
				"west": {"uv": [3, 13.66667, 4.83333, 15.33333], "rotation": 180, "texture": "#0"},
				"up": {"uv": [3, 13.66667, 4.83333, 15.33333], "rotation": 180, "texture": "#0"},
				"down": {"uv": [3, 13.66667, 4.83333, 15.33333], "rotation": 180, "texture": "#0"}
			}
		},
		{
			"from": [7.72506, 5.34692, 16.00587],
			"to": [8.27494, 6.32903, 16.35945],
			"rotation": {"angle": 0, "axis": "y", "origin": [8.15035, 6.11169, 0.22923]},
			"faces": {
				"north": {"uv": [3, 13.66667, 4.83333, 15.33333], "rotation": 180, "texture": "#0"},
				"east": {"uv": [3, 13.66667, 4.83333, 15.33333], "rotation": 180, "texture": "#0"},
				"south": {"uv": [3, 13.66667, 4.83333, 15.33333], "rotation": 180, "texture": "#0"},
				"west": {"uv": [3, 13.66667, 4.83333, 15.33333], "rotation": 180, "texture": "#0"},
				"up": {"uv": [3, 13.66667, 4.83333, 15.33333], "rotation": 180, "texture": "#0"},
				"down": {"uv": [3, 13.66667, 4.83333, 15.33333], "rotation": 180, "texture": "#0"}
			}
		},
		{
			"from": [7.72506, 3.9326, 19.44352],
			"to": [8.27494, 5.99515, 19.77739],
			"rotation": {"angle": 0, "axis": "y", "origin": [8, 2.87186, 19.61046]},
			"faces": {
				"north": {"uv": [3, 13.66667, 4.83333, 15.33333], "rotation": 270, "texture": "#0"},
				"east": {"uv": [3, 13.66667, 4.83333, 15.33333], "rotation": 270, "texture": "#0"},
				"south": {"uv": [3, 13.66667, 4.83333, 15.33333], "rotation": 270, "texture": "#0"},
				"west": {"uv": [3, 13.66667, 4.83333, 15.33333], "rotation": 270, "texture": "#0"},
				"up": {"uv": [3, 13.66667, 4.83333, 15.33333], "rotation": 270, "texture": "#0"},
				"down": {"uv": [3, 13.66667, 4.83333, 15.33333], "rotation": 270, "texture": "#0"}
			}
		},
		{
			"from": [7.72506, 4.31455, 15.87331],
			"to": [8.27494, 4.64842, 19.5859],
			"rotation": {"angle": 22.5, "axis": "x", "origin": [8, 4.48148, 18.55463]},
			"faces": {
				"north": {"uv": [3, 13.66667, 4.83333, 15.33333], "rotation": 180, "texture": "#0"},
				"east": {"uv": [3, 13.66667, 4.83333, 15.33333], "rotation": 180, "texture": "#0"},
				"south": {"uv": [3, 13.66667, 4.83333, 15.33333], "rotation": 180, "texture": "#0"},
				"west": {"uv": [3, 13.66667, 4.83333, 15.33333], "rotation": 180, "texture": "#0"},
				"up": {"uv": [3, 13.66667, 4.83333, 15.33333], "rotation": 180, "texture": "#0"},
				"down": {"uv": [3, 13.66667, 4.83333, 15.33333], "rotation": 180, "texture": "#0"}
			}
		},
		{
			"from": [7.68004, 5.39995, 16.58401],
			"to": [8.31996, 6.14205, 19.60123],
			"rotation": {"angle": 0, "axis": "y", "origin": [8.12028, 5.96818, 3.96269]},
			"faces": {
				"north": {"uv": [3, 13.66667, 4.83333, 15.33333], "rotation": 180, "texture": "#0"},
				"east": {"uv": [3, 13.66667, 4.83333, 15.33333], "rotation": 180, "texture": "#0"},
				"south": {"uv": [3, 13.66667, 4.83333, 15.33333], "rotation": 180, "texture": "#0"},
				"west": {"uv": [3, 13.66667, 4.83333, 15.33333], "rotation": 180, "texture": "#0"},
				"up": {"uv": [3, 13.66667, 4.83333, 15.33333], "rotation": 180, "texture": "#0"},
				"down": {"uv": [3, 13.66667, 4.83333, 15.33333], "rotation": 180, "texture": "#0"}
			}
		},
		{
			"from": [7.68004, 5.09995, 17.28401],
			"to": [8.31996, 6.14205, 19.60123],
			"rotation": {"angle": 0, "axis": "y", "origin": [8.12028, 5.96818, 3.96269]},
			"faces": {
				"north": {"uv": [3, 13.66667, 4.83333, 15.33333], "rotation": 180, "texture": "#0"},
				"east": {"uv": [3, 13.66667, 4.83333, 15.33333], "rotation": 180, "texture": "#0"},
				"south": {"uv": [3, 13.66667, 4.83333, 15.33333], "rotation": 180, "texture": "#0"},
				"west": {"uv": [3, 13.66667, 4.83333, 15.33333], "rotation": 180, "texture": "#0"},
				"up": {"uv": [3, 13.66667, 4.83333, 15.33333], "rotation": 180, "texture": "#0"},
				"down": {"uv": [3, 13.66667, 4.83333, 15.33333], "rotation": 180, "texture": "#0"}
			}
		},
		{
			"from": [7.68004, 4.69995, 18.08401],
			"to": [8.31996, 6.14205, 19.60123],
			"rotation": {"angle": 0, "axis": "y", "origin": [8.12028, 5.96818, 3.96269]},
			"faces": {
				"north": {"uv": [3, 13.66667, 4.83333, 15.33333], "rotation": 180, "texture": "#0"},
				"east": {"uv": [3, 13.66667, 4.83333, 15.33333], "rotation": 180, "texture": "#0"},
				"south": {"uv": [3, 13.66667, 4.83333, 15.33333], "rotation": 180, "texture": "#0"},
				"west": {"uv": [3, 13.66667, 4.83333, 15.33333], "rotation": 180, "texture": "#0"},
				"up": {"uv": [3, 13.66667, 4.83333, 15.33333], "rotation": 180, "texture": "#0"},
				"down": {"uv": [3, 13.66667, 4.83333, 15.33333], "rotation": 180, "texture": "#0"}
			}
		},
		{
			"from": [7.68004, 5.35637, 16.20901],
			"to": [8.31996, 6.14205, 16.96687],
			"rotation": {"angle": 0, "axis": "y", "origin": [8.12028, 5.96818, 4.06269]},
			"faces": {
				"north": {"uv": [3, 13.66667, 4.83333, 15.33333], "rotation": 180, "texture": "#0"},
				"east": {"uv": [3, 13.66667, 4.83333, 15.33333], "rotation": 180, "texture": "#0"},
				"south": {"uv": [3, 13.66667, 4.83333, 15.33333], "rotation": 180, "texture": "#0"},
				"west": {"uv": [3, 13.66667, 4.83333, 15.33333], "rotation": 180, "texture": "#0"},
				"up": {"uv": [3, 13.66667, 4.83333, 15.33333], "rotation": 180, "texture": "#0"},
				"down": {"uv": [3, 13.66667, 4.83333, 15.33333], "rotation": 180, "texture": "#0"}
			}
		},
		{
			"from": [7.68004, 4.24201, 19.13413],
			"to": [8.31996, 6.14205, 19.60123],
			"rotation": {"angle": 0, "axis": "y", "origin": [8, 3.39342, 19.26768]},
			"faces": {
				"north": {"uv": [3, 13.66667, 4.83333, 15.33333], "rotation": 270, "texture": "#0"},
				"east": {"uv": [3, 13.66667, 4.83333, 15.33333], "rotation": 270, "texture": "#0"},
				"south": {"uv": [3, 13.66667, 4.83333, 15.33333], "rotation": 270, "texture": "#0"},
				"west": {"uv": [3, 13.66667, 4.83333, 15.33333], "rotation": 270, "texture": "#0"},
				"up": {"uv": [3, 13.66667, 4.83333, 15.33333], "rotation": 270, "texture": "#0"},
				"down": {"uv": [3, 13.66667, 4.83333, 15.33333], "rotation": 270, "texture": "#0"}
			}
		},
		{
			"from": [7.68004, 4.54757, 16.27796],
			"to": [8.31996, 5.13967, 19.24804],
			"rotation": {"angle": 22.5, "axis": "x", "origin": [8, 4.68112, 18.42302]},
			"faces": {
				"north": {"uv": [3, 13.66667, 4.83333, 15.33333], "rotation": 180, "texture": "#0"},
				"east": {"uv": [3, 13.66667, 4.83333, 15.33333], "rotation": 180, "texture": "#0"},
				"south": {"uv": [3, 13.66667, 4.83333, 15.33333], "rotation": 180, "texture": "#0"},
				"west": {"uv": [3, 13.66667, 4.83333, 15.33333], "rotation": 180, "texture": "#0"},
				"up": {"uv": [3, 13.66667, 4.83333, 15.33333], "rotation": 180, "texture": "#0"},
				"down": {"uv": [3, 13.66667, 4.83333, 15.33333], "rotation": 180, "texture": "#0"}
			}
		}
	],
	"display": {
		"thirdperson_righthand": {
			"translation": [0, 3.25, -2.75]
		},
		"thirdperson_lefthand": {
			"translation": [0, 3.25, -2.75]
		},
		"firstperson_righthand": {
			"translation": [-4.75, 6, 1.25]
		},
		"firstperson_lefthand": {
			"translation": [-6, 6.25, 0.75]
		},
		"ground": {
			"translation": [0, 4.25, 0]
		},
		"gui": {
			"rotation": [90, 48, -90],
			"translation": [1, 2, 0],
			"scale": [0.9, 0.9, 0.9]
		},
		"head": {
			"translation": [0, 13, 0]
		},
		"fixed": {
			"rotation": [90, 45, -90],
			"translation": [1.5, 2.25, -1]
		}
	}
}